{
  "resourceType": "ValueSet",
  "id": "v2-0909",
  "meta": {
    "profile": [
      "http://hl7.org/fhir/StructureDefinition/valueset-shareable-definition"
    ]
  },
  "text": {
    "status": "additional",
    "div": "<div><p>Patient Results Release Categorization Scheme</p>\r\n<table class=\"grid\"><tr><td><b>Code</b></td><td><b>Description</b></td><td><b>Version</b></td></tr><tr><td>SID<a name=\"SID\"> </a></td><td>Share In1 Day -&lt;p&gt;Share result regardless of reference/therapeutic range after 1 or more business day as agreed to by the systems in play.</td><td>added v2.7</td></tr><tr><td>SIDC<a name=\"SIDC\"> </a></td><td>Share in 1 Day Conditionally -&lt;p&gt;Share result in reference ranges/therapeutic with patient after 1 or more business day as agreed to by the systems in play.&lt;p&gt;Withhold result out of reference/therapeutic range until physician release</td><td>added v2.7</td></tr><tr><td>SIMM<a name=\"SIMM\"> </a></td><td>Share Immediately -&lt;p&gt;Share result with patient immediately</td><td>added v2.7</td></tr><tr><td>STBD<a name=\"STBD\"> </a></td><td>Share To Be Determined -&lt;p&gt;Category to be determined</td><td>added v2.7</td></tr><tr><td>SWNL<a name=\"SWNL\"> </a></td><td>Share Within Normal Limits -&lt;p&gt;Share result in reference/therapeutic range with patient immediately&lt;p&gt;Share result out of reference/therapeutic ranges with patient after 1 or more business day as agreed to by the systems in play.</td><td>added v2.7</td></tr><tr><td>SWTH<a name=\"SWTH\"> </a></td><td>Share Withhold -&lt;p&gt;Withhold result regardless of reference/therapeutic ranges</td><td>added v2.7</td></tr></table>\r\n</div>"
  },
  "url": "http://hl7.org/fhir/ValueSet/v2-0909",
  "version": "2.7",
  "name": "v2 Patient Results Release Categorization Scheme",
  "publisher": "HL7, Inc",
  "contact": [
    {
      "telecom": [
        {
          "system": "url",
          "value": "http://hl7.org"
        }
      ]
    }
  ],
  "description": "FHIR Value set/code system definition for HL7 v2 table 0909 ( Patient Results Release Categorization Scheme)",
  "status": "active",
  "experimental": true,
  "date": "2011-01-28",
  "define": {
    "system": "http://hl7.org/fhir/v2/0909",
    "caseSensitive": true,
    "concept": [
      {
        "code": "SID",
        "display": "Share In1 Day -<p>Share result regardless of reference/therapeutic range after 1 or more business day as agreed to by the systems in play."
      },
      {
        "code": "SIDC",
        "display": "Share in 1 Day Conditionally -<p>Share result in reference ranges/therapeutic with patient after 1 or more business day as agreed to by the systems in play.<p>Withhold result out of reference/therapeutic range until physician release"
      },
      {
        "code": "SIMM",
        "display": "Share Immediately -<p>Share result with patient immediately"
      },
      {
        "code": "STBD",
        "display": "Share To Be Determined -<p>Category to be determined"
      },
      {
        "code": "SWNL",
        "display": "Share Within Normal Limits -<p>Share result in reference/therapeutic range with patient immediately<p>Share result out of reference/therapeutic ranges with patient after 1 or more business day as agreed to by the systems in play."
      },
      {
        "code": "SWTH",
        "display": "Share Withhold -<p>Withhold result regardless of reference/therapeutic ranges"
      }
    ]
  }
}