{
  "resourceType": "ValueSet",
  "id": "v2-0206",
  "meta": {
    "profile": [
      "http://hl7.org/fhir/StructureDefinition/valueset-shareable-definition"
    ]
  },
  "text": {
    "status": "additional",
    "div": "<div><p>Segment action code</p>\r\n<table class=\"grid\"><tr><td><b>Code</b></td><td><b>Description</b></td><td><b>Version</b></td></tr><tr><td>A<a name=\"A\"> </a></td><td>Add/Insert</td><td>added v2.3</td></tr><tr><td>D<a name=\"D\"> </a></td><td>Delete</td><td>added v2.3</td></tr><tr><td>U<a name=\"U\"> </a></td><td>Update</td><td>added v2.3</td></tr><tr><td>X<a name=\"X\"> </a></td><td>No Change</td><td>added v2.6</td></tr></table>\r\n</div>"
  },
  "url": "http://hl7.org/fhir/ValueSet/v2-0206",
  "version": "2.7",
  "name": "v2 Segment action code",
  "publisher": "HL7, Inc",
  "contact": [
    {
      "telecom": [
        {
          "system": "url",
          "value": "http://hl7.org"
        }
      ]
    }
  ],
  "description": "FHIR Value set/code system definition for HL7 v2 table 0206 ( Segment action code)",
  "status": "active",
  "experimental": true,
  "date": "2011-01-28",
  "define": {
    "system": "http://hl7.org/fhir/v2/0206",
    "caseSensitive": true,
    "concept": [
      {
        "code": "A",
        "display": "Add/Insert"
      },
      {
        "code": "D",
        "display": "Delete"
      },
      {
        "code": "U",
        "display": "Update"
      },
      {
        "code": "X",
        "display": "No Change"
      }
    ]
  }
}