{
  "resourceType": "ValueSet",
  "id": "v3-AcknowledgementCondition",
  "meta": {
    "lastUpdated": "2015-03-23T00:00:00.000+00:00",
    "profile": [
      "http://hl7.org/fhir/StructureDefinition/valueset-shareable-definition"
    ]
  },
  "text": {
    "status": "generated",
    "div": "<div><p>Release Date: 2015-03-23</p>\r\n<p>OID for code system: 2.16.840.1.113883.5.1050</p>\r\n<p>OID for value set: 2.16.840.1.113883.1.11.155 (this is the value set that includes the entire code system)</p>\r\n<h2>Description</h2>\r\n<p>\n                  The codes identify the conditions under which accept acknowledgements are required to be returned in response to this message. Note that accept acknowledgement address two different issues at the same time: reliable transport as well as syntactical correctness<br/>\r\n\n               </p>\r\n<hr/>\r\n<table class=\"grid\">\r\n <tr><td><b>Level</b></td><td><b>Code</b></td><td><b>Display</b></td><td><b>Definition</b></td></tr>\r\n <tr><td>1</td><td>AL<a name=\"AL\"> </a></td><td>Always</td><td>\n                        Always send an acknowledgement.<br/>\r\n\n                     </td></tr>\r\n <tr><td>1</td><td>ER<a name=\"ER\"> </a></td><td>Error/reject only</td><td>\n                        Send an acknowledgement for error/reject conditions only.<br/>\r\n\n                     </td></tr>\r\n <tr><td>1</td><td>NE<a name=\"NE\"> </a></td><td>Never</td><td>\n                        Never send an acknowledgement.<br/>\r\n\n                     </td></tr>\r\n</table>\r\n</div>"
  },
  "extension": [
    {
      "url": "http://hl7.org/fhir/StructureDefinition/valueset-oid",
      "valueUri": "urn:oid:2.16.840.1.113883.1.11.155"
    }
  ],
  "url": "http://hl7.org/fhir/ValueSet/v3-AcknowledgementCondition",
  "version": "2015-03-23",
  "name": "v3 Code System AcknowledgementCondition",
  "publisher": "HL7, Inc",
  "contact": [
    {
      "telecom": [
        {
          "system": "url",
          "value": "http://hl7.org"
        }
      ]
    }
  ],
  "description": " The codes identify the conditions under which accept acknowledgements are required to be returned in response to this message. Note that accept acknowledgement address two different issues at the same time: reliable transport as well as syntactical correctness",
  "status": "active",
  "experimental": false,
  "date": "2015-03-23",
  "define": {
    "extension": [
      {
        "url": "http://hl7.org/fhir/StructureDefinition/valueset-oid",
        "valueUri": "urn:oid:2.16.840.1.113883.5.1050"
      }
    ],
    "system": "http://hl7.org/fhir/v3/AcknowledgementCondition",
    "caseSensitive": true,
    "concept": [
      {
        "code": "AL",
        "abstract": false,
        "display": "Always",
        "definition": "Always send an acknowledgement."
      },
      {
        "code": "ER",
        "abstract": false,
        "display": "Error/reject only",
        "definition": "Send an acknowledgement for error/reject conditions only."
      },
      {
        "code": "NE",
        "abstract": false,
        "display": "Never",
        "definition": "Never send an acknowledgement."
      }
    ]
  }
}