{
  "resourceType": "ValueSet",
  "id": "v3-HtmlLinkType",
  "meta": {
    "lastUpdated": "2015-03-23T00:00:00.000+00:00",
    "profile": [
      "http://hl7.org/fhir/StructureDefinition/valueset-shareable-definition"
    ]
  },
  "text": {
    "status": "generated",
    "div": "<div><p>Release Date: 2015-03-23</p>\r\n<p>OID for code system: 2.16.840.1.113883.5.58</p>\r\n<p>OID for value set: 2.16.840.1.113883.1.11.11017 (this is the value set that includes the entire code system)</p>\r\n<h2>Description</h2>\r\n<p>\n                  HtmlLinkType values are drawn from HTML 4.0 and describe the relationship between the current document and the anchor that is the target of the link<br/>\r\n\n               </p>\r\n<hr/>\r\n<table class=\"grid\">\r\n <tr><td><b>Level</b></td><td><b>Code</b></td><td><b>Display</b></td><td><b>Definition</b></td></tr>\r\n <tr><td>1</td><td>alternate<a name=\"alternate\"> </a></td><td>alternate</td><td>\n                        Designates substitute versions for the document in which the link occurs. When used together with the lang attribute, it implies a translated version of the document. When used together with the media attribute, it implies a version designed for a different medium (or media).<br/>\r\n\n                     </td></tr>\r\n <tr><td>1</td><td>appendix<a name=\"appendix\"> </a></td><td>appendix</td><td>\n                        Refers to a document serving as an appendix in a collection of documents.<br/>\r\n\n                     </td></tr>\r\n <tr><td>1</td><td>bookmark<a name=\"bookmark\"> </a></td><td>bookmark</td><td>\n                        Refers to a bookmark. A bookmark is a link to a key entry point within an extended document. The title attribute may be used, for example, to label the bookmark. Note that several bookmarks may be defined in each document.<br/>\r\n\n                     </td></tr>\r\n <tr><td>1</td><td>chapter<a name=\"chapter\"> </a></td><td>chapter</td><td>\n                        Refers to a document serving as a chapter in a collection of documents.<br/>\r\n\n                     </td></tr>\r\n <tr><td>1</td><td>contents<a name=\"contents\"> </a></td><td>contents</td><td>\n                        Refers to a document serving as a table of contents. Some user agents also support the synonym ToC (from &quot;Table of Contents&quot;).<br/>\r\n\n                     </td></tr>\r\n <tr><td>1</td><td>copyright<a name=\"copyright\"> </a></td><td>copyright</td><td>\n                        Refers to a copyright statement for the current document.<br/>\r\n\n                     </td></tr>\r\n <tr><td>1</td><td>glossary<a name=\"glossary\"> </a></td><td>glossary</td><td>\n                        Refers to a document providing a glossary of terms that pertain to the current document.<br/>\r\n\n                     </td></tr>\r\n <tr><td>1</td><td>help<a name=\"help\"> </a></td><td>help</td><td>\n                        Refers to a document offering help (more information, links to other sources of information, etc.).<br/>\r\n\n                     </td></tr>\r\n <tr><td>1</td><td>index<a name=\"index\"> </a></td><td>index</td><td>\n                        Refers to a document providing an index for the current document.<br/>\r\n\n                     </td></tr>\r\n <tr><td>1</td><td>next<a name=\"next\"> </a></td><td>next</td><td>\n                        Refers to the next document in a linear sequence of documents. User agents may choose to preload the &quot;next&quot; document, to reduce the perceived load time.<br/>\r\n\n                     </td></tr>\r\n <tr><td>1</td><td>prev<a name=\"prev\"> </a></td><td>prev</td><td>\n                        Refers to the previous document in an ordered series of documents. Some user agents also support the synonym &quot;Previous&quot;.<br/>\r\n\n                     </td></tr>\r\n <tr><td>1</td><td>section<a name=\"section\"> </a></td><td>section</td><td>\n                        Refers to a document serving as a section in a collection of documents.<br/>\r\n\n                     </td></tr>\r\n <tr><td>1</td><td>start<a name=\"start\"> </a></td><td>start</td><td>\n                        Refers to the first document in a collection of documents. This link type tells search engines which document is considered by the author to be the starting point of the collection.<br/>\r\n\n                     </td></tr>\r\n <tr><td>1</td><td>stylesheet<a name=\"stylesheet\"> </a></td><td>stylesheet</td><td>\n                        Refers to an external style sheet. See the section on external style sheets for details. This is used together with the link type &quot;Alternate&quot; for user-selectable alternate style sheets.<br/>\r\n\n                     </td></tr>\r\n <tr><td>1</td><td>subsection<a name=\"subsection\"> </a></td><td>subsection</td><td>\n                        Refers to a document serving as a subsection in a collection of documents.<br/>\r\n\n                     </td></tr>\r\n</table>\r\n</div>"
  },
  "extension": [
    {
      "url": "http://hl7.org/fhir/StructureDefinition/valueset-oid",
      "valueUri": "urn:oid:2.16.840.1.113883.1.11.11017"
    }
  ],
  "url": "http://hl7.org/fhir/ValueSet/v3-HtmlLinkType",
  "version": "2015-03-23",
  "name": "v3 Code System HtmlLinkType",
  "publisher": "HL7, Inc",
  "contact": [
    {
      "telecom": [
        {
          "system": "url",
          "value": "http://hl7.org"
        }
      ]
    }
  ],
  "description": " HtmlLinkType values are drawn from HTML 4.0 and describe the relationship between the current document and the anchor that is the target of the link",
  "status": "active",
  "experimental": false,
  "date": "2015-03-23",
  "define": {
    "extension": [
      {
        "url": "http://hl7.org/fhir/StructureDefinition/valueset-oid",
        "valueUri": "urn:oid:2.16.840.1.113883.5.58"
      }
    ],
    "system": "http://hl7.org/fhir/v3/HtmlLinkType",
    "caseSensitive": true,
    "concept": [
      {
        "code": "alternate",
        "abstract": false,
        "display": "alternate",
        "definition": "Designates substitute versions for the document in which the link occurs. When used together with the lang attribute, it implies a translated version of the document. When used together with the media attribute, it implies a version designed for a different medium (or media)."
      },
      {
        "code": "appendix",
        "abstract": false,
        "display": "appendix",
        "definition": "Refers to a document serving as an appendix in a collection of documents."
      },
      {
        "code": "bookmark",
        "abstract": false,
        "display": "bookmark",
        "definition": "Refers to a bookmark. A bookmark is a link to a key entry point within an extended document. The title attribute may be used, for example, to label the bookmark. Note that several bookmarks may be defined in each document."
      },
      {
        "code": "chapter",
        "abstract": false,
        "display": "chapter",
        "definition": "Refers to a document serving as a chapter in a collection of documents."
      },
      {
        "code": "contents",
        "abstract": false,
        "display": "contents",
        "definition": "Refers to a document serving as a table of contents. Some user agents also support the synonym ToC (from \"Table of Contents\")."
      },
      {
        "code": "copyright",
        "abstract": false,
        "display": "copyright",
        "definition": "Refers to a copyright statement for the current document."
      },
      {
        "code": "glossary",
        "abstract": false,
        "display": "glossary",
        "definition": "Refers to a document providing a glossary of terms that pertain to the current document."
      },
      {
        "code": "help",
        "abstract": false,
        "display": "help",
        "definition": "Refers to a document offering help (more information, links to other sources of information, etc.)."
      },
      {
        "code": "index",
        "abstract": false,
        "display": "index",
        "definition": "Refers to a document providing an index for the current document."
      },
      {
        "code": "next",
        "abstract": false,
        "display": "next",
        "definition": "Refers to the next document in a linear sequence of documents. User agents may choose to preload the \"next\" document, to reduce the perceived load time."
      },
      {
        "code": "prev",
        "abstract": false,
        "display": "prev",
        "definition": "Refers to the previous document in an ordered series of documents. Some user agents also support the synonym \"Previous\"."
      },
      {
        "code": "section",
        "abstract": false,
        "display": "section",
        "definition": "Refers to a document serving as a section in a collection of documents."
      },
      {
        "code": "start",
        "abstract": false,
        "display": "start",
        "definition": "Refers to the first document in a collection of documents. This link type tells search engines which document is considered by the author to be the starting point of the collection."
      },
      {
        "code": "stylesheet",
        "abstract": false,
        "display": "stylesheet",
        "definition": "Refers to an external style sheet. See the section on external style sheets for details. This is used together with the link type \"Alternate\" for user-selectable alternate style sheets."
      },
      {
        "code": "subsection",
        "abstract": false,
        "display": "subsection",
        "definition": "Refers to a document serving as a subsection in a collection of documents."
      }
    ]
  }
}