{
  "resourceType": "ValueSet",
  "id": "v2-0148",
  "meta": {
    "profile": [
      "http://hl7.org/fhir/StructureDefinition/valueset-shareable-definition"
    ]
  },
  "text": {
    "status": "additional",
    "div": "<div><p>Money or Percentage Indicator</p>\r\n<table class=\"grid\"><tr><td><b>Code</b></td><td><b>Description</b></td><td><b>Version</b></td></tr><tr><td>AT<a name=\"AT\"> </a></td><td>Currency amount</td><td>added v2.2</td></tr><tr><td>PC<a name=\"PC\"> </a></td><td>Percentage</td><td>added v2.2</td></tr></table>\r\n</div>"
  },
  "url": "http://hl7.org/fhir/ValueSet/v2-0148",
  "version": "2.7",
  "name": "v2 Money or Percentage Indicator",
  "publisher": "HL7, Inc",
  "contact": [
    {
      "telecom": [
        {
          "system": "url",
          "value": "http://hl7.org"
        }
      ]
    }
  ],
  "description": "FHIR Value set/code system definition for HL7 v2 table 0148 ( Money or Percentage Indicator)",
  "status": "active",
  "experimental": true,
  "date": "2011-01-28",
  "define": {
    "system": "http://hl7.org/fhir/v2/0148",
    "caseSensitive": true,
    "concept": [
      {
        "code": "AT",
        "display": "Currency amount"
      },
      {
        "code": "PC",
        "display": "Percentage"
      }
    ]
  }
}