{
  "resourceType": "ValueSet",
  "id": "v3-ProcessingID",
  "meta": {
    "lastUpdated": "2015-03-23T00:00:00.000+00:00",
    "profile": [
      "http://hl7.org/fhir/StructureDefinition/valueset-shareable-definition"
    ]
  },
  "text": {
    "status": "generated",
    "div": "<div><p>Release Date: 2015-03-23</p>\r\n<p>OID for code system: 2.16.840.1.113883.5.100</p>\r\n<p>OID for value set: 2.16.840.1.113883.1.11.103 (this is the value set that includes the entire code system)</p>\r\n<h2>Description</h2>\r\n<p>\n                  Codes used to specify whether a message is part of a production, training, or debugging system.<br/>\r\n\n               </p>\r\n<hr/>\r\n<table class=\"grid\">\r\n <tr><td><b>Level</b></td><td><b>Code</b></td><td><b>Display</b></td><td><b>Definition</b></td></tr>\r\n <tr><td>1</td><td>D<a name=\"D\"> </a></td><td>Debugging</td><td>\n                        Identifies debugging type of processing.<br/>\r\n\n                     </td></tr>\r\n <tr><td>1</td><td>P<a name=\"P\"> </a></td><td>Production</td><td>\n                        Identifies production type of processing.<br/>\r\n\n                     </td></tr>\r\n <tr><td>1</td><td>T<a name=\"T\"> </a></td><td>Training</td><td>\n                        Identifies training type of processing.<br/>\r\n\n                     </td></tr>\r\n</table>\r\n</div>"
  },
  "extension": [
    {
      "url": "http://hl7.org/fhir/StructureDefinition/valueset-oid",
      "valueUri": "urn:oid:2.16.840.1.113883.1.11.103"
    }
  ],
  "url": "http://hl7.org/fhir/ValueSet/v3-ProcessingID",
  "version": "2015-03-23",
  "name": "v3 Code System ProcessingID",
  "publisher": "HL7, Inc",
  "contact": [
    {
      "telecom": [
        {
          "system": "url",
          "value": "http://hl7.org"
        }
      ]
    }
  ],
  "description": " Codes used to specify whether a message is part of a production, training, or debugging system.",
  "status": "active",
  "experimental": false,
  "date": "2015-03-23",
  "define": {
    "extension": [
      {
        "url": "http://hl7.org/fhir/StructureDefinition/valueset-oid",
        "valueUri": "urn:oid:2.16.840.1.113883.5.100"
      }
    ],
    "system": "http://hl7.org/fhir/v3/ProcessingID",
    "caseSensitive": true,
    "concept": [
      {
        "code": "D",
        "abstract": false,
        "display": "Debugging",
        "definition": "Identifies debugging type of processing."
      },
      {
        "code": "P",
        "abstract": false,
        "display": "Production",
        "definition": "Identifies production type of processing."
      },
      {
        "code": "T",
        "abstract": false,
        "display": "Training",
        "definition": "Identifies training type of processing."
      }
    ]
  }
}