{
  "resourceType": "ValueSet",
  "id": "v2-0205",
  "meta": {
    "profile": [
      "http://hl7.org/fhir/StructureDefinition/valueset-shareable-definition"
    ]
  },
  "text": {
    "status": "additional",
    "div": "<div><p>Price Type</p>\r\n<table class=\"grid\"><tr><td><b>Code</b></td><td><b>Description</b></td><td><b>Version</b></td></tr><tr><td>AP<a name=\"AP\"> </a></td><td>administrative price or handling fee</td><td>added v2.3</td></tr><tr><td>DC<a name=\"DC\"> </a></td><td>direct unit cost</td><td>added v2.3</td></tr><tr><td>IC<a name=\"IC\"> </a></td><td>indirect unit cost</td><td>added v2.3</td></tr><tr><td>PF<a name=\"PF\"> </a></td><td>professional fee for performing provider</td><td>added v2.3</td></tr><tr><td>TF<a name=\"TF\"> </a></td><td>technology fee for use of equipment</td><td>added v2.3</td></tr><tr><td>TP<a name=\"TP\"> </a></td><td>total price</td><td>added v2.3</td></tr><tr><td>UP<a name=\"UP\"> </a></td><td>unit price, may be based on length of procedure or service</td><td>added v2.3</td></tr></table>\r\n</div>"
  },
  "url": "http://hl7.org/fhir/ValueSet/v2-0205",
  "version": "2.7",
  "name": "v2 Price Type",
  "publisher": "HL7, Inc",
  "contact": [
    {
      "telecom": [
        {
          "system": "url",
          "value": "http://hl7.org"
        }
      ]
    }
  ],
  "description": "FHIR Value set/code system definition for HL7 v2 table 0205 ( Price Type)",
  "status": "active",
  "experimental": true,
  "date": "2011-01-28",
  "define": {
    "system": "http://hl7.org/fhir/v2/0205",
    "caseSensitive": true,
    "concept": [
      {
        "code": "AP",
        "display": "administrative price or handling fee"
      },
      {
        "code": "DC",
        "display": "direct unit cost"
      },
      {
        "code": "IC",
        "display": "indirect unit cost"
      },
      {
        "code": "PF",
        "display": "professional fee for performing provider"
      },
      {
        "code": "TF",
        "display": "technology fee for use of equipment"
      },
      {
        "code": "TP",
        "display": "total price"
      },
      {
        "code": "UP",
        "display": "unit price, may be based on length of procedure or service"
      }
    ]
  }
}