{
  "resourceType": "ValueSet",
  "id": "v2-0210",
  "meta": {
    "profile": [
      "http://hl7.org/fhir/StructureDefinition/valueset-shareable-definition"
    ]
  },
  "text": {
    "status": "additional",
    "div": "<div><p>Relational Conjunction</p>\r\n<table class=\"grid\"><tr><td><b>Code</b></td><td><b>Description</b></td><td><b>Version</b></td></tr><tr><td>AND<a name=\"AND\"> </a></td><td>Default</td><td>added v2.3</td></tr><tr><td>OR<a name=\"OR\"> </a></td><td/><td>added v2.3</td></tr></table>\r\n</div>"
  },
  "url": "http://hl7.org/fhir/ValueSet/v2-0210",
  "version": "2.7",
  "name": "v2 Relational Conjunction",
  "publisher": "HL7, Inc",
  "contact": [
    {
      "telecom": [
        {
          "system": "url",
          "value": "http://hl7.org"
        }
      ]
    }
  ],
  "description": "FHIR Value set/code system definition for HL7 v2 table 0210 ( Relational Conjunction)",
  "status": "active",
  "experimental": true,
  "date": "2011-01-28",
  "define": {
    "system": "http://hl7.org/fhir/v2/0210",
    "caseSensitive": true,
    "concept": [
      {
        "code": "AND",
        "display": "Default"
      },
      {
        "code": "OR"
      }
    ]
  }
}