{
  "resourceType": "ValueSet",
  "id": "v3-DataOperation",
  "meta": {
    "lastUpdated": "2015-03-23T00:00:00.000+00:00",
    "profile": [
      "http://hl7.org/fhir/StructureDefinition/valueset-shareable-definition"
    ]
  },
  "text": {
    "status": "generated",
    "div": "<div><p>Release Date: 2015-03-23</p>\r\n<p>OID for code system: 2.16.840.1.113883.5.1123</p>\r\n<table class=\"grid\">\r\n <tr><td><b>Level</b></td><td><b>Code</b></td><td><b>Display</b></td><td><b>Definition</b></td></tr>\r\n <tr><td>1</td><td>OPERATE<a name=\"OPERATE\"> </a></td><td>operate</td><td>\n                        \n                           Description:Act on an object or objects.<br/>\r\n\n                     </td></tr>\r\n <tr><td>2</td><td>&nbsp;&nbsp;CREATE<a name=\"CREATE\"> </a></td><td>create</td><td>\n                        \n                           Description:Fundamental operation in an Information System (IS) that results only in the act of bringing an object into existence. Note: The preceding definition is taken from the HL7 RBAC specification.  There is no restriction on how the operation is invoked, e.g., via a user interface. For an HL7 Act, the state transitions per the HL7 Reference Information Model.<br/>\r\n\n                     </td></tr>\r\n <tr><td>2</td><td>&nbsp;&nbsp;DELETE<a name=\"DELETE\"> </a></td><td>delete</td><td>\n                        \n                           Description:Fundamental operation in an Information System (IS) that results only in the removal of information about an object from memory or storage. Note: The preceding definition is taken from the HL7 RBAC specification.  There is no restriction on how the operation is invoked, e.g., via a user interface. <br/>\r\n\n                     </td></tr>\r\n <tr><td>2</td><td>&nbsp;&nbsp;EXECUTE<a name=\"EXECUTE\"> </a></td><td>execute</td><td>\n                        \n                           Description:Fundamental operation in an IS that results only in initiating performance of a single or set of programs (i.e., software objects). Note: The preceding definition is taken from the HL7 RBAC specification.  There is no restriction on how the operation is invoked, e.g., via a user interface. <br/>\r\n\n                     </td></tr>\r\n <tr><td>2</td><td>&nbsp;&nbsp;READ<a name=\"READ\"> </a></td><td>read</td><td>\n                        \n                           Description:Fundamental operation in an Information System (IS) that results only in the flow of information about an object to a subject. Note: The preceding definition is taken from the HL7 RBAC specification.  There is no restriction on how the operation is invoked, e.g., via a user interface. <br/>\r\n\n                     </td></tr>\r\n <tr><td>2</td><td>&nbsp;&nbsp;UPDATE<a name=\"UPDATE\"> </a></td><td>revise</td><td>\n                        \n                           Definition:Fundamental operation in an Information System (IS) that results only in the revision or alteration of an object. Note: The preceding definition is taken from the HL7 RBAC specification. There is no restriction on how the operation is invoked, e.g., via a user interface.<br/>\r\n\n                     </td></tr>\r\n <tr><td>3</td><td>&nbsp;&nbsp;&nbsp;&nbsp;APPEND<a name=\"APPEND\"> </a></td><td>append</td><td>\n                        \n                           Description:Fundamental operation in an Information System (IS) that results only in the addition of information to an object already in existence. Note: The preceding definition is taken from the HL7 RBAC specification.  There is no restriction on how the operation is invoked, e.g., via a user interface. <br/>\r\n\n                     </td></tr>\r\n <tr><td>3</td><td>&nbsp;&nbsp;&nbsp;&nbsp;MODIFYSTATUS<a name=\"MODIFYSTATUS\"> </a></td><td>modify status</td><td>\n                        \n                           Description:Change the status of an object representing an Act. <br/>\r\n\n                     </td></tr>\r\n <tr><td>4</td><td>&nbsp;&nbsp;&nbsp;&nbsp;&nbsp;&nbsp;ABORT<a name=\"ABORT\"> </a></td><td>abort</td><td>\n                        \n                           Description:Change the status of an object representing an Act to &quot;aborted&quot;, i.e., terminated prior to the originally intended completion. For an HL7 Act, the state transitions per the HL7 Reference Information Model.<br/>\r\n\n                     </td></tr>\r\n <tr><td>4</td><td>&nbsp;&nbsp;&nbsp;&nbsp;&nbsp;&nbsp;ACTIVATE<a name=\"ACTIVATE\"> </a></td><td>activate</td><td>\n                        \n                           Description:Change the status of an object representing an Act to &quot;active&quot;, i.e., so it can be performed or is being performed, for the first time. (Contrast with REACTIVATE.) For an HL7 Act, the state transitions per the HL7 Reference Information Model.<br/>\r\n\n                     </td></tr>\r\n <tr><td>4</td><td>&nbsp;&nbsp;&nbsp;&nbsp;&nbsp;&nbsp;CANCEL<a name=\"CANCEL\"> </a></td><td>cancel</td><td>\n                        \n                           Description:Change the status of an object representing an Act to &quot;cancelled&quot;, i.e., abandoned before activation. For an HL7 Act, the state transitions per the HL7 Reference Information Model.<br/>\r\n\n                     </td></tr>\r\n <tr><td>4</td><td>&nbsp;&nbsp;&nbsp;&nbsp;&nbsp;&nbsp;COMPLETE<a name=\"COMPLETE\"> </a></td><td>complete</td><td>\n                        \n                           Description:Change the status of an object representing an Act to &quot;completed&quot;, i.e., terminated normally after all of its constituents have been performed. For an HL7 Act, the state transitions per the HL7 Reference Information Model.<br/>\r\n\n                     </td></tr>\r\n <tr><td>4</td><td>&nbsp;&nbsp;&nbsp;&nbsp;&nbsp;&nbsp;HOLD<a name=\"HOLD\"> </a></td><td>hold</td><td>\n                        \n                           Description:Change the status of an object representing an Act to &quot;held&quot;, i.e., put aside an Act that is still in preparatory stages.  No action can occur until the Act is released. For an HL7 Act, the state transitions per the HL7 Reference Information Model.<br/>\r\n\n                     </td></tr>\r\n <tr><td>4</td><td>&nbsp;&nbsp;&nbsp;&nbsp;&nbsp;&nbsp;JUMP<a name=\"JUMP\"> </a></td><td>jump</td><td>\n                        \n                           Description:Change the status of an object representing an Act to a normal state. For an HL7 Act, the state transitions per the HL7 Reference Information Model.<br/>\r\n\n                     </td></tr>\r\n <tr><td>4</td><td>&nbsp;&nbsp;&nbsp;&nbsp;&nbsp;&nbsp;NULLIFY<a name=\"NULLIFY\"> </a></td><td>nullify</td><td>\n                        \n                           Description:Change the status of an object representing an Act to &quot;nullified&quot;, i.e., treat as though it never existed. For an HL7 Act, the state transitions per the HL7 Reference Information Model.<br/>\r\n\n                     </td></tr>\r\n <tr><td>4</td><td>&nbsp;&nbsp;&nbsp;&nbsp;&nbsp;&nbsp;OBSOLETE<a name=\"OBSOLETE\"> </a></td><td>obsolete</td><td>\n                        \n                           Description:Change the status of an object representing an Act to &quot;obsolete&quot; when it has been replaced by a new instance. For an HL7 Act, the state transitions per the HL7 Reference Information Model.<br/>\r\n\n                     </td></tr>\r\n <tr><td>4</td><td>&nbsp;&nbsp;&nbsp;&nbsp;&nbsp;&nbsp;REACTIVATE<a name=\"REACTIVATE\"> </a></td><td>reactivate</td><td>\n                        \n                           Description:Change the status of a formerly active object representing an Act to &quot;active&quot;, i.e., so it can again be performed or is being performed. (Contrast with ACTIVATE.) For an HL7 Act, the state transitions per the HL7 Reference Information Model.<br/>\r\n\n                     </td></tr>\r\n <tr><td>4</td><td>&nbsp;&nbsp;&nbsp;&nbsp;&nbsp;&nbsp;RELEASE<a name=\"RELEASE\"> </a></td><td>release</td><td>\n                        \n                           Description:Change the status of an object representing an Act so it is no longer &quot;held&quot;, i.e., allow action to occur. For an HL7 Act, the state transitions per the HL7 Reference Information Model.<br/>\r\n\n                     </td></tr>\r\n <tr><td>4</td><td>&nbsp;&nbsp;&nbsp;&nbsp;&nbsp;&nbsp;RESUME<a name=\"RESUME\"> </a></td><td>resume</td><td>\n                        \n                           Description:Change the status of a suspended object representing an Act to &quot;active&quot;, i.e., so it can be performed or is being performed. For an HL7 Act, the state transitions per the HL7 Reference Information Model.<br/>\r\n\n                     </td></tr>\r\n <tr><td>4</td><td>&nbsp;&nbsp;&nbsp;&nbsp;&nbsp;&nbsp;SUSPEND<a name=\"SUSPEND\"> </a></td><td>suspend</td><td>\n                        \n                           Definition:Change the status of an object representing an Act to suspended, i.e., so it is temporarily not in service.<br/>\r\n\n                     </td></tr>\r\n</table>\r\n</div>"
  },
  "url": "http://hl7.org/fhir/ValueSet/v3-DataOperation",
  "version": "2015-03-23",
  "name": "v3 Code System DataOperation",
  "publisher": "HL7, Inc",
  "contact": [
    {
      "telecom": [
        {
          "system": "url",
          "value": "http://hl7.org"
        }
      ]
    }
  ],
  "description": "**** MISSING DEFINITIONS ****",
  "status": "active",
  "experimental": false,
  "date": "2015-03-23",
  "define": {
    "extension": [
      {
        "url": "http://hl7.org/fhir/StructureDefinition/valueset-oid",
        "valueUri": "urn:oid:2.16.840.1.113883.5.1123"
      }
    ],
    "system": "http://hl7.org/fhir/v3/DataOperation",
    "caseSensitive": true,
    "concept": [
      {
        "code": "OPERATE",
        "abstract": false,
        "display": "operate",
        "definition": "Description:Act on an object or objects.",
        "concept": [
          {
            "code": "CREATE",
            "abstract": false,
            "display": "create",
            "definition": "Description:Fundamental operation in an Information System (IS) that results only in the act of bringing an object into existence. Note: The preceding definition is taken from the HL7 RBAC specification.  There is no restriction on how the operation is invoked, e.g., via a user interface. For an HL7 Act, the state transitions per the HL7 Reference Information Model."
          },
          {
            "code": "DELETE",
            "abstract": false,
            "display": "delete",
            "definition": "Description:Fundamental operation in an Information System (IS) that results only in the removal of information about an object from memory or storage. Note: The preceding definition is taken from the HL7 RBAC specification.  There is no restriction on how the operation is invoked, e.g., via a user interface."
          },
          {
            "code": "EXECUTE",
            "abstract": false,
            "display": "execute",
            "definition": "Description:Fundamental operation in an IS that results only in initiating performance of a single or set of programs (i.e., software objects). Note: The preceding definition is taken from the HL7 RBAC specification.  There is no restriction on how the operation is invoked, e.g., via a user interface."
          },
          {
            "code": "READ",
            "abstract": false,
            "display": "read",
            "definition": "Description:Fundamental operation in an Information System (IS) that results only in the flow of information about an object to a subject. Note: The preceding definition is taken from the HL7 RBAC specification.  There is no restriction on how the operation is invoked, e.g., via a user interface."
          },
          {
            "code": "UPDATE",
            "abstract": false,
            "display": "revise",
            "definition": "Definition:Fundamental operation in an Information System (IS) that results only in the revision or alteration of an object. Note: The preceding definition is taken from the HL7 RBAC specification. There is no restriction on how the operation is invoked, e.g., via a user interface.",
            "concept": [
              {
                "code": "APPEND",
                "abstract": false,
                "display": "append",
                "definition": "Description:Fundamental operation in an Information System (IS) that results only in the addition of information to an object already in existence. Note: The preceding definition is taken from the HL7 RBAC specification.  There is no restriction on how the operation is invoked, e.g., via a user interface."
              },
              {
                "code": "MODIFYSTATUS",
                "abstract": false,
                "display": "modify status",
                "definition": "Description:Change the status of an object representing an Act.",
                "concept": [
                  {
                    "code": "ABORT",
                    "abstract": false,
                    "display": "abort",
                    "definition": "Description:Change the status of an object representing an Act to \"aborted\", i.e., terminated prior to the originally intended completion. For an HL7 Act, the state transitions per the HL7 Reference Information Model."
                  },
                  {
                    "code": "ACTIVATE",
                    "abstract": false,
                    "display": "activate",
                    "definition": "Description:Change the status of an object representing an Act to \"active\", i.e., so it can be performed or is being performed, for the first time. (Contrast with REACTIVATE.) For an HL7 Act, the state transitions per the HL7 Reference Information Model."
                  },
                  {
                    "code": "CANCEL",
                    "abstract": false,
                    "display": "cancel",
                    "definition": "Description:Change the status of an object representing an Act to \"cancelled\", i.e., abandoned before activation. For an HL7 Act, the state transitions per the HL7 Reference Information Model."
                  },
                  {
                    "code": "COMPLETE",
                    "abstract": false,
                    "display": "complete",
                    "definition": "Description:Change the status of an object representing an Act to \"completed\", i.e., terminated normally after all of its constituents have been performed. For an HL7 Act, the state transitions per the HL7 Reference Information Model."
                  },
                  {
                    "code": "HOLD",
                    "abstract": false,
                    "display": "hold",
                    "definition": "Description:Change the status of an object representing an Act to \"held\", i.e., put aside an Act that is still in preparatory stages.  No action can occur until the Act is released. For an HL7 Act, the state transitions per the HL7 Reference Information Model."
                  },
                  {
                    "code": "JUMP",
                    "abstract": false,
                    "display": "jump",
                    "definition": "Description:Change the status of an object representing an Act to a normal state. For an HL7 Act, the state transitions per the HL7 Reference Information Model."
                  },
                  {
                    "code": "NULLIFY",
                    "abstract": false,
                    "display": "nullify",
                    "definition": "Description:Change the status of an object representing an Act to \"nullified\", i.e., treat as though it never existed. For an HL7 Act, the state transitions per the HL7 Reference Information Model."
                  },
                  {
                    "code": "OBSOLETE",
                    "abstract": false,
                    "display": "obsolete",
                    "definition": "Description:Change the status of an object representing an Act to \"obsolete\" when it has been replaced by a new instance. For an HL7 Act, the state transitions per the HL7 Reference Information Model."
                  },
                  {
                    "code": "REACTIVATE",
                    "abstract": false,
                    "display": "reactivate",
                    "definition": "Description:Change the status of a formerly active object representing an Act to \"active\", i.e., so it can again be performed or is being performed. (Contrast with ACTIVATE.) For an HL7 Act, the state transitions per the HL7 Reference Information Model."
                  },
                  {
                    "code": "RELEASE",
                    "abstract": false,
                    "display": "release",
                    "definition": "Description:Change the status of an object representing an Act so it is no longer \"held\", i.e., allow action to occur. For an HL7 Act, the state transitions per the HL7 Reference Information Model."
                  },
                  {
                    "code": "RESUME",
                    "abstract": false,
                    "display": "resume",
                    "definition": "Description:Change the status of a suspended object representing an Act to \"active\", i.e., so it can be performed or is being performed. For an HL7 Act, the state transitions per the HL7 Reference Information Model."
                  },
                  {
                    "code": "SUSPEND",
                    "abstract": false,
                    "display": "suspend",
                    "definition": "Definition:Change the status of an object representing an Act to suspended, i.e., so it is temporarily not in service."
                  }
                ]
              }
            ]
          }
        ]
      }
    ]
  }
}