{
  "resourceType": "ValueSet",
  "id": "v2-0155",
  "meta": {
    "profile": [
      "http://hl7.org/fhir/StructureDefinition/valueset-shareable-definition"
    ]
  },
  "text": {
    "status": "additional",
    "div": "<div><p>Accept/Application Acknowledgment Conditions</p>\r\n<table class=\"grid\"><tr><td><b>Code</b></td><td><b>Description</b></td><td><b>Version</b></td></tr><tr><td>AL<a name=\"AL\"> </a></td><td>Always</td><td>added v2.2</td></tr><tr><td>ER<a name=\"ER\"> </a></td><td>Error/reject conditions only</td><td>added v2.2</td></tr><tr><td>NE<a name=\"NE\"> </a></td><td>Never</td><td>added v2.2</td></tr><tr><td>SU<a name=\"SU\"> </a></td><td>Successful completion only</td><td>added v2.2</td></tr></table>\r\n</div>"
  },
  "url": "http://hl7.org/fhir/ValueSet/v2-0155",
  "version": "2.7",
  "name": "v2 Accept/Application Acknowledgment Conditions",
  "publisher": "HL7, Inc",
  "contact": [
    {
      "telecom": [
        {
          "system": "url",
          "value": "http://hl7.org"
        }
      ]
    }
  ],
  "description": "FHIR Value set/code system definition for HL7 v2 table 0155 ( Accept/Application Acknowledgment Conditions)",
  "status": "active",
  "experimental": true,
  "date": "2011-01-28",
  "define": {
    "system": "http://hl7.org/fhir/v2/0155",
    "caseSensitive": true,
    "concept": [
      {
        "code": "AL",
        "display": "Always"
      },
      {
        "code": "ER",
        "display": "Error/reject conditions only"
      },
      {
        "code": "NE",
        "display": "Never"
      },
      {
        "code": "SU",
        "display": "Successful completion only"
      }
    ]
  }
}