{
  "resourceType": "ConceptMap",
  "id": "v3-address-type",
  "text": {
    "status": "generated",
    "div": "<div><h2>v3 map for AddressType (http://hl7.org/fhir/ConceptMap/v3-address-type)</h2><p>Mapping from <a href=\"valueset-address-type.html\">http://hl7.org/fhir/ValueSet/address-type</a> to <a href=\"v3/AddressUse/index.html\">http://hl7.org/fhir/ValueSet/v3-AddressUse</a></p><p>DRAFT. Published on Jul 14, 2015 4:14:24 PM by HL7 (FHIR Project) (<a href=\"http://hl7.org/fhir\">http://hl7.org/fhir</a>, <a href=\"mailto:fhir@lists.hl7.org\">fhir@lists.hl7.org</a>; ). </p><p>v3 Map (AddressUse)</p><br/><table class=\"grid\"><tr><td><b>Source Code</b></td><td><b>Equivalence</b></td><td><b>Destination Code</b></td></tr><tr><td>postal (Postal)</td><td>equal</td><td>PHYS (physical visit address)</td></tr><tr><td>physical (Physical)</td><td>equal</td><td>PST (postal address)</td></tr></table></div>"
  },
  "url": "http://hl7.org/fhir/ConceptMap/v3-address-type",
  "name": "v3 map for AddressType",
  "publisher": "HL7 (FHIR Project)",
  "contact": [
    {
      "telecom": [
        {
          "system": "url",
          "value": "http://hl7.org/fhir"
        },
        {
          "system": "email",
          "value": "fhir@lists.hl7.org"
        }
      ]
    }
  ],
  "description": "v3 Map (AddressUse)",
  "status": "draft",
  "date": "2015-07-14T16:14:24+00:00",
  "sourceReference": {
    "reference": "http://hl7.org/fhir/ValueSet/address-type"
  },
  "targetReference": {
    "reference": "http://hl7.org/fhir/ValueSet/v3-AddressUse"
  },
  "element": [
    {
      "codeSystem": "http://hl7.org/fhir/address-type",
      "code": "postal",
      "target": [
        {
          "codeSystem": "http://hl7.org/fhir/v3/AddressUse",
          "code": "PHYS",
          "equivalence": "equal"
        }
      ]
    },
    {
      "codeSystem": "http://hl7.org/fhir/address-type",
      "code": "physical",
      "target": [
        {
          "codeSystem": "http://hl7.org/fhir/v3/AddressUse",
          "code": "PST",
          "equivalence": "equal"
        }
      ]
    }
  ]
}