{
  "resourceType": "ConceptMap",
  "id": "v3-administrative-gender",
  "text": {
    "status": "generated",
    "div": "<div><h2>v3 map for AdministrativeGender (http://hl7.org/fhir/ConceptMap/v3-administrative-gender)</h2><p>Mapping from <a href=\"valueset-administrative-gender.html\">http://hl7.org/fhir/ValueSet/administrative-gender</a> to <a href=\"v3/AdministrativeGender/index.html\">http://hl7.org/fhir/ValueSet/v3-AdministrativeGender</a></p><p>DRAFT. Published on Jul 14, 2015 4:14:24 PM by HL7 (FHIR Project) (<a href=\"http://hl7.org/fhir\">http://hl7.org/fhir</a>, <a href=\"mailto:fhir@lists.hl7.org\">fhir@lists.hl7.org</a>; ). </p><p>v3 Map (AdministrativeGender)</p><br/><table class=\"grid\"><tr><td><b>Source Code</b></td><td><b>Equivalence</b></td><td><b>Destination Code</b></td></tr><tr><td>male (Male)</td><td>equal</td><td>M (Male)</td></tr><tr><td>female (Female)</td><td>equal</td><td>F (Female)</td></tr><tr><td>other (Other)</td><td>wider</td><td>UN (Undifferentiated)</td></tr><tr><td>unknown (Unknown)</td><td>equal</td><td>UNK</td></tr></table></div>"
  },
  "url": "http://hl7.org/fhir/ConceptMap/v3-administrative-gender",
  "name": "v3 map for AdministrativeGender",
  "publisher": "HL7 (FHIR Project)",
  "contact": [
    {
      "telecom": [
        {
          "system": "url",
          "value": "http://hl7.org/fhir"
        },
        {
          "system": "email",
          "value": "fhir@lists.hl7.org"
        }
      ]
    }
  ],
  "description": "v3 Map (AdministrativeGender)",
  "status": "draft",
  "date": "2015-07-14T16:14:24+00:00",
  "sourceReference": {
    "reference": "http://hl7.org/fhir/ValueSet/administrative-gender"
  },
  "targetReference": {
    "reference": "http://hl7.org/fhir/ValueSet/v3-AdministrativeGender"
  },
  "element": [
    {
      "codeSystem": "http://hl7.org/fhir/administrative-gender",
      "code": "male",
      "target": [
        {
          "codeSystem": "http://hl7.org/fhir/v3/AdministrativeGender",
          "code": "M",
          "equivalence": "equal"
        }
      ]
    },
    {
      "codeSystem": "http://hl7.org/fhir/administrative-gender",
      "code": "female",
      "target": [
        {
          "codeSystem": "http://hl7.org/fhir/v3/AdministrativeGender",
          "code": "F",
          "equivalence": "equal"
        }
      ]
    },
    {
      "codeSystem": "http://hl7.org/fhir/administrative-gender",
      "code": "other",
      "target": [
        {
          "codeSystem": "http://hl7.org/fhir/v3/AdministrativeGender",
          "code": "UN",
          "equivalence": "wider"
        }
      ]
    },
    {
      "codeSystem": "http://hl7.org/fhir/administrative-gender",
      "code": "unknown",
      "target": [
        {
          "codeSystem": "http://hl7.org/fhir/v3/AdministrativeGender",
          "code": "UNK",
          "equivalence": "equal"
        }
      ]
    }
  ]
}