{
  "resourceType": "AllergyIntolerance",
  "id": "medication",
  "text": {
    "status": "generated",
    "div": "<div><p><b>Generated Narrative with Details</b></p><p><b>id</b>: medication</p><p><b>recordedDate</b>: Mar 1, 2010</p><p><b>recorder</b>: <a>Practitioner/13</a></p><p><b>patient</b>: <a>Generated Summary: MR = 12345 (USUAL); Peter James Chalmers (OFFICIAL), Jim ; -unknown-(HOME), ph: (03) 5555 6473(WORK); MALE; birthDate: Dec 25, 1974; active</a></p><p><b>substance</b>: ALLERGENIC EXTRACT, PENICILLIN <span>(Details : {RxNorm code '314422' = '314422', given as 'ALLERGENIC EXTRACT, PENICILLIN'})</span></p><p><b>status</b>: unconfirmed</p><p><b>criticality</b>: high</p><p><b>category</b>: medication</p><h3>Events</h3><table><tr><td>-</td><td><b>Manifestation</b></td></tr><tr><td>*</td><td>Hives <span>(Details : {SNOMED CT code '247472004' = 'Weal (disorder)', given as 'Hives'})</span></td></tr></table></div>"
  },
  "recordedDate": "2010-03-01",
  "recorder": {
    "reference": "Practitioner/13"
  },
  "patient": {
    "reference": "Patient/example"
  },
  "substance": {
    "coding": [
      {
        "system": "http://www.nlm.nih.gov/research/umls/rxnorm",
        "code": "314422",
        "display": "ALLERGENIC EXTRACT, PENICILLIN"
      }
    ]
  },
  "status": "unconfirmed",
  "criticality": "high",
  "category": "medication",
  "event": [
    {
      "manifestation": [
        {
          "coding": [
            {
              "system": "http://snomed.info/sct",
              "code": "247472004",
              "display": "Hives"
            }
          ]
        }
      ]
    }
  ]
}