<?xml version="1.0" encoding="UTF-8"?><svg xmlns="http://www.w3.org/2000/svg" xmlns:xlink="http://www.w3.org/1999/xlink" version="1.1" width="1140.0" height="519.0">  <defs>
    <filter id="shadow1" x="0" y="0" width="200%" height="200%">
      <feOffset result="offOut" in="SourceGraphic" dx="3" dy="3" />
      <feColorMatrix result="matrixOut" in="offOut" type="matrix" values="0.2 0 0 0 0 0 0.2 0 0 0 0 0 0.2 0 0 0 0 0 1 0" />
      <feGaussianBlur result="blurOut" in="matrixOut" stdDeviation="2" />
      <feBlend in="SourceGraphic" in2="blurOut" mode="normal" />
    </filter>
  </defs><rect x="408.0" y="221.0" rx="4" ry="4" width="116.0" height="36.0" filter="url(#shadow1)" style="fill:#f0f8ff;stroke:black;stroke-width:1"/><line x1="408.0" y1="249.0" x2="524.0" y2="249.0" style="stroke:dimgrey;stroke-width:1"/><text x="466.0" y="241.0" fill="black" class="diagram-class-title  diagram-class-resource">AuditEvent<tspan class="diagram-class-title-link"> (<a xlink:href="domainresource.html" class="diagram-class-reference">DomainResource</a>)</tspan></text><rect x="350.0" y="7.0" rx="4" ry="4" width="232.0" height="134.0" filter="url(#shadow1)" style="fill:#f0f8ff;stroke:black;stroke-width:1"/><line x1="350.0" y1="35.0" x2="582.0" y2="35.0" style="stroke:dimgrey;stroke-width:1"/><text x="466.0" y="27.0" fill="black" class="diagram-class-title">Event</text><text x="356.0" y="49.0" fill="black" class="diagram-class-detail"><a xlink:href="auditevent-definitions.html#AuditEvent.event.type"><title>Identifier for a family of the event</title>type</a> : <a xlink:href="datatypes.html#CodeableConcept">CodeableConcept</a> 1..1 « <a xlink:href="valueset-audit-event-type.html"><title>Type of event</title>Audit Event ID</a>+ »</text><text x="356.0" y="63.0" fill="black" class="diagram-class-detail"><a xlink:href="auditevent-definitions.html#AuditEvent.event.subtype"><title>Identifier for the category of event</title>subtype</a> : <a xlink:href="datatypes.html#CodeableConcept">CodeableConcept</a> 0..* « <a xlink:href="valueset-audit-event-sub-type.html"><title>Sub-type of event</title>Audit Event Sub-Type</a>+ »</text><text x="356.0" y="77.0" fill="black" class="diagram-class-detail"><a xlink:href="auditevent-definitions.html#AuditEvent.event.action"><title>Indicator for type of action performed during the event that generated the audit</title>action</a> : <a xlink:href="datatypes.html#code">code</a> 0..1 « <a xlink:href="valueset-audit-event-action.html"><title>Indicator for type of action performed during the event that generated the audit.</title>AuditEventAction</a> »</text><text x="356.0" y="91.0" fill="black" class="diagram-class-detail"><a xlink:href="auditevent-definitions.html#AuditEvent.event.dateTime"><title>The time when the event occurred on the source</title>dateTime</a> : <a xlink:href="datatypes.html#instant">instant</a> 1..1</text><text x="356.0" y="105.0" fill="black" class="diagram-class-detail"><a xlink:href="auditevent-definitions.html#AuditEvent.event.outcome"><title>Indicates whether the event succeeded or failed</title>outcome</a> : <a xlink:href="datatypes.html#code">code</a> 0..1 « <a xlink:href="valueset-audit-event-outcome.html"><title>Indicates whether the event succeeded or failed</title>AuditEventOutcome</a> »</text><text x="356.0" y="119.0" fill="black" class="diagram-class-detail"><a xlink:href="auditevent-definitions.html#AuditEvent.event.outcomeDesc"><title>A free text description of the outcome of the event</title>outcomeDesc</a> : <a xlink:href="datatypes.html#string">string</a> 0..1</text><text x="356.0" y="133.0" fill="black" class="diagram-class-detail"><a xlink:href="auditevent-definitions.html#AuditEvent.event.purposeOfEvent"><title>The purposeOfUse (reason) that was used during the event being recorded</title>purposeOfEvent</a> : <a xlink:href="datatypes.html#Coding">Coding</a> 0..*</text><rect x="0.0" y="144.0" rx="4" ry="4" width="288.0" height="190.0" filter="url(#shadow1)" style="fill:#f0f8ff;stroke:black;stroke-width:1"/><line x1="0.0" y1="172.0" x2="288.0" y2="172.0" style="stroke:dimgrey;stroke-width:1"/><text x="144.0" y="164.0" fill="black" class="diagram-class-title">Participant</text><text x="6.0" y="186.0" fill="black" class="diagram-class-detail"><a xlink:href="auditevent-definitions.html#AuditEvent.participant.role"><title>Specification of the role(s) the user plays when performing the event. Usually the codes used in this element are local codes defined by the role-based access control security system used in the local context</title>role</a> : <a xlink:href="datatypes.html#CodeableConcept">CodeableConcept</a> 0..* « <a xlink:href="valueset-dicm-402-roleid.html"><title>Role(s) the user plays (from RBAC)</title>Audit Active Participant Role ID Code</a>+ »</text><text x="6.0" y="200.0" fill="black" class="diagram-class-detail"><a xlink:href="auditevent-definitions.html#AuditEvent.participant.reference"><title>Direct reference to a resource that identifies the participant</title>reference</a> : <a xlink:href="references.html#Reference">Reference</a>(<a xlink:href="practitioner.html#Practitioner">Practitioner</a>|<a xlink:href="organization.html#Organization">Organization</a>|</text><text x="26.0" y="214.0" fill="black" class="diagram-class-detail">     <a xlink:href="device.html#Device">Device</a>|<a xlink:href="patient.html#Patient">Patient</a>|<a xlink:href="relatedperson.html#RelatedPerson">RelatedPerson</a>) 0..1</text><text x="6.0" y="228.0" fill="black" class="diagram-class-detail"><a xlink:href="auditevent-definitions.html#AuditEvent.participant.userId"><title>Unique identifier for the user actively participating in the event</title>userId</a> : <a xlink:href="datatypes.html#string">string</a> 0..1</text><text x="6.0" y="242.0" fill="black" class="diagram-class-detail"><a xlink:href="auditevent-definitions.html#AuditEvent.participant.altId"><title>Alternative Participant Identifier. For a human, this should be a user identifier text string from authentication system. This identifier would be one known to a common authentication system (e.g., single sign-on), if available</title>altId</a> : <a xlink:href="datatypes.html#string">string</a> 0..1</text><text x="6.0" y="256.0" fill="black" class="diagram-class-detail"><a xlink:href="auditevent-definitions.html#AuditEvent.participant.name"><title>Human-meaningful name for the user</title>name</a> : <a xlink:href="datatypes.html#string">string</a> 0..1</text><text x="6.0" y="270.0" fill="black" class="diagram-class-detail"><a xlink:href="auditevent-definitions.html#AuditEvent.participant.requestor"><title>Indicator that the user is or is not the requestor, or initiator, for the event being audited</title>requestor</a> : <a xlink:href="datatypes.html#boolean">boolean</a> 1..1</text><text x="6.0" y="284.0" fill="black" class="diagram-class-detail"><a xlink:href="auditevent-definitions.html#AuditEvent.participant.location"><title>Where the event occurred</title>location</a> : <a xlink:href="references.html#Reference">Reference</a>(<a xlink:href="location.html#Location">Location</a>) 0..1</text><text x="6.0" y="298.0" fill="black" class="diagram-class-detail"><a xlink:href="auditevent-definitions.html#AuditEvent.participant.policy"><title>The policy or plan that authorized the activity being recorded. Typically, a single activity may have multiple applicable policies, such as patient consent, guarantor funding, etc. The policy would also indicate the security token used</title>policy</a> : <a xlink:href="datatypes.html#uri">uri</a> 0..*</text><text x="6.0" y="312.0" fill="black" class="diagram-class-detail"><a xlink:href="auditevent-definitions.html#AuditEvent.participant.media"><title>Type of media involved. Used when the event is about exporting/importing onto media</title>media</a> : <a xlink:href="datatypes.html#Coding">Coding</a> 0..1</text><text x="6.0" y="326.0" fill="black" class="diagram-class-detail"><a xlink:href="auditevent-definitions.html#AuditEvent.participant.purposeOfUse"><title>The purposeOfUse (reason) specific to this participant that was used during the event being recorded</title>purposeOfUse</a> : <a xlink:href="datatypes.html#Coding">Coding</a> 0..*</text><rect x="34.0" y="0.0" rx="4" ry="4" width="220.0" height="64.0" filter="url(#shadow1)" style="fill:#f0f8ff;stroke:black;stroke-width:1"/><line x1="34.0" y1="28.0" x2="254.0" y2="28.0" style="stroke:dimgrey;stroke-width:1"/><text x="144.0" y="20.0" fill="black" class="diagram-class-title">Network</text><text x="40.0" y="42.0" fill="black" class="diagram-class-detail"><a xlink:href="auditevent-definitions.html#AuditEvent.participant.network.identifier"><title>An identifier for the network access point of the user device for the audit event</title>identifier</a> : <a xlink:href="datatypes.html#string">string</a> 0..1</text><text x="40.0" y="56.0" fill="black" class="diagram-class-detail"><a xlink:href="auditevent-definitions.html#AuditEvent.participant.network.type"><title>An identifier for the type of network access point that originated the audit event</title>type</a> : <a xlink:href="datatypes.html#code">code</a> 0..1 « <a xlink:href="valueset-network-type.html"><title>The type of network access point of this participant in the audit event</title>AuditEventParticipantNetworkType</a> »</text><rect x="644.0" y="200.0" rx="4" ry="4" width="196.0" height="78.0" filter="url(#shadow1)" style="fill:#f0f8ff;stroke:black;stroke-width:1"/><line x1="644.0" y1="228.0" x2="840.0" y2="228.0" style="stroke:dimgrey;stroke-width:1"/><text x="742.0" y="220.0" fill="black" class="diagram-class-title">Source</text><text x="650.0" y="242.0" fill="black" class="diagram-class-detail"><a xlink:href="auditevent-definitions.html#AuditEvent.source.site"><title>Logical source location within the healthcare enterprise network</title>site</a> : <a xlink:href="datatypes.html#string">string</a> 0..1</text><text x="650.0" y="256.0" fill="black" class="diagram-class-detail"><a xlink:href="auditevent-definitions.html#AuditEvent.source.identifier"><title>Identifier of the source where the event originated</title>identifier</a> : <a xlink:href="datatypes.html#string">string</a> 1..1</text><text x="650.0" y="270.0" fill="black" class="diagram-class-detail"><a xlink:href="auditevent-definitions.html#AuditEvent.source.type"><title>Code specifying the type of source where event originated</title>type</a> : <a xlink:href="datatypes.html#Coding">Coding</a> 0..* « <a xlink:href="valueset-audit-source-type.html"><title>Code specifying the type of system that detected and recorded the event</title>Audit Event Source Type</a>+ »</text><rect x="320.0" y="337.0" rx="4" ry="4" width="292.0" height="162.0" filter="url(#shadow1)" style="fill:#f0f8ff;stroke:black;stroke-width:1"/><line x1="320.0" y1="365.0" x2="612.0" y2="365.0" style="stroke:dimgrey;stroke-width:1"/><text x="466.0" y="357.0" fill="black" class="diagram-class-title">Object</text><text x="326.0" y="379.0" fill="black" class="diagram-class-detail"><a xlink:href="auditevent-definitions.html#AuditEvent.object.identifier"><title>Identifies a specific instance of the participant object. The reference should always be version specific</title>identifier</a> : <a xlink:href="datatypes.html#Identifier">Identifier</a> 0..1</text><text x="326.0" y="393.0" fill="black" class="diagram-class-detail"><a xlink:href="auditevent-definitions.html#AuditEvent.object.reference"><title>Identifies a specific instance of the participant object. The reference should always be version specific</title>reference</a> : <a xlink:href="references.html#Reference">Reference</a>(<a xlink:href="resourcelist.html#Any">Any</a>) 0..1</text><text x="326.0" y="407.0" fill="black" class="diagram-class-detail"><a xlink:href="auditevent-definitions.html#AuditEvent.object.type"><title>The type of the object that was involved in this audit event</title>type</a> : <a xlink:href="datatypes.html#code">code</a> 0..1 « <a xlink:href="valueset-object-type.html"><title>Code for the object type involved audited</title>AuditEventObjectType</a> »</text><text x="326.0" y="421.0" fill="black" class="diagram-class-detail"><a xlink:href="auditevent-definitions.html#AuditEvent.object.role"><title>Code representing the functional application role of Participant Object being audited</title>role</a> : <a xlink:href="datatypes.html#code">code</a> 0..1 « <a xlink:href="valueset-object-role.html"><title>Code representing the role the Object played in the event</title>AuditEventObjectRole</a> »</text><text x="326.0" y="435.0" fill="black" class="diagram-class-detail"><a xlink:href="auditevent-definitions.html#AuditEvent.object.lifecycle"><title>Identifier for the data life-cycle stage for the participant object</title>lifecycle</a> : <a xlink:href="datatypes.html#code">code</a> 0..1 « <a xlink:href="valueset-object-lifecycle.html"><title>Identifier for the data life-cycle stage for the object</title>AuditEventObjectLifecycle</a> »</text><text x="326.0" y="449.0" fill="black" class="diagram-class-detail"><a xlink:href="auditevent-definitions.html#AuditEvent.object.sensitivity"><title>Denotes policy-defined sensitivity for the Participant Object ID such as VIP, HIV status, mental health status or similar topics</title>sensitivity</a> : <a xlink:href="datatypes.html#CodeableConcept">CodeableConcept</a> 0..1 « (<a xlink:href="valueset-audit-event-sensitivity.html"><title>The sensitivity of an object. May also encompass confidentiality and rudimentary access control (e.g. HCS)</title>Audit Event Object Sensitivity</a>) »</text><text x="326.0" y="463.0" fill="black" class="diagram-class-detail"><a xlink:href="auditevent-definitions.html#AuditEvent.object.name"><title>An instance-specific descriptor of the Participant Object ID audited, such as a person&#39;s name</title>name</a> : <a xlink:href="datatypes.html#string">string</a> 0..1</text><text x="326.0" y="477.0" fill="black" class="diagram-class-detail"><a xlink:href="auditevent-definitions.html#AuditEvent.object.description"><title>Text that describes the object in more detail</title>description</a> : <a xlink:href="datatypes.html#string">string</a> 0..1</text><text x="326.0" y="491.0" fill="black" class="diagram-class-detail"><a xlink:href="auditevent-definitions.html#AuditEvent.object.query"><title>The actual query for a query-type participant object</title>query</a> : <a xlink:href="datatypes.html#base64Binary">base64Binary</a> 0..1</text><rect x="732.0" y="386.0" rx="4" ry="4" width="108.0" height="64.0" filter="url(#shadow1)" style="fill:#f0f8ff;stroke:black;stroke-width:1"/><line x1="732.0" y1="414.0" x2="840.0" y2="414.0" style="stroke:dimgrey;stroke-width:1"/><text x="786.0" y="406.0" fill="black" class="diagram-class-title">Detail</text><text x="738.0" y="428.0" fill="black" class="diagram-class-detail"><a xlink:href="auditevent-definitions.html#AuditEvent.object.detail.type"><title>Name of the property</title>type</a> : <a xlink:href="datatypes.html#string">string</a> 1..1</text><text x="738.0" y="442.0" fill="black" class="diagram-class-detail"><a xlink:href="auditevent-definitions.html#AuditEvent.object.detail.value"><title>Property value</title>value</a> : <a xlink:href="datatypes.html#base64Binary">base64Binary</a> 1..1</text><line x1="466.0" y1="221.0" x2="466.0" y2="141.0" style="stroke:navy;stroke-width:1"/><polygon points="466.0,221.0 472.0,225.0 478.0,221.0 472.0,217.0 466.0,221.0" style="fill:navy;stroke:navy;stroke-width:1" transform="rotate(-90.0 466.0 221.0)"/><rect x="456.0" y="174.0" width="20.0" height="18.0" style="fill:white;stroke:black;stroke-width:0"/><text x="466.0" y="184.0" fill="black" class="diagram-class-linkage"><a xlink:href="auditevent-definitions.html#AuditEvent.event"><title>Identifies the name, action type, time, and disposition of the audited event</title>event</a></text><text x="466.0" y="155.0" fill="black" class="diagram-class-linkage">1..1</text><line x1="144.0" y1="144.0" x2="144.0" y2="64.0" style="stroke:navy;stroke-width:1"/><polygon points="144.0,144.0 150.0,148.0 156.0,144.0 150.0,140.0 144.0,144.0" style="fill:navy;stroke:navy;stroke-width:1" transform="rotate(-90.0 144.0 144.0)"/><rect x="130.0" y="97.0" width="28.0" height="18.0" style="fill:white;stroke:black;stroke-width:0"/><text x="144.0" y="107.0" fill="black" class="diagram-class-linkage"><a xlink:href="auditevent-definitions.html#AuditEvent.participant.network"><title>Logical network location for application activity, if the activity has a network location</title>network</a></text><text x="144.0" y="78.0" fill="black" class="diagram-class-linkage">0..1</text><line x1="408.0" y1="239.0" x2="288.0" y2="239.0" style="stroke:navy;stroke-width:1"/><polygon points="408.0,239.0 414.0,243.0 420.0,239.0 414.0,235.0 408.0,239.0" style="fill:navy;stroke:navy;stroke-width:1" transform="rotate(180.0 408.0 239.0)"/><rect x="326.0" y="232.0" width="44.0" height="18.0" style="fill:white;stroke:black;stroke-width:0"/><text x="348.0" y="242.0" fill="black" class="diagram-class-linkage"><a xlink:href="auditevent-definitions.html#AuditEvent.participant"><title>A person, a hardware device or software process</title>participant</a></text><text x="303.0" y="235.0" fill="black" class="diagram-class-linkage">1..*</text><line x1="524.0" y1="239.0" x2="644.0" y2="239.0" style="stroke:navy;stroke-width:1"/><polygon points="524.0,239.0 530.0,243.0 536.0,239.0 530.0,235.0 524.0,239.0" style="fill:navy;stroke:navy;stroke-width:1" transform="rotate(0.0 524.0 239.0)"/><rect x="572.0" y="232.0" width="24.0" height="18.0" style="fill:white;stroke:black;stroke-width:0"/><text x="584.0" y="242.0" fill="black" class="diagram-class-linkage"><a xlink:href="auditevent-definitions.html#AuditEvent.source"><title>Application systems and processes</title>source</a></text><text x="624.0" y="235.0" fill="black" class="diagram-class-linkage">1..1</text><line x1="612.0" y1="418.0" x2="732.0" y2="418.0" style="stroke:navy;stroke-width:1"/><polygon points="612.0,418.0 618.0,422.0 624.0,418.0 618.0,414.0 612.0,418.0" style="fill:navy;stroke:navy;stroke-width:1" transform="rotate(0.0 612.0 418.0)"/><rect x="660.0" y="411.0" width="24.0" height="18.0" style="fill:white;stroke:black;stroke-width:0"/><text x="672.0" y="421.0" fill="black" class="diagram-class-linkage"><a xlink:href="auditevent-definitions.html#AuditEvent.object.detail"><title>Additional Information about the Object</title>detail</a></text><text x="712.0" y="414.0" fill="black" class="diagram-class-linkage">0..*</text><line x1="466.0" y1="257.0" x2="466.0" y2="337.0" style="stroke:navy;stroke-width:1"/><polygon points="466.0,257.0 472.0,261.0 478.0,257.0 472.0,253.0 466.0,257.0" style="fill:navy;stroke:navy;stroke-width:1" transform="rotate(90.0 466.0 257.0)"/><rect x="454.0" y="290.0" width="24.0" height="18.0" style="fill:white;stroke:black;stroke-width:0"/><text x="466.0" y="300.0" fill="black" class="diagram-class-linkage"><a xlink:href="auditevent-definitions.html#AuditEvent.object"><title>Specific instances of data or objects that have been accessed</title>object</a></text><text x="466.0" y="333.0" fill="black" class="diagram-class-linkage">0..*</text></svg>