{
  "resourceType": "AuditEvent",
  "id": "example",
  "text": {
    "status": "generated",
    "div": "<div>Application Start for under service login &quot;Grahame&quot; (id: Grahame's Test HL7Connect)</div>"
  },
  "event": {
    "type": {
      "coding": [
        {
          "system": "http://nema.org/dicom/dicm",
          "code": "110100",
          "display": "Application Activity"
        }
      ]
    },
    "subtype": [
      {
        "coding": [
          {
            "system": "http://nema.org/dicom/dicm",
            "code": "110120",
            "display": "Application Start"
          }
        ]
      }
    ],
    "action": "E",
    "dateTime": "2012-10-25T22:04:27+11:00",
    "outcome": "0"
  },
  "participant": [
    {
      "role": [
        {
          "text": "Service User (Logon)"
        }
      ],
      "userId": "Grahame",
      "requestor": false,
      "network": {
        "identifier": "127.0.0.1",
        "type": "2"
      }
    }
  ],
  "source": {
    "site": "Development",
    "identifier": "Grahame's Laptop",
    "type": [
      {
        "system": "http://hl7.org/fhir/audit-event-sub-type",
        "code": "1"
      }
    ]
  },
  "object": [
    {
      "identifier": {
        "type": {
          "coding": [
            {
              "system": "http://hl7.org/fhir/identifier-type",
              "code": "SNO"
            }
          ],
          "text": "Dell Serial Number"
        },
        "value": "ABCDEF"
      },
      "type": "4",
      "role": "4",
      "lifecycle": "6",
      "name": "Grahame's Laptop"
    }
  ]
}