{
  "resourceType": "Bundle",
  "id": "bundle-transaction",
  "meta": {
    "lastUpdated": "2014-08-18T01:43:30Z"
  },
  "type": "transaction",
  "entry": [
    {
      "fullUrl": "urn:uuid:61ebe359-bfdc-4613-8bf2-c5e300945f0a",
      "resource": {
        "resourceType": "Patient",
        "text": {
          "status": "generated",
          "div": "<div>Some narrative</div>"
        },
        "name": [
          {
            "use": "official",
            "family": [
              "Chalmers"
            ],
            "given": [
              "Peter",
              "James"
            ]
          }
        ],
        "gender": "male",
        "birthDate": "1974-12-25",
        "active": true
      },
      "request": {
        "method": "POST",
        "url": "Patient"
      }
    },
    {
      "fullUrl": "urn:uuid:88f151c0-a954-468a-88bd-5ae15c08e059",
      "resource": {
        "resourceType": "Patient",
        "text": {
          "status": "generated",
          "div": "<div>Some narrative</div>"
        },
        "name": [
          {
            "use": "official",
            "family": [
              "Chalmers"
            ],
            "given": [
              "Peter",
              "James"
            ]
          }
        ],
        "gender": "male",
        "birthDate": "1974-12-25",
        "active": true
      },
      "request": {
        "method": "POST",
        "url": "Patient",
        "ifNoneExist": "identifier=234234"
      }
    },
    {
      "fullUrl": "http://example.org/fhir/Patient/123",
      "resource": {
        "resourceType": "Patient",
        "id": "123",
        "text": {
          "status": "generated",
          "div": "<div>Some narrative</div>"
        },
        "name": [
          {
            "use": "official",
            "family": [
              "Chalmers"
            ],
            "given": [
              "Peter",
              "James"
            ]
          }
        ],
        "gender": "male",
        "birthDate": "1974-12-25",
        "active": true
      },
      "request": {
        "method": "PUT",
        "url": "Patient/123"
      }
    },
    {
      "fullUrl": "urn:uuid:74891afc-ed52-42a2-bcd7-f13d9b60f096",
      "resource": {
        "resourceType": "Patient",
        "text": {
          "status": "generated",
          "div": "<div>Some narrative</div>"
        },
        "name": [
          {
            "use": "official",
            "family": [
              "Chalmers"
            ],
            "given": [
              "Peter",
              "James"
            ]
          }
        ],
        "gender": "male",
        "birthDate": "1974-12-25",
        "active": true
      },
      "request": {
        "method": "PUT",
        "url": "Patient?identifier=234234"
      }
    },
    {
      "request": {
        "method": "DELETE",
        "url": "Patient/234"
      }
    },
    {
      "request": {
        "method": "DELETE",
        "url": "Patient?identifier=123456"
      }
    },
    {
      "fullUrl": "urn:uuid:79378cb8-8f58-48e8-a5e8-60ac2755b674",
      "resource": {
        "resourceType": "Parameters",
        "parameter": [
          {
            "name": "coding",
            "valueCoding": {
              "system": "http://loinc.org",
              "code": "1963-8"
            }
          }
        ]
      },
      "request": {
        "method": "POST",
        "url": "ValueSet/$lookup"
      }
    },
    {
      "request": {
        "method": "GET",
        "url": "Patient?name=peter"
      }
    }
  ]
}