<?xml version="1.0" encoding="UTF-8"?><svg xmlns="http://www.w3.org/2000/svg" xmlns:xlink="http://www.w3.org/1999/xlink" version="1.1" width="1106.0" height="402.0">  <defs>
    <filter id="shadow1" x="0" y="0" width="200%" height="200%">
      <feOffset result="offOut" in="SourceGraphic" dx="3" dy="3" />
      <feColorMatrix result="matrixOut" in="offOut" type="matrix" values="0.2 0 0 0 0 0 0.2 0 0 0 0 0 0.2 0 0 0 0 0 1 0" />
      <feGaussianBlur result="blurOut" in="matrixOut" stdDeviation="2" />
      <feBlend in="SourceGraphic" in2="blurOut" mode="normal" />
    </filter>
  </defs><rect x="270.0" y="0.0" rx="4" ry="4" width="288.0" height="204.0" filter="url(#shadow1)" style="fill:#f0f8ff;stroke:black;stroke-width:1"/><line x1="270.0" y1="28.0" x2="558.0" y2="28.0" style="stroke:dimgrey;stroke-width:1"/><text x="414.0" y="20.0" fill="black" class="diagram-class-title  diagram-class-resource">Condition<tspan class="diagram-class-title-link"> (<a xlink:href="domainresource.html" class="diagram-class-reference">DomainResource</a>)</tspan></text><text x="276.0" y="42.0" fill="black" class="diagram-class-detail"><a xlink:href="condition-definitions.html#Condition.identifier"><title>This records identifiers associated with this condition that are defined by business processed and/ or used to refer to it when a direct URL reference to the resource itself is not appropriate (e.g. in CDA documents, or in written / printed documentation)</title>identifier</a> : <a xlink:href="datatypes.html#Identifier">Identifier</a> 0..*</text><text x="276.0" y="56.0" fill="black" class="diagram-class-detail"><a xlink:href="condition-definitions.html#Condition.patient"><title>Indicates the patient who the condition record is associated with</title>patient</a> : <a xlink:href="references.html#Reference">Reference</a>(<a xlink:href="patient.html#Patient">Patient</a>) 1..1</text><text x="276.0" y="70.0" fill="black" class="diagram-class-detail"><a xlink:href="condition-definitions.html#Condition.encounter"><title>Encounter during which the condition was first asserted</title>encounter</a> : <a xlink:href="references.html#Reference">Reference</a>(<a xlink:href="encounter.html#Encounter">Encounter</a>) 0..1</text><text x="276.0" y="84.0" fill="black" class="diagram-class-detail"><a xlink:href="condition-definitions.html#Condition.asserter"><title>Person who takes responsibility for asserting the existence of the condition as part of the electronic record</title>asserter</a> : <a xlink:href="references.html#Reference">Reference</a>(<a xlink:href="practitioner.html#Practitioner">Practitioner</a>|<a xlink:href="patient.html#Patient">Patient</a>) 0..1</text><text x="276.0" y="98.0" fill="black" class="diagram-class-detail"><a xlink:href="condition-definitions.html#Condition.dateAsserted"><title>Estimated or actual date the condition/problem/diagnosis was first detected/suspected</title>dateAsserted</a> : <a xlink:href="datatypes.html#date">date</a> 0..1</text><text x="276.0" y="112.0" fill="black" class="diagram-class-detail"><a xlink:href="condition-definitions.html#Condition.code"><title>Identification of the condition, problem or diagnosis</title>code</a> : <a xlink:href="datatypes.html#CodeableConcept">CodeableConcept</a> 1..1 « (<a xlink:href="valueset-condition-code.html"><title>Identification of the Condition or diagnosis.</title>Condition/Problem/Diagnosis Codes</a>) »</text><text x="276.0" y="126.0" fill="black" class="diagram-class-detail"><a xlink:href="condition-definitions.html#Condition.category"><title>A category assigned to the condition. E.g. complaint | symptom | finding | diagnosis</title>category</a> : <a xlink:href="datatypes.html#CodeableConcept">CodeableConcept</a> 0..1 « <a xlink:href="valueset-condition-category.html"><title>A category assigned to the condition. E.g. finding | Condition | diagnosis | concern | condition</title>Condition/Problem/Diagnosis Codes</a>+ »</text><text x="276.0" y="140.0" fill="black" class="diagram-class-detail"><a xlink:href="condition-definitions.html#Condition.clinicalStatus"><title>The clinical status of the condition (this element modifies the meaning of other elements)</title>clinicalStatus</a> : <a xlink:href="datatypes.html#code">code</a> 1..1 « <a xlink:href="valueset-condition-status.html"><title>The clinical status of the Condition or diagnosis</title>ConditionClinicalStatus</a> »</text><text x="276.0" y="154.0" fill="black" class="diagram-class-detail"><a xlink:href="condition-definitions.html#Condition.severity"><title>A subjective assessment of the severity of the condition as evaluated by the clinician</title>severity</a> : <a xlink:href="datatypes.html#CodeableConcept">CodeableConcept</a> 0..1 « (<a xlink:href="valueset-condition-severity.html"><title>A subjective assessment of the severity of the condition as evaluated by the clinician.</title>Condition/Diagnosis Severity</a>) »</text><text x="276.0" y="168.0" fill="black" class="diagram-class-detail"><a xlink:href="condition-definitions.html#Condition.onset_x_"><title>Estimated or actual date or date-time  the condition began, in the opinion of the clinician</title>onset[x]</a> : <a xlink:href="datatypes.html#dateTime">dateTime</a>|<a xlink:href="datatypes.html#Age">Age</a>|<a xlink:href="datatypes.html#Period">Period</a>|<a xlink:href="datatypes.html#Range">Range</a>|<a xlink:href="datatypes.html#string">string</a> 0..1</text><text x="276.0" y="182.0" fill="black" class="diagram-class-detail"><a xlink:href="condition-definitions.html#Condition.abatement_x_"><title>The date or estimated date that the condition resolved or went into remission. This is called &quot;abatement&quot; because of the many overloaded connotations associated with &quot;remission&quot; or &quot;resolution&quot; - Conditions are never really resolved, but they can abate</title>abatement[x]</a> : <a xlink:href="datatypes.html#date">date</a>|<a xlink:href="datatypes.html#Age">Age</a>|<a xlink:href="datatypes.html#boolean">boolean</a>|<a xlink:href="datatypes.html#Period">Period</a>|<a xlink:href="datatypes.html#Range">Range</a>|<a xlink:href="datatypes.html#string">string</a> 0..1</text><text x="276.0" y="196.0" fill="black" class="diagram-class-detail"><a xlink:href="condition-definitions.html#Condition.notes"><title>Additional information about the Condition. This is a general notes/comments entry  for description of the Condition, its diagnosis and prognosis</title>notes</a> : <a xlink:href="datatypes.html#string">string</a> 0..1</text><rect x="50.0" y="0.0" rx="4" ry="4" width="168.0" height="78.0" filter="url(#shadow1)" style="fill:#f0f8ff;stroke:black;stroke-width:1"/><line x1="50.0" y1="28.0" x2="218.0" y2="28.0" style="stroke:dimgrey;stroke-width:1"/><text x="134.0" y="20.0" fill="black" class="diagram-class-title">Stage</text><text x="56.0" y="42.0" fill="black" class="diagram-class-detail"><a xlink:href="condition-definitions.html#Condition.stage.summary"><title>A simple summary of the stage such as &quot;Stage 3&quot;. The determination of the stage is disease-specific</title>summary</a> : <a xlink:href="datatypes.html#CodeableConcept">CodeableConcept</a> 0..1</text><text x="56.0" y="56.0" fill="black" class="diagram-class-detail"><a xlink:href="condition-definitions.html#Condition.stage.assessment"><title>Reference to a formal record of the evidence on which the staging assessment is based</title>assessment</a> : <a xlink:href="references.html#Reference">Reference</a>(<a xlink:href="clinicalimpression.html#ClinicalImpression">ClinicalImpression</a>|</text><text x="76.0" y="70.0" fill="black" class="diagram-class-detail">     <a xlink:href="diagnosticreport.html#DiagnosticReport">DiagnosticReport</a>|<a xlink:href="observation.html#Observation">Observation</a>) 0..*</text><rect x="0.0" y="150.0" rx="4" ry="4" width="268.0" height="64.0" filter="url(#shadow1)" style="fill:#f0f8ff;stroke:black;stroke-width:1"/><line x1="0.0" y1="178.0" x2="268.0" y2="178.0" style="stroke:dimgrey;stroke-width:1"/><text x="134.0" y="170.0" fill="black" class="diagram-class-title">Evidence</text><text x="6.0" y="192.0" fill="black" class="diagram-class-detail"><a xlink:href="condition-definitions.html#Condition.evidence.code"><title>A manifestation or symptom that led to the recording of this condition</title>code</a> : <a xlink:href="datatypes.html#CodeableConcept">CodeableConcept</a> 0..1 « (<a xlink:href="valueset-manifestation-or-symptom.html"><title>Codes that describe the manifestation or symptoms of a condition.</title>Manifestation and Symptom Codes</a>) »</text><text x="6.0" y="206.0" fill="black" class="diagram-class-detail"><a xlink:href="condition-definitions.html#Condition.evidence.detail"><title>Links to other relevant information, including pathology reports</title>detail</a> : <a xlink:href="references.html#Reference">Reference</a>(<a xlink:href="resourcelist.html#Any">Any</a>) 0..*</text><rect x="570.0" y="0.0" rx="4" ry="4" width="336.0" height="50.0" filter="url(#shadow1)" style="fill:#f0f8ff;stroke:black;stroke-width:1"/><line x1="570.0" y1="28.0" x2="906.0" y2="28.0" style="stroke:dimgrey;stroke-width:1"/><text x="738.0" y="20.0" fill="black" class="diagram-class-title">Location</text><text x="576.0" y="42.0" fill="black" class="diagram-class-detail"><a xlink:href="condition-definitions.html#Condition.location.site_x_"><title>Code that identifies the structural location</title>site[x]</a> : <a xlink:href="datatypes.html#CodeableConcept">CodeableConcept</a>|<a xlink:href="references.html#Reference">Reference</a>(<a xlink:href="bodysite.html#BodySite">BodySite</a>) 0..1 « (<a xlink:href="valueset-body-site.html"><title>Codes describing anatomical locations. May include laterality</title>SNOMED CT Body Structures</a>) »</text><rect x="570.0" y="150.0" rx="4" ry="4" width="228.0" height="92.0" filter="url(#shadow1)" style="fill:#f0f8ff;stroke:black;stroke-width:1"/><line x1="570.0" y1="178.0" x2="798.0" y2="178.0" style="stroke:dimgrey;stroke-width:1"/><text x="684.0" y="170.0" fill="black" class="diagram-class-title">DueTo</text><text x="576.0" y="192.0" fill="black" class="diagram-class-detail"><a xlink:href="condition-definitions.html#Condition.dueTo.code"><title>Code that identifies the target of this relationship. The code takes the place of a detailed instance target</title>code</a> : <a xlink:href="datatypes.html#CodeableConcept">CodeableConcept</a> 0..1 « (<a xlink:href="valueset-condition-cause.html"><title>Codes that describe causes of patient conditions.  E.g. Surgical mishap, escalation of a previous condition, etc.</title>Condition Cause Codes</a>) »</text><text x="576.0" y="206.0" fill="black" class="diagram-class-detail"><a xlink:href="condition-definitions.html#Condition.dueTo.target"><title>Target of the relationship</title>target</a> : <a xlink:href="references.html#Reference">Reference</a>(<a xlink:href="condition.html#Condition">Condition</a>|<a xlink:href="procedure.html#Procedure">Procedure</a>|</text><text x="596.0" y="220.0" fill="black" class="diagram-class-detail">     <a xlink:href="medicationadministration.html#MedicationAdministration">MedicationAdministration</a>|<a xlink:href="immunization.html#Immunization">Immunization</a>|</text><text x="596.0" y="234.0" fill="black" class="diagram-class-detail">     <a xlink:href="medicationstatement.html#MedicationStatement">MedicationStatement</a>) 0..1</text><rect x="270.0" y="290.0" rx="4" ry="4" width="252.0" height="92.0" filter="url(#shadow1)" style="fill:#f0f8ff;stroke:black;stroke-width:1"/><line x1="270.0" y1="318.0" x2="522.0" y2="318.0" style="stroke:dimgrey;stroke-width:1"/><text x="396.0" y="310.0" fill="black" class="diagram-class-title">OccurredFollowing</text><text x="276.0" y="332.0" fill="black" class="diagram-class-detail"><a xlink:href="condition-definitions.html#Condition.occurredFollowing.code"><title>Code that identifies the target of this relationship. The code takes the place of a detailed instance target</title>code</a> : <a xlink:href="datatypes.html#CodeableConcept">CodeableConcept</a> 0..1 « (<a xlink:href="valueset-condition-predecessor.html"><title>Codes that describe activities or observations that occurred prior to the condition</title>Condition Predecessor Codes</a>) »</text><text x="276.0" y="346.0" fill="black" class="diagram-class-detail"><a xlink:href="condition-definitions.html#Condition.occurredFollowing.target"><title>Target of the relationship</title>target</a> : <a xlink:href="references.html#Reference">Reference</a>(<a xlink:href="condition.html#Condition">Condition</a>|<a xlink:href="procedure.html#Procedure">Procedure</a>|</text><text x="296.0" y="360.0" fill="black" class="diagram-class-detail">     <a xlink:href="medicationadministration.html#MedicationAdministration">MedicationAdministration</a>|<a xlink:href="immunization.html#Immunization">Immunization</a>|</text><text x="296.0" y="374.0" fill="black" class="diagram-class-detail">     <a xlink:href="medicationstatement.html#MedicationStatement">MedicationStatement</a>) 0..1</text><line x1="270.0" y1="69.6" x2="218.0" y2="57.900000000000006" style="stroke:navy;stroke-width:1"/><polygon points="270.0,69.6 276.0,73.6 282.0,69.6 276.0,65.6 270.0,69.6" style="fill:navy;stroke:navy;stroke-width:1" transform="rotate(-167.3196165081802 270.0 69.6)"/><rect x="234.0" y="56.0" width="20.0" height="18.0" style="fill:white;stroke:black;stroke-width:0"/><text x="244.0" y="66.0" fill="black" class="diagram-class-linkage"><a xlink:href="condition-definitions.html#Condition.stage"><title>Clinical stage or grade of a condition. May include formal severity assessments</title>stage</a></text><text x="233.0" y="53.900000000000006" fill="black" class="diagram-class-linkage">0..1</text><line x1="270.0" y1="143.14285714285714" x2="245.99999999999997" y2="150.0" style="stroke:navy;stroke-width:1"/><polygon points="270.0,143.14285714285714 276.0,147.14285714285714 282.0,143.14285714285714 276.0,139.14285714285714 270.0,143.14285714285714" style="fill:navy;stroke:navy;stroke-width:1" transform="rotate(164.05460409907718 270.0 143.14285714285714)"/><rect x="242.0" y="139.0" width="32.0" height="18.0" style="fill:white;stroke:black;stroke-width:0"/><text x="258.0" y="149.0" fill="black" class="diagram-class-linkage"><a xlink:href="condition-definitions.html#Condition.evidence"><title>Supporting Evidence / manifestations that are the basis on which this condition is suspected or confirmed</title>evidence</a></text><text x="245.99999999999997" y="146.0" fill="black" class="diagram-class-linkage">0..*</text><line x1="558.0" y1="67.77777777777777" x2="632.8051948051948" y2="50.0" style="stroke:navy;stroke-width:1"/><polygon points="558.0,67.77777777777777 564.0,71.77777777777777 570.0,67.77777777777777 564.0,63.77777777777777 558.0,67.77777777777777" style="fill:navy;stroke:navy;stroke-width:1" transform="rotate(-13.368587984859513 558.0 67.77777777777777)"/><rect x="579.0" y="51.0" width="32.0" height="18.0" style="fill:white;stroke:black;stroke-width:0"/><text x="595.0" y="61.0" fill="black" class="diagram-class-linkage"><a xlink:href="condition-definitions.html#Condition.location"><title>The anatomical location where this condition manifests itself</title>location</a></text><text x="632.8051948051948" y="64.0" fill="black" class="diagram-class-linkage">0..*</text><line x1="558.0" y1="152.13333333333335" x2="570.0" y2="156.31111111111113" style="stroke:navy;stroke-width:1"/><polygon points="558.0,152.13333333333335 564.0,156.13333333333335 570.0,152.13333333333335 564.0,148.13333333333335 558.0,152.13333333333335" style="fill:navy;stroke:navy;stroke-width:1" transform="rotate(19.195467600052876 558.0 152.13333333333335)"/><rect x="554.0" y="147.0" width="20.0" height="18.0" style="fill:white;stroke:black;stroke-width:0"/><text x="564.0" y="157.0" fill="black" class="diagram-class-linkage"><a xlink:href="condition-definitions.html#Condition.dueTo"><title>Further conditions, problems, diagnoses, procedures or events or the substance that caused/triggered this Condition</title>dueTo</a></text><text x="550.0" y="152.31111111111113" fill="black" class="diagram-class-linkage">0..*</text><line x1="406.15384615384613" y1="204.0" x2="399.53846153846155" y2="290.0" style="stroke:navy;stroke-width:1"/><polygon points="406.15384615384613,204.0 412.15384615384613,208.0 418.15384615384613,204.0 412.15384615384613,200.0 406.15384615384613,204.0" style="fill:navy;stroke:navy;stroke-width:1" transform="rotate(94.39870535499553 406.15384615384613 204.0)"/><rect x="368.0" y="240.0" width="68.0" height="18.0" style="fill:white;stroke:black;stroke-width:0"/><text x="402.0" y="250.0" fill="black" class="diagram-class-linkage"><a xlink:href="condition-definitions.html#Condition.occurredFollowing"><title>Further conditions, problems, diagnoses, procedures or events or the substance that preceded this Condition</title>occurredFollowing</a></text><text x="399.53846153846155" y="286.0" fill="black" class="diagram-class-linkage">0..*</text></svg>