{
  "resourceType": "Conformance",
  "id": "conformance-terminology-server",
  "text": {
    "status": "generated",
    "div": "<div><h2>Terminology Service Conformance Statement</h2><p>Basic conformance statement for a Terminology Server. A server can support more fucntionality than defined here, but this is the minimum amount</p><table><tr><td>Mode</td><td>SERVER</td></tr><tr><td>Description</td><td>RESTful Terminology Server</td></tr><tr><td>Transaction</td><td/></tr><tr><td>System History</td><td/></tr><tr><td>System Search</td><td/></tr></table><table><tr><th><b>Resource Type</b></th><th><b>Profile</b></th><th><b>Read</b></th><th><b>V-Read</b></th><th><b>Search</b></th><th><b>Update</b></th><th><b>Updates</b></th><th><b>Create</b></th><th><b>Delete</b></th><th><b>History</b></th></tr><tr><td>ValueSet</td><td><a href=\"StructureDefinition/ValueSet\">StructureDefinition/ValueSet</a></td><td>y</td><td/><td>y</td><td/><td/><td/><td/><td/></tr><tr><td>ConceptMap</td><td><a href=\"StructureDefinition/ConceptMap\">StructureDefinition/ConceptMap</a></td><td>y</td><td/><td>y</td><td/><td/><td/><td/><td/></tr></table></div>"
  },
  "extension": [
    {
      "url": "http://hl7.org/fhir/StructureDefinition/conformance-common-supported-system",
      "valueUri": "http://loinc.org"
    }
  ],
  "url": "http://hl7.org/fhir/terminology-server",
  "name": "Terminology Service Conformance Statement",
  "publisher": "HL7, Inc",
  "contact": [
    {
      "name": "FHIR Project",
      "telecom": [
        {
          "system": "url",
          "value": "http://hl7.org/fhir"
        }
      ]
    }
  ],
  "description": "Basic conformance statement for a Terminology Server. A server can support more fucntionality than defined here, but this is the minimum amount",
  "status": "draft",
  "date": "2015-07-05",
  "fhirVersion": "0.5.0",
  "acceptUnknown": true,
  "format": [
    "json",
    "xml"
  ],
  "rest": [
    {
      "mode": "server",
      "documentation": "RESTful Terminology Server",
      "security": {
        "cors": true,
        "service": [
          {
            "coding": [
              {
                "system": "http://hl7.org/fhir/restful-security-service",
                "code": "Certificates"
              }
            ]
          }
        ]
      },
      "resource": [
        {
          "type": "ValueSet",
          "profile": {
            "reference": "StructureDefinition/ValueSet"
          },
          "interaction": [
            {
              "code": "read",
              "documentation": "Read allows clients to get the logical definitions of the value sets"
            },
            {
              "code": "search-type",
              "documentation": "Search allows clients to find value sets on the server"
            }
          ],
          "searchParam": [
            {
              "name": "code",
              "definition": "http://hl7.org/fhir/SearchParameter/ValueSet-code",
              "type": "token"
            },
            {
              "name": "date",
              "definition": "http://hl7.org/fhir/SearchParameter/ValueSet-date",
              "type": "date"
            },
            {
              "name": "name",
              "definition": "http://hl7.org/fhir/SearchParameter/ValueSet-name",
              "type": "string"
            },
            {
              "name": "reference",
              "definition": "http://hl7.org/fhir/SearchParameter/ValueSet-reference",
              "type": "token"
            },
            {
              "name": "status",
              "definition": "http://hl7.org/fhir/SearchParameter/ValueSet-status",
              "type": "token"
            },
            {
              "name": "system",
              "definition": "http://hl7.org/fhir/SearchParameter/ValueSet-system",
              "type": "uri"
            },
            {
              "name": "url",
              "definition": "http://hl7.org/fhir/SearchParameter/ValueSet-url",
              "type": "uri"
            },
            {
              "name": "version",
              "definition": "http://hl7.org/fhir/SearchParameter/ValueSet-version",
              "type": "token"
            }
          ]
        },
        {
          "type": "ConceptMap",
          "profile": {
            "reference": "StructureDefinition/ConceptMap"
          },
          "interaction": [
            {
              "code": "read",
              "documentation": "Read allows clients to get the logical definitions of the concept maps"
            },
            {
              "code": "search-type",
              "documentation": "Search allows clients to find concept maps on the server"
            }
          ],
          "searchParam": [
            {
              "name": "date",
              "definition": "http://hl7.org/fhir/SearchParameter/ConceptMap-date",
              "type": "date"
            },
            {
              "name": "name",
              "definition": "http://hl7.org/fhir/SearchParameter/ConceptMap-name",
              "type": "string"
            },
            {
              "name": "status",
              "definition": "http://hl7.org/fhir/SearchParameter/ConceptMap-status",
              "type": "token"
            },
            {
              "name": "source",
              "definition": "http://hl7.org/fhir/SearchParameter/ConceptMap-source",
              "type": "uri"
            },
            {
              "name": "target",
              "definition": "http://hl7.org/fhir/SearchParameter/ConceptMap-target",
              "type": "uri"
            },
            {
              "name": "url",
              "definition": "http://hl7.org/fhir/SearchParameter/ConceptMap-url",
              "type": "uri"
            },
            {
              "name": "version",
              "definition": "http://hl7.org/fhir/SearchParameter/ConceptMap-version",
              "type": "token"
            }
          ]
        }
      ],
      "operation": [
        {
          "name": "expand",
          "definition": {
            "reference": "OperationDefinition/ValueSet-expand"
          }
        },
        {
          "name": "lookup",
          "definition": {
            "reference": "OperationDefinition/ValueSet-lookup"
          }
        },
        {
          "name": "validate-code",
          "definition": {
            "reference": "OperationDefinition/ValueSet-validate-code"
          }
        },
        {
          "name": "batch-validate",
          "definition": {
            "reference": "OperationDefinition/ValueSet-batch-validate"
          }
        },
        {
          "name": "translate",
          "definition": {
            "reference": "OperationDefinition/ConceptMap-translate"
          }
        },
        {
          "name": "batch-translate",
          "definition": {
            "reference": "OperationDefinition/ConceptMap-batch-translate"
          }
        },
        {
          "name": "closure",
          "definition": {
            "reference": "OperationDefinition/ConceptMap-closure"
          }
        }
      ]
    }
  ]
}