<?xml version="1.0" encoding="UTF-8"?><svg xmlns="http://www.w3.org/2000/svg" xmlns:xlink="http://www.w3.org/1999/xlink" version="1.1" width="280.0" height="270.0">  <defs>
    <filter id="shadow1" x="0" y="0" width="200%" height="200%">
      <feOffset result="offOut" in="SourceGraphic" dx="3" dy="3" />
      <feColorMatrix result="matrixOut" in="offOut" type="matrix" values="0.2 0 0 0 0 0 0.2 0 0 0 0 0 0.2 0 0 0 0 0 1 0" />
      <feGaussianBlur result="blurOut" in="matrixOut" stdDeviation="2" />
      <feBlend in="SourceGraphic" in2="blurOut" mode="normal" />
    </filter>
  </defs><rect x="0.0" y="0.0" rx="4" ry="4" width="180.0" height="260.0" filter="url(#shadow1)" style="fill:#f0f8ff;stroke:black;stroke-width:1"/><line x1="0.0" y1="28.0" x2="180.0" y2="28.0" style="stroke:dimgrey;stroke-width:1"/><text x="90.0" y="20.0" fill="black" class="diagram-class-title  diagram-class-resource">Device<tspan class="diagram-class-title-link"> (<a xlink:href="domainresource.html" class="diagram-class-reference">DomainResource</a>)</tspan></text><text x="6.0" y="42.0" fill="black" class="diagram-class-detail"><a xlink:href="device-definitions.html#Device.identifier"><title>Unique instance identifiers assigned to a device by organizations like manufacturers or owners .   If the identifier identifies the type of device, Device.type should be used</title>identifier</a> : <a xlink:href="datatypes.html#Identifier">Identifier</a> 0..*</text><text x="6.0" y="56.0" fill="black" class="diagram-class-detail"><a xlink:href="device-definitions.html#Device.type"><title>Code or identifier to identify a kind of device</title>type</a> : <a xlink:href="datatypes.html#CodeableConcept">CodeableConcept</a> 1..1 « <a xlink:href="https://www.gmdnagency.org/Info.aspx?pageid=1091"><title>Defines the nature of the device and the kind of functionality/services/behavior that may be expected from it</title>DeviceKind</a>+ »</text><text x="6.0" y="70.0" fill="black" class="diagram-class-detail"><a xlink:href="device-definitions.html#Device.note"><title>Descriptive information, usage information or implantation information that is not captured in an existing element</title>note</a> : <a xlink:href="datatypes.html#Annotation">Annotation</a> 0..*</text><text x="6.0" y="84.0" fill="black" class="diagram-class-detail"><a xlink:href="device-definitions.html#Device.status"><title>Status of the Device availability (this element modifies the meaning of other elements)</title>status</a> : <a xlink:href="datatypes.html#code">code</a> 0..1 « <a xlink:href="valueset-devicestatus.html"><title>The availability status of the device</title>DeviceStatus</a> »</text><text x="6.0" y="98.0" fill="black" class="diagram-class-detail"><a xlink:href="device-definitions.html#Device.manufacturer"><title>A name of the manufacturer</title>manufacturer</a> : <a xlink:href="datatypes.html#string">string</a> 0..1</text><text x="6.0" y="112.0" fill="black" class="diagram-class-detail"><a xlink:href="device-definitions.html#Device.model"><title>The &quot;model&quot; - an identifier assigned by the manufacturer to identify the product by its type. This number is shared by the all devices sold as the same type</title>model</a> : <a xlink:href="datatypes.html#string">string</a> 0..1</text><text x="6.0" y="126.0" fill="black" class="diagram-class-detail"><a xlink:href="device-definitions.html#Device.version"><title>The version of the device, if the device has multiple releases under the same model, or if the device is software or carries firmware</title>version</a> : <a xlink:href="datatypes.html#string">string</a> 0..1</text><text x="6.0" y="140.0" fill="black" class="diagram-class-detail"><a xlink:href="device-definitions.html#Device.manufactureDate"><title>The Date and time when the device was manufactured</title>manufactureDate</a> : <a xlink:href="datatypes.html#dateTime">dateTime</a> 0..1</text><text x="6.0" y="154.0" fill="black" class="diagram-class-detail"><a xlink:href="device-definitions.html#Device.expiry"><title>The date and time beyond which this device is no longer valid or should not be used (if applicable)</title>expiry</a> : <a xlink:href="datatypes.html#dateTime">dateTime</a> 0..1</text><text x="6.0" y="168.0" fill="black" class="diagram-class-detail"><a xlink:href="device-definitions.html#Device.udi"><title>United States Food and Drug Administration mandated Unique Device Identifier (UDI). Use the human readable information (the content that the user sees, which is sometimes different to the exact syntax represented in the barcode)  - see http://www.fda.gov/MedicalDevices/DeviceRegulationandGuidance/UniqueDeviceIdentification/default.htm</title>udi</a> : <a xlink:href="datatypes.html#string">string</a> 0..1</text><text x="6.0" y="182.0" fill="black" class="diagram-class-detail"><a xlink:href="device-definitions.html#Device.lotNumber"><title>Lot number assigned by the manufacturer</title>lotNumber</a> : <a xlink:href="datatypes.html#string">string</a> 0..1</text><text x="6.0" y="196.0" fill="black" class="diagram-class-detail"><a xlink:href="device-definitions.html#Device.owner"><title>An organization that is responsible for the provision and ongoing maintenance of the device</title>owner</a> : <a xlink:href="references.html#Reference">Reference</a>(<a xlink:href="organization.html#Organization">Organization</a>) 0..1</text><text x="6.0" y="210.0" fill="black" class="diagram-class-detail"><a xlink:href="device-definitions.html#Device.location"><title>The resource may be found in a literal location (i.e. GPS coordinates), a logical place (i.e. &quot;in/with the patient&quot;), or a coded location</title>location</a> : <a xlink:href="references.html#Reference">Reference</a>(<a xlink:href="location.html#Location">Location</a>) 0..1</text><text x="6.0" y="224.0" fill="black" class="diagram-class-detail"><a xlink:href="device-definitions.html#Device.patient"><title>Patient information, if the resource is affixed to a person</title>patient</a> : <a xlink:href="references.html#Reference">Reference</a>(<a xlink:href="patient.html#Patient">Patient</a>) 0..1</text><text x="6.0" y="238.0" fill="black" class="diagram-class-detail"><a xlink:href="device-definitions.html#Device.contact"><title>Contact details for an organization or a particular human that is responsible for the device</title>contact</a> : <a xlink:href="datatypes.html#ContactPoint">ContactPoint</a> 0..*</text><text x="6.0" y="252.0" fill="black" class="diagram-class-detail"><a xlink:href="device-definitions.html#Device.url"><title>A network address on which the device may be contacted directly</title>url</a> : <a xlink:href="datatypes.html#uri">uri</a> 0..1</text></svg>