<?xml version="1.0" encoding="UTF-8"?><svg xmlns="http://www.w3.org/2000/svg" xmlns:xlink="http://www.w3.org/1999/xlink" version="1.1" width="928.0" height="368.0">  <defs>
    <filter id="shadow1" x="0" y="0" width="200%" height="200%">
      <feOffset result="offOut" in="SourceGraphic" dx="3" dy="3" />
      <feColorMatrix result="matrixOut" in="offOut" type="matrix" values="0.2 0 0 0 0 0 0.2 0 0 0 0 0 0.2 0 0 0 0 0 1 0" />
      <feGaussianBlur result="blurOut" in="matrixOut" stdDeviation="2" />
      <feBlend in="SourceGraphic" in2="blurOut" mode="normal" />
    </filter>
  </defs><rect x="28.0" y="0.0" rx="4" ry="4" width="228.0" height="176.0" filter="url(#shadow1)" style="fill:#f0f8ff;stroke:black;stroke-width:1"/><line x1="28.0" y1="28.0" x2="256.0" y2="28.0" style="stroke:dimgrey;stroke-width:1"/><text x="142.0" y="20.0" fill="black" class="diagram-class-title  diagram-class-resource">DiagnosticOrder<tspan class="diagram-class-title-link"> (<a xlink:href="domainresource.html" class="diagram-class-reference">DomainResource</a>)</tspan></text><text x="34.0" y="42.0" fill="black" class="diagram-class-detail"><a xlink:href="diagnosticorder-definitions.html#DiagnosticOrder.subject"><title>Who or what the investigation is to be performed on. This is usually a human patient, but diagnostic tests can also be requested on animals, groups of humans or animals, devices such as dialysis machines, or even locations (typically for environmental scans)</title>subject</a> : <a xlink:href="references.html#Reference">Reference</a>(<a xlink:href="patient.html#Patient">Patient</a>|<a xlink:href="group.html#Group">Group</a>|<a xlink:href="location.html#Location">Location</a>|<a xlink:href="device.html#Device">Device</a>) 1..1</text><text x="34.0" y="56.0" fill="black" class="diagram-class-detail"><a xlink:href="diagnosticorder-definitions.html#DiagnosticOrder.orderer"><title>The practitioner that holds legal responsibility for ordering the investigation</title>orderer</a> : <a xlink:href="references.html#Reference">Reference</a>(<a xlink:href="practitioner.html#Practitioner">Practitioner</a>) 0..1</text><text x="34.0" y="70.0" fill="black" class="diagram-class-detail"><a xlink:href="diagnosticorder-definitions.html#DiagnosticOrder.identifier"><title>Identifiers assigned to this order by the orderer and/or  the receiver and/or order fulfiller</title>identifier</a> : <a xlink:href="datatypes.html#Identifier">Identifier</a> 0..*</text><text x="34.0" y="84.0" fill="black" class="diagram-class-detail"><a xlink:href="diagnosticorder-definitions.html#DiagnosticOrder.encounter"><title>An encounter that provides additional information about the healthcare context in which this request is made</title>encounter</a> : <a xlink:href="references.html#Reference">Reference</a>(<a xlink:href="encounter.html#Encounter">Encounter</a>) 0..1</text><text x="34.0" y="98.0" fill="black" class="diagram-class-detail"><a xlink:href="diagnosticorder-definitions.html#DiagnosticOrder.clinicalNotes"><title>An explanation or justification for why this diagnostic investigation is being requested</title>clinicalNotes</a> : <a xlink:href="datatypes.html#string">string</a> 0..1</text><text x="34.0" y="112.0" fill="black" class="diagram-class-detail"><a xlink:href="diagnosticorder-definitions.html#DiagnosticOrder.supportingInformation"><title>Additional clinical information about the patient or specimen that may influence test interpretations</title>supportingInformation</a> : <a xlink:href="references.html#Reference">Reference</a>(<a xlink:href="observation.html#Observation">Observation</a>|<a xlink:href="condition.html#Condition">Condition</a>|</text><text x="54.0" y="126.0" fill="black" class="diagram-class-detail">     <a xlink:href="documentreference.html#DocumentReference">DocumentReference</a>) 0..*</text><text x="34.0" y="140.0" fill="black" class="diagram-class-detail"><a xlink:href="diagnosticorder-definitions.html#DiagnosticOrder.specimen"><title>One or more specimens that the diagnostic investigation is about</title>specimen</a> : <a xlink:href="references.html#Reference">Reference</a>(<a xlink:href="specimen.html#Specimen">Specimen</a>) 0..*</text><text x="34.0" y="154.0" fill="black" class="diagram-class-detail"><a xlink:href="diagnosticorder-definitions.html#DiagnosticOrder.status"><title>The status of the order (this element modifies the meaning of other elements)</title>status</a> : <a xlink:href="datatypes.html#code">code</a> 0..1 « <a xlink:href="valueset-diagnostic-order-status.html"><title>The status of a diagnostic order</title>DiagnosticOrderStatus</a> »</text><text x="34.0" y="168.0" fill="black" class="diagram-class-detail"><a xlink:href="diagnosticorder-definitions.html#DiagnosticOrder.priority"><title>The clinical priority associated with this order</title>priority</a> : <a xlink:href="datatypes.html#code">code</a> 0..1 « <a xlink:href="valueset-diagnostic-order-priority.html"><title>The clinical priority of a diagnostic order</title>DiagnosticOrderPriority</a> »</text><rect x="0.0" y="256.0" rx="4" ry="4" width="284.0" height="92.0" filter="url(#shadow1)" style="fill:#f0f8ff;stroke:black;stroke-width:1"/><line x1="0.0" y1="284.0" x2="284.0" y2="284.0" style="stroke:dimgrey;stroke-width:1"/><text x="142.0" y="276.0" fill="black" class="diagram-class-title">Event</text><text x="6.0" y="298.0" fill="black" class="diagram-class-detail"><a xlink:href="diagnosticorder-definitions.html#DiagnosticOrder.event.status"><title>The status for the event</title>status</a> : <a xlink:href="datatypes.html#code">code</a> 1..1 « <a xlink:href="valueset-diagnostic-order-status.html"><title>The status of a diagnostic order</title>DiagnosticOrderStatus</a> »</text><text x="6.0" y="312.0" fill="black" class="diagram-class-detail"><a xlink:href="diagnosticorder-definitions.html#DiagnosticOrder.event.description"><title>Additional information about the event that occurred - e.g. if the status remained unchanged</title>description</a> : <a xlink:href="datatypes.html#CodeableConcept">CodeableConcept</a> 0..1 « (<a xlink:href="valueset-diagnostic-order-event.html"><title>Additional information about an event that occurred to a diagnostic order - e.g. if the status remained unchanged</title>Diagnostic Order Event Codes</a>) »</text><text x="6.0" y="326.0" fill="black" class="diagram-class-detail"><a xlink:href="diagnosticorder-definitions.html#DiagnosticOrder.event.dateTime"><title>The date/time at which the event occurred</title>dateTime</a> : <a xlink:href="datatypes.html#dateTime">dateTime</a> 1..1</text><text x="6.0" y="340.0" fill="black" class="diagram-class-detail"><a xlink:href="diagnosticorder-definitions.html#DiagnosticOrder.event.actor"><title>The person who was responsible for performing or recording the action</title>actor</a> : <a xlink:href="references.html#Reference">Reference</a>(<a xlink:href="practitioner.html#Practitioner">Practitioner</a>|<a xlink:href="device.html#Device">Device</a>) 0..1</text><rect x="376.0" y="42.0" rx="4" ry="4" width="352.0" height="92.0" filter="url(#shadow1)" style="fill:#f0f8ff;stroke:black;stroke-width:1"/><line x1="376.0" y1="70.0" x2="728.0" y2="70.0" style="stroke:dimgrey;stroke-width:1"/><text x="552.0" y="62.0" fill="black" class="diagram-class-title">Item</text><text x="382.0" y="84.0" fill="black" class="diagram-class-detail"><a xlink:href="diagnosticorder-definitions.html#DiagnosticOrder.item.code"><title>A code that identifies a particular diagnostic investigation, or panel of investigations, that have been requested</title>code</a> : <a xlink:href="datatypes.html#CodeableConcept">CodeableConcept</a> 1..1 « <a xlink:href="valueset-diagnostic-requests.html"><title>Codes for tests/services that can be performed by diagnostic services</title>LOINC Diagnostic Order Codes</a>+ »</text><text x="382.0" y="98.0" fill="black" class="diagram-class-detail"><a xlink:href="diagnosticorder-definitions.html#DiagnosticOrder.item.specimen"><title>If the item is related to a specific specimen</title>specimen</a> : <a xlink:href="references.html#Reference">Reference</a>(<a xlink:href="specimen.html#Specimen">Specimen</a>) 0..*</text><text x="382.0" y="112.0" fill="black" class="diagram-class-detail"><a xlink:href="diagnosticorder-definitions.html#DiagnosticOrder.item.bodySite_x_"><title>Anatomical location where the request test should be performed.  This is the target site</title>bodySite[x]</a> : <a xlink:href="datatypes.html#CodeableConcept">CodeableConcept</a>|<a xlink:href="references.html#Reference">Reference</a>(<a xlink:href="bodysite.html#BodySite">BodySite</a>) 0..1 « (<a xlink:href="valueset-body-site.html"><title>Codes describing anatomical locations. May include laterality</title>SNOMED CT Body Structures</a>) »</text><text x="382.0" y="126.0" fill="black" class="diagram-class-detail"><a xlink:href="diagnosticorder-definitions.html#DiagnosticOrder.item.status"><title>The status of this individual item within the order</title>status</a> : <a xlink:href="datatypes.html#code">code</a> 0..1 « <a xlink:href="valueset-diagnostic-order-status.html"><title>The status of a diagnostic order</title>DiagnosticOrderStatus</a> »</text><line x1="142.0" y1="176.0" x2="142.0" y2="256.0" style="stroke:navy;stroke-width:1"/><polygon points="142.0,176.0 148.0,180.0 154.0,176.0 148.0,172.0 142.0,176.0" style="fill:navy;stroke:navy;stroke-width:1" transform="rotate(90.0 142.0 176.0)"/><rect x="132.0" y="209.0" width="20.0" height="18.0" style="fill:white;stroke:black;stroke-width:0"/><text x="142.0" y="219.0" fill="black" class="diagram-class-linkage"><a xlink:href="diagnosticorder-definitions.html#DiagnosticOrder.event"><title>A summary of the events of interest that have occurred as the request is processed. E.g. when the order was made, various processing steps (specimens received), when it was completed</title>event</a></text><text x="142.0" y="252.0" fill="black" class="diagram-class-linkage">0..*</text><line x1="463.86915887850466" y1="134.0" x2="230.13084112149534" y2="256.0" style="stroke:navy;stroke-width:1"/><polygon points="463.86915887850466,134.0 469.86915887850466,138.0 475.86915887850466,134.0 469.86915887850466,130.0 463.86915887850466,134.0" style="fill:navy;stroke:navy;stroke-width:1" transform="rotate(152.4376375349704 463.86915887850466 134.0)"/><rect x="337.0" y="188.0" width="20.0" height="18.0" style="fill:white;stroke:black;stroke-width:0"/><text x="347.0" y="198.0" fill="black" class="diagram-class-linkage"><a xlink:href="diagnosticorder-definitions.html#DiagnosticOrder.item.event"><title>A summary of the events of interest that have occurred as this item of the request is processed</title>event</a></text><text x="230.13084112149534" y="252.0" fill="black" class="diagram-class-linkage">0..*</text><line x1="256.0" y1="88.0" x2="376.0" y2="88.0" style="stroke:navy;stroke-width:1"/><polygon points="256.0,88.0 262.0,92.0 268.0,88.0 262.0,84.0 256.0,88.0" style="fill:navy;stroke:navy;stroke-width:1" transform="rotate(0.0 256.0 88.0)"/><rect x="308.0" y="81.0" width="16.0" height="18.0" style="fill:white;stroke:black;stroke-width:0"/><text x="316.0" y="91.0" fill="black" class="diagram-class-linkage"><a xlink:href="diagnosticorder-definitions.html#DiagnosticOrder.item"><title>The specific diagnostic investigations that are requested as part of this request. Sometimes, there can only be one item per request, but in most contexts, more than one investigation can be requested</title>item</a></text><text x="356.0" y="84.0" fill="black" class="diagram-class-linkage">0..*</text></svg>