{
  "resourceType": "DiagnosticReport",
  "id": "f001",
  "text": {
    "status": "generated",
    "div": "<div><p><b>Generated Narrative with Details</b></p><p><b>id</b>: f001</p><p><b>contained</b>: </p><p><b>code</b>: Complete blood count (hemogram) panel - Blood by Automated count <span>(Details : {LOINC code '58410-2' = 'Complete blood count (hemogram) panel - Blood by Automated count', given as 'Complete blood count (hemogram) panel - Blood by Automated count'})</span></p><p><b>status</b>: final</p><p><b>issued</b>: May 15, 2013 7:32:52 PM</p><p><b>subject</b>: <a>P. van den Heuvel. Generated Summary: 738472983 (USUAL), ?? (USUAL); Pieter van de Heuvel ; ph: 0648352638(MOBILE), p.heuvel@gmail.com(HOME); MALE; birthDate: Nov 17, 1944; <span>Getrouwd</span>; multipleBirth; active</a></p><p><b>performer</b>: <a>Burgers University Medical Centre. Generated Summary: 91654 (OFFICIAL), 17-0112278 (USUAL); name: Burgers University Medical Center; <span>University Medical Hospital</span>; ph: 022-655 2300(WORK)</a></p><p><b>identifier</b>: nr1239044 (OFFICIAL)</p><p><b>requestDetail</b>: id: req; P. van den Heuvel; L2381 (OFFICIAL); clinicalNotes: patient almost fainted during procedure</p><p><b>serviceCategory</b>: Haematology test <span>(Details : {SNOMED CT code '252275004' = 'Hematology test', given as 'Haematology test'}; {http://hl7.org/fhir/v2/0074 code 'HM' = 'Hematology)</span></p><p><b>effective</b>: Apr 2, 2013</p><p><b>result</b>: </p><ul><li><a>Generated Summary: <span>Glucose [Moles/volume] in Blood</span>; 6.3 mmol/l; <span>Above high normal</span>; effective: Apr 2, 2013 9:30:10 AM --&gt; Apr 5, 2013 9:30:10 AM; issued: Apr 3, 2013 3:30:10 PM; 6323 (OFFICIAL); P. van de Heuvel; A. Langeveld</a></li><li><a>Generated Summary: <span>Base excess in Blood by calculation</span>; 12.6 mmol/l; <span>Above high normal</span>; effective: Apr 2, 2013 10:30:10 AM --&gt; Apr 5, 2013 10:30:10 AM; issued: Apr 3, 2013 3:30:10 PM; 6324 (OFFICIAL); P. van de Heuvel; A. Langeveld</a></li><li><a>Generated Summary: <span>Carbon dioxide in blood</span>; 6.2 kPa; <span>Above high normal</span>; effective: Apr 2, 2013 10:30:10 AM --&gt; Apr 5, 2013 10:30:10 AM; issued: Apr 3, 2013 3:30:10 PM; 6325 (OFFICIAL); P. van de Heuvel; A. Langeveld</a></li><li><a>Generated Summary: <span>Erythrocytes [#/volume] in Blood by Automated count</span>; 4.12 10^12/L; <span>Below low normal</span>; effective: Apr 2, 2013 10:30:10 AM --&gt; Apr 5, 2013 10:30:10 AM; issued: Apr 3, 2013 3:30:10 PM; 6326 (OFFICIAL); P. van de Heuvel; A. Langeveld</a></li><li><a>Generated Summary: <span>Hemoglobin [Mass/volume] in Venous blood</span>; 7.2 g/dl; <span>Below low normal</span>; effective: Apr 2, 2013 10:30:10 AM --&gt; Apr 5, 2013 10:30:10 AM; issued: Apr 3, 2013 3:30:10 PM; 6327 (OFFICIAL); P. van de Heuvel; A. Langeveld</a></li></ul><p><b>conclusion</b>: Core lab</p></div>"
  },
  "contained": [
    {
      "resourceType": "DiagnosticOrder",
      "id": "req",
      "subject": {
        "reference": "Patient/f001",
        "display": "P. van den Heuvel"
      },
      "orderer": {
        "reference": "Practitioner/f001",
        "display": "E.van den Broek"
      },
      "identifier": [
        {
          "use": "official",
          "system": "http://www.bmc.nl/zorgportal/identifiers/labresults",
          "value": "L2381"
        }
      ],
      "encounter": {
        "reference": "Encounter/f001"
      },
      "clinicalNotes": "patient almost fainted during procedure",
      "item": [
        {
          "code": {
            "coding": [
              {
                "system": "http://loinc.org",
                "code": "58410-2",
                "display": "Complete blood count (hemogram) panel - Blood by Automated count"
              }
            ]
          },
          "bodySiteCodeableConcept": {
            "coding": [
              {
                "system": "http://snomed.info/sct",
                "code": "14975008",
                "display": "Forearm structure"
              }
            ]
          }
        }
      ]
    }
  ],
  "code": {
    "coding": [
      {
        "system": "http://loinc.org",
        "code": "58410-2",
        "display": "Complete blood count (hemogram) panel - Blood by Automated count"
      }
    ]
  },
  "status": "final",
  "issued": "2013-05-15T19:32:52+01:00",
  "subject": {
    "reference": "Patient/f001",
    "display": "P. van den Heuvel"
  },
  "performer": {
    "reference": "Organization/f001",
    "display": "Burgers University Medical Centre"
  },
  "identifier": [
    {
      "use": "official",
      "system": "http://www.bmc.nl/zorgportal/identifiers/reports",
      "value": "nr1239044"
    }
  ],
  "requestDetail": [
    {
      "reference": "#req"
    }
  ],
  "serviceCategory": {
    "coding": [
      {
        "system": "http://snomed.info/sct",
        "code": "252275004",
        "display": "Haematology test"
      },
      {
        "system": "http://hl7.org/fhir/v2/0074",
        "code": "HM"
      }
    ]
  },
  "effectiveDateTime": "2013-04-02",
  "result": [
    {
      "reference": "Observation/f001"
    },
    {
      "reference": "Observation/f002"
    },
    {
      "reference": "Observation/f003"
    },
    {
      "reference": "Observation/f004"
    },
    {
      "reference": "Observation/f005"
    }
  ],
  "conclusion": "Core lab"
}