<?xml version="1.0" encoding="UTF-8"?><svg xmlns="http://www.w3.org/2000/svg" xmlns:xlink="http://www.w3.org/1999/xlink" version="1.1" width="680.0" height="284.0">  <defs>
    <filter id="shadow1" x="0" y="0" width="200%" height="200%">
      <feOffset result="offOut" in="SourceGraphic" dx="3" dy="3" />
      <feColorMatrix result="matrixOut" in="offOut" type="matrix" values="0.2 0 0 0 0 0 0.2 0 0 0 0 0 0.2 0 0 0 0 0 1 0" />
      <feGaussianBlur result="blurOut" in="matrixOut" stdDeviation="2" />
      <feBlend in="SourceGraphic" in2="blurOut" mode="normal" />
    </filter>
  </defs><rect x="0.0" y="0.0" rx="4" ry="4" width="316.0" height="274.0" filter="url(#shadow1)" style="fill:#f0f8ff;stroke:black;stroke-width:1"/><line x1="0.0" y1="28.0" x2="316.0" y2="28.0" style="stroke:dimgrey;stroke-width:1"/><text x="158.0" y="20.0" fill="black" class="diagram-class-title  diagram-class-resource">DiagnosticReport<tspan class="diagram-class-title-link"> (<a xlink:href="domainresource.html" class="diagram-class-reference">DomainResource</a>)</tspan></text><text x="6.0" y="42.0" fill="black" class="diagram-class-detail"><a xlink:href="diagnosticreport-definitions.html#DiagnosticReport.code"><title>A code or name that describes this diagnostic report</title>code</a> : <a xlink:href="datatypes.html#CodeableConcept">CodeableConcept</a> 1..1 « <a xlink:href="valueset-report-codes.html"><title>Codes that describe Diagnostic Reports</title>LOINC Diagnostic Report Codes</a>+ »</text><text x="6.0" y="56.0" fill="black" class="diagram-class-detail"><a xlink:href="diagnosticreport-definitions.html#DiagnosticReport.status"><title>The status of the diagnostic report as a whole (this element modifies the meaning of other elements)</title>status</a> : <a xlink:href="datatypes.html#code">code</a> 1..1 « <a xlink:href="valueset-diagnostic-report-status.html"><title>The status of the diagnostic report as a whole</title>DiagnosticReportStatus</a> »</text><text x="6.0" y="70.0" fill="black" class="diagram-class-detail"><a xlink:href="diagnosticreport-definitions.html#DiagnosticReport.issued"><title>The date and time that this version of the report was released from the source diagnostic service</title>issued</a> : <a xlink:href="datatypes.html#instant">instant</a> 1..1</text><text x="6.0" y="84.0" fill="black" class="diagram-class-detail"><a xlink:href="diagnosticreport-definitions.html#DiagnosticReport.subject"><title>The subject of the report. Usually, but not always, this is a patient. However diagnostic services also perform analyses on specimens collected from a variety of other sources</title>subject</a> : <a xlink:href="references.html#Reference">Reference</a>(<a xlink:href="patient.html#Patient">Patient</a>|<a xlink:href="group.html#Group">Group</a>|<a xlink:href="device.html#Device">Device</a>|<a xlink:href="location.html#Location">Location</a>) 1..1</text><text x="6.0" y="98.0" fill="black" class="diagram-class-detail"><a xlink:href="diagnosticreport-definitions.html#DiagnosticReport.performer"><title>The diagnostic service that is responsible for issuing the report</title>performer</a> : <a xlink:href="references.html#Reference">Reference</a>(<a xlink:href="practitioner.html#Practitioner">Practitioner</a>|<a xlink:href="organization.html#Organization">Organization</a>) 1..1</text><text x="6.0" y="112.0" fill="black" class="diagram-class-detail"><a xlink:href="diagnosticreport-definitions.html#DiagnosticReport.encounter"><title>The link to the health care event (encounter) when the order was made</title>encounter</a> : <a xlink:href="references.html#Reference">Reference</a>(<a xlink:href="encounter.html#Encounter">Encounter</a>) 0..1</text><text x="6.0" y="126.0" fill="black" class="diagram-class-detail"><a xlink:href="diagnosticreport-definitions.html#DiagnosticReport.identifier"><title>The local ID assigned to the report by the order filler, usually by the Information System of the diagnostic service provider</title>identifier</a> : <a xlink:href="datatypes.html#Identifier">Identifier</a> 0..*</text><text x="6.0" y="140.0" fill="black" class="diagram-class-detail"><a xlink:href="diagnosticreport-definitions.html#DiagnosticReport.requestDetail"><title>Details concerning a test requested</title>requestDetail</a> : <a xlink:href="references.html#Reference">Reference</a>(<a xlink:href="diagnosticorder.html#DiagnosticOrder">DiagnosticOrder</a>) 0..*</text><text x="6.0" y="154.0" fill="black" class="diagram-class-detail"><a xlink:href="diagnosticreport-definitions.html#DiagnosticReport.serviceCategory"><title>The section of the diagnostic service that performs the examination e.g. biochemistry, hematology, MRI</title>serviceCategory</a> : <a xlink:href="datatypes.html#CodeableConcept">CodeableConcept</a> 0..1 « (<a xlink:href="valueset-diagnostic-service-sections.html"><title>Codes for diagnostic service sections</title>Diagnostic Service Section Codes</a>) »</text><text x="6.0" y="168.0" fill="black" class="diagram-class-detail"><a xlink:href="diagnosticreport-definitions.html#DiagnosticReport.effective_x_"><title>The time or time-period the observed values are related to. When the subject of the report is a patient, this is usually either the time of the procedure or of specimen collection(s), but very often the source of the date/time is not known, only the date/time itself</title>effective[x]</a> : <a xlink:href="datatypes.html#dateTime">dateTime</a>|<a xlink:href="datatypes.html#Period">Period</a> 1..1</text><text x="6.0" y="182.0" fill="black" class="diagram-class-detail"><a xlink:href="diagnosticreport-definitions.html#DiagnosticReport.specimen"><title>Details about the specimens on which this diagnostic report is based</title>specimen</a> : <a xlink:href="references.html#Reference">Reference</a>(<a xlink:href="specimen.html#Specimen">Specimen</a>) 0..*</text><text x="6.0" y="196.0" fill="black" class="diagram-class-detail"><a xlink:href="diagnosticreport-definitions.html#DiagnosticReport.result"><title>Observations that are part of this diagnostic report. Observations can be simple name/value pairs (e.g. &quot;atomic&quot; results), or they can be grouping observations that include references to other members of the group (e.g. &quot;panels&quot;)</title>result</a> : <a xlink:href="references.html#Reference">Reference</a>(<a xlink:href="observation.html#Observation">Observation</a>) 0..*</text><text x="6.0" y="210.0" fill="black" class="diagram-class-detail"><a xlink:href="diagnosticreport-definitions.html#DiagnosticReport.imagingStudy"><title>One or more links to full details of any imaging performed during the diagnostic investigation. Typically, this is imaging performed by DICOM enabled modalities, but this is not required. A fully enabled PACS viewer can use this information to provide views of the source images</title>imagingStudy</a> : <a xlink:href="references.html#Reference">Reference</a>(<a xlink:href="imagingstudy.html#ImagingStudy">ImagingStudy</a>|</text><text x="26.0" y="224.0" fill="black" class="diagram-class-detail">     <a xlink:href="imagingobjectselection.html#ImagingObjectSelection">ImagingObjectSelection</a>) 0..*</text><text x="6.0" y="238.0" fill="black" class="diagram-class-detail"><a xlink:href="diagnosticreport-definitions.html#DiagnosticReport.conclusion"><title>Concise and clinically contextualized narrative interpretation of the diagnostic report</title>conclusion</a> : <a xlink:href="datatypes.html#string">string</a> 0..1</text><text x="6.0" y="252.0" fill="black" class="diagram-class-detail"><a xlink:href="diagnosticreport-definitions.html#DiagnosticReport.codedDiagnosis"><title>Codes for the conclusion</title>codedDiagnosis</a> : <a xlink:href="datatypes.html#CodeableConcept">CodeableConcept</a> 0..* « (<a xlink:href="valueset-clinical-findings.html"><title>Diagnoses codes provided as adjuncts to the report</title>SNOMED CT Clinical Findings</a>) »</text><text x="6.0" y="266.0" fill="black" class="diagram-class-detail"><a xlink:href="diagnosticreport-definitions.html#DiagnosticReport.presentedForm"><title>Rich text representation of the entire result as issued by the diagnostic service. Multiple formats are allowed but they SHALL be semantically equivalent</title>presentedForm</a> : <a xlink:href="datatypes.html#Attachment">Attachment</a> 0..*</text><rect x="360.0" y="125.0" rx="4" ry="4" width="120.0" height="64.0" filter="url(#shadow1)" style="fill:#f0f8ff;stroke:black;stroke-width:1"/><line x1="360.0" y1="153.0" x2="480.0" y2="153.0" style="stroke:dimgrey;stroke-width:1"/><text x="420.0" y="145.0" fill="black" class="diagram-class-title">Image</text><text x="366.0" y="167.0" fill="black" class="diagram-class-detail"><a xlink:href="diagnosticreport-definitions.html#DiagnosticReport.image.comment"><title>A comment about the image. Typically, this is used to provide an explanation for why the image is included, or to draw the viewer&#39;s attention to important features</title>comment</a> : <a xlink:href="datatypes.html#string">string</a> 0..1</text><text x="366.0" y="181.0" fill="black" class="diagram-class-detail"><a xlink:href="diagnosticreport-definitions.html#DiagnosticReport.image.link"><title>Reference to the image source</title>link</a> : <a xlink:href="references.html#Reference">Reference</a>(<a xlink:href="media.html#Media">Media</a>) 1..1</text><line x1="316.0" y1="149.06106870229007" x2="360.0" y2="152.4198473282443" style="stroke:navy;stroke-width:1"/><polygon points="316.0,149.06106870229007 322.0,153.06106870229007 328.0,149.06106870229007 322.0,145.06106870229007 316.0,149.06106870229007" style="fill:navy;stroke:navy;stroke-width:1" transform="rotate(4.365257735027955 316.0 149.06106870229007)"/><rect x="328.0" y="143.0" width="20.0" height="18.0" style="fill:white;stroke:black;stroke-width:0"/><text x="338.0" y="153.0" fill="black" class="diagram-class-linkage"><a xlink:href="diagnosticreport-definitions.html#DiagnosticReport.image"><title>A list of key images associated with this report. The images are generally created during the diagnostic process, and may be directly of the patient, or of treated specimens (i.e. slides of interest)</title>image</a></text><text x="340.0" y="148.4198473282443" fill="black" class="diagram-class-linkage">0..*</text></svg>