{
  "resourceType": "StructureDefinition",
  "id": "Element",
  "text": {
    "status": "generated",
    "div": "<div><table style=\"border: 0px; font-size: 11px; font-family: verdana; vertical-align: top;\" cellpadding=\"0\" border=\"0\" cellspacing=\"0\"><tr style=\"border: 1px #F0F0F0 solid; font-size: 11px; font-family: verdana; vertical-align: top;\"><th style=\"vertical-align: top; text-align : left; background-color: white; padding:0px 4px 0px 4px\" class=\"heirarchy\"><a title=\"The logical name of the element\" href=\"formats.html#table\">Name</a></th><th style=\"vertical-align: top; text-align : left; background-color: white; padding:0px 4px 0px 4px\" class=\"heirarchy\"><a title=\"Information about the use of the element\" href=\"formats.html#table\">Flags</a></th><th style=\"vertical-align: top; text-align : left; background-color: white; padding:0px 4px 0px 4px\" class=\"heirarchy\"><a title=\"Minimum and Maximum # of times the the element can appear in the instance\" href=\"formats.html#table\">Card.</a></th><th style=\"width: 100px\" class=\"heirarchy\"><a title=\"Reference to the type of the element\" href=\"formats.html#table\">Type</a></th><th style=\"vertical-align: top; text-align : left; background-color: white; padding:0px 4px 0px 4px\" class=\"heirarchy\"><a title=\"Additional information about the element\" href=\"formats.html#table\">Description &amp; Constraints</a><span style=\"float: right\"><a title=\"Legend for this format\" href=\"formats.html#table\"><img style=\"background-color: inherit\" alt=\"doco\" src=\"help16.png\"/></a></span></th></tr><tr style=\"border: 0px; padding:0px; vertical-align: top; background-color: white;\"><td style=\"vertical-align: top; text-align : left; background-color: white; padding:0px 4px 0px 4px; white-space: nowrap; background-image: url(data: image/png;base64,iVBORw0KGgoAAAANSUhEUgAAAyAAAAACCAYAAACg/LjIAAAAL0lEQVR42u3XsQ0AQAgCQHdl/xn8jxvYWB3JlTR0VJLa+OltBwAAYP6EEQAAgCsPVYVAgIJrA/sAAAAASUVORK5CYII=)\" class=\"heirarchy\"><img style=\"background-color: inherit\" alt=\".\" class=\"heirarchy\" src=\"data: image/png;base64,\"/><img title=\"Element\" style=\"background-color: white; background-color: inherit\" alt=\".\" class=\"heirarchy\" src=\"data: image/png;base64,\"/> <a title=\"Element : Base definition for all elements in a resource.\" href=\"element-definitions.html#Element\">Element</a><a name=\"Element\"> </a></td><td style=\"vertical-align: top; text-align : left; background-color: white; padding:0px 4px 0px 4px\" class=\"heirarchy\"><span title=\"This element has or is affected by some invariants\">I</span></td><td style=\"vertical-align: top; text-align : left; background-color: white; padding:0px 4px 0px 4px\" class=\"heirarchy\"></td><td style=\"vertical-align: top; text-align : left; background-color: white; padding:0px 4px 0px 4px\" class=\"heirarchy\"><a href=\"element.html\">Element</a></td><td style=\"vertical-align: top; text-align : left; background-color: white; padding:0px 4px 0px 4px\" class=\"heirarchy\">Base for all elements<br/><span title=\"ele-1\" style=\"font-style: italic\">All FHIR elements must have a @value or children</span></td></tr>\r\n<tr style=\"border: 0px; padding:0px; vertical-align: top; background-color: white;\"><td style=\"vertical-align: top; text-align : left; background-color: white; padding:0px 4px 0px 4px; white-space: nowrap; background-image: url(data: image/png;base64,iVBORw0KGgoAAAANSUhEUgAAAyAAAAACCAYAAACg/LjIAAAAL0lEQVR42u3XsQ0AQAgCQHdl/xn8jxvYWB3JlTR0VJLa+OltBwAAYP6EEQAAgCsPVYVAgIJrA/sAAAAASUVORK5CYII=)\" class=\"heirarchy\"><img style=\"background-color: inherit\" alt=\".\" class=\"heirarchy\" src=\"data: image/png;base64,\"/><img style=\"background-color: inherit\" alt=\".\" class=\"heirarchy\" src=\"data: image/png;base64,\"/><img title=\"Primitive Data Type\" style=\"background-color: white; background-color: inherit\" alt=\".\" class=\"heirarchy\" src=\"data: image/png;base64,\"/> <a title=\"Element.id : unique id for the element within a resource (for internal references).\" href=\"element-definitions.html#Element.id\">id</a><a name=\"Element.id\"> </a></td><td style=\"vertical-align: top; text-align : left; background-color: white; padding:0px 4px 0px 4px\" class=\"heirarchy\"/><td style=\"vertical-align: top; text-align : left; background-color: white; padding:0px 4px 0px 4px\" class=\"heirarchy\">0..1</td><td style=\"vertical-align: top; text-align : left; background-color: white; padding:0px 4px 0px 4px\" class=\"heirarchy\"><a href=\"datatypes.html#id\">id</a></td><td style=\"vertical-align: top; text-align : left; background-color: white; padding:0px 4px 0px 4px\" class=\"heirarchy\">xml:id (or equivalent in JSON)</td></tr>\r\n<tr style=\"border: 0px; padding:0px; vertical-align: top; background-color: white;\"><td style=\"vertical-align: top; text-align : left; background-color: white; padding:0px 4px 0px 4px; white-space: nowrap; background-image: url(data: image/png;base64,iVBORw0KGgoAAAANSUhEUgAAAyAAAAACCAYAAACg/LjIAAAAI0lEQVR42u3QIQEAAAACIL/6/4MvTAQOkLYBAAB4kAAAANwMad9AqkRjgNAAAAAASUVORK5CYII=)\" class=\"heirarchy\"><img style=\"background-color: inherit\" alt=\".\" class=\"heirarchy\" src=\"data: image/png;base64,\"/><img style=\"background-color: inherit\" alt=\".\" class=\"heirarchy\" src=\"data: image/png;base64,\"/><img title=\"Extension\" style=\"background-color: white; background-color: inherit\" alt=\".\" class=\"heirarchy\" src=\"data: image/png;base64,\"/> <a title=\"Element.extension : May be used to represent additional information that is not part of the basic definition of the element. In order to make the use of extensions safe and manageable, there is a strict set of governance  applied to the definition and use of extensions. Though any implementer is allowed to define an extension, there is a set of requirements that SHALL be met as part of the definition of the extension.\" href=\"element-definitions.html#Element.extension\">extension</a><a name=\"Element.extension\"> </a></td><td style=\"vertical-align: top; text-align : left; background-color: white; padding:0px 4px 0px 4px\" class=\"heirarchy\"/><td style=\"vertical-align: top; text-align : left; background-color: white; padding:0px 4px 0px 4px\" class=\"heirarchy\">0..*</td><td style=\"vertical-align: top; text-align : left; background-color: white; padding:0px 4px 0px 4px\" class=\"heirarchy\"><a href=\"extensibility.html#Extension\">Extension</a></td><td style=\"vertical-align: top; text-align : left; background-color: white; padding:0px 4px 0px 4px\" class=\"heirarchy\">Additional Content defined by implementations</td></tr>\r\n</table></div>"
  },
  "url": "http://hl7.org/fhir/StructureDefinition/Element",
  "name": "Element",
  "publisher": "HL7 FHIR Standard",
  "contact": [
    {
      "telecom": [
        {
          "system": "url",
          "value": "http://hl7.org/fhir"
        }
      ]
    }
  ],
  "description": "Base StructureDefinition for Element Resource",
  "status": "draft",
  "date": "2015-07-14T16:14:24+00:00",
  "mapping": [
    {
      "identity": "rim",
      "uri": "http://hl7.org/v3",
      "name": "RIM"
    }
  ],
  "kind": "datatype",
  "abstract": false,
  "base": "http://hl7.org/fhir/StructureDefinition/Element",
  "snapshot": {
    "element": [
      {
        "path": "Element",
        "short": "Base for all elements",
        "definition": "Base definition for all elements in a resource.",
        "min": 1,
        "max": "1",
        "type": [
          {
            "code": "Element"
          }
        ],
        "condition": [
          "ele-1"
        ],
        "constraint": [
          {
            "key": "ele-1",
            "severity": "error",
            "human": "All FHIR elements must have a @value or children",
            "xpath": "@value|f:*|h:div"
          }
        ],
        "mapping": [
          {
            "identity": "rim",
            "map": "n/a"
          }
        ]
      },
      {
        "path": "Element.id",
        "representation": [
          "xmlAttr"
        ],
        "short": "xml:id (or equivalent in JSON)",
        "definition": "unique id for the element within a resource (for internal references).",
        "min": 0,
        "max": "1",
        "type": [
          {
            "code": "id"
          }
        ],
        "mapping": [
          {
            "identity": "rim",
            "map": "n/a"
          }
        ]
      },
      {
        "path": "Element.extension",
        "short": "Additional Content defined by implementations",
        "definition": "May be used to represent additional information that is not part of the basic definition of the element. In order to make the use of extensions safe and manageable, there is a strict set of governance  applied to the definition and use of extensions. Though any implementer is allowed to define an extension, there is a set of requirements that SHALL be met as part of the definition of the extension.",
        "comments": "There can be no stigma associated with the use of extensions by any application, project, or standard - regardless of the institution or jurisdiction that uses or defines the extensions.  The use of extensions is what allows the FHIR specification to retain a core level of simplicity for everyone.",
        "alias": [
          "extensions",
          "user content"
        ],
        "min": 0,
        "max": "*",
        "type": [
          {
            "code": "Extension"
          }
        ],
        "mapping": [
          {
            "identity": "rim",
            "map": "n/a"
          }
        ]
      }
    ]
  },
  "differential": {
    "element": [
      {
        "path": "Element",
        "short": "Base for all elements",
        "definition": "Base definition for all elements in a resource.",
        "min": 1,
        "max": "1",
        "type": [
          {
            "code": "Element"
          }
        ],
        "condition": [
          "ele-1"
        ],
        "constraint": [
          {
            "key": "ele-1",
            "severity": "error",
            "human": "All FHIR elements must have a @value or children",
            "xpath": "@value|f:*|h:div"
          }
        ],
        "mapping": [
          {
            "identity": "rim",
            "map": "n/a"
          }
        ]
      },
      {
        "path": "Element.id",
        "representation": [
          "xmlAttr"
        ],
        "short": "xml:id (or equivalent in JSON)",
        "definition": "unique id for the element within a resource (for internal references).",
        "min": 0,
        "max": "1",
        "type": [
          {
            "code": "id"
          }
        ],
        "mapping": [
          {
            "identity": "rim",
            "map": "n/a"
          }
        ]
      },
      {
        "path": "Element.extension",
        "short": "Additional Content defined by implementations",
        "definition": "May be used to represent additional information that is not part of the basic definition of the element. In order to make the use of extensions safe and manageable, there is a strict set of governance  applied to the definition and use of extensions. Though any implementer is allowed to define an extension, there is a set of requirements that SHALL be met as part of the definition of the extension.",
        "comments": "There can be no stigma associated with the use of extensions by any application, project, or standard - regardless of the institution or jurisdiction that uses or defines the extensions.  The use of extensions is what allows the FHIR specification to retain a core level of simplicity for everyone.",
        "alias": [
          "extensions",
          "user content"
        ],
        "min": 0,
        "max": "*",
        "type": [
          {
            "code": "Extension"
          }
        ],
        "mapping": [
          {
            "identity": "rim",
            "map": "n/a"
          }
        ]
      }
    ]
  }
}