{
  "resourceType": "SearchParameter",
  "id": "elementdefinition-11179-DataElement-objectClassProperty",
  "url": "http://hl7.org/fhir/SearchParameter/elementdefinition-11179-DataElement-objectClassProperty",
  "name": "objectClassProperty",
  "base": "DataElement",
  "type": "token",
  "description": "Matches on the 11179-objectClassProperty extension value",
  "xpath": "f:DataElement/f:element/f:mapping/f:extension{http://hl7/f:org/fhir/StructureDefinition/11179-objectClassProperty}"
}