{
  "resourceType": "Encounter",
  "id": "f202",
  "text": {
    "status": "generated",
    "div": "<div><p><b>Generated Narrative with Details</b></p><p><b>id</b>: f202</p><p><b>identifier</b>: Encounter_Roel_20130128 (TEMP)</p><p><b>status</b>: finished</p><p><b>class</b>: outpatient</p><p><b>type</b>: Chemotherapy <span>(Details : {SNOMED CT code '367336001' = 'Chemotherapy', given as 'Chemotherapy'})</span></p><p><b>patient</b>: <a>Roel. Generated Summary: BSN = 123456789 (OFFICIAL), BSN = 123456789 (OFFICIAL); Roel(OFFICIAL); ph: +31612345678(MOBILE), ph: +31201234567(HOME); MALE; birthDate: Mar 13, 1960; <span>Legally married</span>; active</a></p><h3>Participants</h3><table><tr><td>-</td><td><b>Individual</b></td></tr><tr><td>*</td><td><a>Generated Summary: UZI-nummer = 12345678901 (OFFICIAL); Dokter Bronsig(OFFICIAL); ph: +31715269111(WORK); MALE; birthDate: Dec 24, 1956</a></td></tr></table><p><b>length</b>: 56 minutes<span> (Details: SNOMED CT code 258701004 = 'min (qualifier value)')</span></p><p><b>reason</b>: The patient is treated for a tumor. <span>(Details )</span></p><p><b>indication</b>: <a>Roel's TPF chemotherapy on January 28th, 2013. Generated Summary: COMPLETED; <span>Chemotherapy</span>; <span>DiagnosticReport/f201</span>; performed: Jan 28, 2013 1:31:00 PM --&gt; Jan 28, 2013 2:27:00 PM; notes: Eerste neo-adjuvante TPF-kuur bij groot proces in sphenoid met intracraniale uitbreiding.</a></p><p><b>priority</b>: Urgent <span>(Details : {SNOMED CT code '103391001' = 'Urgent', given as 'Urgent'})</span></p><p><b>serviceProvider</b>: <a>Generated Summary: Artis University Medical Center (OFFICIAL); name: Artis University Medical Center (AUMC); <span>Academic Medical Center</span>; ph: +31715269111(WORK); active</a></p></div>"
  },
  "identifier": [
    {
      "use": "temp",
      "value": "Encounter_Roel_20130128"
    }
  ],
  "status": "finished",
  "class": "outpatient",
  "type": [
    {
      "coding": [
        {
          "system": "http://snomed.info/sct",
          "code": "367336001",
          "display": "Chemotherapy"
        }
      ]
    }
  ],
  "patient": {
    "reference": "Patient/f201",
    "display": "Roel"
  },
  "participant": [
    {
      "individual": {
        "reference": "Practitioner/f201"
      }
    }
  ],
  "length": {
    "value": 56,
    "units": "minutes",
    "system": "http://snomed.info/sct",
    "code": "258701004"
  },
  "reason": [
    {
      "text": "The patient is treated for a tumor."
    }
  ],
  "indication": [
    {
      "reference": "Procedure/f201",
      "display": "Roel's TPF chemotherapy on January 28th, 2013"
    }
  ],
  "priority": {
    "coding": [
      {
        "system": "http://snomed.info/sct",
        "code": "103391001",
        "display": "Urgent"
      }
    ]
  },
  "serviceProvider": {
    "reference": "Organization/f201"
  }
}