{
  "resourceType": "StructureDefinition",
  "id": "geneticsVariationId",
  "url": "http://hl7.org/fhir/StructureDefinition/geneticsVariationId",
  "name": "VariantId",
  "publisher": "Health Level Seven International (Clinical Genomics)",
  "contact": [
    {
      "telecom": [
        {
          "system": "url",
          "value": "http://www.hl7.org/Special/committees/clingenomics"
        }
      ]
    }
  ],
  "description": "Identifier for variant.  If a germline variant, ClinVar or dbSNP identifier should be used. If ClinVar is used, the identifier should be prefixed with 'ClinVar:' (e.g. ClinVar:17661).  dbSNP ids are start with 'rs' (rs28897672) and COSMIC id's start with 'COSM' (e.g. COSM12979). Note, dbSNP id's are not unique to a variant but a location, so nucleotide change and germline/somatic classification are needed to resolve.  If a somatic variant, COSMIC identifier should be used, unless in ClinVar then either maybe used.",
  "status": "draft",
  "date": "2015-03-18",
  "kind": "datatype",
  "constrainedType": "Extension",
  "abstract": false,
  "contextType": "resource",
  "context": [
    "Observation"
  ],
  "base": "http://hl7.org/fhir/StructureDefinition/Extension",
  "snapshot": {
    "element": [
      {
        "path": "Extension",
        "short": "VariantId",
        "definition": "Identifier for variant.  If a germline variant, ClinVar or dbSNP identifier should be used. If ClinVar is used, the identifier should be prefixed with 'ClinVar:' (e.g. ClinVar:17661).  dbSNP ids are start with 'rs' (rs28897672) and COSMIC id's start with 'COSM' (e.g. COSM12979). Note, dbSNP id's are not unique to a variant but a location, so nucleotide change and germline/somatic classification are needed to resolve.  If a somatic variant, COSMIC identifier should be used, unless in ClinVar then either maybe used.",
        "min": 0,
        "max": "1",
        "type": [
          {
            "code": "Extension"
          }
        ]
      },
      {
        "path": "Extension.id",
        "representation": [
          "xmlAttr"
        ],
        "short": "xml:id (or equivalent in JSON)",
        "definition": "unique id for the element within a resource (for internal references).",
        "min": 0,
        "max": "1",
        "type": [
          {
            "code": "id"
          }
        ],
        "mapping": [
          {
            "identity": "rim",
            "map": "n/a"
          }
        ]
      },
      {
        "path": "Extension.extension",
        "short": "Additional Content defined by implementations",
        "definition": "May be used to represent additional information that is not part of the basic definition of the element. In order to make the use of extensions safe and manageable, there is a strict set of governance  applied to the definition and use of extensions. Though any implementer is allowed to define an extension, there is a set of requirements that SHALL be met as part of the definition of the extension.",
        "comments": "There can be no stigma associated with the use of extensions by any application, project, or standard - regardless of the institution or jurisdiction that uses or defines the extensions.  The use of extensions is what allows the FHIR specification to retain a core level of simplicity for everyone.",
        "alias": [
          "extensions",
          "user content"
        ],
        "min": 0,
        "max": "*",
        "type": [
          {
            "code": "Extension"
          }
        ],
        "mapping": [
          {
            "identity": "rim",
            "map": "n/a"
          }
        ]
      },
      {
        "path": "Extension.url",
        "representation": [
          "xmlAttr"
        ],
        "short": "identifies the meaning of the extension",
        "definition": "Source of the definition for the extension code - a logical name or a URL.",
        "comments": "The definition may point directly to a computable or human-readable definition of the extensibility codes, or it may be a logical URI as declared in some other specification. The definition should be version specific.  This will ideally be the URI for the Resource Profile defining the extension, with the code for the extension after a #.",
        "min": 1,
        "max": "1",
        "type": [
          {
            "code": "uri"
          }
        ],
        "fixedUri": "http://hl7.org/fhir/StructureDefinition/geneticsVariationId",
        "mapping": [
          {
            "identity": "rim",
            "map": "N/A"
          }
        ]
      },
      {
        "path": "Extension.valueCode",
        "short": "Value of extension",
        "definition": "Value of extension - may be a resource or one of a constrained set of the data types (see Extensibility in the spec for list).",
        "min": 0,
        "max": "1",
        "type": [
          {
            "code": "code"
          }
        ],
        "mapping": [
          {
            "identity": "rim",
            "map": "N/A"
          }
        ]
      }
    ]
  },
  "differential": {
    "element": [
      {
        "path": "Extension",
        "short": "VariantId",
        "definition": "Identifier for variant.  If a germline variant, ClinVar or dbSNP identifier should be used. If ClinVar is used, the identifier should be prefixed with 'ClinVar:' (e.g. ClinVar:17661).  dbSNP ids are start with 'rs' (rs28897672) and COSMIC id's start with 'COSM' (e.g. COSM12979). Note, dbSNP id's are not unique to a variant but a location, so nucleotide change and germline/somatic classification are needed to resolve.  If a somatic variant, COSMIC identifier should be used, unless in ClinVar then either maybe used.",
        "min": 0,
        "max": "1",
        "type": [
          {
            "code": "Extension"
          }
        ]
      },
      {
        "path": "Extension.url",
        "type": [
          {
            "code": "uri"
          }
        ],
        "fixedUri": "http://hl7.org/fhir/StructureDefinition/geneticsVariationId"
      },
      {
        "path": "Extension.value[x]",
        "type": [
          {
            "code": "code"
          }
        ]
      }
    ]
  }
}