<?xml version="1.0" encoding="UTF-8"?><svg xmlns="http://www.w3.org/2000/svg" xmlns:xlink="http://www.w3.org/1999/xlink" version="1.1" width="668.0" height="228.0">  <defs>
    <filter id="shadow1" x="0" y="0" width="200%" height="200%">
      <feOffset result="offOut" in="SourceGraphic" dx="3" dy="3" />
      <feColorMatrix result="matrixOut" in="offOut" type="matrix" values="0.2 0 0 0 0 0 0.2 0 0 0 0 0 0.2 0 0 0 0 0 1 0" />
      <feGaussianBlur result="blurOut" in="matrixOut" stdDeviation="2" />
      <feBlend in="SourceGraphic" in2="blurOut" mode="normal" />
    </filter>
  </defs><rect x="0.0" y="0.0" rx="4" ry="4" width="204.0" height="218.0" filter="url(#shadow1)" style="fill:#f0f8ff;stroke:black;stroke-width:1"/><line x1="0.0" y1="28.0" x2="204.0" y2="28.0" style="stroke:dimgrey;stroke-width:1"/><text x="102.0" y="20.0" fill="black" class="diagram-class-title  diagram-class-resource">Goal<tspan class="diagram-class-title-link"> (<a xlink:href="domainresource.html" class="diagram-class-reference">DomainResource</a>)</tspan></text><text x="6.0" y="42.0" fill="black" class="diagram-class-detail"><a xlink:href="goal-definitions.html#Goal.identifier"><title>This records identifiers associated with this care plan that are defined by business processed and/ or used to refer to it when a direct URL reference to the resource itself is not appropriate (e.g. in CDA documents, or in written / printed documentation)</title>identifier</a> : <a xlink:href="datatypes.html#Identifier">Identifier</a> 0..*</text><text x="6.0" y="56.0" fill="black" class="diagram-class-detail"><a xlink:href="goal-definitions.html#Goal.patient"><title>Identifies the patient/subject whose intended care is described by the plan</title>patient</a> : <a xlink:href="references.html#Reference">Reference</a>(<a xlink:href="patient.html#Patient">Patient</a>) 0..1</text><text x="6.0" y="70.0" fill="black" class="diagram-class-detail"><a xlink:href="goal-definitions.html#Goal.targetDate"><title>Indicates when the goal is intended to be reached</title>targetDate</a> : <a xlink:href="datatypes.html#date">date</a> 0..1</text><text x="6.0" y="84.0" fill="black" class="diagram-class-detail"><a xlink:href="goal-definitions.html#Goal.description"><title>Human-readable description of a specific desired objective of care</title>description</a> : <a xlink:href="datatypes.html#string">string</a> 1..1</text><text x="6.0" y="98.0" fill="black" class="diagram-class-detail"><a xlink:href="goal-definitions.html#Goal.status"><title>Indicates whether the goal has been reached and is still considered relevant (this element modifies the meaning of other elements)</title>status</a> : <a xlink:href="datatypes.html#code">code</a> 1..1 « <a xlink:href="valueset-goal-status.html"><title>Indicates whether the goal has been met and is still being targeted</title>GoalStatus</a> »</text><text x="6.0" y="112.0" fill="black" class="diagram-class-detail"><a xlink:href="goal-definitions.html#Goal.statusDate"><title>Identifies when the current status.  I.e. When initially created, when achieved, when cancelled, etc</title>statusDate</a> : <a xlink:href="datatypes.html#date">date</a> 0..1</text><text x="6.0" y="126.0" fill="black" class="diagram-class-detail"><a xlink:href="goal-definitions.html#Goal.author"><title>Indicates whose goal this is - patient goal, practitioner goal, etc</title>author</a> : <a xlink:href="references.html#Reference">Reference</a>(<a xlink:href="patient.html#Patient">Patient</a>|<a xlink:href="practitioner.html#Practitioner">Practitioner</a>|</text><text x="26.0" y="140.0" fill="black" class="diagram-class-detail">     <a xlink:href="relatedperson.html#RelatedPerson">RelatedPerson</a>) 0..1</text><text x="6.0" y="154.0" fill="black" class="diagram-class-detail"><a xlink:href="goal-definitions.html#Goal.priority"><title>Identifies the level of importance associated with reaching/sustaining the goal</title>priority</a> : <a xlink:href="datatypes.html#CodeableConcept">CodeableConcept</a> 0..1 « <a xlink:href="valueset-goal-priority.html"><title>The level of importance associated with a goal</title>GoalPriority</a>+ »</text><text x="6.0" y="168.0" fill="black" class="diagram-class-detail"><a xlink:href="goal-definitions.html#Goal.concern"><title>The identified conditions and other health record elements that are intended to be addressed by the goal</title>concern</a> : <a xlink:href="references.html#Reference">Reference</a>(<a xlink:href="condition.html#Condition">Condition</a>|<a xlink:href="observation.html#Observation">Observation</a>|</text><text x="26.0" y="182.0" fill="black" class="diagram-class-detail">     <a xlink:href="medicationstatement.html#MedicationStatement">MedicationStatement</a>|<a xlink:href="nutritionorder.html#NutritionOrder">NutritionOrder</a>|</text><text x="26.0" y="196.0" fill="black" class="diagram-class-detail">     <a xlink:href="procedurerequest.html#ProcedureRequest">ProcedureRequest</a>|<a xlink:href="riskassessment.html#RiskAssessment">RiskAssessment</a>) 0..*</text><text x="6.0" y="210.0" fill="black" class="diagram-class-detail"><a xlink:href="goal-definitions.html#Goal.notes"><title>Any comments related to the goal</title>notes</a> : <a xlink:href="datatypes.html#string">string</a> 0..1</text><rect x="240.0" y="0.0" rx="4" ry="4" width="228.0" height="50.0" filter="url(#shadow1)" style="fill:#f0f8ff;stroke:black;stroke-width:1"/><line x1="240.0" y1="28.0" x2="468.0" y2="28.0" style="stroke:dimgrey;stroke-width:1"/><text x="354.0" y="20.0" fill="black" class="diagram-class-title">Outcome</text><text x="246.0" y="42.0" fill="black" class="diagram-class-detail"><a xlink:href="goal-definitions.html#Goal.outcome.result_x_"><title>Details of what&#39;s changed (or not changed)</title>result[x]</a> : <a xlink:href="datatypes.html#CodeableConcept">CodeableConcept</a>|<a xlink:href="references.html#Reference">Reference</a>(<a xlink:href="observation.html#Observation">Observation</a>) 0..1</text><line x1="204.0" y1="75.0" x2="279.0" y2="50.0" style="stroke:navy;stroke-width:1"/><polygon points="204.0,75.0 210.0,79.0 216.0,75.0 210.0,71.0 204.0,75.0" style="fill:navy;stroke:navy;stroke-width:1" transform="rotate(-18.43494882292201 204.0 75.0)"/><rect x="227.0" y="55.0" width="28.0" height="18.0" style="fill:white;stroke:black;stroke-width:0"/><text x="241.0" y="65.0" fill="black" class="diagram-class-linkage"><a xlink:href="goal-definitions.html#Goal.outcome"><title>Identifies the change (or lack of change) at the point where the goal was deepmed to be cancelled or achieved</title>outcome</a></text><text x="279.0" y="64.0" fill="black" class="diagram-class-linkage">0..*</text></svg>