<?xml version="1.0" encoding="UTF-8"?><svg xmlns="http://www.w3.org/2000/svg" xmlns:xlink="http://www.w3.org/1999/xlink" version="1.1" width="1036.0" height="424.0">  <defs>
    <filter id="shadow1" x="0" y="0" width="200%" height="200%">
      <feOffset result="offOut" in="SourceGraphic" dx="3" dy="3" />
      <feColorMatrix result="matrixOut" in="offOut" type="matrix" values="0.2 0 0 0 0 0 0.2 0 0 0 0 0 0.2 0 0 0 0 0 1 0" />
      <feGaussianBlur result="blurOut" in="matrixOut" stdDeviation="2" />
      <feBlend in="SourceGraphic" in2="blurOut" mode="normal" />
    </filter>
  </defs><rect x="20.0" y="0.0" rx="4" ry="4" width="324.0" height="260.0" filter="url(#shadow1)" style="fill:#f0f8ff;stroke:black;stroke-width:1"/><line x1="20.0" y1="28.0" x2="344.0" y2="28.0" style="stroke:dimgrey;stroke-width:1"/><text x="182.0" y="20.0" fill="black" class="diagram-class-title  diagram-class-resource">Immunization<tspan class="diagram-class-title-link"> (<a xlink:href="domainresource.html" class="diagram-class-reference">DomainResource</a>)</tspan></text><text x="26.0" y="42.0" fill="black" class="diagram-class-detail"><a xlink:href="immunization-definitions.html#Immunization.identifier"><title>A unique identifier assigned to this immunization record</title>identifier</a> : <a xlink:href="datatypes.html#Identifier">Identifier</a> 0..*</text><text x="26.0" y="56.0" fill="black" class="diagram-class-detail"><a xlink:href="immunization-definitions.html#Immunization.date"><title>Date vaccine administered or was to be administered</title>date</a> : <a xlink:href="datatypes.html#dateTime">dateTime</a> 1..1</text><text x="26.0" y="70.0" fill="black" class="diagram-class-detail"><a xlink:href="immunization-definitions.html#Immunization.vaccineType"><title>Vaccine that was administered or was to be administered</title>vaccineType</a> : <a xlink:href="datatypes.html#CodeableConcept">CodeableConcept</a> 1..1 « (<a xlink:href="valueset-vaccinetype.html"><title>The type of vaccine administered</title>Vaccine Administered Value Set</a>) »</text><text x="26.0" y="84.0" fill="black" class="diagram-class-detail"><a xlink:href="immunization-definitions.html#Immunization.patient"><title>The patient who either received or did not receive the immunization</title>patient</a> : <a xlink:href="references.html#Reference">Reference</a>(<a xlink:href="patient.html#Patient">Patient</a>) 1..1</text><text x="26.0" y="98.0" fill="black" class="diagram-class-detail"><a xlink:href="immunization-definitions.html#Immunization.wasNotGiven"><title>Indicates if the vaccination was or was not given (this element modifies the meaning of other elements)</title>wasNotGiven</a> : <a xlink:href="datatypes.html#boolean">boolean</a> 1..1</text><text x="26.0" y="112.0" fill="black" class="diagram-class-detail"><a xlink:href="immunization-definitions.html#Immunization.reported"><title>True if this administration was reported rather than directly administered</title>reported</a> : <a xlink:href="datatypes.html#boolean">boolean</a> 1..1</text><text x="26.0" y="126.0" fill="black" class="diagram-class-detail"><a xlink:href="immunization-definitions.html#Immunization.performer"><title>Clinician who administered the vaccine</title>performer</a> : <a xlink:href="references.html#Reference">Reference</a>(<a xlink:href="practitioner.html#Practitioner">Practitioner</a>) 0..1</text><text x="26.0" y="140.0" fill="black" class="diagram-class-detail"><a xlink:href="immunization-definitions.html#Immunization.requester"><title>Clinician who ordered the vaccination</title>requester</a> : <a xlink:href="references.html#Reference">Reference</a>(<a xlink:href="practitioner.html#Practitioner">Practitioner</a>) 0..1</text><text x="26.0" y="154.0" fill="black" class="diagram-class-detail"><a xlink:href="immunization-definitions.html#Immunization.encounter"><title>The visit or admission or other contact between patient and health care provider the immunization was performed as part of</title>encounter</a> : <a xlink:href="references.html#Reference">Reference</a>(<a xlink:href="encounter.html#Encounter">Encounter</a>) 0..1</text><text x="26.0" y="168.0" fill="black" class="diagram-class-detail"><a xlink:href="immunization-definitions.html#Immunization.manufacturer"><title>Name of vaccine manufacturer</title>manufacturer</a> : <a xlink:href="references.html#Reference">Reference</a>(<a xlink:href="organization.html#Organization">Organization</a>) 0..1</text><text x="26.0" y="182.0" fill="black" class="diagram-class-detail"><a xlink:href="immunization-definitions.html#Immunization.location"><title>The service delivery location where the vaccine administration occurred</title>location</a> : <a xlink:href="references.html#Reference">Reference</a>(<a xlink:href="location.html#Location">Location</a>) 0..1</text><text x="26.0" y="196.0" fill="black" class="diagram-class-detail"><a xlink:href="immunization-definitions.html#Immunization.lotNumber"><title>Lot number of the  vaccine product</title>lotNumber</a> : <a xlink:href="datatypes.html#string">string</a> 0..1</text><text x="26.0" y="210.0" fill="black" class="diagram-class-detail"><a xlink:href="immunization-definitions.html#Immunization.expirationDate"><title>Date vaccine batch expires</title>expirationDate</a> : <a xlink:href="datatypes.html#date">date</a> 0..1</text><text x="26.0" y="224.0" fill="black" class="diagram-class-detail"><a xlink:href="immunization-definitions.html#Immunization.site"><title>Body site where vaccine was administered</title>site</a> : <a xlink:href="datatypes.html#CodeableConcept">CodeableConcept</a> 0..1 « (<a xlink:href="valueset-immunization-site.html"><title>The site at which the vaccine was administered</title>Codes for Immunization Site of Administration</a>) »</text><text x="26.0" y="238.0" fill="black" class="diagram-class-detail"><a xlink:href="immunization-definitions.html#Immunization.route"><title>The path by which the vaccine product is taken into the body</title>route</a> : <a xlink:href="datatypes.html#CodeableConcept">CodeableConcept</a> 0..1 « (<a xlink:href="valueset-immunization-route.html"><title>The route by which the vaccine was administered</title>Immunization Route Codes</a>) »</text><text x="26.0" y="252.0" fill="black" class="diagram-class-detail"><a xlink:href="immunization-definitions.html#Immunization.doseQuantity"><title>The quantity of vaccine product that was administered</title>doseQuantity</a> : <a xlink:href="datatypes.html#Quantity">Quantity</a> 0..1</text><rect x="0.0" y="340.0" rx="4" ry="4" width="364.0" height="64.0" filter="url(#shadow1)" style="fill:#f0f8ff;stroke:black;stroke-width:1"/><line x1="0.0" y1="368.0" x2="364.0" y2="368.0" style="stroke:dimgrey;stroke-width:1"/><text x="182.0" y="360.0" fill="black" class="diagram-class-title">Explanation</text><text x="6.0" y="382.0" fill="black" class="diagram-class-detail"><a xlink:href="immunization-definitions.html#Immunization.explanation.reason"><title>Reasons why a vaccine was administered</title>reason</a> : <a xlink:href="datatypes.html#CodeableConcept">CodeableConcept</a> 0..* « (<a xlink:href="valueset-immunization-reason.html"><title>The reason why a vaccine was administered</title>Immunization Reason Codes</a>) »</text><text x="6.0" y="396.0" fill="black" class="diagram-class-detail"><a xlink:href="immunization-definitions.html#Immunization.explanation.reasonNotGiven"><title>Reason why a vaccine was not administered</title>reasonNotGiven</a> : <a xlink:href="datatypes.html#CodeableConcept">CodeableConcept</a> 0..* « (<a xlink:href="valueset-no-immunization-reason.html"><title>The reason why a vaccine was not administered</title>Immunization Reasons for Not Immunizing Codes</a>) »</text><rect x="400.0" y="240.0" rx="4" ry="4" width="152.0" height="78.0" filter="url(#shadow1)" style="fill:#f0f8ff;stroke:black;stroke-width:1"/><line x1="400.0" y1="268.0" x2="552.0" y2="268.0" style="stroke:dimgrey;stroke-width:1"/><text x="476.0" y="260.0" fill="black" class="diagram-class-title">Reaction</text><text x="406.0" y="282.0" fill="black" class="diagram-class-detail"><a xlink:href="immunization-definitions.html#Immunization.reaction.date"><title>Date of reaction to the immunization</title>date</a> : <a xlink:href="datatypes.html#dateTime">dateTime</a> 0..1</text><text x="406.0" y="296.0" fill="black" class="diagram-class-detail"><a xlink:href="immunization-definitions.html#Immunization.reaction.detail"><title>Details of the reaction</title>detail</a> : <a xlink:href="references.html#Reference">Reference</a>(<a xlink:href="observation.html#Observation">Observation</a>) 0..1</text><text x="406.0" y="310.0" fill="black" class="diagram-class-detail"><a xlink:href="immunization-definitions.html#Immunization.reaction.reported"><title>Self-reported indicator</title>reported</a> : <a xlink:href="datatypes.html#boolean">boolean</a> 0..1</text><rect x="464.0" y="56.0" rx="4" ry="4" width="372.0" height="148.0" filter="url(#shadow1)" style="fill:#f0f8ff;stroke:black;stroke-width:1"/><line x1="464.0" y1="84.0" x2="836.0" y2="84.0" style="stroke:dimgrey;stroke-width:1"/><text x="650.0" y="76.0" fill="black" class="diagram-class-title">VaccinationProtocol</text><text x="470.0" y="98.0" fill="black" class="diagram-class-detail"><a xlink:href="immunization-definitions.html#Immunization.vaccinationProtocol.doseSequence"><title>Nominal position in a series</title>doseSequence</a> : <a xlink:href="datatypes.html#positiveInt">positiveInt</a> 1..1</text><text x="470.0" y="112.0" fill="black" class="diagram-class-detail"><a xlink:href="immunization-definitions.html#Immunization.vaccinationProtocol.description"><title>Contains the description about the protocol under which the vaccine was administered</title>description</a> : <a xlink:href="datatypes.html#string">string</a> 0..1</text><text x="470.0" y="126.0" fill="black" class="diagram-class-detail"><a xlink:href="immunization-definitions.html#Immunization.vaccinationProtocol.authority"><title>Indicates the authority who published the protocol?  E.g. ACIP</title>authority</a> : <a xlink:href="references.html#Reference">Reference</a>(<a xlink:href="organization.html#Organization">Organization</a>) 0..1</text><text x="470.0" y="140.0" fill="black" class="diagram-class-detail"><a xlink:href="immunization-definitions.html#Immunization.vaccinationProtocol.series"><title>One possible path to achieve presumed immunity against a disease - within the context of an authority</title>series</a> : <a xlink:href="datatypes.html#string">string</a> 0..1</text><text x="470.0" y="154.0" fill="black" class="diagram-class-detail"><a xlink:href="immunization-definitions.html#Immunization.vaccinationProtocol.seriesDoses"><title>The recommended number of doses to achieve immunity</title>seriesDoses</a> : <a xlink:href="datatypes.html#positiveInt">positiveInt</a> 0..1</text><text x="470.0" y="168.0" fill="black" class="diagram-class-detail"><a xlink:href="immunization-definitions.html#Immunization.vaccinationProtocol.doseTarget"><title>The targeted disease</title>doseTarget</a> : <a xlink:href="datatypes.html#CodeableConcept">CodeableConcept</a> 1..1 « (<a xlink:href="valueset-vaccination-protocol-dose-target.html"><title>The disease target of the vaccination protocol</title>Vaccination Protocol Dose TargetCodes</a>) »</text><text x="470.0" y="182.0" fill="black" class="diagram-class-detail"><a xlink:href="immunization-definitions.html#Immunization.vaccinationProtocol.doseStatus"><title>Indicates if the immunization event should &quot;count&quot; against  the protocol</title>doseStatus</a> : <a xlink:href="datatypes.html#CodeableConcept">CodeableConcept</a> 1..1 « (<a xlink:href="valueset-vaccination-protocol-dose-status.html"><title>The status of the vaccination protocol (i.e. should this count)</title>Vaccination Protocol Dose Status codes</a>) »</text><text x="470.0" y="196.0" fill="black" class="diagram-class-detail"><a xlink:href="immunization-definitions.html#Immunization.vaccinationProtocol.doseStatusReason"><title>Provides an explanation as to why a immunization event should or should not count against the protocol</title>doseStatusReason</a> : <a xlink:href="datatypes.html#CodeableConcept">CodeableConcept</a> 0..1 « (<a xlink:href="valueset-vaccination-protocol-dose-status-reason.html"><title>The reason for the determining if a vaccination should count or why vaccination should not count.</title>Vaccination Protocol Dose Status Reason codes</a>) »</text><line x1="182.0" y1="260.0" x2="182.0" y2="340.0" style="stroke:navy;stroke-width:1"/><polygon points="182.0,260.0 188.0,264.0 194.0,260.0 188.0,256.0 182.0,260.0" style="fill:navy;stroke:navy;stroke-width:1" transform="rotate(90.0 182.0 260.0)"/><rect x="160.0" y="293.0" width="44.0" height="18.0" style="fill:white;stroke:black;stroke-width:0"/><text x="182.0" y="303.0" fill="black" class="diagram-class-linkage"><a xlink:href="immunization-definitions.html#Immunization.explanation"><title>Reasons why a vaccine was or was not administered</title>explanation</a></text><text x="182.0" y="336.0" fill="black" class="diagram-class-linkage">0..1</text><line x1="344.0" y1="212.10204081632654" x2="400.0" y2="240.48299319727892" style="stroke:navy;stroke-width:1"/><polygon points="344.0,212.10204081632654 350.0,216.10204081632654 356.0,212.10204081632654 350.0,208.10204081632654 344.0,212.10204081632654" style="fill:navy;stroke:navy;stroke-width:1" transform="rotate(26.876015719494873 344.0 212.10204081632654)"/><rect x="356.0" y="219.0" width="32.0" height="18.0" style="fill:white;stroke:black;stroke-width:0"/><text x="372.0" y="229.0" fill="black" class="diagram-class-linkage"><a xlink:href="immunization-definitions.html#Immunization.reaction"><title>Categorical data indicating that an adverse event is associated in time to an immunization</title>reaction</a></text><text x="380.0" y="236.48299319727892" fill="black" class="diagram-class-linkage">0..*</text><line x1="344.0" y1="130.0" x2="464.0" y2="130.0" style="stroke:navy;stroke-width:1"/><polygon points="344.0,130.0 350.0,134.0 356.0,130.0 350.0,126.0 344.0,130.0" style="fill:navy;stroke:navy;stroke-width:1" transform="rotate(0.0 344.0 130.0)"/><rect x="366.0" y="123.0" width="76.0" height="18.0" style="fill:white;stroke:black;stroke-width:0"/><text x="404.0" y="133.0" fill="black" class="diagram-class-linkage"><a xlink:href="immunization-definitions.html#Immunization.vaccinationProtocol"><title>Contains information about the protocol(s) under which the vaccine was administered</title>vaccinationProtocol</a></text><text x="444.0" y="126.0" fill="black" class="diagram-class-linkage">0..*</text></svg>