<?xml version="1.0" encoding="UTF-8"?><svg xmlns="http://www.w3.org/2000/svg" xmlns:xlink="http://www.w3.org/1999/xlink" version="1.1" width="895.2" height="307.0">  <defs>
    <filter id="shadow1" x="0" y="0" width="200%" height="200%">
      <feOffset result="offOut" in="SourceGraphic" dx="3" dy="3" />
      <feColorMatrix result="matrixOut" in="offOut" type="matrix" values="0.2 0 0 0 0 0 0.2 0 0 0 0 0 0.2 0 0 0 0 0 1 0" />
      <feGaussianBlur result="blurOut" in="matrixOut" stdDeviation="2" />
      <feBlend in="SourceGraphic" in2="blurOut" mode="normal" />
    </filter>
  </defs><rect x="0.0" y="35.0" rx="4" ry="4" width="231.20000000000002" height="64.0" filter="url(#shadow1)" style="fill:#f0f8ff;stroke:black;stroke-width:1"/><line x1="0.0" y1="63.0" x2="231.20000000000002" y2="63.0" style="stroke:dimgrey;stroke-width:1"/><text x="115.60000000000001" y="55.0" fill="black" class="diagram-class-title  diagram-class-resource">ImmunizationRecommendation<tspan class="diagram-class-title-link"> (<a xlink:href="domainresource.html" class="diagram-class-reference">DomainResource</a>)</tspan></text><text x="6.0" y="77.0" fill="black" class="diagram-class-detail"><a xlink:href="immunizationrecommendation-definitions.html#ImmunizationRecommendation.identifier"><title>A unique identifier assigned to this particular recommendation record</title>identifier</a> : <a xlink:href="datatypes.html#Identifier">Identifier</a> 0..*</text><text x="6.0" y="91.0" fill="black" class="diagram-class-detail"><a xlink:href="immunizationrecommendation-definitions.html#ImmunizationRecommendation.patient"><title>The patient for whom the recommendations are for</title>patient</a> : <a xlink:href="references.html#Reference">Reference</a>(<a xlink:href="patient.html#Patient">Patient</a>) 1..1</text><rect x="351.20000000000005" y="0.0" rx="4" ry="4" width="344.0" height="134.0" filter="url(#shadow1)" style="fill:#f0f8ff;stroke:black;stroke-width:1"/><line x1="351.20000000000005" y1="28.0" x2="695.2" y2="28.0" style="stroke:dimgrey;stroke-width:1"/><text x="523.2" y="20.0" fill="black" class="diagram-class-title">Recommendation</text><text x="357.20000000000005" y="42.0" fill="black" class="diagram-class-detail"><a xlink:href="immunizationrecommendation-definitions.html#ImmunizationRecommendation.recommendation.date"><title>The date the immunization recommendation was created</title>date</a> : <a xlink:href="datatypes.html#dateTime">dateTime</a> 1..1</text><text x="357.20000000000005" y="56.0" fill="black" class="diagram-class-detail"><a xlink:href="immunizationrecommendation-definitions.html#ImmunizationRecommendation.recommendation.vaccineType"><title>Vaccine that pertains to the recommendation</title>vaccineType</a> : <a xlink:href="datatypes.html#CodeableConcept">CodeableConcept</a> 1..1 « (<a xlink:href="valueset-vaccinetype.html"><title>The type of vaccine administered</title>Vaccine Administered Value Set</a>) »</text><text x="357.20000000000005" y="70.0" fill="black" class="diagram-class-detail"><a xlink:href="immunizationrecommendation-definitions.html#ImmunizationRecommendation.recommendation.doseNumber"><title>This indicates the next recommended dose number (e.g. dose 2 is the next recommended dose)</title>doseNumber</a> : <a xlink:href="datatypes.html#positiveInt">positiveInt</a> 0..1</text><text x="357.20000000000005" y="84.0" fill="black" class="diagram-class-detail"><a xlink:href="immunizationrecommendation-definitions.html#ImmunizationRecommendation.recommendation.forecastStatus"><title>Vaccine administration status</title>forecastStatus</a> : <a xlink:href="datatypes.html#CodeableConcept">CodeableConcept</a> 1..1 « (<a xlink:href="valueset-immunization-recommendation-status.html"><title>The patient&#39;s status with respect to a vaccination protocol</title>Immunization Recommendation Status Codes</a>) »</text><text x="357.20000000000005" y="98.0" fill="black" class="diagram-class-detail"><a xlink:href="immunizationrecommendation-definitions.html#ImmunizationRecommendation.recommendation.supportingImmunization"><title>Immunization event history that supports the status and recommendation</title>supportingImmunization</a> : <a xlink:href="references.html#Reference">Reference</a>(<a xlink:href="immunization.html#Immunization">Immunization</a>) 0..*</text><text x="357.20000000000005" y="112.0" fill="black" class="diagram-class-detail"><a xlink:href="immunizationrecommendation-definitions.html#ImmunizationRecommendation.recommendation.supportingPatientInformation"><title>Patient Information that supports the status and recommendation.  This includes patient observations, adverse reactions and allergy/intolerance information</title>supportingPatientInformation</a> : <a xlink:href="references.html#Reference">Reference</a>(<a xlink:href="observation.html#Observation">Observation</a>|<a xlink:href="allergyintolerance.html#AllergyIntolerance">AllergyIntolerance</a>) 0..*</text><rect x="0.0" y="185.0" rx="4" ry="4" width="336.0" height="64.0" filter="url(#shadow1)" style="fill:#f0f8ff;stroke:black;stroke-width:1"/><line x1="0.0" y1="213.0" x2="336.0" y2="213.0" style="stroke:dimgrey;stroke-width:1"/><text x="168.0" y="205.0" fill="black" class="diagram-class-title">DateCriterion</text><text x="6.0" y="227.0" fill="black" class="diagram-class-detail"><a xlink:href="immunizationrecommendation-definitions.html#ImmunizationRecommendation.recommendation.dateCriterion.code"><title>Date classification of recommendation - e.g. earliest date to give, latest date to give, etc</title>code</a> : <a xlink:href="datatypes.html#CodeableConcept">CodeableConcept</a> 1..1 « (<a xlink:href="valueset-immunization-recommendation-date-criterion.html"><title>Classifies date criterion with respect to conveying information about a patient&#39;s vaccination status (e.g. due date, latest to give date, etc.)</title>Immunization Recommendation Date Criterion Codes</a>) »</text><text x="6.0" y="241.0" fill="black" class="diagram-class-detail"><a xlink:href="immunizationrecommendation-definitions.html#ImmunizationRecommendation.recommendation.dateCriterion.value"><title>Date recommendation</title>value</a> : <a xlink:href="datatypes.html#dateTime">dateTime</a> 1..1</text><rect x="300.0" y="185.0" rx="4" ry="4" width="168.0" height="92.0" filter="url(#shadow1)" style="fill:#f0f8ff;stroke:black;stroke-width:1"/><line x1="300.0" y1="213.0" x2="468.0" y2="213.0" style="stroke:dimgrey;stroke-width:1"/><text x="384.0" y="205.0" fill="black" class="diagram-class-title">Protocol</text><text x="306.0" y="227.0" fill="black" class="diagram-class-detail"><a xlink:href="immunizationrecommendation-definitions.html#ImmunizationRecommendation.recommendation.protocol.doseSequence"><title>Indicates the nominal position in a series of the next dose.  This is the recommended dose number as per a specified protocol</title>doseSequence</a> : <a xlink:href="datatypes.html#integer">integer</a> 0..1</text><text x="306.0" y="241.0" fill="black" class="diagram-class-detail"><a xlink:href="immunizationrecommendation-definitions.html#ImmunizationRecommendation.recommendation.protocol.description"><title>Contains the description about the protocol under which the vaccine was administered</title>description</a> : <a xlink:href="datatypes.html#string">string</a> 0..1</text><text x="306.0" y="255.0" fill="black" class="diagram-class-detail"><a xlink:href="immunizationrecommendation-definitions.html#ImmunizationRecommendation.recommendation.protocol.authority"><title>Indicates the authority who published the protocol?  E.g. ACIP</title>authority</a> : <a xlink:href="references.html#Reference">Reference</a>(<a xlink:href="organization.html#Organization">Organization</a>) 0..1</text><text x="306.0" y="269.0" fill="black" class="diagram-class-detail"><a xlink:href="immunizationrecommendation-definitions.html#ImmunizationRecommendation.recommendation.protocol.series"><title>One possible path to achieve presumed immunity against a disease - within the context of an authority</title>series</a> : <a xlink:href="datatypes.html#string">string</a> 0..1</text><line x1="364.54400000000004" y1="134.0" x2="243.776" y2="185.0" style="stroke:navy;stroke-width:1"/><polygon points="364.54400000000004,134.0 370.54400000000004,138.0 376.54400000000004,134.0 370.54400000000004,130.0 364.54400000000004,134.0" style="fill:navy;stroke:navy;stroke-width:1" transform="rotate(157.1057977684452 364.54400000000004 134.0)"/><rect x="278.0" y="152.0" width="52.0" height="18.0" style="fill:white;stroke:black;stroke-width:0"/><text x="304.0" y="162.0" fill="black" class="diagram-class-linkage"><a xlink:href="immunizationrecommendation-definitions.html#ImmunizationRecommendation.recommendation.dateCriterion"><title>Vaccine date recommendations - e.g. earliest date to administer, latest date to administer, etc</title>dateCriterion</a></text><text x="243.776" y="181.0" fill="black" class="diagram-class-linkage">0..*</text><line x1="466.33170731707327" y1="134.0" x2="423.04390243902446" y2="185.0" style="stroke:navy;stroke-width:1"/><polygon points="466.33170731707327,134.0 472.33170731707327,138.0 478.33170731707327,134.0 472.33170731707327,130.0 466.33170731707327,134.0" style="fill:navy;stroke:navy;stroke-width:1" transform="rotate(130.32394733398687 466.33170731707327 134.0)"/><rect x="428.0" y="152.0" width="32.0" height="18.0" style="fill:white;stroke:black;stroke-width:0"/><text x="444.0" y="162.0" fill="black" class="diagram-class-linkage"><a xlink:href="immunizationrecommendation-definitions.html#ImmunizationRecommendation.recommendation.protocol"><title>Contains information about the protocol under which the vaccine was administered</title>protocol</a></text><text x="423.04390243902446" y="181.0" fill="black" class="diagram-class-linkage">0..1</text><line x1="231.20000000000002" y1="67.0" x2="351.20000000000005" y2="67.0" style="stroke:navy;stroke-width:1"/><polygon points="231.20000000000002,67.0 237.20000000000002,71.0 243.20000000000002,67.0 237.20000000000002,63.0 231.20000000000002,67.0" style="fill:navy;stroke:navy;stroke-width:1" transform="rotate(0.0 231.20000000000002 67.0)"/><rect x="263.0" y="60.0" width="56.0" height="18.0" style="fill:white;stroke:black;stroke-width:0"/><text x="291.0" y="70.0" fill="black" class="diagram-class-linkage"><a xlink:href="immunizationrecommendation-definitions.html#ImmunizationRecommendation.recommendation"><title>Vaccine administration recommendations</title>recommendation</a></text><text x="331.20000000000005" y="63.0" fill="black" class="diagram-class-linkage">1..*</text></svg>