<?xml version="1.0" encoding="UTF-8"?><svg xmlns="http://www.w3.org/2000/svg" xmlns:xlink="http://www.w3.org/1999/xlink" version="1.1" width="1584.0" height="214.0">  <defs>
    <filter id="shadow1" x="0" y="0" width="200%" height="200%">
      <feOffset result="offOut" in="SourceGraphic" dx="3" dy="3" />
      <feColorMatrix result="matrixOut" in="offOut" type="matrix" values="0.2 0 0 0 0 0 0.2 0 0 0 0 0 0.2 0 0 0 0 0 1 0" />
      <feGaussianBlur result="blurOut" in="matrixOut" stdDeviation="2" />
      <feBlend in="SourceGraphic" in2="blurOut" mode="normal" />
    </filter>
  </defs><rect x="236.0" y="0.0" rx="4" ry="4" width="256.0" height="204.0" filter="url(#shadow1)" style="fill:#f0f8ff;stroke:black;stroke-width:1"/><line x1="236.0" y1="28.0" x2="492.0" y2="28.0" style="stroke:dimgrey;stroke-width:1"/><text x="364.0" y="20.0" fill="black" class="diagram-class-title  diagram-class-resource">ImplementationGuide<tspan class="diagram-class-title-link"> (<a xlink:href="domainresource.html" class="diagram-class-reference">DomainResource</a>)</tspan></text><text x="242.0" y="42.0" fill="black" class="diagram-class-detail"><a xlink:href="implementationguide-definitions.html#ImplementationGuide.url"><title>An absolute URL at which this Implementation Guide is (or will be) published, and which is used to reference this Implementation Guide in conformance statements</title>url</a> : <a xlink:href="datatypes.html#uri">uri</a> 1..1</text><text x="242.0" y="56.0" fill="black" class="diagram-class-detail"><a xlink:href="implementationguide-definitions.html#ImplementationGuide.version"><title>The identifier that is used to identify this version of the Implementation Guide when it is referenced in a specification, model, design or instance. This is an arbitrary value managed by the Implementation Guide author manually</title>version</a> : <a xlink:href="datatypes.html#string">string</a> 0..1</text><text x="242.0" y="70.0" fill="black" class="diagram-class-detail"><a xlink:href="implementationguide-definitions.html#ImplementationGuide.name"><title>A free text natural language name identifying the Implementation Guide</title>name</a> : <a xlink:href="datatypes.html#string">string</a> 1..1</text><text x="242.0" y="84.0" fill="black" class="diagram-class-detail"><a xlink:href="implementationguide-definitions.html#ImplementationGuide.useContext"><title>The content was developed with a focus and intent of supporting the contexts that are listed. These terms may be used to assist with indexing and searching of implementation guides. The most common use of this element is to represent the country / jurisdication for which this implementation guide was defined</title>useContext</a> : <a xlink:href="datatypes.html#CodeableConcept">CodeableConcept</a> 0..* « <a xlink:href="valueset-use-context.html"><title>Indicates the countries, regions, disciplines and other aspects of use this artifact is targeted for use within</title>Context of Use ValueSet</a>+ »</text><text x="242.0" y="98.0" fill="black" class="diagram-class-detail"><a xlink:href="implementationguide-definitions.html#ImplementationGuide.publisher"><title>The name of the individual or organization that published the implementation guide</title>publisher</a> : <a xlink:href="datatypes.html#string">string</a> 0..1</text><text x="242.0" y="112.0" fill="black" class="diagram-class-detail"><a xlink:href="implementationguide-definitions.html#ImplementationGuide.description"><title>A free text natural language description of the Implementation Guide and its use</title>description</a> : <a xlink:href="datatypes.html#string">string</a> 0..1</text><text x="242.0" y="126.0" fill="black" class="diagram-class-detail"><a xlink:href="implementationguide-definitions.html#ImplementationGuide.copyright"><title>A copyright statement relating to the implementation guide and/or its contents. Copyright statements are generally legal restrictions on the use and publishing of the details of the constraints and mappings</title>copyright</a> : <a xlink:href="datatypes.html#string">string</a> 0..1</text><text x="242.0" y="140.0" fill="black" class="diagram-class-detail"><a xlink:href="implementationguide-definitions.html#ImplementationGuide.code"><title>A set of terms from external terminologies that may be used to assist with indexing and searching of templates</title>code</a> : <a xlink:href="datatypes.html#Coding">Coding</a> 0..* « (<a xlink:href="valueset-ig-code.html"><title>Codes for the meaning of the defined structure (SNOMED CT and LOINC codes, as an example)</title>Structure Definition Codes</a>) »</text><text x="242.0" y="154.0" fill="black" class="diagram-class-detail"><a xlink:href="implementationguide-definitions.html#ImplementationGuide.status"><title>The status of the Implementation Guide (this element modifies the meaning of other elements)</title>status</a> : <a xlink:href="datatypes.html#code">code</a> 1..1 « <a xlink:href="valueset-conformance-resource-status.html"><title>The lifecycle status of a Value Set or Concept Map</title>ConformanceResourceStatus</a> »</text><text x="242.0" y="168.0" fill="black" class="diagram-class-detail"><a xlink:href="implementationguide-definitions.html#ImplementationGuide.experimental"><title>This Implementation Guide was authored for testing purposes (or education/evaluation/marketing), and is not intended to be used for genuine usage</title>experimental</a> : <a xlink:href="datatypes.html#boolean">boolean</a> 0..1</text><text x="242.0" y="182.0" fill="black" class="diagram-class-detail"><a xlink:href="implementationguide-definitions.html#ImplementationGuide.date"><title>The date that this version of the Implementation Guide was published</title>date</a> : <a xlink:href="datatypes.html#dateTime">dateTime</a> 0..1</text><text x="242.0" y="196.0" fill="black" class="diagram-class-detail"><a xlink:href="implementationguide-definitions.html#ImplementationGuide.fhirVersion"><title>The version of the FHIR specification on which this ImplementationGuide is based - this is the formal version of the specification, without the revision number, e.g. [publication].[major].[minor], which is 0.5.0 for this version</title>fhirVersion</a> : <a xlink:href="datatypes.html#id">id</a> 0..1</text><rect x="0.0" y="70.0" rx="4" ry="4" width="116.0" height="64.0" filter="url(#shadow1)" style="fill:#f0f8ff;stroke:black;stroke-width:1"/><line x1="0.0" y1="98.0" x2="116.0" y2="98.0" style="stroke:dimgrey;stroke-width:1"/><text x="58.0" y="90.0" fill="black" class="diagram-class-title">Contact</text><text x="6.0" y="112.0" fill="black" class="diagram-class-detail"><a xlink:href="implementationguide-definitions.html#ImplementationGuide.contact.name"><title>The name of an individual to contact regarding the implementation guide</title>name</a> : <a xlink:href="datatypes.html#string">string</a> 0..1</text><text x="6.0" y="126.0" fill="black" class="diagram-class-detail"><a xlink:href="implementationguide-definitions.html#ImplementationGuide.contact.telecom"><title>Contact details for individual (if a name was provided) or the publisher</title>telecom</a> : <a xlink:href="datatypes.html#ContactPoint">ContactPoint</a> 0..*</text><rect x="556.0" y="0.0" rx="4" ry="4" width="148.0" height="64.0" filter="url(#shadow1)" style="fill:#f0f8ff;stroke:black;stroke-width:1"/><line x1="556.0" y1="28.0" x2="704.0" y2="28.0" style="stroke:dimgrey;stroke-width:1"/><text x="630.0" y="20.0" fill="black" class="diagram-class-title">Page</text><text x="562.0" y="42.0" fill="black" class="diagram-class-detail"><a xlink:href="implementationguide-definitions.html#ImplementationGuide.page.source"><title>A URL that identifies the html page</title>source</a> : <a xlink:href="datatypes.html#uri">uri</a> 1..1</text><text x="562.0" y="56.0" fill="black" class="diagram-class-detail"><a xlink:href="implementationguide-definitions.html#ImplementationGuide.page.purpose"><title>A code that specifies how the page is used in the IG</title>purpose</a> : <a xlink:href="datatypes.html#code">code</a> 1..1 « <a xlink:href="valueset-page-purpose.html"><title>Codes that specifies how the page is used in the IG</title>PagePurpose</a> »</text><rect x="716.0" y="0.0" rx="4" ry="4" width="80.0" height="50.0" filter="url(#shadow1)" style="fill:#f0f8ff;stroke:black;stroke-width:1"/><line x1="716.0" y1="28.0" x2="796.0" y2="28.0" style="stroke:dimgrey;stroke-width:1"/><text x="756.0" y="20.0" fill="black" class="diagram-class-title">Package</text><text x="722.0" y="42.0" fill="black" class="diagram-class-detail"><a xlink:href="implementationguide-definitions.html#ImplementationGuide.package.name"><title>A human readable name that introduces the item</title>name</a> : <a xlink:href="datatypes.html#string">string</a> 1..1</text><rect x="876.0" y="0.0" rx="4" ry="4" width="124.0" height="64.0" filter="url(#shadow1)" style="fill:#f0f8ff;stroke:black;stroke-width:1"/><line x1="876.0" y1="28.0" x2="1000.0" y2="28.0" style="stroke:dimgrey;stroke-width:1"/><text x="938.0" y="20.0" fill="black" class="diagram-class-title">Item</text><text x="882.0" y="42.0" fill="black" class="diagram-class-detail"><a xlink:href="implementationguide-definitions.html#ImplementationGuide.package.item.name"><title>A human readable name that introduces the package</title>name</a> : <a xlink:href="datatypes.html#string">string</a> 0..1</text><text x="882.0" y="56.0" fill="black" class="diagram-class-detail"><a xlink:href="implementationguide-definitions.html#ImplementationGuide.package.item.content"><title>A reference to a conformance resource that is part of the implementation Guide</title>content</a> : <a xlink:href="references.html#Reference">Reference</a>(<a xlink:href="resourcelist.html#Any">Any</a>) 1..1</text><rect x="1036.0" y="0.0" rx="4" ry="4" width="120.0" height="78.0" filter="url(#shadow1)" style="fill:#f0f8ff;stroke:black;stroke-width:1"/><line x1="1036.0" y1="28.0" x2="1156.0" y2="28.0" style="stroke:dimgrey;stroke-width:1"/><text x="1096.0" y="20.0" fill="black" class="diagram-class-title">Example</text><text x="1042.0" y="42.0" fill="black" class="diagram-class-detail"><a xlink:href="implementationguide-definitions.html#ImplementationGuide.package.item.example.name"><title>A human readable name that introduces the example</title>name</a> : <a xlink:href="datatypes.html#string">string</a> 1..1</text><text x="1042.0" y="56.0" fill="black" class="diagram-class-detail"><a xlink:href="implementationguide-definitions.html#ImplementationGuide.package.item.example.target"><title>A reference to a resource that is an example for a structure definition</title>target</a> : <a xlink:href="references.html#Reference">Reference</a>(<a xlink:href="resourcelist.html#Any">Any</a>) 1..1</text><text x="1042.0" y="70.0" fill="black" class="diagram-class-detail"><a xlink:href="implementationguide-definitions.html#ImplementationGuide.package.item.example.description"><title>Additional text that explains why the example was provided (e.g. what to look for in it)</title>description</a> : <a xlink:href="datatypes.html#string">string</a> 1..1</text><rect x="1196.0" y="0.0" rx="4" ry="4" width="188.0" height="64.0" filter="url(#shadow1)" style="fill:#f0f8ff;stroke:black;stroke-width:1"/><line x1="1196.0" y1="28.0" x2="1384.0" y2="28.0" style="stroke:dimgrey;stroke-width:1"/><text x="1290.0" y="20.0" fill="black" class="diagram-class-title">Default</text><text x="1202.0" y="42.0" fill="black" class="diagram-class-detail"><a xlink:href="implementationguide-definitions.html#ImplementationGuide.default.type"><title>The type of resource that this default applies to</title>type</a> : <a xlink:href="datatypes.html#code">code</a> 1..1 « <a xlink:href="valueset-resource-types.html"><title>One of the resource types defined as part of FHIR</title>ResourceType</a> »</text><text x="1202.0" y="56.0" fill="black" class="diagram-class-detail"><a xlink:href="implementationguide-definitions.html#ImplementationGuide.default.profile"><title>The profile (StructureDefinition resource) that applies by default</title>profile</a> : <a xlink:href="references.html#Reference">Reference</a>(<a xlink:href="structuredefinition.html#StructureDefinition">StructureDefinition</a>) 1..1</text><line x1="236.0" y1="102.0" x2="116.0" y2="102.0" style="stroke:navy;stroke-width:1"/><polygon points="236.0,102.0 242.0,106.0 248.0,102.0 242.0,98.0 236.0,102.0" style="fill:navy;stroke:navy;stroke-width:1" transform="rotate(180.0 236.0 102.0)"/><rect x="162.0" y="95.0" width="28.0" height="18.0" style="fill:white;stroke:black;stroke-width:0"/><text x="176.0" y="105.0" fill="black" class="diagram-class-linkage"><a xlink:href="implementationguide-definitions.html#ImplementationGuide.contact"><title>Contacts to assist a user in finding and communicating with the publisher</title>contact</a></text><text x="131.0" y="98.0" fill="black" class="diagram-class-linkage">0..*</text><line x1="492.0" y1="68.31578947368422" x2="556.0" y2="51.47368421052633" style="stroke:navy;stroke-width:1"/><polygon points="492.0,68.31578947368422 498.0,72.31578947368422 504.0,68.31578947368422 498.0,64.31578947368422 492.0,68.31578947368422" style="fill:navy;stroke:navy;stroke-width:1" transform="rotate(-14.743562836470733 492.0 68.31578947368422)"/><rect x="516.0" y="52.0" width="16.0" height="18.0" style="fill:white;stroke:black;stroke-width:0"/><text x="524.0" y="62.0" fill="black" class="diagram-class-linkage"><a xlink:href="implementationguide-definitions.html#ImplementationGuide.page"><title>An html page that is published with the Implementation Guide</title>page</a></text><text x="536.0" y="47.47368421052633" fill="black" class="diagram-class-linkage">0..*</text><line x1="1000.0" y1="34.74683544303798" x2="1036.0" y2="36.34177215189874" style="stroke:navy;stroke-width:1"/><polygon points="1000.0,34.74683544303798 1006.0,38.74683544303798 1012.0,34.74683544303798 1006.0,30.74683544303798 1000.0,34.74683544303798" style="fill:navy;stroke:navy;stroke-width:1" transform="rotate(2.5367617381599805 1000.0 34.74683544303798)"/><rect x="1004.0" y="28.0" width="28.0" height="18.0" style="fill:white;stroke:black;stroke-width:0"/><text x="1018.0" y="38.0" fill="black" class="diagram-class-linkage"><a xlink:href="implementationguide-definitions.html#ImplementationGuide.package.item.example"><title>If the item is a structure definition, an example that conforms to the structure definition</title>example</a></text><text x="1016.0" y="32.34177215189874" fill="black" class="diagram-class-linkage">0..*</text><line x1="796.0" y1="26.53846153846154" x2="876.0" y2="29.615384615384617" style="stroke:navy;stroke-width:1"/><polygon points="796.0,26.53846153846154 802.0,30.53846153846154 808.0,26.53846153846154 802.0,22.53846153846154 796.0,26.53846153846154" style="fill:navy;stroke:navy;stroke-width:1" transform="rotate(2.2025981617658053 796.0 26.53846153846154)"/><rect x="828.0" y="21.0" width="16.0" height="18.0" style="fill:white;stroke:black;stroke-width:0"/><text x="836.0" y="31.0" fill="black" class="diagram-class-linkage"><a xlink:href="implementationguide-definitions.html#ImplementationGuide.package.item"><title>An item in the set of resources that is a section in the implementation Guide</title>item</a></text><text x="856.0" y="25.615384615384617" fill="black" class="diagram-class-linkage">0..*</text><line x1="716.0" y1="27.22222222222222" x2="704.0" y2="27.888888888888893" style="stroke:navy;stroke-width:1"/><polygon points="716.0,27.22222222222222 722.0,31.22222222222222 728.0,27.22222222222222 722.0,23.22222222222222 716.0,27.22222222222222" style="fill:navy;stroke:navy;stroke-width:1" transform="rotate(176.82016988013575 716.0 27.22222222222222)"/><rect x="702.0" y="20.0" width="16.0" height="18.0" style="fill:white;stroke:black;stroke-width:0"/><text x="710.0" y="30.0" fill="black" class="diagram-class-linkage"><a xlink:href="implementationguide-definitions.html#ImplementationGuide.package.page"><title>An html page that is published with the Implementation Guide, as part of the package</title>page</a></text><text x="719.0" y="23.888888888888893" fill="black" class="diagram-class-linkage">0..*</text><line x1="492.0" y1="76.85714285714286" x2="716.0" y2="32.85714285714286" style="stroke:navy;stroke-width:1"/><polygon points="492.0,76.85714285714286 498.0,80.85714285714286 504.0,76.85714285714286 498.0,72.85714285714286 492.0,76.85714285714286" style="fill:navy;stroke:navy;stroke-width:1" transform="rotate(-11.1130405359483 492.0 76.85714285714286)"/><rect x="590.0" y="47.0" width="28.0" height="18.0" style="fill:white;stroke:black;stroke-width:0"/><text x="604.0" y="57.0" fill="black" class="diagram-class-linkage"><a xlink:href="implementationguide-definitions.html#ImplementationGuide.package"><title>A logical set of resources that is a section in the implementation Guide</title>package</a></text><text x="696.0" y="28.85714285714286" fill="black" class="diagram-class-linkage">1..*</text><line x1="492.0" y1="92.32397408207342" x2="1196.0" y2="39.105831533477314" style="stroke:navy;stroke-width:1"/><polygon points="492.0,92.32397408207342 498.0,96.32397408207342 504.0,92.32397408207342 498.0,88.32397408207342 492.0,92.32397408207342" style="fill:navy;stroke:navy;stroke-width:1" transform="rotate(-4.3229924429861954 492.0 92.32397408207342)"/><rect x="830.0" y="58.0" width="28.0" height="18.0" style="fill:white;stroke:black;stroke-width:0"/><text x="844.0" y="68.0" fill="black" class="diagram-class-linkage"><a xlink:href="implementationguide-definitions.html#ImplementationGuide.default"><title>A default profile that applies to a particular resource type. Whenever a resource type is referenced in any structure definition (explicitly, or by inheritance from the base specification), and no explicit profile is applied, then this default profile applies</title>default</a></text><text x="1176.0" y="35.105831533477314" fill="black" class="diagram-class-linkage">0..*</text></svg>