{
  "resourceType": "StructureDefinition",
  "id": "integer",
  "text": {
    "status": "generated",
    "div": "<div>to do</div>"
  },
  "url": "http://hl7.org/fhir/StructureDefinition/integer",
  "name": "integer",
  "publisher": "HL7 FHIR Standard",
  "contact": [
    {
      "telecom": [
        {
          "system": "url",
          "value": "http://hl7.org/fhir"
        }
      ]
    }
  ],
  "description": "Base StructureDefinition for integer Resource: A whole number",
  "status": "draft",
  "date": "2015-07-14T16:14:24+00:00",
  "kind": "datatype",
  "abstract": false,
  "base": "http://hl7.org/fhir/StructureDefinition/Element",
  "snapshot": {
    "element": [
      {
        "path": "integer",
        "short": "Primitive Type integer",
        "definition": "A whole number",
        "comments": "32 bit number; for values larger than this, use decimal",
        "min": 0,
        "max": "*",
        "type": [
          {
            "code": "integer"
          }
        ]
      },
      {
        "path": "integer.id",
        "representation": [
          "xmlAttr"
        ],
        "short": "xml:id (or equivalent in JSON)",
        "definition": "unique id for the element within a resource (for internal references)",
        "min": 0,
        "max": "1",
        "type": [
          {
            "code": "id"
          }
        ]
      },
      {
        "path": "integer.extension",
        "short": "Additional Content defined by implementations",
        "definition": "May be used to represent additional information that is not part of the basic definition of the resource. In order to make the use of extensions safe and manageable, there is a strict set of governance  applied to the definition and use of extensions. Though any implementer is allowed to define an extension, there is a set of requirements that SHALL be met as part of the definition of the extension.",
        "comments": "There can be no stigma associated with the use of extensions by any application, project, or standard - regardless of the institution or jurisdiction that uses or defines the extensions.  The use of extensions is what allows the FHIR specification to retain a core level of simplicity for everyone.",
        "alias": [
          "extensions",
          "user content"
        ],
        "min": 0,
        "max": "*",
        "type": [
          {
            "code": "Extension"
          }
        ]
      },
      {
        "path": "integer.value",
        "representation": [
          "xmlAttr"
        ],
        "short": "Primitive value for integer",
        "definition": "The actual value",
        "min": 0,
        "max": "1",
        "type": [
          {
            "code": "xs:int"
          }
        ]
      }
    ]
  },
  "differential": {
    "element": [
      {
        "path": "integer",
        "short": "Primitive Type integer",
        "definition": "A whole number",
        "comments": "32 bit number; for values larger than this, use decimal",
        "min": 0,
        "max": "*",
        "type": [
          {
            "code": "Element"
          }
        ]
      },
      {
        "path": "integer.value",
        "representation": [
          "xmlAttr"
        ],
        "short": "Primitive value for integer",
        "definition": "Primitive value for integer",
        "min": 0,
        "max": "1",
        "type": [
          {
            "code": "xs:int"
          }
        ]
      }
    ]
  }
}