<?xml version="1.0" encoding="UTF-8"?>
<sch:schema xmlns:sch="http://purl.oclc.org/dsdl/schematron" queryBinding="xslt2">
  <sch:ns prefix="f" uri="http://hl7.org/fhir"/>
  <sch:ns prefix="h" uri="http://www.w3.org/1999/xhtml"/>
  <sch:pattern>
    <sch:title>Location.name</sch:title>
    <sch:rule context="f:HSPCServiceDeliveryLocation/f:name">
            <sch:assert test="count(f:id) &lt;= 1">id: maximum cardinality is 1</sch:assert>
    </sch:rule>
    <sch:rule context="f:HSPCServiceDeliveryLocation/f:name">
            <sch:assert test="count(f:extension) &lt;= 1">extension: maximum cardinality is 1</sch:assert>
    </sch:rule>
    <sch:rule context="f:HSPCServiceDeliveryLocation/f:name">
            <sch:assert test="count(f:extension) &lt;= 1">extension: maximum cardinality is 1</sch:assert>
    </sch:rule>
    <sch:rule context="f:HSPCServiceDeliveryLocation/f:name">
            <sch:assert test="count(f:value) &lt;= 1">value: maximum cardinality is 1</sch:assert>
    </sch:rule>
    </sch:pattern>
  <sch:pattern>
    <sch:title>Location.telecom</sch:title>
    <sch:rule context="f:HSPCServiceDeliveryLocation/f:telecom">
            <sch:assert test="count(f:id) &lt;= 1">id: maximum cardinality is 1</sch:assert>
    </sch:rule>
    <sch:rule context="f:HSPCServiceDeliveryLocation/f:telecom">
            <sch:assert test="count(f:extension) &lt;= 1">extension: maximum cardinality is 1</sch:assert>
    </sch:rule>
    <sch:rule context="f:HSPCServiceDeliveryLocation/f:telecom">
            <sch:assert test="count(f:system) &lt;= 1">system: maximum cardinality is 1</sch:assert>
    </sch:rule>
    <sch:rule context="f:HSPCServiceDeliveryLocation/f:telecom">
            <sch:assert test="count(f:value) &lt;= 1">value: maximum cardinality is 1</sch:assert>
    </sch:rule>
    <sch:rule context="f:HSPCServiceDeliveryLocation/f:telecom">
            <sch:assert test="count(f:use) &lt;= 1">use: maximum cardinality is 1</sch:assert>
    </sch:rule>
    <sch:rule context="f:HSPCServiceDeliveryLocation/f:telecom">
            <sch:assert test="count(f:period) &lt;= 1">period: maximum cardinality is 1</sch:assert>
    </sch:rule>
    </sch:pattern>
  <sch:pattern>
    <sch:title>Location.address</sch:title>
    <sch:rule context="f:HSPCServiceDeliveryLocation/f:address">
            <sch:assert test="count(f:extension) &lt;= 1">extension: maximum cardinality is 1</sch:assert>
    </sch:rule>
    <sch:rule context="f:HSPCServiceDeliveryLocation/f:address">
            <sch:assert test="count(f:extension) &lt;= 1">extension: maximum cardinality is 1</sch:assert>
    </sch:rule>
    </sch:pattern>
</sch:schema>
