{
  "resourceType": "Location",
  "id": "ukp",
  "text": {
    "status": "generated",
    "div": "<div>UK Pharmacies</div>"
  },
  "name": "UK Pharmacies",
  "description": "All Pharmacies in the United Kingdom covered by the National Pharmacy Association",
  "mode": "kind",
  "type": {
    "coding": [
      {
        "system": "http://hl7.org/fhir/v3/RoleCode",
        "code": "PHARM",
        "display": "Pharmacy"
      }
    ]
  },
  "physicalType": {
    "coding": [
      {
        "system": "http://hl7.org/fhir/location-physical-type",
        "code": "jdn",
        "display": "Jurisdiction"
      }
    ]
  },
  "status": "active"
}