{
  "resourceType": "Medication",
  "id": "f001",
  "text": {
    "status": "generated",
    "div": "<div><p><b>Generated Narrative with Details</b></p><p><b>id</b>: f001</p><p><b>name</b>: Combivent</p><p><b>code</b>: Salbutamol+ipratropium bromide 100micrograms/20micrograms inhaler <span>(Details : {SNOMED CT code '320442002' = 'Salbutamol+ipratropium bromide 100micrograms/20micrograms inhaler', given as 'Salbutamol+ipratropium bromide 100micrograms/20micrograms inhaler'})</span></p><p><b>isBrand</b>: true</p><p><b>kind</b>: product</p><blockquote><p><b>product</b></p><p><b>form</b>: Inhaler (qualifier value) <span>(Details : {SNOMED CT code '420317006' = 'Inhaler', given as 'Inhaler (qualifier value)'})</span></p><h3>Ingredients</h3><table><tr><td>-</td><td><b>Item</b></td><td><b>Amount</b></td></tr><tr><td>*</td><td><a>Combivent. Generated Summary: name: Combivent; <span>Salbutamol+ipratropium bromide 100micrograms/20micrograms inhaler</span>; isBrand; PRODUCT</a></td><td>100 ml<span> (Details: http://unitsofmeasure.org code ml = 'ml')</span>/1</td></tr></table></blockquote></div>"
  },
  "name": "Combivent",
  "code": {
    "coding": [
      {
        "system": "http://snomed.info/sct",
        "code": "320442002",
        "display": "Salbutamol+ipratropium bromide 100micrograms/20micrograms inhaler"
      }
    ]
  },
  "isBrand": true,
  "kind": "product",
  "product": {
    "form": {
      "coding": [
        {
          "system": "http://snomed.info/sct",
          "code": "420317006",
          "display": "Inhaler (qualifier value)"
        }
      ]
    },
    "ingredient": [
      {
        "item": {
          "reference": "Medication/f001",
          "display": "Combivent"
        },
        "amount": {
          "numerator": {
            "value": 100,
            "units": "ml",
            "system": "http://unitsofmeasure.org",
            "code": "ml"
          },
          "denominator": {
            "value": 1
          }
        }
      }
    ]
  }
}