{
  "resourceType": "Medication",
  "id": "medexample007",
  "text": {
    "status": "generated",
    "div": "<div>Tylenol No. 1 Caplets</div>"
  },
  "name": "Tylenol No. 1 Caplets",
  "code": {
    "coding": [
      {
        "system": "http://hc-sc.gc.ca",
        "code": "02181061",
        "display": "Tylenol No. 1 Caplets"
      }
    ]
  },
  "isBrand": true,
  "kind": "product",
  "product": {
    "form": {
      "coding": [
        {
          "system": "http://snomed.info/sct",
          "code": "48582000",
          "display": "Caplet"
        }
      ]
    }
  }
}