{
  "resourceType": "Bundle",
  "id": "registry",
  "type": "collection",
  "entry": [
    {
      "fullUrl": "http://hl7.org/fhir/NamingSystem/4.3.2",
      "resource": {
        "resourceType": "NamingSystem",
        "id": "4.3.2",
        "text": {
          "status": "generated",
          "div": "<div><p><b>Generated Narrative with Details</b></p><p><b>id</b>: 4.3.2</p><p><b>type</b>: identifier</p><p><b>name</b>: Alaska Driver's License</p><p><b>date</b>: Jul 3, 2015</p><p><b>status</b>: active</p><p><b>country</b>: USA</p><blockquote><p><b>uniqueId</b></p><p><b>type</b>: oid</p><p><b>value</b>: 2.16.840.1.113883.4.3.2</p></blockquote><blockquote><p><b>uniqueId</b></p><p><b>type</b>: uri</p><p><b>value</b>: urn:oid:2.16.840.1.113883.4.3.2</p></blockquote><p><b>publisher</b>: HL7 International</p></div>"
        },
        "type": "identifier",
        "name": "Alaska Driver's License",
        "date": "2015-07-03",
        "status": "active",
        "country": "USA",
        "uniqueId": [
          {
            "type": "oid",
            "value": "2.16.840.1.113883.4.3.2"
          },
          {
            "type": "uri",
            "value": "urn:oid:2.16.840.1.113883.4.3.2"
          }
        ],
        "publisher": "HL7 International"
      }
    },
    {
      "fullUrl": "http://hl7.org/fhir/NamingSystem/4.3.1",
      "resource": {
        "resourceType": "NamingSystem",
        "id": "4.3.1",
        "text": {
          "status": "generated",
          "div": "<div><p><b>Generated Narrative with Details</b></p><p><b>id</b>: 4.3.1</p><p><b>type</b>: identifier</p><p><b>name</b>: Alabama Driver's License</p><p><b>date</b>: Jul 3, 2015</p><p><b>status</b>: active</p><p><b>country</b>: USA</p><blockquote><p><b>uniqueId</b></p><p><b>type</b>: oid</p><p><b>value</b>: 2.16.840.1.113883.4.3.1</p></blockquote><blockquote><p><b>uniqueId</b></p><p><b>type</b>: uri</p><p><b>value</b>: urn:oid:2.16.840.1.113883.4.3.1</p></blockquote><p><b>publisher</b>: HL7 International</p></div>"
        },
        "type": "identifier",
        "name": "Alabama Driver's License",
        "date": "2015-07-03",
        "status": "active",
        "country": "USA",
        "uniqueId": [
          {
            "type": "oid",
            "value": "2.16.840.1.113883.4.3.1"
          },
          {
            "type": "uri",
            "value": "urn:oid:2.16.840.1.113883.4.3.1"
          }
        ],
        "publisher": "HL7 International"
      }
    },
    {
      "fullUrl": "http://hl7.org/fhir/NamingSystem/4.3.5",
      "resource": {
        "resourceType": "NamingSystem",
        "id": "4.3.5",
        "text": {
          "status": "generated",
          "div": "<div><p><b>Generated Narrative with Details</b></p><p><b>id</b>: 4.3.5</p><p><b>type</b>: identifier</p><p><b>name</b>: Arkansas Driver's License</p><p><b>date</b>: Jul 3, 2015</p><p><b>status</b>: active</p><p><b>country</b>: USA</p><blockquote><p><b>uniqueId</b></p><p><b>type</b>: oid</p><p><b>value</b>: 2.16.840.1.113883.4.3.5</p></blockquote><blockquote><p><b>uniqueId</b></p><p><b>type</b>: uri</p><p><b>value</b>: urn:oid:2.16.840.1.113883.4.3.5</p></blockquote><p><b>publisher</b>: HL7 International</p></div>"
        },
        "type": "identifier",
        "name": "Arkansas Driver's License",
        "date": "2015-07-03",
        "status": "active",
        "country": "USA",
        "uniqueId": [
          {
            "type": "oid",
            "value": "2.16.840.1.113883.4.3.5"
          },
          {
            "type": "uri",
            "value": "urn:oid:2.16.840.1.113883.4.3.5"
          }
        ],
        "publisher": "HL7 International"
      }
    },
    {
      "fullUrl": "http://hl7.org/fhir/NamingSystem/4.3.4",
      "resource": {
        "resourceType": "NamingSystem",
        "id": "4.3.4",
        "text": {
          "status": "generated",
          "div": "<div><p><b>Generated Narrative with Details</b></p><p><b>id</b>: 4.3.4</p><p><b>type</b>: identifier</p><p><b>name</b>: Arizona Driver's License</p><p><b>date</b>: Jul 3, 2015</p><p><b>status</b>: active</p><p><b>country</b>: USA</p><blockquote><p><b>uniqueId</b></p><p><b>type</b>: oid</p><p><b>value</b>: 2.16.840.1.113883.4.3.4</p></blockquote><blockquote><p><b>uniqueId</b></p><p><b>type</b>: uri</p><p><b>value</b>: urn:oid:2.16.840.1.113883.4.3.4</p></blockquote><p><b>publisher</b>: HL7 International</p></div>"
        },
        "type": "identifier",
        "name": "Arizona Driver's License",
        "date": "2015-07-03",
        "status": "active",
        "country": "USA",
        "uniqueId": [
          {
            "type": "oid",
            "value": "2.16.840.1.113883.4.3.4"
          },
          {
            "type": "uri",
            "value": "urn:oid:2.16.840.1.113883.4.3.4"
          }
        ],
        "publisher": "HL7 International"
      }
    },
    {
      "fullUrl": "http://hl7.org/fhir/NamingSystem/4.3.6",
      "resource": {
        "resourceType": "NamingSystem",
        "id": "4.3.6",
        "text": {
          "status": "generated",
          "div": "<div><p><b>Generated Narrative with Details</b></p><p><b>id</b>: 4.3.6</p><p><b>type</b>: identifier</p><p><b>name</b>: California Driver's License</p><p><b>date</b>: Jul 3, 2015</p><p><b>status</b>: active</p><p><b>country</b>: USA</p><blockquote><p><b>uniqueId</b></p><p><b>type</b>: oid</p><p><b>value</b>: 2.16.840.1.113883.4.3.6</p></blockquote><blockquote><p><b>uniqueId</b></p><p><b>type</b>: uri</p><p><b>value</b>: urn:oid:2.16.840.1.113883.4.3.6</p></blockquote><p><b>publisher</b>: HL7 International</p></div>"
        },
        "type": "identifier",
        "name": "California Driver's License",
        "date": "2015-07-03",
        "status": "active",
        "country": "USA",
        "uniqueId": [
          {
            "type": "oid",
            "value": "2.16.840.1.113883.4.3.6"
          },
          {
            "type": "uri",
            "value": "urn:oid:2.16.840.1.113883.4.3.6"
          }
        ],
        "publisher": "HL7 International"
      }
    },
    {
      "fullUrl": "http://hl7.org/fhir/NamingSystem/4.3.8",
      "resource": {
        "resourceType": "NamingSystem",
        "id": "4.3.8",
        "text": {
          "status": "generated",
          "div": "<div><p><b>Generated Narrative with Details</b></p><p><b>id</b>: 4.3.8</p><p><b>type</b>: identifier</p><p><b>name</b>: Colorado Driver's License</p><p><b>date</b>: Jul 3, 2015</p><p><b>status</b>: active</p><p><b>country</b>: USA</p><blockquote><p><b>uniqueId</b></p><p><b>type</b>: oid</p><p><b>value</b>: 2.16.840.1.113883.4.3.8</p></blockquote><blockquote><p><b>uniqueId</b></p><p><b>type</b>: uri</p><p><b>value</b>: urn:oid:2.16.840.1.113883.4.3.8</p></blockquote><p><b>publisher</b>: HL7 International</p></div>"
        },
        "type": "identifier",
        "name": "Colorado Driver's License",
        "date": "2015-07-03",
        "status": "active",
        "country": "USA",
        "uniqueId": [
          {
            "type": "oid",
            "value": "2.16.840.1.113883.4.3.8"
          },
          {
            "type": "uri",
            "value": "urn:oid:2.16.840.1.113883.4.3.8"
          }
        ],
        "publisher": "HL7 International"
      }
    },
    {
      "fullUrl": "http://hl7.org/fhir/NamingSystem/4.3.9",
      "resource": {
        "resourceType": "NamingSystem",
        "id": "4.3.9",
        "text": {
          "status": "generated",
          "div": "<div><p><b>Generated Narrative with Details</b></p><p><b>id</b>: 4.3.9</p><p><b>type</b>: identifier</p><p><b>name</b>: Connecticut Driver's License</p><p><b>date</b>: Jul 3, 2015</p><p><b>status</b>: active</p><p><b>country</b>: USA</p><blockquote><p><b>uniqueId</b></p><p><b>type</b>: oid</p><p><b>value</b>: 2.16.840.1.113883.4.3.9</p></blockquote><blockquote><p><b>uniqueId</b></p><p><b>type</b>: uri</p><p><b>value</b>: urn:oid:2.16.840.1.113883.4.3.9</p></blockquote><p><b>publisher</b>: HL7 International</p></div>"
        },
        "type": "identifier",
        "name": "Connecticut Driver's License",
        "date": "2015-07-03",
        "status": "active",
        "country": "USA",
        "uniqueId": [
          {
            "type": "oid",
            "value": "2.16.840.1.113883.4.3.9"
          },
          {
            "type": "uri",
            "value": "urn:oid:2.16.840.1.113883.4.3.9"
          }
        ],
        "publisher": "HL7 International"
      }
    },
    {
      "fullUrl": "http://hl7.org/fhir/NamingSystem/4.3.11",
      "resource": {
        "resourceType": "NamingSystem",
        "id": "4.3.11",
        "text": {
          "status": "generated",
          "div": "<div><p><b>Generated Narrative with Details</b></p><p><b>id</b>: 4.3.11</p><p><b>type</b>: identifier</p><p><b>name</b>: DC Driver's License</p><p><b>date</b>: Jul 3, 2015</p><p><b>status</b>: active</p><p><b>country</b>: USA</p><blockquote><p><b>uniqueId</b></p><p><b>type</b>: oid</p><p><b>value</b>: 2.16.840.1.113883.4.3.11</p></blockquote><blockquote><p><b>uniqueId</b></p><p><b>type</b>: uri</p><p><b>value</b>: urn:oid:2.16.840.1.113883.4.3.11</p></blockquote><p><b>publisher</b>: HL7 International</p></div>"
        },
        "type": "identifier",
        "name": "DC Driver's License",
        "date": "2015-07-03",
        "status": "active",
        "country": "USA",
        "uniqueId": [
          {
            "type": "oid",
            "value": "2.16.840.1.113883.4.3.11"
          },
          {
            "type": "uri",
            "value": "urn:oid:2.16.840.1.113883.4.3.11"
          }
        ],
        "publisher": "HL7 International"
      }
    },
    {
      "fullUrl": "http://hl7.org/fhir/NamingSystem/4.3.10",
      "resource": {
        "resourceType": "NamingSystem",
        "id": "4.3.10",
        "text": {
          "status": "generated",
          "div": "<div><p><b>Generated Narrative with Details</b></p><p><b>id</b>: 4.3.10</p><p><b>type</b>: identifier</p><p><b>name</b>: Delaware Driver's License</p><p><b>date</b>: Jul 3, 2015</p><p><b>status</b>: active</p><p><b>country</b>: USA</p><blockquote><p><b>uniqueId</b></p><p><b>type</b>: oid</p><p><b>value</b>: 2.16.840.1.113883.4.3.10</p></blockquote><blockquote><p><b>uniqueId</b></p><p><b>type</b>: uri</p><p><b>value</b>: urn:oid:2.16.840.1.113883.4.3.10</p></blockquote><p><b>publisher</b>: HL7 International</p></div>"
        },
        "type": "identifier",
        "name": "Delaware Driver's License",
        "date": "2015-07-03",
        "status": "active",
        "country": "USA",
        "uniqueId": [
          {
            "type": "oid",
            "value": "2.16.840.1.113883.4.3.10"
          },
          {
            "type": "uri",
            "value": "urn:oid:2.16.840.1.113883.4.3.10"
          }
        ],
        "publisher": "HL7 International"
      }
    },
    {
      "fullUrl": "http://hl7.org/fhir/NamingSystem/4.3.12",
      "resource": {
        "resourceType": "NamingSystem",
        "id": "4.3.12",
        "text": {
          "status": "generated",
          "div": "<div><p><b>Generated Narrative with Details</b></p><p><b>id</b>: 4.3.12</p><p><b>type</b>: identifier</p><p><b>name</b>: Florida Driver's License</p><p><b>date</b>: Jul 3, 2015</p><p><b>status</b>: active</p><p><b>country</b>: USA</p><blockquote><p><b>uniqueId</b></p><p><b>type</b>: oid</p><p><b>value</b>: 2.16.840.1.113883.4.3.12</p></blockquote><blockquote><p><b>uniqueId</b></p><p><b>type</b>: uri</p><p><b>value</b>: urn:oid:2.16.840.1.113883.4.3.12</p></blockquote><p><b>publisher</b>: HL7 International</p></div>"
        },
        "type": "identifier",
        "name": "Florida Driver's License",
        "date": "2015-07-03",
        "status": "active",
        "country": "USA",
        "uniqueId": [
          {
            "type": "oid",
            "value": "2.16.840.1.113883.4.3.12"
          },
          {
            "type": "uri",
            "value": "urn:oid:2.16.840.1.113883.4.3.12"
          }
        ],
        "publisher": "HL7 International"
      }
    },
    {
      "fullUrl": "http://hl7.org/fhir/NamingSystem/4.3.13",
      "resource": {
        "resourceType": "NamingSystem",
        "id": "4.3.13",
        "text": {
          "status": "generated",
          "div": "<div><p><b>Generated Narrative with Details</b></p><p><b>id</b>: 4.3.13</p><p><b>type</b>: identifier</p><p><b>name</b>: Georgia Driver's License</p><p><b>date</b>: Jul 3, 2015</p><p><b>status</b>: active</p><p><b>country</b>: USA</p><blockquote><p><b>uniqueId</b></p><p><b>type</b>: oid</p><p><b>value</b>: 2.16.840.1.113883.4.3.13</p></blockquote><blockquote><p><b>uniqueId</b></p><p><b>type</b>: uri</p><p><b>value</b>: urn:oid:2.16.840.1.113883.4.3.13</p></blockquote><p><b>publisher</b>: HL7 International</p></div>"
        },
        "type": "identifier",
        "name": "Georgia Driver's License",
        "date": "2015-07-03",
        "status": "active",
        "country": "USA",
        "uniqueId": [
          {
            "type": "oid",
            "value": "2.16.840.1.113883.4.3.13"
          },
          {
            "type": "uri",
            "value": "urn:oid:2.16.840.1.113883.4.3.13"
          }
        ],
        "publisher": "HL7 International"
      }
    },
    {
      "fullUrl": "http://hl7.org/fhir/NamingSystem/4.3.15",
      "resource": {
        "resourceType": "NamingSystem",
        "id": "4.3.15",
        "text": {
          "status": "generated",
          "div": "<div><p><b>Generated Narrative with Details</b></p><p><b>id</b>: 4.3.15</p><p><b>type</b>: identifier</p><p><b>name</b>: Hawaii Driver's License</p><p><b>date</b>: Jul 3, 2015</p><p><b>status</b>: active</p><p><b>country</b>: USA</p><blockquote><p><b>uniqueId</b></p><p><b>type</b>: oid</p><p><b>value</b>: 2.16.840.1.113883.4.3.15</p></blockquote><blockquote><p><b>uniqueId</b></p><p><b>type</b>: uri</p><p><b>value</b>: urn:oid:2.16.840.1.113883.4.3.15</p></blockquote><p><b>publisher</b>: HL7 International</p></div>"
        },
        "type": "identifier",
        "name": "Hawaii Driver's License",
        "date": "2015-07-03",
        "status": "active",
        "country": "USA",
        "uniqueId": [
          {
            "type": "oid",
            "value": "2.16.840.1.113883.4.3.15"
          },
          {
            "type": "uri",
            "value": "urn:oid:2.16.840.1.113883.4.3.15"
          }
        ],
        "publisher": "HL7 International"
      }
    },
    {
      "fullUrl": "http://hl7.org/fhir/NamingSystem/4.3.18",
      "resource": {
        "resourceType": "NamingSystem",
        "id": "4.3.18",
        "text": {
          "status": "generated",
          "div": "<div><p><b>Generated Narrative with Details</b></p><p><b>id</b>: 4.3.18</p><p><b>type</b>: identifier</p><p><b>name</b>: Indiana Driver's License</p><p><b>date</b>: Jul 3, 2015</p><p><b>status</b>: active</p><p><b>country</b>: USA</p><blockquote><p><b>uniqueId</b></p><p><b>type</b>: oid</p><p><b>value</b>: 2.16.840.1.113883.4.3.18</p></blockquote><blockquote><p><b>uniqueId</b></p><p><b>type</b>: uri</p><p><b>value</b>: urn:oid:2.16.840.1.113883.4.3.18</p></blockquote><p><b>publisher</b>: HL7 International</p></div>"
        },
        "type": "identifier",
        "name": "Indiana Driver's License",
        "date": "2015-07-03",
        "status": "active",
        "country": "USA",
        "uniqueId": [
          {
            "type": "oid",
            "value": "2.16.840.1.113883.4.3.18"
          },
          {
            "type": "uri",
            "value": "urn:oid:2.16.840.1.113883.4.3.18"
          }
        ],
        "publisher": "HL7 International"
      }
    },
    {
      "fullUrl": "http://hl7.org/fhir/NamingSystem/4.3.19",
      "resource": {
        "resourceType": "NamingSystem",
        "id": "4.3.19",
        "text": {
          "status": "generated",
          "div": "<div><p><b>Generated Narrative with Details</b></p><p><b>id</b>: 4.3.19</p><p><b>type</b>: identifier</p><p><b>name</b>: Iowa Driver's License</p><p><b>date</b>: Jul 3, 2015</p><p><b>status</b>: active</p><p><b>country</b>: USA</p><blockquote><p><b>uniqueId</b></p><p><b>type</b>: oid</p><p><b>value</b>: 2.16.840.1.113883.4.3.19</p></blockquote><blockquote><p><b>uniqueId</b></p><p><b>type</b>: uri</p><p><b>value</b>: urn:oid:2.16.840.1.113883.4.3.19</p></blockquote><p><b>publisher</b>: HL7 International</p></div>"
        },
        "type": "identifier",
        "name": "Iowa Driver's License",
        "date": "2015-07-03",
        "status": "active",
        "country": "USA",
        "uniqueId": [
          {
            "type": "oid",
            "value": "2.16.840.1.113883.4.3.19"
          },
          {
            "type": "uri",
            "value": "urn:oid:2.16.840.1.113883.4.3.19"
          }
        ],
        "publisher": "HL7 International"
      }
    },
    {
      "fullUrl": "http://hl7.org/fhir/NamingSystem/4.3.16",
      "resource": {
        "resourceType": "NamingSystem",
        "id": "4.3.16",
        "text": {
          "status": "generated",
          "div": "<div><p><b>Generated Narrative with Details</b></p><p><b>id</b>: 4.3.16</p><p><b>type</b>: identifier</p><p><b>name</b>: Idaho Driver's License</p><p><b>date</b>: Jul 3, 2015</p><p><b>status</b>: active</p><p><b>country</b>: USA</p><blockquote><p><b>uniqueId</b></p><p><b>type</b>: oid</p><p><b>value</b>: 2.16.840.1.113883.4.3.16</p></blockquote><blockquote><p><b>uniqueId</b></p><p><b>type</b>: uri</p><p><b>value</b>: urn:oid:2.16.840.1.113883.4.3.16</p></blockquote><p><b>publisher</b>: HL7 International</p></div>"
        },
        "type": "identifier",
        "name": "Idaho Driver's License",
        "date": "2015-07-03",
        "status": "active",
        "country": "USA",
        "uniqueId": [
          {
            "type": "oid",
            "value": "2.16.840.1.113883.4.3.16"
          },
          {
            "type": "uri",
            "value": "urn:oid:2.16.840.1.113883.4.3.16"
          }
        ],
        "publisher": "HL7 International"
      }
    },
    {
      "fullUrl": "http://hl7.org/fhir/NamingSystem/4.3.17",
      "resource": {
        "resourceType": "NamingSystem",
        "id": "4.3.17",
        "text": {
          "status": "generated",
          "div": "<div><p><b>Generated Narrative with Details</b></p><p><b>id</b>: 4.3.17</p><p><b>type</b>: identifier</p><p><b>name</b>: Illinois Driver's License</p><p><b>date</b>: Jul 3, 2015</p><p><b>status</b>: active</p><p><b>country</b>: USA</p><blockquote><p><b>uniqueId</b></p><p><b>type</b>: oid</p><p><b>value</b>: 2.16.840.1.113883.4.3.17</p></blockquote><blockquote><p><b>uniqueId</b></p><p><b>type</b>: uri</p><p><b>value</b>: urn:oid:2.16.840.1.113883.4.3.17</p></blockquote><p><b>publisher</b>: HL7 International</p></div>"
        },
        "type": "identifier",
        "name": "Illinois Driver's License",
        "date": "2015-07-03",
        "status": "active",
        "country": "USA",
        "uniqueId": [
          {
            "type": "oid",
            "value": "2.16.840.1.113883.4.3.17"
          },
          {
            "type": "uri",
            "value": "urn:oid:2.16.840.1.113883.4.3.17"
          }
        ],
        "publisher": "HL7 International"
      }
    },
    {
      "fullUrl": "http://hl7.org/fhir/NamingSystem/4.3.20",
      "resource": {
        "resourceType": "NamingSystem",
        "id": "4.3.20",
        "text": {
          "status": "generated",
          "div": "<div><p><b>Generated Narrative with Details</b></p><p><b>id</b>: 4.3.20</p><p><b>type</b>: identifier</p><p><b>name</b>: Kansas Driver's License</p><p><b>date</b>: Jul 3, 2015</p><p><b>status</b>: active</p><p><b>country</b>: USA</p><blockquote><p><b>uniqueId</b></p><p><b>type</b>: oid</p><p><b>value</b>: 2.16.840.1.113883.4.3.20</p></blockquote><blockquote><p><b>uniqueId</b></p><p><b>type</b>: uri</p><p><b>value</b>: urn:oid:2.16.840.1.113883.4.3.20</p></blockquote><p><b>publisher</b>: HL7 International</p></div>"
        },
        "type": "identifier",
        "name": "Kansas Driver's License",
        "date": "2015-07-03",
        "status": "active",
        "country": "USA",
        "uniqueId": [
          {
            "type": "oid",
            "value": "2.16.840.1.113883.4.3.20"
          },
          {
            "type": "uri",
            "value": "urn:oid:2.16.840.1.113883.4.3.20"
          }
        ],
        "publisher": "HL7 International"
      }
    },
    {
      "fullUrl": "http://hl7.org/fhir/NamingSystem/4.3.21",
      "resource": {
        "resourceType": "NamingSystem",
        "id": "4.3.21",
        "text": {
          "status": "generated",
          "div": "<div><p><b>Generated Narrative with Details</b></p><p><b>id</b>: 4.3.21</p><p><b>type</b>: identifier</p><p><b>name</b>: Kentucky Driver's License</p><p><b>date</b>: Jul 3, 2015</p><p><b>status</b>: active</p><p><b>country</b>: USA</p><blockquote><p><b>uniqueId</b></p><p><b>type</b>: oid</p><p><b>value</b>: 2.16.840.1.113883.4.3.21</p></blockquote><blockquote><p><b>uniqueId</b></p><p><b>type</b>: uri</p><p><b>value</b>: urn:oid:2.16.840.1.113883.4.3.21</p></blockquote><p><b>publisher</b>: HL7 International</p></div>"
        },
        "type": "identifier",
        "name": "Kentucky Driver's License",
        "date": "2015-07-03",
        "status": "active",
        "country": "USA",
        "uniqueId": [
          {
            "type": "oid",
            "value": "2.16.840.1.113883.4.3.21"
          },
          {
            "type": "uri",
            "value": "urn:oid:2.16.840.1.113883.4.3.21"
          }
        ],
        "publisher": "HL7 International"
      }
    },
    {
      "fullUrl": "http://hl7.org/fhir/NamingSystem/4.3.22",
      "resource": {
        "resourceType": "NamingSystem",
        "id": "4.3.22",
        "text": {
          "status": "generated",
          "div": "<div><p><b>Generated Narrative with Details</b></p><p><b>id</b>: 4.3.22</p><p><b>type</b>: identifier</p><p><b>name</b>: Louisiana Driver's License</p><p><b>date</b>: Jul 3, 2015</p><p><b>status</b>: active</p><p><b>country</b>: USA</p><blockquote><p><b>uniqueId</b></p><p><b>type</b>: oid</p><p><b>value</b>: 2.16.840.1.113883.4.3.22</p></blockquote><blockquote><p><b>uniqueId</b></p><p><b>type</b>: uri</p><p><b>value</b>: urn:oid:2.16.840.1.113883.4.3.22</p></blockquote><p><b>publisher</b>: HL7 International</p></div>"
        },
        "type": "identifier",
        "name": "Louisiana Driver's License",
        "date": "2015-07-03",
        "status": "active",
        "country": "USA",
        "uniqueId": [
          {
            "type": "oid",
            "value": "2.16.840.1.113883.4.3.22"
          },
          {
            "type": "uri",
            "value": "urn:oid:2.16.840.1.113883.4.3.22"
          }
        ],
        "publisher": "HL7 International"
      }
    },
    {
      "fullUrl": "http://hl7.org/fhir/NamingSystem/4.3.25",
      "resource": {
        "resourceType": "NamingSystem",
        "id": "4.3.25",
        "text": {
          "status": "generated",
          "div": "<div><p><b>Generated Narrative with Details</b></p><p><b>id</b>: 4.3.25</p><p><b>type</b>: identifier</p><p><b>name</b>: Massachusetts Driver's License</p><p><b>date</b>: Jul 3, 2015</p><p><b>status</b>: active</p><p><b>country</b>: USA</p><blockquote><p><b>uniqueId</b></p><p><b>type</b>: oid</p><p><b>value</b>: 2.16.840.1.113883.4.3.25</p></blockquote><blockquote><p><b>uniqueId</b></p><p><b>type</b>: uri</p><p><b>value</b>: urn:oid:2.16.840.1.113883.4.3.25</p></blockquote><p><b>publisher</b>: HL7 International</p></div>"
        },
        "type": "identifier",
        "name": "Massachusetts Driver's License",
        "date": "2015-07-03",
        "status": "active",
        "country": "USA",
        "uniqueId": [
          {
            "type": "oid",
            "value": "2.16.840.1.113883.4.3.25"
          },
          {
            "type": "uri",
            "value": "urn:oid:2.16.840.1.113883.4.3.25"
          }
        ],
        "publisher": "HL7 International"
      }
    },
    {
      "fullUrl": "http://hl7.org/fhir/NamingSystem/4.3.24",
      "resource": {
        "resourceType": "NamingSystem",
        "id": "4.3.24",
        "text": {
          "status": "generated",
          "div": "<div><p><b>Generated Narrative with Details</b></p><p><b>id</b>: 4.3.24</p><p><b>type</b>: identifier</p><p><b>name</b>: Maryland Driver's License</p><p><b>date</b>: Jul 3, 2015</p><p><b>status</b>: active</p><p><b>country</b>: USA</p><blockquote><p><b>uniqueId</b></p><p><b>type</b>: oid</p><p><b>value</b>: 2.16.840.1.113883.4.3.24</p></blockquote><blockquote><p><b>uniqueId</b></p><p><b>type</b>: uri</p><p><b>value</b>: urn:oid:2.16.840.1.113883.4.3.24</p></blockquote><p><b>publisher</b>: HL7 International</p></div>"
        },
        "type": "identifier",
        "name": "Maryland Driver's License",
        "date": "2015-07-03",
        "status": "active",
        "country": "USA",
        "uniqueId": [
          {
            "type": "oid",
            "value": "2.16.840.1.113883.4.3.24"
          },
          {
            "type": "uri",
            "value": "urn:oid:2.16.840.1.113883.4.3.24"
          }
        ],
        "publisher": "HL7 International"
      }
    },
    {
      "fullUrl": "http://hl7.org/fhir/NamingSystem/4.3.23",
      "resource": {
        "resourceType": "NamingSystem",
        "id": "4.3.23",
        "text": {
          "status": "generated",
          "div": "<div><p><b>Generated Narrative with Details</b></p><p><b>id</b>: 4.3.23</p><p><b>type</b>: identifier</p><p><b>name</b>: Maine Driver's License</p><p><b>date</b>: Jul 3, 2015</p><p><b>status</b>: active</p><p><b>country</b>: USA</p><blockquote><p><b>uniqueId</b></p><p><b>type</b>: oid</p><p><b>value</b>: 2.16.840.1.113883.4.3.23</p></blockquote><blockquote><p><b>uniqueId</b></p><p><b>type</b>: uri</p><p><b>value</b>: urn:oid:2.16.840.1.113883.4.3.23</p></blockquote><p><b>publisher</b>: HL7 International</p></div>"
        },
        "type": "identifier",
        "name": "Maine Driver's License",
        "date": "2015-07-03",
        "status": "active",
        "country": "USA",
        "uniqueId": [
          {
            "type": "oid",
            "value": "2.16.840.1.113883.4.3.23"
          },
          {
            "type": "uri",
            "value": "urn:oid:2.16.840.1.113883.4.3.23"
          }
        ],
        "publisher": "HL7 International"
      }
    },
    {
      "fullUrl": "http://hl7.org/fhir/NamingSystem/4.3.26",
      "resource": {
        "resourceType": "NamingSystem",
        "id": "4.3.26",
        "text": {
          "status": "generated",
          "div": "<div><p><b>Generated Narrative with Details</b></p><p><b>id</b>: 4.3.26</p><p><b>type</b>: identifier</p><p><b>name</b>: Michigan Driver's License</p><p><b>date</b>: Jul 3, 2015</p><p><b>status</b>: active</p><p><b>country</b>: USA</p><blockquote><p><b>uniqueId</b></p><p><b>type</b>: oid</p><p><b>value</b>: 2.16.840.1.113883.4.3.26</p></blockquote><blockquote><p><b>uniqueId</b></p><p><b>type</b>: uri</p><p><b>value</b>: urn:oid:2.16.840.1.113883.4.3.26</p></blockquote><p><b>publisher</b>: HL7 International</p></div>"
        },
        "type": "identifier",
        "name": "Michigan Driver's License",
        "date": "2015-07-03",
        "status": "active",
        "country": "USA",
        "uniqueId": [
          {
            "type": "oid",
            "value": "2.16.840.1.113883.4.3.26"
          },
          {
            "type": "uri",
            "value": "urn:oid:2.16.840.1.113883.4.3.26"
          }
        ],
        "publisher": "HL7 International"
      }
    },
    {
      "fullUrl": "http://hl7.org/fhir/NamingSystem/4.3.27",
      "resource": {
        "resourceType": "NamingSystem",
        "id": "4.3.27",
        "text": {
          "status": "generated",
          "div": "<div><p><b>Generated Narrative with Details</b></p><p><b>id</b>: 4.3.27</p><p><b>type</b>: identifier</p><p><b>name</b>: Minnesota Driver's License</p><p><b>date</b>: Jul 3, 2015</p><p><b>status</b>: active</p><p><b>country</b>: USA</p><blockquote><p><b>uniqueId</b></p><p><b>type</b>: oid</p><p><b>value</b>: 2.16.840.1.113883.4.3.27</p></blockquote><blockquote><p><b>uniqueId</b></p><p><b>type</b>: uri</p><p><b>value</b>: urn:oid:2.16.840.1.113883.4.3.27</p></blockquote><p><b>publisher</b>: HL7 International</p></div>"
        },
        "type": "identifier",
        "name": "Minnesota Driver's License",
        "date": "2015-07-03",
        "status": "active",
        "country": "USA",
        "uniqueId": [
          {
            "type": "oid",
            "value": "2.16.840.1.113883.4.3.27"
          },
          {
            "type": "uri",
            "value": "urn:oid:2.16.840.1.113883.4.3.27"
          }
        ],
        "publisher": "HL7 International"
      }
    },
    {
      "fullUrl": "http://hl7.org/fhir/NamingSystem/4.3.29",
      "resource": {
        "resourceType": "NamingSystem",
        "id": "4.3.29",
        "text": {
          "status": "generated",
          "div": "<div><p><b>Generated Narrative with Details</b></p><p><b>id</b>: 4.3.29</p><p><b>type</b>: identifier</p><p><b>name</b>: Missouri Driver's License</p><p><b>date</b>: Jul 3, 2015</p><p><b>status</b>: active</p><p><b>country</b>: USA</p><blockquote><p><b>uniqueId</b></p><p><b>type</b>: oid</p><p><b>value</b>: 2.16.840.1.113883.4.3.29</p></blockquote><blockquote><p><b>uniqueId</b></p><p><b>type</b>: uri</p><p><b>value</b>: urn:oid:2.16.840.1.113883.4.3.29</p></blockquote><p><b>publisher</b>: HL7 International</p></div>"
        },
        "type": "identifier",
        "name": "Missouri Driver's License",
        "date": "2015-07-03",
        "status": "active",
        "country": "USA",
        "uniqueId": [
          {
            "type": "oid",
            "value": "2.16.840.1.113883.4.3.29"
          },
          {
            "type": "uri",
            "value": "urn:oid:2.16.840.1.113883.4.3.29"
          }
        ],
        "publisher": "HL7 International"
      }
    },
    {
      "fullUrl": "http://hl7.org/fhir/NamingSystem/4.3.28",
      "resource": {
        "resourceType": "NamingSystem",
        "id": "4.3.28",
        "text": {
          "status": "generated",
          "div": "<div><p><b>Generated Narrative with Details</b></p><p><b>id</b>: 4.3.28</p><p><b>type</b>: identifier</p><p><b>name</b>: Mississippi Driver's License</p><p><b>date</b>: Jul 3, 2015</p><p><b>status</b>: active</p><p><b>country</b>: USA</p><blockquote><p><b>uniqueId</b></p><p><b>type</b>: oid</p><p><b>value</b>: 2.16.840.1.113883.4.3.28</p></blockquote><blockquote><p><b>uniqueId</b></p><p><b>type</b>: uri</p><p><b>value</b>: urn:oid:2.16.840.1.113883.4.3.28</p></blockquote><p><b>publisher</b>: HL7 International</p></div>"
        },
        "type": "identifier",
        "name": "Mississippi Driver's License",
        "date": "2015-07-03",
        "status": "active",
        "country": "USA",
        "uniqueId": [
          {
            "type": "oid",
            "value": "2.16.840.1.113883.4.3.28"
          },
          {
            "type": "uri",
            "value": "urn:oid:2.16.840.1.113883.4.3.28"
          }
        ],
        "publisher": "HL7 International"
      }
    },
    {
      "fullUrl": "http://hl7.org/fhir/NamingSystem/4.3.30",
      "resource": {
        "resourceType": "NamingSystem",
        "id": "4.3.30",
        "text": {
          "status": "generated",
          "div": "<div><p><b>Generated Narrative with Details</b></p><p><b>id</b>: 4.3.30</p><p><b>type</b>: identifier</p><p><b>name</b>: Montana Driver's License</p><p><b>date</b>: Jul 3, 2015</p><p><b>status</b>: active</p><p><b>country</b>: USA</p><blockquote><p><b>uniqueId</b></p><p><b>type</b>: oid</p><p><b>value</b>: 2.16.840.1.113883.4.3.30</p></blockquote><blockquote><p><b>uniqueId</b></p><p><b>type</b>: uri</p><p><b>value</b>: urn:oid:2.16.840.1.113883.4.3.30</p></blockquote><p><b>publisher</b>: HL7 International</p></div>"
        },
        "type": "identifier",
        "name": "Montana Driver's License",
        "date": "2015-07-03",
        "status": "active",
        "country": "USA",
        "uniqueId": [
          {
            "type": "oid",
            "value": "2.16.840.1.113883.4.3.30"
          },
          {
            "type": "uri",
            "value": "urn:oid:2.16.840.1.113883.4.3.30"
          }
        ],
        "publisher": "HL7 International"
      }
    },
    {
      "fullUrl": "http://hl7.org/fhir/NamingSystem/4.3.36",
      "resource": {
        "resourceType": "NamingSystem",
        "id": "4.3.36",
        "text": {
          "status": "generated",
          "div": "<div><p><b>Generated Narrative with Details</b></p><p><b>id</b>: 4.3.36</p><p><b>type</b>: identifier</p><p><b>name</b>: New York Driver's License</p><p><b>date</b>: Jul 3, 2015</p><p><b>status</b>: active</p><p><b>country</b>: USA</p><blockquote><p><b>uniqueId</b></p><p><b>type</b>: oid</p><p><b>value</b>: 2.16.840.1.113883.4.3.36</p></blockquote><blockquote><p><b>uniqueId</b></p><p><b>type</b>: uri</p><p><b>value</b>: urn:oid:2.16.840.1.113883.4.3.36</p></blockquote><p><b>publisher</b>: HL7 International</p></div>"
        },
        "type": "identifier",
        "name": "New York Driver's License",
        "date": "2015-07-03",
        "status": "active",
        "country": "USA",
        "uniqueId": [
          {
            "type": "oid",
            "value": "2.16.840.1.113883.4.3.36"
          },
          {
            "type": "uri",
            "value": "urn:oid:2.16.840.1.113883.4.3.36"
          }
        ],
        "publisher": "HL7 International"
      }
    },
    {
      "fullUrl": "http://hl7.org/fhir/NamingSystem/4.3.37",
      "resource": {
        "resourceType": "NamingSystem",
        "id": "4.3.37",
        "text": {
          "status": "generated",
          "div": "<div><p><b>Generated Narrative with Details</b></p><p><b>id</b>: 4.3.37</p><p><b>type</b>: identifier</p><p><b>name</b>: North Carolina Driver's License</p><p><b>date</b>: Jul 3, 2015</p><p><b>status</b>: active</p><p><b>country</b>: USA</p><blockquote><p><b>uniqueId</b></p><p><b>type</b>: oid</p><p><b>value</b>: 2.16.840.1.113883.4.3.37</p></blockquote><blockquote><p><b>uniqueId</b></p><p><b>type</b>: uri</p><p><b>value</b>: urn:oid:2.16.840.1.113883.4.3.37</p></blockquote><p><b>publisher</b>: HL7 International</p></div>"
        },
        "type": "identifier",
        "name": "North Carolina Driver's License",
        "date": "2015-07-03",
        "status": "active",
        "country": "USA",
        "uniqueId": [
          {
            "type": "oid",
            "value": "2.16.840.1.113883.4.3.37"
          },
          {
            "type": "uri",
            "value": "urn:oid:2.16.840.1.113883.4.3.37"
          }
        ],
        "publisher": "HL7 International"
      }
    },
    {
      "fullUrl": "http://hl7.org/fhir/NamingSystem/4.3.38",
      "resource": {
        "resourceType": "NamingSystem",
        "id": "4.3.38",
        "text": {
          "status": "generated",
          "div": "<div><p><b>Generated Narrative with Details</b></p><p><b>id</b>: 4.3.38</p><p><b>type</b>: identifier</p><p><b>name</b>: North Dakota Driver's License</p><p><b>date</b>: Jul 3, 2015</p><p><b>status</b>: active</p><p><b>country</b>: USA</p><blockquote><p><b>uniqueId</b></p><p><b>type</b>: oid</p><p><b>value</b>: 2.16.840.1.113883.4.3.38</p></blockquote><blockquote><p><b>uniqueId</b></p><p><b>type</b>: uri</p><p><b>value</b>: urn:oid:2.16.840.1.113883.4.3.38</p></blockquote><p><b>publisher</b>: HL7 International</p></div>"
        },
        "type": "identifier",
        "name": "North Dakota Driver's License",
        "date": "2015-07-03",
        "status": "active",
        "country": "USA",
        "uniqueId": [
          {
            "type": "oid",
            "value": "2.16.840.1.113883.4.3.38"
          },
          {
            "type": "uri",
            "value": "urn:oid:2.16.840.1.113883.4.3.38"
          }
        ],
        "publisher": "HL7 International"
      }
    },
    {
      "fullUrl": "http://hl7.org/fhir/NamingSystem/4.3.31",
      "resource": {
        "resourceType": "NamingSystem",
        "id": "4.3.31",
        "text": {
          "status": "generated",
          "div": "<div><p><b>Generated Narrative with Details</b></p><p><b>id</b>: 4.3.31</p><p><b>type</b>: identifier</p><p><b>name</b>: Nebraska Driver's License</p><p><b>date</b>: Jul 3, 2015</p><p><b>status</b>: active</p><p><b>country</b>: USA</p><blockquote><p><b>uniqueId</b></p><p><b>type</b>: oid</p><p><b>value</b>: 2.16.840.1.113883.4.3.31</p></blockquote><blockquote><p><b>uniqueId</b></p><p><b>type</b>: uri</p><p><b>value</b>: urn:oid:2.16.840.1.113883.4.3.31</p></blockquote><p><b>publisher</b>: HL7 International</p></div>"
        },
        "type": "identifier",
        "name": "Nebraska Driver's License",
        "date": "2015-07-03",
        "status": "active",
        "country": "USA",
        "uniqueId": [
          {
            "type": "oid",
            "value": "2.16.840.1.113883.4.3.31"
          },
          {
            "type": "uri",
            "value": "urn:oid:2.16.840.1.113883.4.3.31"
          }
        ],
        "publisher": "HL7 International"
      }
    },
    {
      "fullUrl": "http://hl7.org/fhir/NamingSystem/4.3.33",
      "resource": {
        "resourceType": "NamingSystem",
        "id": "4.3.33",
        "text": {
          "status": "generated",
          "div": "<div><p><b>Generated Narrative with Details</b></p><p><b>id</b>: 4.3.33</p><p><b>type</b>: identifier</p><p><b>name</b>: New Hampshire Driver's License</p><p><b>date</b>: Jul 3, 2015</p><p><b>status</b>: active</p><p><b>country</b>: USA</p><blockquote><p><b>uniqueId</b></p><p><b>type</b>: oid</p><p><b>value</b>: 2.16.840.1.113883.4.3.33</p></blockquote><blockquote><p><b>uniqueId</b></p><p><b>type</b>: uri</p><p><b>value</b>: urn:oid:2.16.840.1.113883.4.3.33</p></blockquote><p><b>publisher</b>: HL7 International</p></div>"
        },
        "type": "identifier",
        "name": "New Hampshire Driver's License",
        "date": "2015-07-03",
        "status": "active",
        "country": "USA",
        "uniqueId": [
          {
            "type": "oid",
            "value": "2.16.840.1.113883.4.3.33"
          },
          {
            "type": "uri",
            "value": "urn:oid:2.16.840.1.113883.4.3.33"
          }
        ],
        "publisher": "HL7 International"
      }
    },
    {
      "fullUrl": "http://hl7.org/fhir/NamingSystem/4.3.34",
      "resource": {
        "resourceType": "NamingSystem",
        "id": "4.3.34",
        "text": {
          "status": "generated",
          "div": "<div><p><b>Generated Narrative with Details</b></p><p><b>id</b>: 4.3.34</p><p><b>type</b>: identifier</p><p><b>name</b>: New Jersey Driver's License</p><p><b>date</b>: Jul 3, 2015</p><p><b>status</b>: active</p><p><b>country</b>: USA</p><blockquote><p><b>uniqueId</b></p><p><b>type</b>: oid</p><p><b>value</b>: 2.16.840.1.113883.4.3.34</p></blockquote><blockquote><p><b>uniqueId</b></p><p><b>type</b>: uri</p><p><b>value</b>: urn:oid:2.16.840.1.113883.4.3.34</p></blockquote><p><b>publisher</b>: HL7 International</p></div>"
        },
        "type": "identifier",
        "name": "New Jersey Driver's License",
        "date": "2015-07-03",
        "status": "active",
        "country": "USA",
        "uniqueId": [
          {
            "type": "oid",
            "value": "2.16.840.1.113883.4.3.34"
          },
          {
            "type": "uri",
            "value": "urn:oid:2.16.840.1.113883.4.3.34"
          }
        ],
        "publisher": "HL7 International"
      }
    },
    {
      "fullUrl": "http://hl7.org/fhir/NamingSystem/4.3.35",
      "resource": {
        "resourceType": "NamingSystem",
        "id": "4.3.35",
        "text": {
          "status": "generated",
          "div": "<div><p><b>Generated Narrative with Details</b></p><p><b>id</b>: 4.3.35</p><p><b>type</b>: identifier</p><p><b>name</b>: New Mexico Driver's License</p><p><b>date</b>: Jul 3, 2015</p><p><b>status</b>: active</p><p><b>country</b>: USA</p><blockquote><p><b>uniqueId</b></p><p><b>type</b>: oid</p><p><b>value</b>: 2.16.840.1.113883.4.3.35</p></blockquote><blockquote><p><b>uniqueId</b></p><p><b>type</b>: uri</p><p><b>value</b>: urn:oid:2.16.840.1.113883.4.3.35</p></blockquote><p><b>publisher</b>: HL7 International</p></div>"
        },
        "type": "identifier",
        "name": "New Mexico Driver's License",
        "date": "2015-07-03",
        "status": "active",
        "country": "USA",
        "uniqueId": [
          {
            "type": "oid",
            "value": "2.16.840.1.113883.4.3.35"
          },
          {
            "type": "uri",
            "value": "urn:oid:2.16.840.1.113883.4.3.35"
          }
        ],
        "publisher": "HL7 International"
      }
    },
    {
      "fullUrl": "http://hl7.org/fhir/NamingSystem/4.3.32",
      "resource": {
        "resourceType": "NamingSystem",
        "id": "4.3.32",
        "text": {
          "status": "generated",
          "div": "<div><p><b>Generated Narrative with Details</b></p><p><b>id</b>: 4.3.32</p><p><b>type</b>: identifier</p><p><b>name</b>: Nevada Driver's License</p><p><b>date</b>: Jul 3, 2015</p><p><b>status</b>: active</p><p><b>country</b>: USA</p><blockquote><p><b>uniqueId</b></p><p><b>type</b>: oid</p><p><b>value</b>: 2.16.840.1.113883.4.3.32</p></blockquote><blockquote><p><b>uniqueId</b></p><p><b>type</b>: uri</p><p><b>value</b>: urn:oid:2.16.840.1.113883.4.3.32</p></blockquote><p><b>publisher</b>: HL7 International</p></div>"
        },
        "type": "identifier",
        "name": "Nevada Driver's License",
        "date": "2015-07-03",
        "status": "active",
        "country": "USA",
        "uniqueId": [
          {
            "type": "oid",
            "value": "2.16.840.1.113883.4.3.32"
          },
          {
            "type": "uri",
            "value": "urn:oid:2.16.840.1.113883.4.3.32"
          }
        ],
        "publisher": "HL7 International"
      }
    },
    {
      "fullUrl": "http://hl7.org/fhir/NamingSystem/4.3.39",
      "resource": {
        "resourceType": "NamingSystem",
        "id": "4.3.39",
        "text": {
          "status": "generated",
          "div": "<div><p><b>Generated Narrative with Details</b></p><p><b>id</b>: 4.3.39</p><p><b>type</b>: identifier</p><p><b>name</b>: Ohio Driver's License</p><p><b>date</b>: Jul 3, 2015</p><p><b>status</b>: active</p><p><b>country</b>: USA</p><blockquote><p><b>uniqueId</b></p><p><b>type</b>: oid</p><p><b>value</b>: 2.16.840.1.113883.4.3.39</p></blockquote><blockquote><p><b>uniqueId</b></p><p><b>type</b>: uri</p><p><b>value</b>: urn:oid:2.16.840.1.113883.4.3.39</p></blockquote><p><b>publisher</b>: HL7 International</p></div>"
        },
        "type": "identifier",
        "name": "Ohio Driver's License",
        "date": "2015-07-03",
        "status": "active",
        "country": "USA",
        "uniqueId": [
          {
            "type": "oid",
            "value": "2.16.840.1.113883.4.3.39"
          },
          {
            "type": "uri",
            "value": "urn:oid:2.16.840.1.113883.4.3.39"
          }
        ],
        "publisher": "HL7 International"
      }
    },
    {
      "fullUrl": "http://hl7.org/fhir/NamingSystem/4.3.40",
      "resource": {
        "resourceType": "NamingSystem",
        "id": "4.3.40",
        "text": {
          "status": "generated",
          "div": "<div><p><b>Generated Narrative with Details</b></p><p><b>id</b>: 4.3.40</p><p><b>type</b>: identifier</p><p><b>name</b>: Oklahoma Driver's License</p><p><b>date</b>: Jul 3, 2015</p><p><b>status</b>: active</p><p><b>country</b>: USA</p><blockquote><p><b>uniqueId</b></p><p><b>type</b>: oid</p><p><b>value</b>: 2.16.840.1.113883.4.3.40</p></blockquote><blockquote><p><b>uniqueId</b></p><p><b>type</b>: uri</p><p><b>value</b>: urn:oid:2.16.840.1.113883.4.3.40</p></blockquote><p><b>publisher</b>: HL7 International</p></div>"
        },
        "type": "identifier",
        "name": "Oklahoma Driver's License",
        "date": "2015-07-03",
        "status": "active",
        "country": "USA",
        "uniqueId": [
          {
            "type": "oid",
            "value": "2.16.840.1.113883.4.3.40"
          },
          {
            "type": "uri",
            "value": "urn:oid:2.16.840.1.113883.4.3.40"
          }
        ],
        "publisher": "HL7 International"
      }
    },
    {
      "fullUrl": "http://hl7.org/fhir/NamingSystem/4.3.41",
      "resource": {
        "resourceType": "NamingSystem",
        "id": "4.3.41",
        "text": {
          "status": "generated",
          "div": "<div><p><b>Generated Narrative with Details</b></p><p><b>id</b>: 4.3.41</p><p><b>type</b>: identifier</p><p><b>name</b>: Oregon Driver's License</p><p><b>date</b>: Jul 3, 2015</p><p><b>status</b>: active</p><p><b>country</b>: USA</p><blockquote><p><b>uniqueId</b></p><p><b>type</b>: oid</p><p><b>value</b>: 2.16.840.1.113883.4.3.41</p></blockquote><blockquote><p><b>uniqueId</b></p><p><b>type</b>: uri</p><p><b>value</b>: urn:oid:2.16.840.1.113883.4.3.41</p></blockquote><p><b>publisher</b>: HL7 International</p></div>"
        },
        "type": "identifier",
        "name": "Oregon Driver's License",
        "date": "2015-07-03",
        "status": "active",
        "country": "USA",
        "uniqueId": [
          {
            "type": "oid",
            "value": "2.16.840.1.113883.4.3.41"
          },
          {
            "type": "uri",
            "value": "urn:oid:2.16.840.1.113883.4.3.41"
          }
        ],
        "publisher": "HL7 International"
      }
    },
    {
      "fullUrl": "http://hl7.org/fhir/NamingSystem/4.3.42",
      "resource": {
        "resourceType": "NamingSystem",
        "id": "4.3.42",
        "text": {
          "status": "generated",
          "div": "<div><p><b>Generated Narrative with Details</b></p><p><b>id</b>: 4.3.42</p><p><b>type</b>: identifier</p><p><b>name</b>: Pennsylvania Driver's License</p><p><b>date</b>: Jul 3, 2015</p><p><b>status</b>: active</p><p><b>country</b>: USA</p><blockquote><p><b>uniqueId</b></p><p><b>type</b>: oid</p><p><b>value</b>: 2.16.840.1.113883.4.3.42</p></blockquote><blockquote><p><b>uniqueId</b></p><p><b>type</b>: uri</p><p><b>value</b>: urn:oid:2.16.840.1.113883.4.3.42</p></blockquote><p><b>publisher</b>: HL7 International</p></div>"
        },
        "type": "identifier",
        "name": "Pennsylvania Driver's License",
        "date": "2015-07-03",
        "status": "active",
        "country": "USA",
        "uniqueId": [
          {
            "type": "oid",
            "value": "2.16.840.1.113883.4.3.42"
          },
          {
            "type": "uri",
            "value": "urn:oid:2.16.840.1.113883.4.3.42"
          }
        ],
        "publisher": "HL7 International"
      }
    },
    {
      "fullUrl": "http://hl7.org/fhir/NamingSystem/4.3.44",
      "resource": {
        "resourceType": "NamingSystem",
        "id": "4.3.44",
        "text": {
          "status": "generated",
          "div": "<div><p><b>Generated Narrative with Details</b></p><p><b>id</b>: 4.3.44</p><p><b>type</b>: identifier</p><p><b>name</b>: Rhode Island Driver's License</p><p><b>date</b>: Jul 3, 2015</p><p><b>status</b>: active</p><p><b>country</b>: USA</p><blockquote><p><b>uniqueId</b></p><p><b>type</b>: oid</p><p><b>value</b>: 2.16.840.1.113883.4.3.44</p></blockquote><blockquote><p><b>uniqueId</b></p><p><b>type</b>: uri</p><p><b>value</b>: urn:oid:2.16.840.1.113883.4.3.44</p></blockquote><p><b>publisher</b>: HL7 International</p></div>"
        },
        "type": "identifier",
        "name": "Rhode Island Driver's License",
        "date": "2015-07-03",
        "status": "active",
        "country": "USA",
        "uniqueId": [
          {
            "type": "oid",
            "value": "2.16.840.1.113883.4.3.44"
          },
          {
            "type": "uri",
            "value": "urn:oid:2.16.840.1.113883.4.3.44"
          }
        ],
        "publisher": "HL7 International"
      }
    },
    {
      "fullUrl": "http://hl7.org/fhir/NamingSystem/4.3.45",
      "resource": {
        "resourceType": "NamingSystem",
        "id": "4.3.45",
        "text": {
          "status": "generated",
          "div": "<div><p><b>Generated Narrative with Details</b></p><p><b>id</b>: 4.3.45</p><p><b>type</b>: identifier</p><p><b>name</b>: South Carolina Driver's License</p><p><b>date</b>: Jul 3, 2015</p><p><b>status</b>: active</p><p><b>country</b>: USA</p><blockquote><p><b>uniqueId</b></p><p><b>type</b>: oid</p><p><b>value</b>: 2.16.840.1.113883.4.3.45</p></blockquote><blockquote><p><b>uniqueId</b></p><p><b>type</b>: uri</p><p><b>value</b>: urn:oid:2.16.840.1.113883.4.3.45</p></blockquote><p><b>publisher</b>: HL7 International</p></div>"
        },
        "type": "identifier",
        "name": "South Carolina Driver's License",
        "date": "2015-07-03",
        "status": "active",
        "country": "USA",
        "uniqueId": [
          {
            "type": "oid",
            "value": "2.16.840.1.113883.4.3.45"
          },
          {
            "type": "uri",
            "value": "urn:oid:2.16.840.1.113883.4.3.45"
          }
        ],
        "publisher": "HL7 International"
      }
    },
    {
      "fullUrl": "http://hl7.org/fhir/NamingSystem/4.3.46",
      "resource": {
        "resourceType": "NamingSystem",
        "id": "4.3.46",
        "text": {
          "status": "generated",
          "div": "<div><p><b>Generated Narrative with Details</b></p><p><b>id</b>: 4.3.46</p><p><b>type</b>: identifier</p><p><b>name</b>: South Dakota Driver's License</p><p><b>date</b>: Jul 3, 2015</p><p><b>status</b>: active</p><p><b>country</b>: USA</p><blockquote><p><b>uniqueId</b></p><p><b>type</b>: oid</p><p><b>value</b>: 2.16.840.1.113883.4.3.46</p></blockquote><blockquote><p><b>uniqueId</b></p><p><b>type</b>: uri</p><p><b>value</b>: urn:oid:2.16.840.1.113883.4.3.46</p></blockquote><p><b>publisher</b>: HL7 International</p></div>"
        },
        "type": "identifier",
        "name": "South Dakota Driver's License",
        "date": "2015-07-03",
        "status": "active",
        "country": "USA",
        "uniqueId": [
          {
            "type": "oid",
            "value": "2.16.840.1.113883.4.3.46"
          },
          {
            "type": "uri",
            "value": "urn:oid:2.16.840.1.113883.4.3.46"
          }
        ],
        "publisher": "HL7 International"
      }
    },
    {
      "fullUrl": "http://hl7.org/fhir/NamingSystem/4.3.47",
      "resource": {
        "resourceType": "NamingSystem",
        "id": "4.3.47",
        "text": {
          "status": "generated",
          "div": "<div><p><b>Generated Narrative with Details</b></p><p><b>id</b>: 4.3.47</p><p><b>type</b>: identifier</p><p><b>name</b>: Tennessee Driver's License</p><p><b>date</b>: Jul 3, 2015</p><p><b>status</b>: active</p><p><b>country</b>: USA</p><blockquote><p><b>uniqueId</b></p><p><b>type</b>: oid</p><p><b>value</b>: 2.16.840.1.113883.4.3.47</p></blockquote><blockquote><p><b>uniqueId</b></p><p><b>type</b>: uri</p><p><b>value</b>: urn:oid:2.16.840.1.113883.4.3.47</p></blockquote><p><b>publisher</b>: HL7 International</p></div>"
        },
        "type": "identifier",
        "name": "Tennessee Driver's License",
        "date": "2015-07-03",
        "status": "active",
        "country": "USA",
        "uniqueId": [
          {
            "type": "oid",
            "value": "2.16.840.1.113883.4.3.47"
          },
          {
            "type": "uri",
            "value": "urn:oid:2.16.840.1.113883.4.3.47"
          }
        ],
        "publisher": "HL7 International"
      }
    },
    {
      "fullUrl": "http://hl7.org/fhir/NamingSystem/4.3.48",
      "resource": {
        "resourceType": "NamingSystem",
        "id": "4.3.48",
        "text": {
          "status": "generated",
          "div": "<div><p><b>Generated Narrative with Details</b></p><p><b>id</b>: 4.3.48</p><p><b>type</b>: identifier</p><p><b>name</b>: Texas Driver's License</p><p><b>date</b>: Jul 3, 2015</p><p><b>status</b>: active</p><p><b>country</b>: USA</p><blockquote><p><b>uniqueId</b></p><p><b>type</b>: oid</p><p><b>value</b>: 2.16.840.1.113883.4.3.48</p></blockquote><blockquote><p><b>uniqueId</b></p><p><b>type</b>: uri</p><p><b>value</b>: urn:oid:2.16.840.1.113883.4.3.48</p></blockquote><p><b>publisher</b>: HL7 International</p></div>"
        },
        "type": "identifier",
        "name": "Texas Driver's License",
        "date": "2015-07-03",
        "status": "active",
        "country": "USA",
        "uniqueId": [
          {
            "type": "oid",
            "value": "2.16.840.1.113883.4.3.48"
          },
          {
            "type": "uri",
            "value": "urn:oid:2.16.840.1.113883.4.3.48"
          }
        ],
        "publisher": "HL7 International"
      }
    },
    {
      "fullUrl": "http://hl7.org/fhir/NamingSystem/4.3.49",
      "resource": {
        "resourceType": "NamingSystem",
        "id": "4.3.49",
        "text": {
          "status": "generated",
          "div": "<div><p><b>Generated Narrative with Details</b></p><p><b>id</b>: 4.3.49</p><p><b>type</b>: identifier</p><p><b>name</b>: Utah Driver's License</p><p><b>date</b>: Jul 3, 2015</p><p><b>status</b>: active</p><p><b>country</b>: USA</p><blockquote><p><b>uniqueId</b></p><p><b>type</b>: oid</p><p><b>value</b>: 2.16.840.1.113883.4.3.49</p></blockquote><blockquote><p><b>uniqueId</b></p><p><b>type</b>: uri</p><p><b>value</b>: urn:oid:2.16.840.1.113883.4.3.49</p></blockquote><p><b>publisher</b>: HL7 International</p></div>"
        },
        "type": "identifier",
        "name": "Utah Driver's License",
        "date": "2015-07-03",
        "status": "active",
        "country": "USA",
        "uniqueId": [
          {
            "type": "oid",
            "value": "2.16.840.1.113883.4.3.49"
          },
          {
            "type": "uri",
            "value": "urn:oid:2.16.840.1.113883.4.3.49"
          }
        ],
        "publisher": "HL7 International"
      }
    },
    {
      "fullUrl": "http://hl7.org/fhir/NamingSystem/4.3.51",
      "resource": {
        "resourceType": "NamingSystem",
        "id": "4.3.51",
        "text": {
          "status": "generated",
          "div": "<div><p><b>Generated Narrative with Details</b></p><p><b>id</b>: 4.3.51</p><p><b>type</b>: identifier</p><p><b>name</b>: Virginia Driver's License</p><p><b>date</b>: Jul 3, 2015</p><p><b>status</b>: active</p><p><b>country</b>: USA</p><blockquote><p><b>uniqueId</b></p><p><b>type</b>: oid</p><p><b>value</b>: 2.16.840.1.113883.4.3.51</p></blockquote><blockquote><p><b>uniqueId</b></p><p><b>type</b>: uri</p><p><b>value</b>: urn:oid:2.16.840.1.113883.4.3.51</p></blockquote><p><b>publisher</b>: HL7 International</p></div>"
        },
        "type": "identifier",
        "name": "Virginia Driver's License",
        "date": "2015-07-03",
        "status": "active",
        "country": "USA",
        "uniqueId": [
          {
            "type": "oid",
            "value": "2.16.840.1.113883.4.3.51"
          },
          {
            "type": "uri",
            "value": "urn:oid:2.16.840.1.113883.4.3.51"
          }
        ],
        "publisher": "HL7 International"
      }
    },
    {
      "fullUrl": "http://hl7.org/fhir/NamingSystem/4.3.50",
      "resource": {
        "resourceType": "NamingSystem",
        "id": "4.3.50",
        "text": {
          "status": "generated",
          "div": "<div><p><b>Generated Narrative with Details</b></p><p><b>id</b>: 4.3.50</p><p><b>type</b>: identifier</p><p><b>name</b>: Vermont Driver's License</p><p><b>date</b>: Jul 3, 2015</p><p><b>status</b>: active</p><p><b>country</b>: USA</p><blockquote><p><b>uniqueId</b></p><p><b>type</b>: oid</p><p><b>value</b>: 2.16.840.1.113883.4.3.50</p></blockquote><blockquote><p><b>uniqueId</b></p><p><b>type</b>: uri</p><p><b>value</b>: urn:oid:2.16.840.1.113883.4.3.50</p></blockquote><p><b>publisher</b>: HL7 International</p></div>"
        },
        "type": "identifier",
        "name": "Vermont Driver's License",
        "date": "2015-07-03",
        "status": "active",
        "country": "USA",
        "uniqueId": [
          {
            "type": "oid",
            "value": "2.16.840.1.113883.4.3.50"
          },
          {
            "type": "uri",
            "value": "urn:oid:2.16.840.1.113883.4.3.50"
          }
        ],
        "publisher": "HL7 International"
      }
    },
    {
      "fullUrl": "http://hl7.org/fhir/NamingSystem/4.3.53",
      "resource": {
        "resourceType": "NamingSystem",
        "id": "4.3.53",
        "text": {
          "status": "generated",
          "div": "<div><p><b>Generated Narrative with Details</b></p><p><b>id</b>: 4.3.53</p><p><b>type</b>: identifier</p><p><b>name</b>: Washington Driver's License</p><p><b>date</b>: Jul 3, 2015</p><p><b>status</b>: active</p><p><b>country</b>: USA</p><blockquote><p><b>uniqueId</b></p><p><b>type</b>: oid</p><p><b>value</b>: 2.16.840.1.113883.4.3.53</p></blockquote><blockquote><p><b>uniqueId</b></p><p><b>type</b>: uri</p><p><b>value</b>: urn:oid:2.16.840.1.113883.4.3.53</p></blockquote><p><b>publisher</b>: HL7 International</p></div>"
        },
        "type": "identifier",
        "name": "Washington Driver's License",
        "date": "2015-07-03",
        "status": "active",
        "country": "USA",
        "uniqueId": [
          {
            "type": "oid",
            "value": "2.16.840.1.113883.4.3.53"
          },
          {
            "type": "uri",
            "value": "urn:oid:2.16.840.1.113883.4.3.53"
          }
        ],
        "publisher": "HL7 International"
      }
    },
    {
      "fullUrl": "http://hl7.org/fhir/NamingSystem/4.3.55",
      "resource": {
        "resourceType": "NamingSystem",
        "id": "4.3.55",
        "text": {
          "status": "generated",
          "div": "<div><p><b>Generated Narrative with Details</b></p><p><b>id</b>: 4.3.55</p><p><b>type</b>: identifier</p><p><b>name</b>: Wisconsin Driver's License</p><p><b>date</b>: Jul 3, 2015</p><p><b>status</b>: active</p><p><b>country</b>: USA</p><blockquote><p><b>uniqueId</b></p><p><b>type</b>: oid</p><p><b>value</b>: 2.16.840.1.113883.4.3.55</p></blockquote><blockquote><p><b>uniqueId</b></p><p><b>type</b>: uri</p><p><b>value</b>: urn:oid:2.16.840.1.113883.4.3.55</p></blockquote><p><b>publisher</b>: HL7 International</p></div>"
        },
        "type": "identifier",
        "name": "Wisconsin Driver's License",
        "date": "2015-07-03",
        "status": "active",
        "country": "USA",
        "uniqueId": [
          {
            "type": "oid",
            "value": "2.16.840.1.113883.4.3.55"
          },
          {
            "type": "uri",
            "value": "urn:oid:2.16.840.1.113883.4.3.55"
          }
        ],
        "publisher": "HL7 International"
      }
    },
    {
      "fullUrl": "http://hl7.org/fhir/NamingSystem/4.3.54",
      "resource": {
        "resourceType": "NamingSystem",
        "id": "4.3.54",
        "text": {
          "status": "generated",
          "div": "<div><p><b>Generated Narrative with Details</b></p><p><b>id</b>: 4.3.54</p><p><b>type</b>: identifier</p><p><b>name</b>: West Virginia Driver's License</p><p><b>date</b>: Jul 3, 2015</p><p><b>status</b>: active</p><p><b>country</b>: USA</p><blockquote><p><b>uniqueId</b></p><p><b>type</b>: oid</p><p><b>value</b>: 2.16.840.1.113883.4.3.54</p></blockquote><blockquote><p><b>uniqueId</b></p><p><b>type</b>: uri</p><p><b>value</b>: urn:oid:2.16.840.1.113883.4.3.54</p></blockquote><p><b>publisher</b>: HL7 International</p></div>"
        },
        "type": "identifier",
        "name": "West Virginia Driver's License",
        "date": "2015-07-03",
        "status": "active",
        "country": "USA",
        "uniqueId": [
          {
            "type": "oid",
            "value": "2.16.840.1.113883.4.3.54"
          },
          {
            "type": "uri",
            "value": "urn:oid:2.16.840.1.113883.4.3.54"
          }
        ],
        "publisher": "HL7 International"
      }
    },
    {
      "fullUrl": "http://hl7.org/fhir/NamingSystem/4.3.56",
      "resource": {
        "resourceType": "NamingSystem",
        "id": "4.3.56",
        "text": {
          "status": "generated",
          "div": "<div><p><b>Generated Narrative with Details</b></p><p><b>id</b>: 4.3.56</p><p><b>type</b>: identifier</p><p><b>name</b>: Wyoming Driver's License</p><p><b>date</b>: Jul 3, 2015</p><p><b>status</b>: active</p><p><b>country</b>: USA</p><blockquote><p><b>uniqueId</b></p><p><b>type</b>: oid</p><p><b>value</b>: 2.16.840.1.113883.4.3.56</p></blockquote><blockquote><p><b>uniqueId</b></p><p><b>type</b>: uri</p><p><b>value</b>: urn:oid:2.16.840.1.113883.4.3.56</p></blockquote><p><b>publisher</b>: HL7 International</p></div>"
        },
        "type": "identifier",
        "name": "Wyoming Driver's License",
        "date": "2015-07-03",
        "status": "active",
        "country": "USA",
        "uniqueId": [
          {
            "type": "oid",
            "value": "2.16.840.1.113883.4.3.56"
          },
          {
            "type": "uri",
            "value": "urn:oid:2.16.840.1.113883.4.3.56"
          }
        ],
        "publisher": "HL7 International"
      }
    }
  ]
}