{
  "resourceType": "Observation",
  "id": "f004",
  "text": {
    "status": "generated",
    "div": "<div><p><b>Generated Narrative with Details</b></p><p><b>id</b>: f004</p><p><b>code</b>: Erythrocytes [#/volume] in Blood by Automated count <span>(Details : {LOINC code '789-8' = 'Erythrocytes [#/volume] in Blood by Automated count', given as 'Erythrocytes [#/volume] in Blood by Automated count'})</span></p><p><b>value</b>: 4.12 10^12/L<span> (Details: http://unitsofmeasure.org code 10*12/L = '10*12/L')</span></p><p><b>interpretation</b>: Below low normal <span>(Details : {http://hl7.org/fhir/v2/0078 code 'L' = 'Below low normal', given as 'Below low normal'})</span></p><p><b>effective</b>: Apr 2, 2013 10:30:10 AM --&gt; Apr 5, 2013 10:30:10 AM</p><p><b>issued</b>: Apr 3, 2013 3:30:10 PM</p><p><b>status</b>: final</p><p><b>identifier</b>: 6326 (OFFICIAL)</p><p><b>subject</b>: <a>P. van de Heuvel. Generated Summary: 738472983 (USUAL), ?? (USUAL); Pieter van de Heuvel ; ph: 0648352638(MOBILE), p.heuvel@gmail.com(HOME); MALE; birthDate: Nov 17, 1944; <span>Getrouwd</span>; multipleBirth; active</a></p><p><b>performer</b>: <a>A. Langeveld. Generated Summary: 118265112 (OFFICIAL), 191REW8WE916 (USUAL); Langeveld Anne (OFFICIAL); ph: 0205563847(WORK), a.langeveld@bmc.nl(WORK), fax: 0205668916(WORK); FEMALE; birthDate: Mar 11, 1959; <span>France</span></a></p><h3>ReferenceRanges</h3><table><tr><td>-</td><td><b>Low</b></td><td><b>High</b></td></tr><tr><td>*</td><td>4.4 10^12/L<span> (Details: http://unitsofmeasure.org code 10*12/L = '10*12/L')</span></td><td>5.8 10^12/L<span> (Details: http://unitsofmeasure.org code 10*12/L = '10*12/L')</span></td></tr></table></div>"
  },
  "code": {
    "coding": [
      {
        "system": "http://loinc.org",
        "code": "789-8",
        "display": "Erythrocytes [#/volume] in Blood by Automated count"
      }
    ]
  },
  "valueQuantity": {
    "value": 4.12,
    "units": "10^12/L",
    "system": "http://unitsofmeasure.org",
    "code": "10*12/L"
  },
  "interpretation": {
    "coding": [
      {
        "system": "http://hl7.org/fhir/v2/0078",
        "code": "L",
        "display": "Below low normal"
      }
    ]
  },
  "effectivePeriod": {
    "start": "2013-04-02T10:30:10+01:00",
    "end": "2013-04-05T10:30:10+01:00"
  },
  "issued": "2013-04-03T15:30:10+01:00",
  "status": "final",
  "identifier": [
    {
      "use": "official",
      "system": "http://www.bmc.nl/zorgportal/identifiers/observations",
      "value": "6326"
    }
  ],
  "subject": {
    "reference": "Patient/f001",
    "display": "P. van de Heuvel"
  },
  "performer": [
    {
      "reference": "Practitioner/f005",
      "display": "A. Langeveld"
    }
  ],
  "referenceRange": [
    {
      "low": {
        "value": 4.4,
        "units": "10^12/L",
        "system": "http://unitsofmeasure.org",
        "code": "10*12/L"
      },
      "high": {
        "value": 5.8,
        "units": "10^12/L",
        "system": "http://unitsofmeasure.org",
        "code": "10*12/L"
      }
    }
  ]
}