{
  "resourceType": "Observation",
  "id": "satO2",
  "text": {
    "status": "generated",
    "div": "<div><p><b>Generated Narrative with Details</b></p><p><b>id</b>: satO2</p><p><b>code</b>: MDC_PULS_OXIM_SAT_O2 <span>(Details : {https://rtmms.nist.gov code '150456' = '150456', given as 'MDC_PULS_OXIM_SAT_O2'})</span></p><p><b>value</b>: 95 %<span> (Details: https://rtmms.nist.gov code 262688 = '262688')</span></p><p><b>interpretation</b>: Normal (applies to non-numeric results) <span>(Details : {http://hl7.org/fhir/v2/0078 code 'N' = 'Normal (applies to non-numeric results)', given as 'Normal (applies to non-numeric results)'})</span></p><p><b>effective</b>: Dec 5, 2014 9:30:10 AM</p><p><b>status</b>: final</p><p><b>reliability</b>: ok</p><p><b>identifier</b>: o1223435-10</p><p><b>subject</b>: <a>Generated Summary: MR = 12345 (USUAL); Peter James Chalmers (OFFICIAL), Jim ; -unknown-(HOME), ph: (03) 5555 6473(WORK); MALE; birthDate: Dec 25, 1974; active</a></p><p><b>device</b>: <a>Generated Summary: <span>MDC_PULS_OXIM_SAT_O2</span>; 345675; <span>MDC_DIM_PERCENT</span>; MEASUREMENT</a></p><h3>ReferenceRanges</h3><table><tr><td>-</td><td><b>Low</b></td><td><b>High</b></td></tr><tr><td>*</td><td>90 %<span> (Details: https://rtmms.nist.gov code 262688 = '262688')</span></td><td>99 %<span> (Details: https://rtmms.nist.gov code 262688 = '262688')</span></td></tr></table></div>"
  },
  "code": {
    "coding": [
      {
        "system": "https://rtmms.nist.gov",
        "code": "150456",
        "display": "MDC_PULS_OXIM_SAT_O2"
      }
    ]
  },
  "valueQuantity": {
    "value": 95,
    "units": "%",
    "system": "https://rtmms.nist.gov",
    "code": "262688"
  },
  "interpretation": {
    "coding": [
      {
        "system": "http://hl7.org/fhir/v2/0078",
        "code": "N",
        "display": "Normal (applies to non-numeric results)"
      }
    ]
  },
  "effectiveDateTime": "2014-12-05T09:30:10+01:00",
  "status": "final",
  "reliability": "ok",
  "identifier": [
    {
      "system": "http://goodcare.org/observation/id",
      "value": "o1223435-10"
    }
  ],
  "subject": {
    "reference": "Patient/example"
  },
  "device": {
    "reference": "DeviceMetric/example"
  },
  "referenceRange": [
    {
      "low": {
        "value": 90,
        "units": "%",
        "system": "https://rtmms.nist.gov",
        "code": "262688"
      },
      "high": {
        "value": 99,
        "units": "%",
        "system": "https://rtmms.nist.gov",
        "code": "262688"
      }
    }
  ]
}