<?xml version="1.0" encoding="UTF-8"?>
<sch:schema xmlns:sch="http://purl.oclc.org/dsdl/schematron" queryBinding="xslt2">
  <sch:ns prefix="f" uri="http://hl7.org/fhir"/>
  <sch:ns prefix="h" uri="http://www.w3.org/1999/xhtml"/>
  <sch:pattern>
    <sch:title>Observation</sch:title>
    <sch:rule context="f:DeviceMetricObservation">
            <sch:assert test="count(f:dataAbsentReason) &lt;= 0">dataAbsentReason: maximum cardinality is 0</sch:assert>
    </sch:rule>
    <sch:rule context="f:DeviceMetricObservation">
            <sch:assert test="count(f:effectiveDateTime) &gt;= 1">effectiveDateTime: minimum cardinality is 1</sch:assert>
    </sch:rule>
    <sch:rule context="f:DeviceMetricObservation">
            <sch:assert test="count(f:issued) &lt;= 0">issued: maximum cardinality is 0</sch:assert>
    </sch:rule>
    <sch:rule context="f:DeviceMetricObservation">
            <sch:assert test="count(f:reliability) &gt;= 1">reliability: minimum cardinality is 1</sch:assert>
    </sch:rule>
    <sch:rule context="f:DeviceMetricObservation">
            <sch:assert test="count(f:subject) &gt;= 1">subject: minimum cardinality is 1</sch:assert>
    </sch:rule>
    <sch:rule context="f:DeviceMetricObservation">
            <sch:assert test="count(f:specimen) &lt;= 0">specimen: maximum cardinality is 0</sch:assert>
    </sch:rule>
    <sch:rule context="f:DeviceMetricObservation">
            <sch:assert test="count(f:device) &gt;= 1">device: minimum cardinality is 1</sch:assert>
    </sch:rule>
    <sch:rule context="f:DeviceMetricObservation">
            <sch:assert test="count(f:encounter) &lt;= 0">encounter: maximum cardinality is 0</sch:assert>
    </sch:rule>
    <sch:rule context="f:DeviceMetricObservation">
            <sch:assert test="count(f:referenceRange) &lt;= 1">referenceRange: maximum cardinality is 1</sch:assert>
    </sch:rule>
    <sch:rule context="f:DeviceMetricObservation">
            <sch:assert test="count(f:related) &lt;= 1">related: maximum cardinality is 1</sch:assert>
    </sch:rule>
    </sch:pattern>
</sch:schema>
