<?xml version="1.0" encoding="UTF-8"?>
<sch:schema xmlns:sch="http://purl.oclc.org/dsdl/schematron" queryBinding="xslt2">
  <sch:ns prefix="f" uri="http://hl7.org/fhir"/>
  <sch:ns prefix="h" uri="http://www.w3.org/1999/xhtml"/>
  <sch:pattern>
    <sch:title>Observation</sch:title>
    <sch:rule context="f:hspcbodyweight">
            <sch:assert test="count(f:extension) &lt;= 1">extension: maximum cardinality is 1</sch:assert>
    </sch:rule>
    <sch:rule context="f:hspcbodyweight">
            <sch:assert test="count(f:extension) &lt;= 1">extension: maximum cardinality is 1</sch:assert>
    </sch:rule>
    <sch:rule context="f:hspcbodyweight">
            <sch:assert test="count(f:value[x]) &gt;= 1">value[x]: minimum cardinality is 1</sch:assert>
    </sch:rule>
    <sch:rule context="f:hspcbodyweight">
            <sch:assert test="count(f:issued) &lt;= 0">issued: maximum cardinality is 0</sch:assert>
    </sch:rule>
    <sch:rule context="f:hspcbodyweight">
            <sch:assert test="count(f:status) &lt;= 0">status: maximum cardinality is 0</sch:assert>
    </sch:rule>
    <sch:rule context="f:hspcbodyweight">
            <sch:assert test="count(f:reliability) &lt;= 0">reliability: maximum cardinality is 0</sch:assert>
    </sch:rule>
    <sch:rule context="f:hspcbodyweight">
            <sch:assert test="count(f:specimen) &lt;= 0">specimen: maximum cardinality is 0</sch:assert>
    </sch:rule>
    <sch:rule context="f:hspcbodyweight">
            <sch:assert test="count(f:performer) &lt;= 1">performer: maximum cardinality is 1</sch:assert>
    </sch:rule>
    <sch:rule context="f:hspcbodyweight">
            <sch:assert test="count(f:device) &lt;= 0">device: maximum cardinality is 0</sch:assert>
    </sch:rule>
    </sch:pattern>
</sch:schema>
