<?xml version="1.0" encoding="UTF-8"?>
<sch:schema xmlns:sch="http://purl.oclc.org/dsdl/schematron" queryBinding="xslt2">
  <sch:ns prefix="f" uri="http://hl7.org/fhir"/>
  <sch:ns prefix="h" uri="http://www.w3.org/1999/xhtml"/>
  <sch:pattern>
    <sch:title>Observation</sch:title>
    <sch:rule context="f:DAFResultObsQuantity">
            <sch:assert test="count(f:bodySite[x]) &lt;= 0">bodySite[x]: maximum cardinality is 0</sch:assert>
    </sch:rule>
    <sch:rule context="f:DAFResultObsQuantity">
            <sch:assert test="count(f:identifier) &gt;= 1">identifier: minimum cardinality is 1</sch:assert>
    </sch:rule>
    <sch:rule context="f:DAFResultObsQuantity">
            <sch:assert test="count(f:subject) &gt;= 1">subject: minimum cardinality is 1</sch:assert>
    </sch:rule>
    <sch:rule context="f:DAFResultObsQuantity">
            <sch:assert test="count(f:referenceRange) &lt;= 1">referenceRange: maximum cardinality is 1</sch:assert>
    </sch:rule>
    <sch:rule context="f:DAFResultObsQuantity">
            <sch:assert test="count(f:related) &lt;= 0">related: maximum cardinality is 0</sch:assert>
    </sch:rule>
    </sch:pattern>
  <sch:pattern>
    <sch:title>Observation.code</sch:title>
    <sch:rule context="f:DAFResultObsQuantity/f:code">
            <sch:assert test="count(f:id) &lt;= 1">id: maximum cardinality is 1</sch:assert>
    </sch:rule>
    <sch:rule context="f:DAFResultObsQuantity/f:code">
            <sch:assert test="count(f:coding) &gt;= 1">coding: minimum cardinality is 1</sch:assert>
    </sch:rule>
    <sch:rule context="f:DAFResultObsQuantity/f:code">
            <sch:assert test="count(f:text) &lt;= 1">text: maximum cardinality is 1</sch:assert>
    </sch:rule>
    </sch:pattern>
  <sch:pattern>
    <sch:title>Observation.code.coding</sch:title>
    <sch:rule context="f:DAFResultObsQuantity/f:code/f:coding">
            <sch:assert test="count(f:id) &lt;= 1">id: maximum cardinality is 1</sch:assert>
    </sch:rule>
    <sch:rule context="f:DAFResultObsQuantity/f:code/f:coding">
            <sch:assert test="count(f:system) &gt;= 1">system: minimum cardinality is 1</sch:assert>
    </sch:rule>
    <sch:rule context="f:DAFResultObsQuantity/f:code/f:coding">
            <sch:assert test="count(f:system) &lt;= 1">system: maximum cardinality is 1</sch:assert>
    </sch:rule>
    <sch:rule context="f:DAFResultObsQuantity/f:code/f:coding">
            <sch:assert test="count(f:version) &lt;= 1">version: maximum cardinality is 1</sch:assert>
    </sch:rule>
    <sch:rule context="f:DAFResultObsQuantity/f:code/f:coding">
            <sch:assert test="count(f:code) &gt;= 1">code: minimum cardinality is 1</sch:assert>
    </sch:rule>
    <sch:rule context="f:DAFResultObsQuantity/f:code/f:coding">
            <sch:assert test="count(f:code) &lt;= 1">code: maximum cardinality is 1</sch:assert>
    </sch:rule>
    <sch:rule context="f:DAFResultObsQuantity/f:code/f:coding">
            <sch:assert test="count(f:display) &lt;= 1">display: maximum cardinality is 1</sch:assert>
    </sch:rule>
    <sch:rule context="f:DAFResultObsQuantity/f:code/f:coding">
            <sch:assert test="count(f:userSelected) &lt;= 1">userSelected: maximum cardinality is 1</sch:assert>
    </sch:rule>
    </sch:pattern>
  <sch:pattern>
    <sch:title>Observation.interpretation</sch:title>
    <sch:rule context="f:DAFResultObsQuantity/f:interpretation">
            <sch:assert test="count(f:id) &lt;= 1">id: maximum cardinality is 1</sch:assert>
    </sch:rule>
    <sch:rule context="f:DAFResultObsQuantity/f:interpretation">
            <sch:assert test="count(f:coding) &gt;= 1">coding: minimum cardinality is 1</sch:assert>
    </sch:rule>
    <sch:rule context="f:DAFResultObsQuantity/f:interpretation">
            <sch:assert test="count(f:text) &lt;= 1">text: maximum cardinality is 1</sch:assert>
    </sch:rule>
    </sch:pattern>
  <sch:pattern>
    <sch:title>Observation.interpretation.coding</sch:title>
    <sch:rule context="f:DAFResultObsQuantity/f:interpretation/f:coding">
            <sch:assert test="count(f:id) &lt;= 1">id: maximum cardinality is 1</sch:assert>
    </sch:rule>
    <sch:rule context="f:DAFResultObsQuantity/f:interpretation/f:coding">
            <sch:assert test="count(f:system) &gt;= 1">system: minimum cardinality is 1</sch:assert>
    </sch:rule>
    <sch:rule context="f:DAFResultObsQuantity/f:interpretation/f:coding">
            <sch:assert test="count(f:system) &lt;= 1">system: maximum cardinality is 1</sch:assert>
    </sch:rule>
    <sch:rule context="f:DAFResultObsQuantity/f:interpretation/f:coding">
            <sch:assert test="count(f:version) &lt;= 1">version: maximum cardinality is 1</sch:assert>
    </sch:rule>
    <sch:rule context="f:DAFResultObsQuantity/f:interpretation/f:coding">
            <sch:assert test="count(f:code) &gt;= 1">code: minimum cardinality is 1</sch:assert>
    </sch:rule>
    <sch:rule context="f:DAFResultObsQuantity/f:interpretation/f:coding">
            <sch:assert test="count(f:code) &lt;= 1">code: maximum cardinality is 1</sch:assert>
    </sch:rule>
    <sch:rule context="f:DAFResultObsQuantity/f:interpretation/f:coding">
            <sch:assert test="count(f:display) &lt;= 1">display: maximum cardinality is 1</sch:assert>
    </sch:rule>
    <sch:rule context="f:DAFResultObsQuantity/f:interpretation/f:coding">
            <sch:assert test="count(f:userSelected) &lt;= 1">userSelected: maximum cardinality is 1</sch:assert>
    </sch:rule>
    </sch:pattern>
  <sch:pattern>
    <sch:title>Observation.identifier</sch:title>
    <sch:rule context="f:DAFResultObsQuantity/f:identifier">
            <sch:assert test="count(f:id) &lt;= 1">id: maximum cardinality is 1</sch:assert>
    </sch:rule>
    <sch:rule context="f:DAFResultObsQuantity/f:identifier">
            <sch:assert test="count(f:use) &gt;= 1">use: minimum cardinality is 1</sch:assert>
    </sch:rule>
    <sch:rule context="f:DAFResultObsQuantity/f:identifier">
            <sch:assert test="count(f:use) &lt;= 1">use: maximum cardinality is 1</sch:assert>
    </sch:rule>
    <sch:rule context="f:DAFResultObsQuantity/f:identifier">
            <sch:assert test="count(f:type) &lt;= 1">type: maximum cardinality is 1</sch:assert>
    </sch:rule>
    <sch:rule context="f:DAFResultObsQuantity/f:identifier">
            <sch:assert test="count(f:system) &gt;= 1">system: minimum cardinality is 1</sch:assert>
    </sch:rule>
    <sch:rule context="f:DAFResultObsQuantity/f:identifier">
            <sch:assert test="count(f:system) &lt;= 1">system: maximum cardinality is 1</sch:assert>
    </sch:rule>
    <sch:rule context="f:DAFResultObsQuantity/f:identifier">
            <sch:assert test="count(f:value) &gt;= 1">value: minimum cardinality is 1</sch:assert>
    </sch:rule>
    <sch:rule context="f:DAFResultObsQuantity/f:identifier">
            <sch:assert test="count(f:value) &lt;= 1">value: maximum cardinality is 1</sch:assert>
    </sch:rule>
    <sch:rule context="f:DAFResultObsQuantity/f:identifier">
            <sch:assert test="count(f:period) &lt;= 1">period: maximum cardinality is 1</sch:assert>
    </sch:rule>
    <sch:rule context="f:DAFResultObsQuantity/f:identifier">
            <sch:assert test="count(f:assigner) &lt;= 1">assigner: maximum cardinality is 1</sch:assert>
    </sch:rule>
    </sch:pattern>
  <sch:pattern>
    <sch:title>Observation.referenceRange.low</sch:title>
    <sch:rule context="f:DAFResultObsQuantity/f:referenceRange/f:low">
            <sch:assert test="count(f:id) &lt;= 1">id: maximum cardinality is 1</sch:assert>
    </sch:rule>
    <sch:rule context="f:DAFResultObsQuantity/f:referenceRange/f:low">
            <sch:assert test="count(f:value) &lt;= 1">value: maximum cardinality is 1</sch:assert>
    </sch:rule>
    <sch:rule context="f:DAFResultObsQuantity/f:referenceRange/f:low">
            <sch:assert test="count(f:comparator) &lt;= 1">comparator: maximum cardinality is 1</sch:assert>
    </sch:rule>
    <sch:rule context="f:DAFResultObsQuantity/f:referenceRange/f:low">
            <sch:assert test="count(f:units) &lt;= 1">units: maximum cardinality is 1</sch:assert>
    </sch:rule>
    <sch:rule context="f:DAFResultObsQuantity/f:referenceRange/f:low">
            <sch:assert test="count(f:system) &gt;= 1">system: minimum cardinality is 1</sch:assert>
    </sch:rule>
    <sch:rule context="f:DAFResultObsQuantity/f:referenceRange/f:low">
            <sch:assert test="count(f:system) &lt;= 1">system: maximum cardinality is 1</sch:assert>
    </sch:rule>
    <sch:rule context="f:DAFResultObsQuantity/f:referenceRange/f:low">
            <sch:assert test="count(f:code) &gt;= 1">code: minimum cardinality is 1</sch:assert>
    </sch:rule>
    <sch:rule context="f:DAFResultObsQuantity/f:referenceRange/f:low">
            <sch:assert test="count(f:code) &lt;= 1">code: maximum cardinality is 1</sch:assert>
    </sch:rule>
    </sch:pattern>
  <sch:pattern>
    <sch:title>Observation.referenceRange.high</sch:title>
    <sch:rule context="f:DAFResultObsQuantity/f:referenceRange/f:high">
            <sch:assert test="count(f:id) &lt;= 1">id: maximum cardinality is 1</sch:assert>
    </sch:rule>
    <sch:rule context="f:DAFResultObsQuantity/f:referenceRange/f:high">
            <sch:assert test="count(f:value) &lt;= 1">value: maximum cardinality is 1</sch:assert>
    </sch:rule>
    <sch:rule context="f:DAFResultObsQuantity/f:referenceRange/f:high">
            <sch:assert test="count(f:comparator) &lt;= 1">comparator: maximum cardinality is 1</sch:assert>
    </sch:rule>
    <sch:rule context="f:DAFResultObsQuantity/f:referenceRange/f:high">
            <sch:assert test="count(f:units) &lt;= 1">units: maximum cardinality is 1</sch:assert>
    </sch:rule>
    <sch:rule context="f:DAFResultObsQuantity/f:referenceRange/f:high">
            <sch:assert test="count(f:system) &gt;= 1">system: minimum cardinality is 1</sch:assert>
    </sch:rule>
    <sch:rule context="f:DAFResultObsQuantity/f:referenceRange/f:high">
            <sch:assert test="count(f:system) &lt;= 1">system: maximum cardinality is 1</sch:assert>
    </sch:rule>
    <sch:rule context="f:DAFResultObsQuantity/f:referenceRange/f:high">
            <sch:assert test="count(f:code) &gt;= 1">code: minimum cardinality is 1</sch:assert>
    </sch:rule>
    <sch:rule context="f:DAFResultObsQuantity/f:referenceRange/f:high">
            <sch:assert test="count(f:code) &lt;= 1">code: maximum cardinality is 1</sch:assert>
    </sch:rule>
    </sch:pattern>
  <sch:pattern>
    <sch:title>Observation.referenceRange.age</sch:title>
    <sch:rule context="f:DAFResultObsQuantity/f:referenceRange/f:age">
            <sch:assert test="count(f:id) &lt;= 1">id: maximum cardinality is 1</sch:assert>
    </sch:rule>
    <sch:rule context="f:DAFResultObsQuantity/f:referenceRange/f:age">
            <sch:assert test="count(f:low) &lt;= 1">low: maximum cardinality is 1</sch:assert>
    </sch:rule>
    <sch:rule context="f:DAFResultObsQuantity/f:referenceRange/f:age">
            <sch:assert test="count(f:high) &lt;= 1">high: maximum cardinality is 1</sch:assert>
    </sch:rule>
    </sch:pattern>
  <sch:pattern>
    <sch:title>Observation.referenceRange.age.low</sch:title>
    <sch:rule context="f:DAFResultObsQuantity/f:referenceRange/f:age/f:low">
            <sch:assert test="count(f:id) &lt;= 1">id: maximum cardinality is 1</sch:assert>
    </sch:rule>
    <sch:rule context="f:DAFResultObsQuantity/f:referenceRange/f:age/f:low">
            <sch:assert test="count(f:value) &lt;= 1">value: maximum cardinality is 1</sch:assert>
    </sch:rule>
    <sch:rule context="f:DAFResultObsQuantity/f:referenceRange/f:age/f:low">
            <sch:assert test="count(f:comparator) &lt;= 1">comparator: maximum cardinality is 1</sch:assert>
    </sch:rule>
    <sch:rule context="f:DAFResultObsQuantity/f:referenceRange/f:age/f:low">
            <sch:assert test="count(f:units) &lt;= 1">units: maximum cardinality is 1</sch:assert>
    </sch:rule>
    <sch:rule context="f:DAFResultObsQuantity/f:referenceRange/f:age/f:low">
            <sch:assert test="count(f:system) &gt;= 1">system: minimum cardinality is 1</sch:assert>
    </sch:rule>
    <sch:rule context="f:DAFResultObsQuantity/f:referenceRange/f:age/f:low">
            <sch:assert test="count(f:system) &lt;= 1">system: maximum cardinality is 1</sch:assert>
    </sch:rule>
    <sch:rule context="f:DAFResultObsQuantity/f:referenceRange/f:age/f:low">
            <sch:assert test="count(f:code) &gt;= 1">code: minimum cardinality is 1</sch:assert>
    </sch:rule>
    <sch:rule context="f:DAFResultObsQuantity/f:referenceRange/f:age/f:low">
            <sch:assert test="count(f:code) &lt;= 1">code: maximum cardinality is 1</sch:assert>
    </sch:rule>
    </sch:pattern>
  <sch:pattern>
    <sch:title>Observation.referenceRange.age.high</sch:title>
    <sch:rule context="f:DAFResultObsQuantity/f:referenceRange/f:age/f:high">
            <sch:assert test="count(f:id) &lt;= 1">id: maximum cardinality is 1</sch:assert>
    </sch:rule>
    <sch:rule context="f:DAFResultObsQuantity/f:referenceRange/f:age/f:high">
            <sch:assert test="count(f:value) &lt;= 1">value: maximum cardinality is 1</sch:assert>
    </sch:rule>
    <sch:rule context="f:DAFResultObsQuantity/f:referenceRange/f:age/f:high">
            <sch:assert test="count(f:comparator) &lt;= 1">comparator: maximum cardinality is 1</sch:assert>
    </sch:rule>
    <sch:rule context="f:DAFResultObsQuantity/f:referenceRange/f:age/f:high">
            <sch:assert test="count(f:units) &lt;= 1">units: maximum cardinality is 1</sch:assert>
    </sch:rule>
    <sch:rule context="f:DAFResultObsQuantity/f:referenceRange/f:age/f:high">
            <sch:assert test="count(f:system) &gt;= 1">system: minimum cardinality is 1</sch:assert>
    </sch:rule>
    <sch:rule context="f:DAFResultObsQuantity/f:referenceRange/f:age/f:high">
            <sch:assert test="count(f:system) &lt;= 1">system: maximum cardinality is 1</sch:assert>
    </sch:rule>
    <sch:rule context="f:DAFResultObsQuantity/f:referenceRange/f:age/f:high">
            <sch:assert test="count(f:code) &gt;= 1">code: minimum cardinality is 1</sch:assert>
    </sch:rule>
    <sch:rule context="f:DAFResultObsQuantity/f:referenceRange/f:age/f:high">
            <sch:assert test="count(f:code) &lt;= 1">code: maximum cardinality is 1</sch:assert>
    </sch:rule>
    </sch:pattern>
</sch:schema>
