{
  "resourceType": "OperationDefinition",
  "id": "Resource-meta",
  "text": {
    "status": "generated",
    "div": "<div><h2>Access a list of profiles, tags, and security labels</h2><p>OPERATION: Access a list of profiles, tags, and security labels</p><div><p>This operation retrieves a summary of the profiles, tags, and security labels for the given scope. E.g. for each scope:</p>\n<ul>\n<li>system-wide: a list of all profiles, tags and security labels in use by the system</li>\n<li>resource-type level: A list of all profiles, tags, and security labels for the resource type</li>\n<li>individual resource level: A list of all profiles, tags, and security labels for the current version of the resource.</li>\n</ul>\n<p>Also, as a special case, this operation (and other meta operations) can be performed on a historical version of a resource)</p>\n</div><p>URL: [base]/$Access a list of profiles, tags, and security labels</p><p>URL: [base]/Resource/$Access a list of profiles, tags, and security labels</p><p>URL: [base]/Resource/[id]/$Access a list of profiles, tags, and security labels</p><p>Parameters</p><table class=\"grid\"><tr><td><b>Use</b></td><td><b>Name</b></td><td><b>Cardinality</b></td><td><b>Type</b></td><td><b>Binding</b></td><td><b>Documentation</b></td></tr><tr><td>OUT</td><td>return</td><td>1..1</td><td>Meta</td><td/><td><div><p>The meta returned by the operation</p>\n</div></td></tr></table><div><p>At the system and type levels, the $meta operation is used to get a summary of all the labels that are in use across the system. The principle use for this operation is to support search e.g. what tags can be searched for. At these levels, the meta will not contain versionId, lastUpdated etc. Systems are not obligated to implement the operation at this level (and should return a 4xx error if they don't)</p>\n<p>At the resource and historical entry level, the $meta operation returns the same meta as would be returned by accessing the resource directly. This can be used to allow a system to get access to the meta-information for the resource without accessing the resource itself, e.g. for security reasons</p>\n</div></div>"
  },
  "url": "http://hl7.org/fhir/OperationDefinition/Resource-meta",
  "name": "Access a list of profiles, tags, and security labels",
  "publisher": "HL7 (FHIR Project)",
  "contact": [
    {
      "telecom": [
        {
          "system": "url",
          "value": "http://hl7.org/fhir"
        },
        {
          "system": "email",
          "value": "fhir@lists.hl7.org"
        }
      ]
    }
  ],
  "description": "This operation retrieves a summary of the profiles, tags, and security labels for the given scope. E.g. for each scope:\n\n* system-wide: a list of all profiles, tags and security labels in use by the system\n* resource-type level: A list of all profiles, tags, and security labels for the resource type\n* individual resource level: A list of all profiles, tags, and security labels for the current version of the resource.\n\nAlso, as a special case, this operation (and other meta operations) can be performed on a historical version of a resource)",
  "status": "draft",
  "date": "2015-07-14T16:14:24+00:00",
  "kind": "operation",
  "code": "meta",
  "notes": "At the system and type levels, the $meta operation is used to get a summary of all the labels that are in use across the system. The principle use for this operation is to support search e.g. what tags can be searched for. At these levels, the meta will not contain versionId, lastUpdated etc. Systems are not obligated to implement the operation at this level (and should return a 4xx error if they don't)\n\nAt the resource and historical entry level, the $meta operation returns the same meta as would be returned by accessing the resource directly. This can be used to allow a system to get access to the meta-information for the resource without accessing the resource itself, e.g. for security reasons",
  "system": true,
  "type": [
    "Resource"
  ],
  "instance": true,
  "parameter": [
    {
      "name": "return",
      "use": "out",
      "min": 1,
      "max": "1",
      "documentation": "The meta returned by the operation",
      "type": "Meta"
    }
  ]
}