{
  "resourceType": "OperationDefinition",
  "id": "Resource-meta-delete",
  "text": {
    "status": "generated",
    "div": "<div><h2>Delete profiles, tags, and security labels for a resource</h2><p>OPERATION: Delete profiles, tags, and security labels for a resource</p><div><p>This operation takes a meta, and either deletes the profiles, tags, and security labels found in it from the nominated resource.</p>\n<p>This operation can also be used on historical entries</p>\n</div><p>Parameters</p><table class=\"grid\"><tr><td><b>Use</b></td><td><b>Name</b></td><td><b>Cardinality</b></td><td><b>Type</b></td><td><b>Binding</b></td><td><b>Documentation</b></td></tr><tr><td>IN</td><td>meta</td><td>1..1</td><td>Meta</td><td/><td><div><p>Profiles, tags, and security labels to add delete from the existing resource. It is not an error if these tags, profiles, and labels do not exist.</p>\n<p>The identity of a tag or security label is the system+code. When matching existing tags during deletion, version and display are ignored. For profiles matching is based on the full URL</p>\n</div></td></tr><tr><td>OUT</td><td>return</td><td>1..1</td><td>Meta</td><td/><td><div><p>Resulting meta for the resource</p>\n</div></td></tr></table><div><p>This operation is special in that executing this operation does not cause a new version of the resource to be created. The meta is updated directly. This is because the content in meta does not affect the meaning of the resource, and the security labels (in particular) are used to apply access rules to existing versions of resources</p>\n</div></div>"
  },
  "url": "http://hl7.org/fhir/OperationDefinition/Resource-meta-delete",
  "name": "Delete profiles, tags, and security labels for a resource",
  "publisher": "HL7 (FHIR Project)",
  "contact": [
    {
      "telecom": [
        {
          "system": "url",
          "value": "http://hl7.org/fhir"
        },
        {
          "system": "email",
          "value": "fhir@lists.hl7.org"
        }
      ]
    }
  ],
  "description": "This operation takes a meta, and either deletes the profiles, tags, and security labels found in it from the nominated resource. \n\nThis operation can also be used on historical entries",
  "status": "draft",
  "date": "2015-07-14T16:14:24+00:00",
  "kind": "operation",
  "code": "meta-delete",
  "notes": "This operation is special in that executing this operation does not cause a new version of the resource to be created. The meta is updated directly. This is because the content in meta does not affect the meaning of the resource, and the security labels (in particular) are used to apply access rules to existing versions of resources",
  "system": false,
  "instance": true,
  "parameter": [
    {
      "name": "meta",
      "use": "in",
      "min": 1,
      "max": "1",
      "documentation": "Profiles, tags, and security labels to add delete from the existing resource. It is not an error if these tags, profiles, and labels do not exist.\n\nThe identity of a tag or security label is the system+code. When matching existing tags during deletion, version and display are ignored. For profiles matching is based on the full URL",
      "type": "Meta"
    },
    {
      "name": "return",
      "use": "out",
      "min": 1,
      "max": "1",
      "documentation": "Resulting meta for the resource",
      "type": "Meta"
    }
  ]
}