<?xml version="1.0" encoding="UTF-8"?>
<sch:schema xmlns:sch="http://purl.oclc.org/dsdl/schematron" queryBinding="xslt2">
  <sch:ns prefix="f" uri="http://hl7.org/fhir"/>
  <sch:ns prefix="h" uri="http://www.w3.org/1999/xhtml"/>
  <sch:pattern>
    <sch:title>Organization</sch:title>
    <sch:rule context="f:DAFOrganization">
            <sch:assert test="count(f:name) &gt;= 1">name: minimum cardinality is 1</sch:assert>
    </sch:rule>
    <sch:rule context="f:DAFOrganization">
            <sch:assert test="count(f:telecom) &lt;= 1">telecom: maximum cardinality is 1</sch:assert>
    </sch:rule>
    <sch:rule context="f:DAFOrganization">
            <sch:assert test="count(f:address) &gt;= 1">address: minimum cardinality is 1</sch:assert>
    </sch:rule>
    <sch:rule context="f:DAFOrganization">
            <sch:assert test="count(f:address) &lt;= 1">address: maximum cardinality is 1</sch:assert>
    </sch:rule>
    </sch:pattern>
  <sch:pattern>
    <sch:title>Organization.address</sch:title>
    <sch:rule context="f:DAFOrganization/f:address">
            <sch:assert test="count(f:id) &lt;= 1">id: maximum cardinality is 1</sch:assert>
    </sch:rule>
    <sch:rule context="f:DAFOrganization/f:address">
            <sch:assert test="count(f:extension) &lt;= 1">extension: maximum cardinality is 1</sch:assert>
    </sch:rule>
    <sch:rule context="f:DAFOrganization/f:address">
            <sch:assert test="count(f:use) &lt;= 1">use: maximum cardinality is 1</sch:assert>
    </sch:rule>
    <sch:rule context="f:DAFOrganization/f:address">
            <sch:assert test="count(f:type) &lt;= 1">type: maximum cardinality is 1</sch:assert>
    </sch:rule>
    <sch:rule context="f:DAFOrganization/f:address">
            <sch:assert test="count(f:text) &lt;= 1">text: maximum cardinality is 1</sch:assert>
    </sch:rule>
    <sch:rule context="f:DAFOrganization/f:address">
            <sch:assert test="count(f:line) &lt;= 2">line: maximum cardinality is 2</sch:assert>
    </sch:rule>
    <sch:rule context="f:DAFOrganization/f:address">
            <sch:assert test="count(f:city) &lt;= 1">city: maximum cardinality is 1</sch:assert>
    </sch:rule>
    <sch:rule context="f:DAFOrganization/f:address">
            <sch:assert test="count(f:state) &lt;= 1">state: maximum cardinality is 1</sch:assert>
    </sch:rule>
    <sch:rule context="f:DAFOrganization/f:address">
            <sch:assert test="count(f:postalCode) &lt;= 1">postalCode: maximum cardinality is 1</sch:assert>
    </sch:rule>
    <sch:rule context="f:DAFOrganization/f:address">
            <sch:assert test="count(f:country) &lt;= 1">country: maximum cardinality is 1</sch:assert>
    </sch:rule>
    <sch:rule context="f:DAFOrganization/f:address">
            <sch:assert test="count(f:period) &lt;= 1">period: maximum cardinality is 1</sch:assert>
    </sch:rule>
    </sch:pattern>
</sch:schema>
