{
  "resourceType": "Organization",
  "id": "f002",
  "text": {
    "status": "generated",
    "div": "<div><p><b>Generated Narrative with Details</b></p><p><b>id</b>: f002</p><p><b>name</b>: Burgers UMC Cardiology unit</p><p><b>type</b>: Hospital Department <span>(Details : {http://hl7.org/fhir/organization-type code 'dept' = 'Hospital Department', given as 'Hospital Department'})</span></p><p><b>telecom</b>: ph: 022-655 2320</p><p><b>address</b>: South Wing, floor 2 </p><p><b>partOf</b>: <a>Generated Summary: 91654 (OFFICIAL), 17-0112278 (USUAL); name: Burgers University Medical Center; <span>University Medical Hospital</span>; ph: 022-655 2300(WORK)</a></p><h3>Contacts</h3><table><tr><td>-</td><td><b>Purpose</b></td><td><b>Name</b></td><td><b>Telecom</b></td><td><b>Address</b></td></tr><tr><td>*</td><td>Administrative <span>(Details : {http://hl7.org/fhir/contactentity-type code 'ADMIN' = 'Administrative)</span></td><td>mevr. D. de Haan</td><td>ph: 022-655 2321</td><td>South Wing, floor 2 </td></tr></table><p><b>active</b>: true</p></div>"
  },
  "name": "Burgers UMC Cardiology unit",
  "type": {
    "coding": [
      {
        "system": "http://hl7.org/fhir/organization-type",
        "code": "dept",
        "display": "Hospital Department"
      }
    ]
  },
  "telecom": [
    {
      "system": "phone",
      "value": "022-655 2320"
    }
  ],
  "address": [
    {
      "line": [
        "South Wing, floor 2"
      ]
    }
  ],
  "partOf": {
    "reference": "Organization/f001"
  },
  "contact": [
    {
      "purpose": {
        "coding": [
          {
            "system": "http://hl7.org/fhir/contactentity-type",
            "code": "ADMIN"
          }
        ]
      },
      "name": {
        "text": "mevr. D. de Haan"
      },
      "telecom": [
        {
          "system": "phone",
          "value": "022-655 2321"
        },
        {
          "system": "email",
          "value": "cardio@burgersumc.nl"
        },
        {
          "system": "fax",
          "value": "022-655 2322"
        }
      ],
      "address": {
        "line": [
          "South Wing, floor 2"
        ]
      }
    }
  ],
  "active": true
}