<?xml version="1.0" encoding="UTF-8"?>
<sch:schema xmlns:sch="http://purl.oclc.org/dsdl/schematron" queryBinding="xslt2">
  <sch:ns prefix="f" uri="http://hl7.org/fhir"/>
  <sch:ns prefix="h" uri="http://www.w3.org/1999/xhtml"/>
  <sch:pattern>
    <sch:title>Patient</sch:title>
    <sch:rule context="f:DAFPatient">
            <sch:assert test="count(f:extension) &lt;= 1">extension: maximum cardinality is 1</sch:assert>
    </sch:rule>
    <sch:rule context="f:DAFPatient">
            <sch:assert test="count(f:extension) &lt;= 1">extension: maximum cardinality is 1</sch:assert>
    </sch:rule>
    <sch:rule context="f:DAFPatient">
            <sch:assert test="count(f:extension) &lt;= 1">extension: maximum cardinality is 1</sch:assert>
    </sch:rule>
    <sch:rule context="f:DAFPatient">
            <sch:assert test="count(f:extension) &lt;= 1">extension: maximum cardinality is 1</sch:assert>
    </sch:rule>
    <sch:rule context="f:DAFPatient">
            <sch:assert test="count(f:extension) &lt;= 1">extension: maximum cardinality is 1</sch:assert>
    </sch:rule>
    <sch:rule context="f:DAFPatient">
            <sch:assert test="count(f:identifier) &gt;= 1">identifier: minimum cardinality is 1</sch:assert>
    </sch:rule>
    <sch:rule context="f:DAFPatient">
            <sch:assert test="count(f:animal) &lt;= 0">animal: maximum cardinality is 0</sch:assert>
    </sch:rule>
    </sch:pattern>
  <sch:pattern>
    <sch:title>Patient.identifier</sch:title>
    <sch:rule context="f:DAFPatient/f:identifier">
            <sch:assert test="count(f:id) &lt;= 1">id: maximum cardinality is 1</sch:assert>
    </sch:rule>
    <sch:rule context="f:DAFPatient/f:identifier">
            <sch:assert test="count(f:use) &lt;= 1">use: maximum cardinality is 1</sch:assert>
    </sch:rule>
    <sch:rule context="f:DAFPatient/f:identifier">
            <sch:assert test="count(f:type) &lt;= 1">type: maximum cardinality is 1</sch:assert>
    </sch:rule>
    <sch:rule context="f:DAFPatient/f:identifier">
            <sch:assert test="count(f:system) &gt;= 1">system: minimum cardinality is 1</sch:assert>
    </sch:rule>
    <sch:rule context="f:DAFPatient/f:identifier">
            <sch:assert test="count(f:system) &lt;= 1">system: maximum cardinality is 1</sch:assert>
    </sch:rule>
    <sch:rule context="f:DAFPatient/f:identifier">
            <sch:assert test="count(f:value) &gt;= 1">value: minimum cardinality is 1</sch:assert>
    </sch:rule>
    <sch:rule context="f:DAFPatient/f:identifier">
            <sch:assert test="count(f:value) &lt;= 1">value: maximum cardinality is 1</sch:assert>
    </sch:rule>
    <sch:rule context="f:DAFPatient/f:identifier">
            <sch:assert test="count(f:period) &lt;= 1">period: maximum cardinality is 1</sch:assert>
    </sch:rule>
    <sch:rule context="f:DAFPatient/f:identifier">
            <sch:assert test="count(f:assigner) &lt;= 1">assigner: maximum cardinality is 1</sch:assert>
    </sch:rule>
    </sch:pattern>
  <sch:pattern>
    <sch:title>Patient.telecom</sch:title>
    <sch:rule context="f:DAFPatient/f:telecom">
            <sch:assert test="count(f:id) &lt;= 1">id: maximum cardinality is 1</sch:assert>
    </sch:rule>
    <sch:rule context="f:DAFPatient/f:telecom">
            <sch:assert test="count(f:system) &gt;= 1">system: minimum cardinality is 1</sch:assert>
    </sch:rule>
    <sch:rule context="f:DAFPatient/f:telecom">
            <sch:assert test="count(f:system) &lt;= 1">system: maximum cardinality is 1</sch:assert>
    </sch:rule>
    <sch:rule context="f:DAFPatient/f:telecom">
            <sch:assert test="count(f:value) &gt;= 1">value: minimum cardinality is 1</sch:assert>
    </sch:rule>
    <sch:rule context="f:DAFPatient/f:telecom">
            <sch:assert test="count(f:value) &lt;= 1">value: maximum cardinality is 1</sch:assert>
    </sch:rule>
    <sch:rule context="f:DAFPatient/f:telecom">
            <sch:assert test="count(f:use) &gt;= 1">use: minimum cardinality is 1</sch:assert>
    </sch:rule>
    <sch:rule context="f:DAFPatient/f:telecom">
            <sch:assert test="count(f:use) &lt;= 1">use: maximum cardinality is 1</sch:assert>
    </sch:rule>
    <sch:rule context="f:DAFPatient/f:telecom">
            <sch:assert test="count(f:period) &lt;= 1">period: maximum cardinality is 1</sch:assert>
    </sch:rule>
    </sch:pattern>
  <sch:pattern>
    <sch:title>Patient.address</sch:title>
    <sch:rule context="f:DAFPatient/f:address">
            <sch:assert test="count(f:id) &lt;= 1">id: maximum cardinality is 1</sch:assert>
    </sch:rule>
    <sch:rule context="f:DAFPatient/f:address">
            <sch:assert test="count(f:use) &lt;= 1">use: maximum cardinality is 1</sch:assert>
    </sch:rule>
    <sch:rule context="f:DAFPatient/f:address">
            <sch:assert test="count(f:type) &lt;= 1">type: maximum cardinality is 1</sch:assert>
    </sch:rule>
    <sch:rule context="f:DAFPatient/f:address">
            <sch:assert test="count(f:text) &lt;= 1">text: maximum cardinality is 1</sch:assert>
    </sch:rule>
    <sch:rule context="f:DAFPatient/f:address">
            <sch:assert test="count(f:line) &gt;= 1">line: minimum cardinality is 1</sch:assert>
    </sch:rule>
    <sch:rule context="f:DAFPatient/f:address">
            <sch:assert test="count(f:city) &gt;= 1">city: minimum cardinality is 1</sch:assert>
    </sch:rule>
    <sch:rule context="f:DAFPatient/f:address">
            <sch:assert test="count(f:city) &lt;= 1">city: maximum cardinality is 1</sch:assert>
    </sch:rule>
    <sch:rule context="f:DAFPatient/f:address">
            <sch:assert test="count(f:state) &gt;= 1">state: minimum cardinality is 1</sch:assert>
    </sch:rule>
    <sch:rule context="f:DAFPatient/f:address">
            <sch:assert test="count(f:state) &lt;= 1">state: maximum cardinality is 1</sch:assert>
    </sch:rule>
    <sch:rule context="f:DAFPatient/f:address">
            <sch:assert test="count(f:postalCode) &gt;= 1">postalCode: minimum cardinality is 1</sch:assert>
    </sch:rule>
    <sch:rule context="f:DAFPatient/f:address">
            <sch:assert test="count(f:postalCode) &lt;= 1">postalCode: maximum cardinality is 1</sch:assert>
    </sch:rule>
    <sch:rule context="f:DAFPatient/f:address">
            <sch:assert test="count(f:country) &gt;= 1">country: minimum cardinality is 1</sch:assert>
    </sch:rule>
    <sch:rule context="f:DAFPatient/f:address">
            <sch:assert test="count(f:country) &lt;= 1">country: maximum cardinality is 1</sch:assert>
    </sch:rule>
    <sch:rule context="f:DAFPatient/f:address">
            <sch:assert test="count(f:period) &lt;= 1">period: maximum cardinality is 1</sch:assert>
    </sch:rule>
    </sch:pattern>
  <sch:pattern>
    <sch:title>Patient.contact.address</sch:title>
    <sch:rule context="f:DAFPatient/f:contact/f:address">
            <sch:assert test="count(f:id) &lt;= 1">id: maximum cardinality is 1</sch:assert>
    </sch:rule>
    <sch:rule context="f:DAFPatient/f:contact/f:address">
            <sch:assert test="count(f:use) &lt;= 1">use: maximum cardinality is 1</sch:assert>
    </sch:rule>
    <sch:rule context="f:DAFPatient/f:contact/f:address">
            <sch:assert test="count(f:type) &lt;= 1">type: maximum cardinality is 1</sch:assert>
    </sch:rule>
    <sch:rule context="f:DAFPatient/f:contact/f:address">
            <sch:assert test="count(f:text) &lt;= 1">text: maximum cardinality is 1</sch:assert>
    </sch:rule>
    <sch:rule context="f:DAFPatient/f:contact/f:address">
            <sch:assert test="count(f:line) &lt;= 2">line: maximum cardinality is 2</sch:assert>
    </sch:rule>
    <sch:rule context="f:DAFPatient/f:contact/f:address">
            <sch:assert test="count(f:city) &lt;= 1">city: maximum cardinality is 1</sch:assert>
    </sch:rule>
    <sch:rule context="f:DAFPatient/f:contact/f:address">
            <sch:assert test="count(f:state) &lt;= 1">state: maximum cardinality is 1</sch:assert>
    </sch:rule>
    <sch:rule context="f:DAFPatient/f:contact/f:address">
            <sch:assert test="count(f:postalCode) &lt;= 1">postalCode: maximum cardinality is 1</sch:assert>
    </sch:rule>
    <sch:rule context="f:DAFPatient/f:contact/f:address">
            <sch:assert test="count(f:country) &lt;= 1">country: maximum cardinality is 1</sch:assert>
    </sch:rule>
    <sch:rule context="f:DAFPatient/f:contact/f:address">
            <sch:assert test="count(f:period) &lt;= 1">period: maximum cardinality is 1</sch:assert>
    </sch:rule>
    </sch:pattern>
</sch:schema>
