<?xml version="1.0" encoding="UTF-8"?><svg xmlns="http://www.w3.org/2000/svg" xmlns:xlink="http://www.w3.org/1999/xlink" version="1.1" width="700.0" height="188.0">  <defs>
    <filter id="shadow1" x="0" y="0" width="200%" height="200%">
      <feOffset result="offOut" in="SourceGraphic" dx="3" dy="3" />
      <feColorMatrix result="matrixOut" in="offOut" type="matrix" values="0.2 0 0 0 0 0 0.2 0 0 0 0 0 0.2 0 0 0 0 0 1 0" />
      <feGaussianBlur result="blurOut" in="matrixOut" stdDeviation="2" />
      <feBlend in="SourceGraphic" in2="blurOut" mode="normal" />
    </filter>
  </defs><rect x="0.0" y="0.0" rx="4" ry="4" width="212.0" height="162.0" filter="url(#shadow1)" style="fill:#f0f8ff;stroke:black;stroke-width:1"/><line x1="0.0" y1="28.0" x2="212.0" y2="28.0" style="stroke:dimgrey;stroke-width:1"/><text x="106.0" y="20.0" fill="black" class="diagram-class-title  diagram-class-resource">Person<tspan class="diagram-class-title-link"> (<a xlink:href="domainresource.html" class="diagram-class-reference">DomainResource</a>)</tspan></text><text x="6.0" y="42.0" fill="black" class="diagram-class-detail"><a xlink:href="person-definitions.html#Person.identifier"><title>Identifier for a person within a particular scope</title>identifier</a> : <a xlink:href="datatypes.html#Identifier">Identifier</a> 0..*</text><text x="6.0" y="56.0" fill="black" class="diagram-class-detail"><a xlink:href="person-definitions.html#Person.name"><title>A name associated with the person</title>name</a> : <a xlink:href="datatypes.html#HumanName">HumanName</a> 0..*</text><text x="6.0" y="70.0" fill="black" class="diagram-class-detail"><a xlink:href="person-definitions.html#Person.telecom"><title>A contact detail for the person, e.g. a telephone number or an email address</title>telecom</a> : <a xlink:href="datatypes.html#ContactPoint">ContactPoint</a> 0..*</text><text x="6.0" y="84.0" fill="black" class="diagram-class-detail"><a xlink:href="person-definitions.html#Person.gender"><title>Administrative Gender</title>gender</a> : <a xlink:href="datatypes.html#code">code</a> 0..1 « <a xlink:href="valueset-administrative-gender.html"><title>The gender of a person used for administrative purposes</title>AdministrativeGender</a> »</text><text x="6.0" y="98.0" fill="black" class="diagram-class-detail"><a xlink:href="person-definitions.html#Person.birthDate"><title>The birth date for the person</title>birthDate</a> : <a xlink:href="datatypes.html#date">date</a> 0..1</text><text x="6.0" y="112.0" fill="black" class="diagram-class-detail"><a xlink:href="person-definitions.html#Person.address"><title>One or more addresses for the person</title>address</a> : <a xlink:href="datatypes.html#Address">Address</a> 0..*</text><text x="6.0" y="126.0" fill="black" class="diagram-class-detail"><a xlink:href="person-definitions.html#Person.photo"><title>An image that can be displayed as a thumbnail of the person to enhance the identification of the individual</title>photo</a> : <a xlink:href="datatypes.html#Attachment">Attachment</a> 0..1</text><text x="6.0" y="140.0" fill="black" class="diagram-class-detail"><a xlink:href="person-definitions.html#Person.managingOrganization"><title>The Organization that is the custodian of the person record</title>managingOrganization</a> : <a xlink:href="references.html#Reference">Reference</a>(<a xlink:href="organization.html#Organization">Organization</a>) 0..1</text><text x="6.0" y="154.0" fill="black" class="diagram-class-detail"><a xlink:href="person-definitions.html#Person.active"><title>Whether this person&#39;s record is in active use (this element modifies the meaning of other elements)</title>active</a> : <a xlink:href="datatypes.html#boolean">boolean</a> 0..1</text><rect x="300.0" y="90.0" rx="4" ry="4" width="200.0" height="78.0" filter="url(#shadow1)" style="fill:#f0f8ff;stroke:black;stroke-width:1"/><line x1="300.0" y1="118.0" x2="500.0" y2="118.0" style="stroke:dimgrey;stroke-width:1"/><text x="400.0" y="110.0" fill="black" class="diagram-class-title">Link</text><text x="306.0" y="132.0" fill="black" class="diagram-class-detail"><a xlink:href="person-definitions.html#Person.link.target"><title>The resource to which this actual person is associated</title>target</a> : <a xlink:href="references.html#Reference">Reference</a>(<a xlink:href="patient.html#Patient">Patient</a>|<a xlink:href="practitioner.html#Practitioner">Practitioner</a>|</text><text x="326.0" y="146.0" fill="black" class="diagram-class-detail">     <a xlink:href="relatedperson.html#RelatedPerson">RelatedPerson</a>|<a xlink:href="person.html#Person">Person</a>) 1..1</text><text x="306.0" y="160.0" fill="black" class="diagram-class-detail"><a xlink:href="person-definitions.html#Person.link.assurance"><title>Level of assurance that this link is actually associated with the target resource</title>assurance</a> : <a xlink:href="datatypes.html#code">code</a> 0..1 « <a xlink:href="valueset-identity-assuranceLevel.html"><title>The level of confidence that this link represents the same actual person, based on NIST Authentication Levels</title>IdentityAssuranceLevel</a> »</text><line x1="212.0" y1="98.30612244897958" x2="300.0" y2="112.67346938775509" style="stroke:navy;stroke-width:1"/><polygon points="212.0,98.30612244897958 218.0,102.30612244897958 224.0,98.30612244897958 218.0,94.30612244897958 212.0,98.30612244897958" style="fill:navy;stroke:navy;stroke-width:1" transform="rotate(9.272601777200304 212.0 98.30612244897958)"/><rect x="248.0" y="98.0" width="16.0" height="18.0" style="fill:white;stroke:black;stroke-width:0"/><text x="256.0" y="108.0" fill="black" class="diagram-class-linkage"><a xlink:href="person-definitions.html#Person.link"><title>Link to a resource that concerns the same actual person</title>link</a></text><text x="280.0" y="108.67346938775509" fill="black" class="diagram-class-linkage">0..*</text></svg>