{
  "resourceType": "Practitioner",
  "id": "f003",
  "text": {
    "status": "generated",
    "div": "<div><p><b>Generated Narrative with Details</b></p><p><b>id</b>: f003</p><p><b>identifier</b>: 846100293 (OFFICIAL), 243HID3RT938 (USUAL)</p><p><b>name</b>: Marc Versteegh (OFFICIAL)</p><p><b>telecom</b>: ph: 0205562431(WORK), m.versteegh@bmc.nl(WORK), fax: 0205662948(WORK)</p><p><b>address</b>: Galapagosweg 91 Amsterdam 1105 AZ NLD (WORK)</p><p><b>gender</b>: male</p><p><b>birthDate</b>: Jul 1, 1963</p><h3>PractitionerRoles</h3><table><tr><td>-</td><td><b>ManagingOrganization</b></td><td><b>Role</b></td><td><b>Specialty</b></td></tr><tr><td>*</td><td><a>BMC. Generated Summary: 91654 (OFFICIAL), 17-0112278 (USUAL); name: Burgers University Medical Center; <span>University Medical Hospital</span>; ph: 022-655 2300(WORK)</a></td><td>Care role <span>(Details : {urn:oid:2.16.840.1.113883.2.4.15.111 code '01.000' = '01.000', given as 'Arts'})</span></td><td>specialization <span>(Details : {urn:oid:2.16.840.1.113883.2.4.15.111 code '01.011' = '01.011', given as 'Cardiothoracal surgery'})</span></td></tr></table><p><b>communication</b>: Dutch <span>(Details : {urn:oid:2.16.840.1.113883.6.121 code 'nl' = 'nl', given as 'Dutch'})</span></p></div>"
  },
  "identifier": [
    {
      "use": "official",
      "system": "urn:oid:2.16.528.1.1007.3.1",
      "value": "846100293"
    },
    {
      "use": "usual",
      "system": "urn:oid:2.16.840.1.113883.2.4.6.3",
      "value": "243HID3RT938"
    }
  ],
  "name": {
    "use": "official",
    "family": [
      "Versteegh"
    ],
    "given": [
      "Marc"
    ],
    "suffix": [
      "MD"
    ]
  },
  "telecom": [
    {
      "system": "phone",
      "value": "0205562431",
      "use": "work"
    },
    {
      "system": "email",
      "value": "m.versteegh@bmc.nl",
      "use": "work"
    },
    {
      "system": "fax",
      "value": "0205662948",
      "use": "work"
    }
  ],
  "address": [
    {
      "use": "work",
      "line": [
        "Galapagosweg 91"
      ],
      "city": "Amsterdam",
      "postalCode": "1105 AZ",
      "country": "NLD"
    }
  ],
  "gender": "male",
  "birthDate": "1963-07-01",
  "practitionerRole": [
    {
      "managingOrganization": {
        "reference": "Organization/f001",
        "display": "BMC"
      },
      "role": {
        "coding": [
          {
            "system": "urn:oid:2.16.840.1.113883.2.4.15.111",
            "code": "01.000",
            "display": "Arts"
          }
        ],
        "text": "Care role"
      },
      "specialty": [
        {
          "coding": [
            {
              "system": "urn:oid:2.16.840.1.113883.2.4.15.111",
              "code": "01.011",
              "display": "Cardiothoracal surgery"
            }
          ],
          "text": "specialization"
        }
      ]
    }
  ],
  "communication": [
    {
      "coding": [
        {
          "system": "urn:oid:2.16.840.1.113883.6.121",
          "code": "nl",
          "display": "Dutch"
        }
      ]
    }
  ]
}