{
  "resourceType": "StructureDefinition",
  "id": "practitioner-qicore-qicore-practitioner",
  "text": {
    "status": "generated",
    "div": "<div>to do</div>"
  },
  "url": "http://hl7.org/fhir/StructureDefinition/practitioner-qicore-qicore-practitioner",
  "name": "QICore-Practitioner",
  "publisher": "Health Level Seven International (Clinical Quality Information - QI-Core)",
  "contact": [
    {
      "telecom": [
        {
          "system": "url",
          "value": "http://hl7.org/special/committees/CQI"
        }
      ]
    }
  ],
  "description": "Profile of Practitioner for decision support/quality metrics. Defines the core set of elements and extensions for quality rule and measure authors.",
  "status": "draft",
  "date": "2015-02-27",
  "kind": "resource",
  "constrainedType": "Practitioner",
  "abstract": false,
  "base": "http://hl7.org/fhir/StructureDefinition/Practitioner",
  "snapshot": {
    "element": [
      {
        "path": "Practitioner",
        "name": "QICore-Practitioner",
        "short": "A person with a  formal responsibility in the provisioning of healthcare or related services",
        "definition": "A person who is directly or indirectly involved in the provisioning of healthcare.",
        "comments": "Note that a cab driver no longer fits the bill. You probably would be interested in the organization rather than the individual?",
        "requirements": "Need to track doctors, staff, locums etc. for both healthcare practitioners, funders, etc.",
        "min": 1,
        "max": "1",
        "type": [
          {
            "code": "Practitioner"
          }
        ],
        "mapping": [
          {
            "identity": "v2",
            "map": "PRD (as one example)"
          },
          {
            "identity": "rim",
            "map": "Role"
          },
          {
            "identity": "servd",
            "map": "Provider"
          }
        ]
      },
      {
        "path": "Practitioner.id",
        "short": "Logical id of this artifact",
        "definition": "The logical id of the resource, as used in the url for the resource. Once assigned, this value never changes.",
        "comments": "The only time that a resource does not have an id is when it is being submitted to the server using a create operation. Bundles always have an id, though it is usually a generated UUID.",
        "min": 0,
        "max": "1",
        "type": [
          {
            "code": "id"
          }
        ]
      },
      {
        "path": "Practitioner.meta",
        "short": "Metadata about the resource",
        "definition": "The metadata about the resource. This is content that is maintained by the infrastructure. Changes to the content may not always be associated with version changes to the resource.",
        "min": 0,
        "max": "1",
        "type": [
          {
            "code": "Meta"
          }
        ]
      },
      {
        "path": "Practitioner.implicitRules",
        "short": "A set of rules under which this content was created",
        "definition": "A reference to a set of rules that were followed when the resource was constructed, and which must be understood when processing the content.",
        "comments": "Asserting this rule set restricts the content to be only understood by a limited set of trading partners. This inherently limits the usefulness of the data in the long term. However the existing health eco-system is highly fractured, and not yet ready to define, collect, and exchange data in a generally computable sense. Wherever possible, implementers and/or specification writers should avoid using this element as much as possible.",
        "min": 0,
        "max": "1",
        "type": [
          {
            "code": "uri"
          }
        ],
        "isModifier": true
      },
      {
        "path": "Practitioner.language",
        "short": "Language of the resource content",
        "definition": "The base language in which the resource is written.",
        "comments": "Language is provided to support indexing and accessibility (typically, services such as text to speech use the language tag). The html language tag in the narrative applies  to the narrative. The language tag on the resource may be used to specify the language of other presentations generated from the data in the resource\n\nNot all the content has to be in the base language. The Resource.language should not be assumed to apply to the narrative automatically. If a language is specified, it should it also be specified on the div element in the html (see rules in HTML5 for information about the relationship between xml:lang and the html lang attribute).",
        "min": 0,
        "max": "1",
        "type": [
          {
            "code": "code"
          }
        ],
        "binding": {
          "strength": "required",
          "description": "A human language",
          "valueSetUri": "http://tools.ietf.org/html/bcp47"
        }
      },
      {
        "path": "Practitioner.text",
        "short": "Text summary of the resource, for human interpretation",
        "definition": "A human-readable narrative that contains a summary of the resource, and may be used to represent the content of the resource to a human. The narrative need not encode all the structured data, but is required to contain sufficient detail to make it \"clinically safe\" for a human to just read the narrative. Resource definitions may define what content should be represented in the narrative to ensure clinical safety.",
        "comments": "Contained resources do not have narrative. Resources that are not contained SHOULD have a narrative.",
        "alias": [
          "narrative",
          "html",
          "xhtml",
          "display"
        ],
        "min": 0,
        "max": "1",
        "type": [
          {
            "code": "Narrative"
          }
        ],
        "condition": [
          "dom-1"
        ],
        "mapping": [
          {
            "identity": "rim",
            "map": "Act.text?"
          }
        ]
      },
      {
        "path": "Practitioner.contained",
        "short": "Contained, inline Resources",
        "definition": "These resources do not have an independent existence apart from the resource that contains them - they cannot be identified independently, and nor can they have their own independent transaction scope.",
        "comments": "This should never be done when the content can be identified properly, as once identification is lost, it is extremely difficult (and context dependent) to restore it again.",
        "alias": [
          "inline resources",
          "anonymous resources",
          "contained resources"
        ],
        "min": 0,
        "max": "*",
        "type": [
          {
            "code": "Resource"
          }
        ],
        "mapping": [
          {
            "identity": "rim",
            "map": "N/A"
          }
        ]
      },
      {
        "path": "Practitioner.extension",
        "slicing": {
          "discriminator": [
            "url"
          ],
          "ordered": false,
          "rules": "open"
        },
        "short": "Extension",
        "definition": "An Extension",
        "min": 0,
        "max": "*",
        "type": [
          {
            "code": "Extension"
          }
        ]
      },
      {
        "path": "Practitioner.extension",
        "name": "Practitioner.classification",
        "short": "Extension",
        "definition": "An Extension",
        "min": 0,
        "max": "1",
        "type": [
          {
            "code": "Extension",
            "profile": [
              "http://hl7.org/fhir/StructureDefinition/practitioner-classification"
            ]
          }
        ]
      },
      {
        "path": "Practitioner.modifierExtension",
        "short": "Extensions that cannot be ignored",
        "definition": "May be used to represent additional information that is not part of the basic definition of the resource, and that modifies the understanding of the element that contains it. Usually modifier elements provide negation or qualification. In order to make the use of extensions safe and manageable, there is a strict set of governance applied to the definition and use of extensions. Though any implementer is allowed to define an extension, there is a set of requirements that SHALL be met as part of the definition of the extension. Applications processing a resource are required to check for modifier extensions.",
        "comments": "There can be no stigma associated with the use of extensions by any application, project, or standard - regardless of the institution or jurisdiction that uses or defines the extensions.  The use of extensions is what allows the FHIR specification to retain a core level of simplicity for everyone.",
        "alias": [
          "extensions",
          "user content"
        ],
        "min": 0,
        "max": "*",
        "type": [
          {
            "code": "Extension"
          }
        ],
        "isModifier": true,
        "mapping": [
          {
            "identity": "rim",
            "map": "N/A"
          }
        ]
      },
      {
        "path": "Practitioner.identifier",
        "short": "A identifier for the person as this agent",
        "definition": "An identifier that applies to this person in this role.",
        "requirements": "Often, specific identities are assigned for the agent.",
        "min": 0,
        "max": "*",
        "type": [
          {
            "code": "Identifier"
          }
        ],
        "isSummary": true,
        "mapping": [
          {
            "identity": "v2",
            "map": "PRD-7 (or XCN.1 Person Identifier)"
          },
          {
            "identity": "rim",
            "map": "./id"
          },
          {
            "identity": "servd",
            "map": "./Identifiers"
          }
        ]
      },
      {
        "path": "Practitioner.name",
        "short": "A name associated with the person",
        "definition": "A name associated with the person.",
        "requirements": "Contact persons need to be identified by name, but it is uncommon to need details about multiple other names for that person.",
        "min": 0,
        "max": "1",
        "type": [
          {
            "code": "HumanName"
          }
        ],
        "isSummary": true,
        "mapping": [
          {
            "identity": "v2",
            "map": "XCN Components"
          },
          {
            "identity": "rim",
            "map": "./name"
          },
          {
            "identity": "servd",
            "map": "./PreferredName (GivenNames, FamilyName, TitleCode)"
          }
        ]
      },
      {
        "path": "Practitioner.telecom",
        "short": "A contact detail for the practitioner",
        "definition": "A contact detail for the practitioner, e.g. a telephone number or an email address.",
        "comments": "Person may have multiple ways to be contacted with different uses or applicable periods. \rMay need to have options for contacting the person urgently, and also to help with identification.",
        "requirements": "Need to know how to reach a practitioner.",
        "min": 0,
        "max": "*",
        "type": [
          {
            "code": "ContactPoint"
          }
        ],
        "isSummary": true,
        "mapping": [
          {
            "identity": "v2",
            "map": "PRT-15, STF-10, ROL-12"
          },
          {
            "identity": "rim",
            "map": "./telecom"
          },
          {
            "identity": "servd",
            "map": "./ContactPoints"
          }
        ]
      },
      {
        "path": "Practitioner.address",
        "short": "Where practitioner can be found/visited",
        "definition": "The postal address where the practitioner can be found or visited or to which mail can be delivered.",
        "requirements": "Need to keep track where the practitioner can found during work or for directing mail.",
        "min": 0,
        "max": "*",
        "type": [
          {
            "code": "Address"
          }
        ],
        "isSummary": true,
        "mapping": [
          {
            "identity": "v2",
            "map": "ORC-24, STF-11, ROL-11, PRT-14"
          },
          {
            "identity": "rim",
            "map": "./addr"
          },
          {
            "identity": "servd",
            "map": "./Addresses"
          }
        ]
      },
      {
        "path": "Practitioner.gender",
        "short": "male | female | other | unknown",
        "definition": "Administrative Gender - the gender that the person is considered to have for administration and record keeping purposes.",
        "requirements": "Needed to address the person correctly.",
        "min": 0,
        "max": "1",
        "type": [
          {
            "code": "code"
          }
        ],
        "mustSupport": true,
        "isSummary": true,
        "binding": {
          "strength": "required",
          "description": "The gender of a person used for administrative purposes",
          "valueSetReference": {
            "reference": "http://hl7.org/fhir/ValueSet/administrative-gender"
          }
        },
        "mapping": [
          {
            "identity": "v2",
            "map": "STF-5"
          },
          {
            "identity": "rim",
            "map": "./administrativeGender"
          },
          {
            "identity": "servd",
            "map": "./GenderCode"
          }
        ]
      },
      {
        "path": "Practitioner.birthDate",
        "short": "The date  on which the practitioner was born",
        "definition": "The date of birth for the practitioner.",
        "requirements": "Needed for identification.",
        "min": 0,
        "max": "1",
        "type": [
          {
            "code": "date"
          }
        ],
        "isSummary": true,
        "mapping": [
          {
            "identity": "v2",
            "map": "STF-6"
          },
          {
            "identity": "rim",
            "map": "./birthTime"
          },
          {
            "identity": "servd",
            "map": "(not represented in ServD)"
          }
        ]
      },
      {
        "path": "Practitioner.photo",
        "short": "Image of the person",
        "definition": "Image of the person.",
        "requirements": "Many EHR systems have the capability to capture an image of patients and personnel. Fits with newer social media usage too.",
        "min": 0,
        "max": "*",
        "type": [
          {
            "code": "Attachment"
          }
        ],
        "mapping": [
          {
            "identity": "rim",
            "map": "./subjectOf/ObservationEvent[code=\"photo\"]/value"
          },
          {
            "identity": "servd",
            "map": "./ImageURI (only supports the URI reference)"
          }
        ]
      },
      {
        "path": "Practitioner.practitionerRole",
        "short": "The list of Roles/Organizations that the Practitioner is associated with",
        "definition": "The list of Roles/Organizations that the Practitioner is associated with.",
        "min": 0,
        "max": "*",
        "type": [
          {
            "code": "BackboneElement"
          }
        ],
        "mapping": [
          {
            "identity": "rim",
            "map": ".(Role)"
          }
        ]
      },
      {
        "path": "Practitioner.practitionerRole.id",
        "representation": [
          "xmlAttr"
        ],
        "short": "xml:id (or equivalent in JSON)",
        "definition": "unique id for the element within a resource (for internal references).",
        "min": 0,
        "max": "1",
        "type": [
          {
            "code": "id"
          }
        ],
        "mapping": [
          {
            "identity": "rim",
            "map": "n/a"
          }
        ]
      },
      {
        "path": "Practitioner.practitionerRole.extension",
        "short": "Additional Content defined by implementations",
        "definition": "May be used to represent additional information that is not part of the basic definition of the element. In order to make the use of extensions safe and manageable, there is a strict set of governance  applied to the definition and use of extensions. Though any implementer is allowed to define an extension, there is a set of requirements that SHALL be met as part of the definition of the extension.",
        "comments": "There can be no stigma associated with the use of extensions by any application, project, or standard - regardless of the institution or jurisdiction that uses or defines the extensions.  The use of extensions is what allows the FHIR specification to retain a core level of simplicity for everyone.",
        "alias": [
          "extensions",
          "user content"
        ],
        "min": 0,
        "max": "*",
        "type": [
          {
            "code": "Extension"
          }
        ],
        "mapping": [
          {
            "identity": "rim",
            "map": "n/a"
          }
        ]
      },
      {
        "path": "Practitioner.practitionerRole.modifierExtension",
        "short": "Extensions that cannot be ignored",
        "definition": "May be used to represent additional information that is not part of the basic definition of the element, and that modifies the understanding of the element that contains it. Usually modifier elements provide negation or qualification. In order to make the use of extensions safe and manageable, there is a strict set of governance applied to the definition and use of extensions. Though any implementer is allowed to define an extension, there is a set of requirements that SHALL be met as part of the definition of the extension. Applications processing a resource are required to check for modifier extensions.",
        "comments": "There can be no stigma associated with the use of extensions by any application, project, or standard - regardless of the institution or jurisdiction that uses or defines the extensions.  The use of extensions is what allows the FHIR specification to retain a core level of simplicity for everyone.",
        "alias": [
          "extensions",
          "user content",
          "modifiers"
        ],
        "min": 0,
        "max": "*",
        "type": [
          {
            "code": "Extension"
          }
        ],
        "isModifier": true,
        "mapping": [
          {
            "identity": "rim",
            "map": "N/A"
          }
        ]
      },
      {
        "path": "Practitioner.practitionerRole.managingOrganization",
        "short": "The Organization where the Practitioner performs the roles associated",
        "definition": "The Organization where the Practitioner performs the roles associated.",
        "min": 0,
        "max": "1",
        "type": [
          {
            "code": "Reference",
            "profile": [
              "http://hl7.org/fhir/StructureDefinition/organization-qicore-qicore-organization"
            ]
          }
        ],
        "mustSupport": true,
        "mapping": [
          {
            "identity": "rim",
            "map": "scopingOrganization"
          }
        ]
      },
      {
        "path": "Practitioner.practitionerRole.role",
        "short": "Roles which this practitioner may perform",
        "definition": "Roles which this practitioner is authorized to perform for the organization.",
        "comments": "A person may have more than one role. At least one role is required.",
        "requirements": "Need to know what authority the practitioner has - what can they do?",
        "min": 0,
        "max": "1",
        "type": [
          {
            "code": "CodeableConcept"
          }
        ],
        "mustSupport": true,
        "isSummary": true,
        "binding": {
          "strength": "example",
          "description": "The role a person plays representing an organization",
          "valueSetReference": {
            "reference": "http://hl7.org/fhir/ValueSet/practitioner-role"
          }
        },
        "mapping": [
          {
            "identity": "v2",
            "map": "PRD-1 / STF-18-job title / PRA-3-practitioner category  / PRT-4-Participation / ROL-3-role-ROL / ORC-12-ordering provider / OBR-16-ordering provider / PV1-7-attending doctor / PV1-8-referring doctor / PV1-9-consulting doctor / PV1-17-admitting doctor"
          },
          {
            "identity": "rim",
            "map": "./code"
          },
          {
            "identity": "servd",
            "map": "(ServD maps Practitioners and Organizations via another entity, so this concept is not available)"
          }
        ]
      },
      {
        "path": "Practitioner.practitionerRole.specialty",
        "short": "Specific specialty of the practitioner",
        "definition": "Specific specialty of the practitioner.",
        "min": 0,
        "max": "*",
        "type": [
          {
            "code": "CodeableConcept"
          }
        ],
        "mustSupport": true,
        "isSummary": true,
        "binding": {
          "strength": "example",
          "description": "Specific specialty associated with the agency",
          "valueSetReference": {
            "reference": "http://hl7.org/fhir/ValueSet/practitioner-specialty"
          }
        },
        "mapping": [
          {
            "identity": "v2",
            "map": "PRA-5-specialty"
          },
          {
            "identity": "rim",
            "map": "indirectAuthority/QualifiedEntity[code < Speciality]/code"
          },
          {
            "identity": "servd",
            "map": "./Specialty"
          }
        ]
      },
      {
        "path": "Practitioner.practitionerRole.specialty.id",
        "representation": [
          "xmlAttr"
        ],
        "short": "xml:id (or equivalent in JSON)",
        "definition": "unique id for the element within a resource (for internal references).",
        "min": 0,
        "max": "1",
        "type": [
          {
            "code": "id"
          }
        ],
        "mapping": [
          {
            "identity": "rim",
            "map": "n/a"
          }
        ]
      },
      {
        "path": "Practitioner.practitionerRole.specialty.extension",
        "slicing": {
          "discriminator": [
            "url"
          ],
          "ordered": false,
          "rules": "open"
        },
        "short": "Extension",
        "definition": "An Extension",
        "min": 0,
        "max": "*",
        "type": [
          {
            "code": "Extension"
          }
        ]
      },
      {
        "path": "Practitioner.practitionerRole.specialty.extension",
        "name": "Practitioner.practitionerRole.specialty.primaryInd",
        "short": "Extension",
        "definition": "An Extension",
        "min": 0,
        "max": "1",
        "type": [
          {
            "code": "Extension",
            "profile": [
              "http://hl7.org/fhir/StructureDefinition/practitioner-primaryInd"
            ]
          }
        ]
      },
      {
        "path": "Practitioner.practitionerRole.specialty.coding",
        "short": "Code defined by a terminology system",
        "definition": "A reference to a code defined by a terminology system.",
        "comments": "Codes may be defined very casually in enumerations, or code lists, up to very formal definitions such as SNOMED CT - see the V3 Core Principles for more information.  Ordering of codings is undefined and SHALL NOT be used to infer meaning. Generally, at most only one of the coding values will be labelled as UserSelected = true.",
        "requirements": "Allows for translations and alternate encodings within a code system.  Also supports communication of the same instance to systems requiring different encodings.",
        "min": 0,
        "max": "*",
        "type": [
          {
            "code": "Coding"
          }
        ],
        "mapping": [
          {
            "identity": "orim",
            "map": "fhir:CodeableConcept.coding rdfs:subPropertyOf dt:CD.coding"
          },
          {
            "identity": "v2",
            "map": "C*E.1-8, C*E.10-22"
          },
          {
            "identity": "rim",
            "map": "union(., ./translation)"
          }
        ]
      },
      {
        "path": "Practitioner.practitionerRole.specialty.text",
        "short": "Plain text representation of the concept",
        "definition": "A human language representation of the concept as seen/selected/uttered by the user who entered the data and/or which represents the intended meaning of the user.",
        "comments": "Very often the text is the same as a displayName of one of the codings.",
        "requirements": "The codes from the terminologies do not always capture the correct meaning with all the nuances of the human using them, or sometimes there is no appropriate code at all. In these cases, the text is used to capture the full meaning of the source.",
        "min": 0,
        "max": "1",
        "type": [
          {
            "code": "string"
          }
        ],
        "mapping": [
          {
            "identity": "orim",
            "map": "fhir:CodeableConcept.text rdfs:subPropertyOf dt:CD.originalText"
          },
          {
            "identity": "v2",
            "map": "C*E.9. But note many systems use C*E.2 for this"
          },
          {
            "identity": "rim",
            "map": "./originalText[mediaType/code=\"text/plain\"]/data"
          }
        ]
      },
      {
        "path": "Practitioner.practitionerRole.period",
        "short": "The period during which the practitioner is authorized to perform in these role(s)",
        "definition": "The period during which the person is authorized to act as a practitioner in these role(s) for the organization.",
        "requirements": "Even after the agencies is revoked, the fact that it existed must still be recorded.",
        "min": 0,
        "max": "1",
        "type": [
          {
            "code": "Period"
          }
        ],
        "mustSupport": true,
        "isSummary": true,
        "mapping": [
          {
            "identity": "v2",
            "map": "PRD-8/9 / PRA-5.4-date of certification"
          },
          {
            "identity": "rim",
            "map": "./effectiveTime"
          },
          {
            "identity": "servd",
            "map": "(ServD maps Practitioners and Organizations via another entity, so this concept is not available)"
          }
        ]
      },
      {
        "path": "Practitioner.practitionerRole.location",
        "short": "The location(s) at which this practitioner provides care",
        "definition": "The location(s) at which this practitioner provides care.",
        "min": 0,
        "max": "*",
        "type": [
          {
            "code": "Reference",
            "profile": [
              "http://hl7.org/fhir/StructureDefinition/location-qicore-qicore-location"
            ]
          }
        ],
        "mapping": [
          {
            "identity": "rim",
            "map": "./target[classCode=\"indirectAuthority].source[classCode=SDLOC]"
          },
          {
            "identity": "servd",
            "map": "(ServD maps Practitioners and Organizations via another entity, so this concept is not available)<br/>\rHowever these are accessed via the Site.ServiceSite.ServiceSiteProvider record. (The Site has the location)"
          }
        ]
      },
      {
        "path": "Practitioner.practitionerRole.healthcareService",
        "short": "The list of healthcare services that this worker provides for this role's Organization/Location(s)",
        "definition": "The list of healthcare services that this worker provides for this role's Organization/Location(s).",
        "min": 0,
        "max": "*",
        "type": [
          {
            "code": "Reference",
            "profile": [
              "http://hl7.org/fhir/StructureDefinition/HealthcareService"
            ]
          }
        ],
        "mapping": [
          {
            "identity": "rim",
            "map": "./target[classCode=\"indirectAuthority].id?"
          }
        ]
      },
      {
        "path": "Practitioner.qualification",
        "short": "Qualifications obtained by training and certification",
        "definition": "Qualifications obtained by training and certification.",
        "min": 0,
        "max": "*",
        "type": [
          {
            "code": "BackboneElement"
          }
        ],
        "mapping": [
          {
            "identity": "v2",
            "map": "CER?"
          },
          {
            "identity": "rim",
            "map": "./indirectAuthority/QualifiedEntity[code < qualifiedEntity]"
          },
          {
            "identity": "servd",
            "map": "./Qualifications"
          }
        ]
      },
      {
        "path": "Practitioner.qualification.id",
        "representation": [
          "xmlAttr"
        ],
        "short": "xml:id (or equivalent in JSON)",
        "definition": "unique id for the element within a resource (for internal references).",
        "min": 0,
        "max": "1",
        "type": [
          {
            "code": "id"
          }
        ],
        "mapping": [
          {
            "identity": "rim",
            "map": "n/a"
          }
        ]
      },
      {
        "path": "Practitioner.qualification.extension",
        "short": "Additional Content defined by implementations",
        "definition": "May be used to represent additional information that is not part of the basic definition of the element. In order to make the use of extensions safe and manageable, there is a strict set of governance  applied to the definition and use of extensions. Though any implementer is allowed to define an extension, there is a set of requirements that SHALL be met as part of the definition of the extension.",
        "comments": "There can be no stigma associated with the use of extensions by any application, project, or standard - regardless of the institution or jurisdiction that uses or defines the extensions.  The use of extensions is what allows the FHIR specification to retain a core level of simplicity for everyone.",
        "alias": [
          "extensions",
          "user content"
        ],
        "min": 0,
        "max": "*",
        "type": [
          {
            "code": "Extension"
          }
        ],
        "mapping": [
          {
            "identity": "rim",
            "map": "n/a"
          }
        ]
      },
      {
        "path": "Practitioner.qualification.modifierExtension",
        "short": "Extensions that cannot be ignored",
        "definition": "May be used to represent additional information that is not part of the basic definition of the element, and that modifies the understanding of the element that contains it. Usually modifier elements provide negation or qualification. In order to make the use of extensions safe and manageable, there is a strict set of governance applied to the definition and use of extensions. Though any implementer is allowed to define an extension, there is a set of requirements that SHALL be met as part of the definition of the extension. Applications processing a resource are required to check for modifier extensions.",
        "comments": "There can be no stigma associated with the use of extensions by any application, project, or standard - regardless of the institution or jurisdiction that uses or defines the extensions.  The use of extensions is what allows the FHIR specification to retain a core level of simplicity for everyone.",
        "alias": [
          "extensions",
          "user content",
          "modifiers"
        ],
        "min": 0,
        "max": "*",
        "type": [
          {
            "code": "Extension"
          }
        ],
        "isModifier": true,
        "mapping": [
          {
            "identity": "rim",
            "map": "N/A"
          }
        ]
      },
      {
        "path": "Practitioner.qualification.identifier",
        "short": "An identifier for this qualification for the practitioner",
        "definition": "An identifier that applies to this person's qualification in this role.",
        "requirements": "Often, specific identities are assigned for the qualification.",
        "min": 0,
        "max": "*",
        "type": [
          {
            "code": "Identifier"
          }
        ],
        "mapping": [
          {
            "identity": "rim",
            "map": "./id"
          }
        ]
      },
      {
        "path": "Practitioner.qualification.code",
        "short": "Coded representation of the qualification",
        "definition": "Coded representation of the qualification.",
        "min": 1,
        "max": "1",
        "type": [
          {
            "code": "CodeableConcept"
          }
        ],
        "binding": {
          "strength": "example",
          "description": "Specific qualification the practitioner has to provide a service",
          "valueSetReference": {
            "reference": "http://hl7.org/fhir/ValueSet/anzsco-occupations"
          }
        },
        "mapping": [
          {
            "identity": "rim",
            "map": "./code"
          },
          {
            "identity": "servd",
            "map": "./Qualifications.Value"
          }
        ]
      },
      {
        "path": "Practitioner.qualification.period",
        "short": "Period during which the qualification is valid",
        "definition": "Period during which the qualification is valid.",
        "requirements": "Qualifications are often for a limited period of time, and can be revoked.",
        "min": 0,
        "max": "1",
        "type": [
          {
            "code": "Period"
          }
        ],
        "mapping": [
          {
            "identity": "rim",
            "map": "./effectiveTime"
          },
          {
            "identity": "servd",
            "map": "./Qualifications.StartDate and ./Qualifications.EndDate"
          }
        ]
      },
      {
        "path": "Practitioner.qualification.issuer",
        "short": "Organization that regulates and issues the qualification",
        "definition": "Organization that regulates and issues the qualification.",
        "min": 0,
        "max": "1",
        "type": [
          {
            "code": "Reference",
            "profile": [
              "http://hl7.org/fhir/StructureDefinition/organization-qicore-qicore-organization"
            ]
          }
        ],
        "mapping": [
          {
            "identity": "rim",
            "map": "./scoper"
          }
        ]
      },
      {
        "path": "Practitioner.communication",
        "short": "A language the practitioner is able to use in patient communication",
        "definition": "A language the practitioner is able to use in patient communication.",
        "comments": "The structure aa-BB with this exact casing is one the most widely used notations for locale. However not all systems actually code this but instead have it as free text. Hence CodeableConcept instead of code as the data type.",
        "requirements": "Knowing which language a practitioner speaks can help in facilitating communication with patients.",
        "min": 0,
        "max": "*",
        "type": [
          {
            "code": "CodeableConcept"
          }
        ],
        "binding": {
          "strength": "required",
          "description": "A human language",
          "valueSetUri": "http://tools.ietf.org/html/bcp47"
        },
        "mapping": [
          {
            "identity": "v2",
            "map": "PID-15, NK1-20, LAN-2"
          },
          {
            "identity": "rim",
            "map": "./languageCode"
          },
          {
            "identity": "servd",
            "map": "./Languages.LanguageSpokenCode"
          }
        ]
      }
    ]
  },
  "differential": {
    "element": [
      {
        "path": "Practitioner",
        "name": "QICore-Practitioner",
        "min": 1,
        "max": "1",
        "type": [
          {
            "code": "Practitioner"
          }
        ]
      },
      {
        "path": "Practitioner.extension",
        "slicing": {
          "discriminator": [
            "url"
          ],
          "ordered": false,
          "rules": "open"
        }
      },
      {
        "path": "Practitioner.extension",
        "name": "Practitioner.classification",
        "min": 0,
        "max": "1",
        "type": [
          {
            "code": "Extension",
            "profile": [
              "http://hl7.org/fhir/StructureDefinition/practitioner-classification"
            ]
          }
        ]
      },
      {
        "path": "Practitioner.gender",
        "mustSupport": true
      },
      {
        "path": "Practitioner.practitionerRole"
      },
      {
        "path": "Practitioner.practitionerRole.managingOrganization",
        "type": [
          {
            "code": "Reference",
            "profile": [
              "http://hl7.org/fhir/StructureDefinition/organization-qicore-qicore-organization"
            ]
          }
        ],
        "mustSupport": true
      },
      {
        "path": "Practitioner.practitionerRole.role",
        "mustSupport": true
      },
      {
        "path": "Practitioner.practitionerRole.specialty",
        "mustSupport": true
      },
      {
        "path": "Practitioner.practitionerRole.specialty.extension",
        "slicing": {
          "discriminator": [
            "url"
          ],
          "ordered": false,
          "rules": "open"
        }
      },
      {
        "path": "Practitioner.practitionerRole.specialty.extension",
        "name": "Practitioner.practitionerRole.specialty.primaryInd",
        "min": 0,
        "max": "1",
        "type": [
          {
            "code": "Extension",
            "profile": [
              "http://hl7.org/fhir/StructureDefinition/practitioner-primaryInd"
            ]
          }
        ]
      },
      {
        "path": "Practitioner.practitionerRole.period",
        "mustSupport": true
      },
      {
        "path": "Practitioner.practitionerRole.location",
        "type": [
          {
            "code": "Reference",
            "profile": [
              "http://hl7.org/fhir/StructureDefinition/location-qicore-qicore-location"
            ]
          }
        ]
      },
      {
        "path": "Practitioner.qualification"
      },
      {
        "path": "Practitioner.qualification.issuer",
        "type": [
          {
            "code": "Reference",
            "profile": [
              "http://hl7.org/fhir/StructureDefinition/organization-qicore-qicore-organization"
            ]
          }
        ]
      }
    ]
  }
}