{
  "resourceType": "Practitioner",
  "id": "f204",
  "text": {
    "status": "generated",
    "div": "<div><p><b>Generated Narrative with Details</b></p><p><b>id</b>: f204</p><p><b>identifier</b>: UZI-nummer = 12345678904 (OFFICIAL)</p><p><b>name</b>: Carla Espinosa</p><p><b>telecom</b>: ph: +31715262169(WORK)</p><p><b>address</b>: Walvisbaai 3 Den helder 2333ZA NLD (WORK)</p><p><b>gender</b>: female</p><p><b>birthDate</b>: Nov 5, 1967</p><h3>PractitionerRoles</h3><table><tr><td>-</td><td><b>ManagingOrganization</b></td><td><b>Role</b></td><td><b>Specialty</b></td></tr><tr><td>*</td><td><a>AUMC. Generated Summary: Artis University Medical Center (OFFICIAL); name: Artis University Medical Center (AUMC); <span>Academic Medical Center</span>; ph: +31715269111(WORK); active</a></td><td>Renal nurse <span>(Details : {SNOMED CT code '224565004' = 'Renal nurse', given as 'Renal nurse'})</span></td><td>Nursing procedure <span>(Details : {SNOMED CT code '9632001' = 'Nursing procedure', given as 'Nursing procedure'})</span></td></tr></table></div>"
  },
  "identifier": [
    {
      "use": "official",
      "type": {
        "text": "UZI-nummer"
      },
      "system": "urn:oid:2.16.528.1.1007.3.1",
      "value": "12345678904"
    }
  ],
  "name": {
    "use": "usual",
    "text": "Carla Espinosa"
  },
  "telecom": [
    {
      "system": "phone",
      "value": "+31715262169",
      "use": "work"
    }
  ],
  "address": [
    {
      "use": "work",
      "line": [
        "Walvisbaai 3"
      ],
      "city": "Den helder",
      "postalCode": "2333ZA",
      "country": "NLD"
    }
  ],
  "gender": "female",
  "birthDate": "1967-11-05",
  "practitionerRole": [
    {
      "managingOrganization": {
        "reference": "Organization/f201",
        "display": "AUMC"
      },
      "role": {
        "coding": [
          {
            "system": "http://snomed.info/sct",
            "code": "224565004",
            "display": "Renal nurse"
          }
        ]
      },
      "specialty": [
        {
          "coding": [
            {
              "system": "http://snomed.info/sct",
              "code": "9632001",
              "display": "Nursing procedure"
            }
          ]
        }
      ]
    }
  ]
}