{
  "resourceType": "Procedure",
  "id": "f004",
  "text": {
    "status": "generated",
    "div": "<div><p><b>Generated Narrative with Details</b></p><p><b>id</b>: f004</p><p><b>patient</b>: <a>P. van de Heuvel. Generated Summary: 738472983 (USUAL), ?? (USUAL); Pieter van de Heuvel ; ph: 0648352638(MOBILE), p.heuvel@gmail.com(HOME); MALE; birthDate: Nov 17, 1944; <span>Getrouwd</span>; multipleBirth; active</a></p><p><b>status</b>: completed</p><p><b>type</b>: Tracheotomy <span>(Details : {SNOMED CT code '48387007' = 'Trachy', given as 'Tracheotomy'})</span></p><h3>BodySites</h3><table><tr><td>-</td><td><b>Site[x]</b></td></tr><tr><td>*</td><td>Retropharyngeal area <span>(Details : {SNOMED CT code '83030008' = 'Retropharyngeal area', given as 'Retropharyngeal area'})</span></td></tr></table><p><b>indication</b>: ensure breathing during surgery <span>(Details )</span></p><h3>Performers</h3><table><tr><td>-</td><td><b>Person</b></td><td><b>Role</b></td></tr><tr><td>*</td><td><a>A. Langeveld. Generated Summary: 118265112 (OFFICIAL), 191REW8WE916 (USUAL); Langeveld Anne (OFFICIAL); ph: 0205563847(WORK), a.langeveld@bmc.nl(WORK), fax: 0205668916(WORK); FEMALE; birthDate: Mar 11, 1959; <span>France</span></a></td><td>Care role <span>(Details : {urn:oid:2.16.840.1.113883.2.4.15.111 code '01.000' = '01.000', given as 'Arts'})</span></td></tr></table><p><b>performed</b>: Mar 22, 2013 9:30:10 AM --&gt; Mar 22, 2013 10:30:10 AM</p><p><b>encounter</b>: <a>Generated Summary: v6751 (OFFICIAL); FINISHED; OUTPATIENT; <span>Patient-initiated encounter</span>; 90 min; <span>Retropharyngeal abscess</span>; <span>Non-urgent ear, nose and throat admission</span></a></p><p><b>outcome</b>: removal of the retropharyngeal abscess <span>(Details )</span></p><p><b>report</b>: <a>???????????. Generated Summary: <span>Complete blood count (hemogram) panel - Blood by Automated count</span>; FINAL; issued: May 15, 2013 7:32:52 PM; P. van den Heuvel; Burgers University Medical Centre; nr1239044 (OFFICIAL); <span>Haematology test</span>; effective: Apr 2, 2013; conclusion: Core lab</a></p><p><b>followUp</b>: described in care plan <span>(Details )</span></p></div>"
  },
  "patient": {
    "reference": "Patient/f001",
    "display": "P. van de Heuvel"
  },
  "status": "completed",
  "type": {
    "coding": [
      {
        "system": "http://snomed.info/sct",
        "code": "48387007",
        "display": "Tracheotomy"
      }
    ]
  },
  "bodySite": [
    {
      "siteCodeableConcept": {
        "coding": [
          {
            "system": "http://snomed.info/sct",
            "code": "83030008",
            "display": "Retropharyngeal area"
          }
        ]
      }
    }
  ],
  "indication": [
    {
      "text": "ensure breathing during surgery"
    }
  ],
  "performer": [
    {
      "person": {
        "reference": "Practitioner/f005",
        "display": "A. Langeveld"
      },
      "role": {
        "coding": [
          {
            "system": "urn:oid:2.16.840.1.113883.2.4.15.111",
            "code": "01.000",
            "display": "Arts"
          }
        ],
        "text": "Care role"
      }
    }
  ],
  "performedPeriod": {
    "start": "2013-03-22T09:30:10+01:00",
    "end": "2013-03-22T10:30:10+01:00"
  },
  "encounter": {
    "reference": "Encounter/f003"
  },
  "outcome": {
    "text": "removal of the retropharyngeal abscess"
  },
  "report": [
    {
      "reference": "DiagnosticReport/f001",
      "display": "???????????"
    }
  ],
  "followUp": [
    {
      "text": "described in care plan"
    }
  ]
}