<?xml version="1.0" encoding="UTF-8"?><svg xmlns="http://www.w3.org/2000/svg" xmlns:xlink="http://www.w3.org/1999/xlink" version="1.1" width="718.0" height="364.0">  <defs>
    <filter id="shadow1" x="0" y="0" width="200%" height="200%">
      <feOffset result="offOut" in="SourceGraphic" dx="3" dy="3" />
      <feColorMatrix result="matrixOut" in="offOut" type="matrix" values="0.2 0 0 0 0 0 0.2 0 0 0 0 0 0.2 0 0 0 0 0 1 0" />
      <feGaussianBlur result="blurOut" in="matrixOut" stdDeviation="2" />
      <feBlend in="SourceGraphic" in2="blurOut" mode="normal" />
    </filter>
  </defs><rect x="0.0" y="0.0" rx="4" ry="4" width="176.0" height="120.0" filter="url(#shadow1)" style="fill:#f0f8ff;stroke:black;stroke-width:1"/><line x1="0.0" y1="28.0" x2="176.0" y2="28.0" style="stroke:dimgrey;stroke-width:1"/><text x="88.0" y="20.0" fill="black" class="diagram-class-title  diagram-class-resource">Questionnaire<tspan class="diagram-class-title-link"> (<a xlink:href="domainresource.html" class="diagram-class-reference">DomainResource</a>)</tspan></text><text x="6.0" y="42.0" fill="black" class="diagram-class-detail"><a xlink:href="questionnaire-definitions.html#Questionnaire.identifier"><title>This records identifiers associated with this question set that are defined by business processed and/ or used to refer to it when a direct URL reference to the resource itself is not appropriate (e.g. in CDA documents, or in written / printed documentation)</title>identifier</a> : <a xlink:href="datatypes.html#Identifier">Identifier</a> 0..*</text><text x="6.0" y="56.0" fill="black" class="diagram-class-detail"><a xlink:href="questionnaire-definitions.html#Questionnaire.version"><title>The version number assigned by the publisher for business reasons.  It may remain the same when the resource is updated</title>version</a> : <a xlink:href="datatypes.html#string">string</a> 0..1</text><text x="6.0" y="70.0" fill="black" class="diagram-class-detail"><a xlink:href="questionnaire-definitions.html#Questionnaire.status"><title>The lifecycle status of the questionnaire as a whole (this element modifies the meaning of other elements)</title>status</a> : <a xlink:href="datatypes.html#code">code</a> 1..1 « <a xlink:href="valueset-questionnaire-status.html"><title>Lifecycle status of the questionnaire</title>QuestionnaireStatus</a> »</text><text x="6.0" y="84.0" fill="black" class="diagram-class-detail"><a xlink:href="questionnaire-definitions.html#Questionnaire.date"><title>The date that this questionnaire was last changed</title>date</a> : <a xlink:href="datatypes.html#dateTime">dateTime</a> 0..1</text><text x="6.0" y="98.0" fill="black" class="diagram-class-detail"><a xlink:href="questionnaire-definitions.html#Questionnaire.publisher"><title>Organization or person responsible for developing and maintaining the questionnaire</title>publisher</a> : <a xlink:href="datatypes.html#string">string</a> 0..1</text><text x="6.0" y="112.0" fill="black" class="diagram-class-detail"><a xlink:href="questionnaire-definitions.html#Questionnaire.telecom"><title>Contact details to assist a user in finding and communicating with the publisher</title>telecom</a> : <a xlink:href="datatypes.html#ContactPoint">ContactPoint</a> 0..*</text><rect x="296.0" y="0.0" rx="4" ry="4" width="100.0" height="120.0" filter="url(#shadow1)" style="fill:#f0f8ff;stroke:black;stroke-width:1"/><line x1="296.0" y1="28.0" x2="396.0" y2="28.0" style="stroke:dimgrey;stroke-width:1"/><text x="346.0" y="20.0" fill="black" class="diagram-class-title">Group</text><text x="302.0" y="42.0" fill="black" class="diagram-class-detail"><a xlink:href="questionnaire-definitions.html#Questionnaire.group.linkId"><title>An identifier that is unique within the questionnaire allowing linkage to the equivalent group in a QuestionnaireAnswers resource</title>linkId</a> : <a xlink:href="datatypes.html#string">string</a> 0..1</text><text x="302.0" y="56.0" fill="black" class="diagram-class-detail"><a xlink:href="questionnaire-definitions.html#Questionnaire.group.title"><title>The human-readable name for this section of the questionnaire</title>title</a> : <a xlink:href="datatypes.html#string">string</a> 0..1</text><text x="302.0" y="70.0" fill="black" class="diagram-class-detail"><a xlink:href="questionnaire-definitions.html#Questionnaire.group.concept"><title>Identifies a how this group of questions is known in a particular terminology such as LOINC</title>concept</a> : <a xlink:href="datatypes.html#Coding">Coding</a> 0..*</text><text x="302.0" y="84.0" fill="black" class="diagram-class-detail"><a xlink:href="questionnaire-definitions.html#Questionnaire.group.text"><title>Additional text for the group, used for display purposes</title>text</a> : <a xlink:href="datatypes.html#string">string</a> 0..1</text><text x="302.0" y="98.0" fill="black" class="diagram-class-detail"><a xlink:href="questionnaire-definitions.html#Questionnaire.group.required"><title>If true, indicates that the group must be present and have required questions within it answered.  If false, the group may be skipped when answering the questionnaire</title>required</a> : <a xlink:href="datatypes.html#boolean">boolean</a> 0..1</text><text x="302.0" y="112.0" fill="black" class="diagram-class-detail"><a xlink:href="questionnaire-definitions.html#Questionnaire.group.repeats"><title>Whether the group may occur multiple times in the instance, containing multiple sets of answers</title>repeats</a> : <a xlink:href="datatypes.html#boolean">boolean</a> 0..1</text><rect x="274.0" y="200.0" rx="4" ry="4" width="144.0" height="134.0" filter="url(#shadow1)" style="fill:#f0f8ff;stroke:black;stroke-width:1"/><line x1="274.0" y1="228.0" x2="418.0" y2="228.0" style="stroke:dimgrey;stroke-width:1"/><text x="346.0" y="220.0" fill="black" class="diagram-class-title">Question</text><text x="280.0" y="242.0" fill="black" class="diagram-class-detail"><a xlink:href="questionnaire-definitions.html#Questionnaire.group.question.linkId"><title>An identifier that is unique within the questionnaire allowing linkage to the equivalent group in a [[[QuestionnaireAnswers]]] resource</title>linkId</a> : <a xlink:href="datatypes.html#string">string</a> 0..1</text><text x="280.0" y="256.0" fill="black" class="diagram-class-detail"><a xlink:href="questionnaire-definitions.html#Questionnaire.group.question.concept"><title>Identifies a how this question is known in a particular terminology such as LOINC</title>concept</a> : <a xlink:href="datatypes.html#Coding">Coding</a> 0..*</text><text x="280.0" y="270.0" fill="black" class="diagram-class-detail"><a xlink:href="questionnaire-definitions.html#Questionnaire.group.question.text"><title>The actual question as shown to the user to prompt them for an answer</title>text</a> : <a xlink:href="datatypes.html#string">string</a> 0..1</text><text x="280.0" y="284.0" fill="black" class="diagram-class-detail"><a xlink:href="questionnaire-definitions.html#Questionnaire.group.question.type"><title>The expected format of the answer, e.g. the type of input (string, integer) or whether a (multiple) choice is expected</title>type</a> : <a xlink:href="datatypes.html#code">code</a> 0..1 « <a xlink:href="valueset-answer-format.html"><title>The expected format of an answer</title>AnswerFormat</a> »</text><text x="280.0" y="298.0" fill="black" class="diagram-class-detail"><a xlink:href="questionnaire-definitions.html#Questionnaire.group.question.required"><title>If true, indicates that the question must be answered and have required groups within it also present.  If false, the question and any contained groups may be skipped when answering the questionnaire</title>required</a> : <a xlink:href="datatypes.html#boolean">boolean</a> 0..1</text><text x="280.0" y="312.0" fill="black" class="diagram-class-detail"><a xlink:href="questionnaire-definitions.html#Questionnaire.group.question.repeats"><title>If true, the question may have more than one answer</title>repeats</a> : <a xlink:href="datatypes.html#boolean">boolean</a> 0..1</text><text x="280.0" y="326.0" fill="black" class="diagram-class-detail"><a xlink:href="questionnaire-definitions.html#Questionnaire.group.question.options"><title>Reference to a valueset containing the possible options</title>options</a> : <a xlink:href="references.html#Reference">Reference</a>(<a xlink:href="valueset.html#ValueSet">ValueSet</a>) 0..1</text><line x1="396.0" y1="35.0" x2="456.0" y2="35.0" style="stroke:navy;stroke-width:1"/><line x1="456.0" y1="35.0" x2="456.0" y2="85.0" style="stroke:navy;stroke-width:1"/><line x1="456.0" y1="85.0" x2="396.0" y2="85.0" style="stroke:navy;stroke-width:1"/><polygon points="396.0,35.0 402.0,39.0 408.0,35.0 402.0,31.0 396.0,35.0" style="fill:navy;stroke:navy;stroke-width:1" transform="rotate(0.0 396.0 35.0)"/><rect x="446.0" y="53.0" width="20.0" height="18.0" style="fill:white;stroke:black;stroke-width:0"/><text x="456.0" y="63.0" fill="black" class="diagram-class-linkage"><a xlink:href="questionnaire-definitions.html#Questionnaire.group.group"><title>A sub-group within a group. The ordering of groups within this group is relevant</title>group</a></text><text x="411.0" y="81.0" fill="black" class="diagram-class-linkage">0..*</text><line x1="321.0" y1="200.0" x2="321.0" y2="120.0" style="stroke:navy;stroke-width:1"/><polygon points="321.0,200.0 327.0,204.0 333.0,200.0 327.0,196.0 321.0,200.0" style="fill:navy;stroke:navy;stroke-width:1" transform="rotate(-90.0 321.0 200.0)"/><rect x="311.0" y="153.0" width="20.0" height="18.0" style="fill:white;stroke:black;stroke-width:0"/><text x="321.0" y="163.0" fill="black" class="diagram-class-linkage"><a xlink:href="questionnaire-definitions.html#Questionnaire.group.question.group"><title>Nested group, containing nested question for this question. The order of groups within the question is relevant</title>group</a></text><text x="321.0" y="134.0" fill="black" class="diagram-class-linkage">0..*</text><line x1="371.0" y1="120.0" x2="371.0" y2="200.0" style="stroke:navy;stroke-width:1"/><polygon points="371.0,120.0 377.0,124.0 383.0,120.0 377.0,116.0 371.0,120.0" style="fill:navy;stroke:navy;stroke-width:1" transform="rotate(90.0 371.0 120.0)"/><rect x="355.0" y="167.0" width="32.0" height="18.0" style="fill:white;stroke:black;stroke-width:0"/><text x="371.0" y="177.0" fill="black" class="diagram-class-linkage"><a xlink:href="questionnaire-definitions.html#Questionnaire.group.question"><title>Set of questions within this group. The order of questions within the group is relevant</title>question</a></text><text x="371.0" y="196.0" fill="black" class="diagram-class-linkage">0..*</text><line x1="176.0" y1="60.0" x2="296.0" y2="60.0" style="stroke:navy;stroke-width:1"/><polygon points="176.0,60.0 182.0,64.0 188.0,60.0 182.0,56.0 176.0,60.0" style="fill:navy;stroke:navy;stroke-width:1" transform="rotate(0.0 176.0 60.0)"/><rect x="226.0" y="53.0" width="20.0" height="18.0" style="fill:white;stroke:black;stroke-width:0"/><text x="236.0" y="63.0" fill="black" class="diagram-class-linkage"><a xlink:href="questionnaire-definitions.html#Questionnaire.group"><title>A collection of related questions (or further groupings of questions)</title>group</a></text><text x="276.0" y="56.0" fill="black" class="diagram-class-linkage">1..1</text></svg>