<?xml version="1.0" encoding="UTF-8"?><svg xmlns="http://www.w3.org/2000/svg" xmlns:xlink="http://www.w3.org/1999/xlink" version="1.1" width="556.0" height="214.0">  <defs>
    <filter id="shadow1" x="0" y="0" width="200%" height="200%">
      <feOffset result="offOut" in="SourceGraphic" dx="3" dy="3" />
      <feColorMatrix result="matrixOut" in="offOut" type="matrix" values="0.2 0 0 0 0 0 0.2 0 0 0 0 0 0.2 0 0 0 0 0 1 0" />
      <feGaussianBlur result="blurOut" in="matrixOut" stdDeviation="2" />
      <feBlend in="SourceGraphic" in2="blurOut" mode="normal" />
    </filter>
  </defs><rect x="0.0" y="0.0" rx="4" ry="4" width="200.0" height="204.0" filter="url(#shadow1)" style="fill:#f0f8ff;stroke:black;stroke-width:1"/><line x1="0.0" y1="28.0" x2="200.0" y2="28.0" style="stroke:dimgrey;stroke-width:1"/><text x="100.0" y="20.0" fill="black" class="diagram-class-title  diagram-class-resource">SearchParameter<tspan class="diagram-class-title-link"> (<a xlink:href="domainresource.html" class="diagram-class-reference">DomainResource</a>)</tspan></text><text x="6.0" y="42.0" fill="black" class="diagram-class-detail"><a xlink:href="searchparameter-definitions.html#SearchParameter.url"><title>An absolute URL at which this search parameter is (or will be) published, and which is used to reference this profile in conformance statements</title>url</a> : <a xlink:href="datatypes.html#uri">uri</a> 1..1</text><text x="6.0" y="56.0" fill="black" class="diagram-class-detail"><a xlink:href="searchparameter-definitions.html#SearchParameter.name"><title>The name of the standard or custom search parameter</title>name</a> : <a xlink:href="datatypes.html#string">string</a> 1..1</text><text x="6.0" y="70.0" fill="black" class="diagram-class-detail"><a xlink:href="searchparameter-definitions.html#SearchParameter.publisher"><title>The name of the individual or organization that published the search parameter</title>publisher</a> : <a xlink:href="datatypes.html#string">string</a> 0..1</text><text x="6.0" y="84.0" fill="black" class="diagram-class-detail"><a xlink:href="searchparameter-definitions.html#SearchParameter.requirements"><title>The Scope and Usage that this search parameter was created to meet</title>requirements</a> : <a xlink:href="datatypes.html#string">string</a> 0..1</text><text x="6.0" y="98.0" fill="black" class="diagram-class-detail"><a xlink:href="searchparameter-definitions.html#SearchParameter.status"><title>The status of this search parameter definition (this element modifies the meaning of other elements)</title>status</a> : <a xlink:href="datatypes.html#code">code</a> 0..1 « <a xlink:href="valueset-conformance-resource-status.html"><title>The lifecycle status of a Value Set or Concept Map</title>ConformanceResourceStatus</a> »</text><text x="6.0" y="112.0" fill="black" class="diagram-class-detail"><a xlink:href="searchparameter-definitions.html#SearchParameter.experimental"><title>A flag to indicate that this search parameter definition is authored for testing purposes (or education/evaluation/marketing), and is not intended to be used for genuine usage</title>experimental</a> : <a xlink:href="datatypes.html#boolean">boolean</a> 0..1</text><text x="6.0" y="126.0" fill="black" class="diagram-class-detail"><a xlink:href="searchparameter-definitions.html#SearchParameter.date"><title>The date  (and optionally time) when the search parameter definition was published</title>date</a> : <a xlink:href="datatypes.html#dateTime">dateTime</a> 0..1</text><text x="6.0" y="140.0" fill="black" class="diagram-class-detail"><a xlink:href="searchparameter-definitions.html#SearchParameter.base"><title>The base resource type that this search parameter refers to</title>base</a> : <a xlink:href="datatypes.html#code">code</a> 1..1 « <a xlink:href="valueset-resource-types.html"><title>One of the resource types defined as part of FHIR</title>ResourceType</a> »</text><text x="6.0" y="154.0" fill="black" class="diagram-class-detail"><a xlink:href="searchparameter-definitions.html#SearchParameter.type"><title>The type of value a search parameter refers to, and how the content is interpreted</title>type</a> : <a xlink:href="datatypes.html#code">code</a> 1..1 « <a xlink:href="valueset-search-param-type.html"><title>Data types allowed to be used for search parameters</title>SearchParamType</a> »</text><text x="6.0" y="168.0" fill="black" class="diagram-class-detail"><a xlink:href="searchparameter-definitions.html#SearchParameter.description"><title>A description of the search parameters and how it used</title>description</a> : <a xlink:href="datatypes.html#string">string</a> 1..1</text><text x="6.0" y="182.0" fill="black" class="diagram-class-detail"><a xlink:href="searchparameter-definitions.html#SearchParameter.xpath"><title>An XPath expression that returns a set of elements for the search parameter</title>xpath</a> : <a xlink:href="datatypes.html#string">string</a> 0..1</text><text x="6.0" y="196.0" fill="black" class="diagram-class-detail"><a xlink:href="searchparameter-definitions.html#SearchParameter.target"><title>Types of resource (if a resource is referenced)</title>target</a> : <a xlink:href="datatypes.html#code">code</a> 0..* « <a xlink:href="valueset-resource-types.html"><title>One of the resource types defined as part of FHIR</title>ResourceType</a> »</text><rect x="240.0" y="0.0" rx="4" ry="4" width="116.0" height="64.0" filter="url(#shadow1)" style="fill:#f0f8ff;stroke:black;stroke-width:1"/><line x1="240.0" y1="28.0" x2="356.0" y2="28.0" style="stroke:dimgrey;stroke-width:1"/><text x="298.0" y="20.0" fill="black" class="diagram-class-title">Contact</text><text x="246.0" y="42.0" fill="black" class="diagram-class-detail"><a xlink:href="searchparameter-definitions.html#SearchParameter.contact.name"><title>The name of an individual to contact regarding the search parameter</title>name</a> : <a xlink:href="datatypes.html#string">string</a> 0..1</text><text x="246.0" y="56.0" fill="black" class="diagram-class-detail"><a xlink:href="searchparameter-definitions.html#SearchParameter.contact.telecom"><title>Contact details for individual (if a name was provided) or the publisher</title>telecom</a> : <a xlink:href="datatypes.html#ContactPoint">ContactPoint</a> 0..*</text><line x1="200.0" y1="66.64646464646465" x2="240.0" y2="52.50505050505052" style="stroke:navy;stroke-width:1"/><polygon points="200.0,66.64646464646465 206.0,70.64646464646465 212.0,66.64646464646465 206.0,62.64646464646465 200.0,66.64646464646465" style="fill:navy;stroke:navy;stroke-width:1" transform="rotate(-19.47030200946694 200.0 66.64646464646465)"/><rect x="206.0" y="52.0" width="28.0" height="18.0" style="fill:white;stroke:black;stroke-width:0"/><text x="220.0" y="62.0" fill="black" class="diagram-class-linkage"><a xlink:href="searchparameter-definitions.html#SearchParameter.contact"><title>Contacts to assist a user in finding and communicating with the publisher</title>contact</a></text><text x="220.0" y="48.50505050505052" fill="black" class="diagram-class-linkage">0..*</text></svg>