<?xml version="1.0" encoding="UTF-8"?><svg xmlns="http://www.w3.org/2000/svg" xmlns:xlink="http://www.w3.org/1999/xlink" version="1.1" width="948.0" height="340.0">  <defs>
    <filter id="shadow1" x="0" y="0" width="200%" height="200%">
      <feOffset result="offOut" in="SourceGraphic" dx="3" dy="3" />
      <feColorMatrix result="matrixOut" in="offOut" type="matrix" values="0.2 0 0 0 0 0 0.2 0 0 0 0 0 0.2 0 0 0 0 0 1 0" />
      <feGaussianBlur result="blurOut" in="matrixOut" stdDeviation="2" />
      <feBlend in="SourceGraphic" in2="blurOut" mode="normal" />
    </filter>
  </defs><rect x="236.0" y="0.0" rx="4" ry="4" width="256.0" height="330.0" filter="url(#shadow1)" style="fill:#f0f8ff;stroke:black;stroke-width:1"/><line x1="236.0" y1="28.0" x2="492.0" y2="28.0" style="stroke:dimgrey;stroke-width:1"/><text x="364.0" y="20.0" fill="black" class="diagram-class-title  diagram-class-resource">StructureDefinition<tspan class="diagram-class-title-link"> (<a xlink:href="domainresource.html" class="diagram-class-reference">DomainResource</a>)</tspan></text><text x="242.0" y="42.0" fill="black" class="diagram-class-detail"><a xlink:href="structuredefinition-definitions.html#StructureDefinition.url"><title>An absolute URL at which this StructureDefinition is (or will be) published, and which is used to reference this StructureDefinition in extension urls and meta.profile in operational FHIR systems</title>url</a> : <a xlink:href="datatypes.html#uri">uri</a> 1..1</text><text x="242.0" y="56.0" fill="black" class="diagram-class-detail"><a xlink:href="structuredefinition-definitions.html#StructureDefinition.identifier"><title>Formal identifier that is used to identify this StructureDefinition when it is represented in other formats, or referenced in a specification, model, design or an instance  (should be globally unique OID, UUID, or URI), (if it&#39;s not possible to use the literal URI)</title>identifier</a> : <a xlink:href="datatypes.html#Identifier">Identifier</a> 0..*</text><text x="242.0" y="70.0" fill="black" class="diagram-class-detail"><a xlink:href="structuredefinition-definitions.html#StructureDefinition.version"><title>The identifier that is used to identify this version of the StructureDefinition when it is referenced in a specification, model, design or instance. This is an arbitrary value managed by the StructureDefinition author manually</title>version</a> : <a xlink:href="datatypes.html#string">string</a> 0..1</text><text x="242.0" y="84.0" fill="black" class="diagram-class-detail"><a xlink:href="structuredefinition-definitions.html#StructureDefinition.name"><title>A free text natural language name identifying the StructureDefinition</title>name</a> : <a xlink:href="datatypes.html#string">string</a> 1..1</text><text x="242.0" y="98.0" fill="black" class="diagram-class-detail"><a xlink:href="structuredefinition-definitions.html#StructureDefinition.useContext"><title>The content was developed with a focus and intent of supporting the contexts that are listed. These terms may be used to assist with indexing and searching of structure definitions</title>useContext</a> : <a xlink:href="datatypes.html#CodeableConcept">CodeableConcept</a> 0..* « <a xlink:href="valueset-use-context.html"><title>Indicates the countries, regions, disciplines and other aspects of use this artifact is targeted for use within</title>Context of Use ValueSet</a>+ »</text><text x="242.0" y="112.0" fill="black" class="diagram-class-detail"><a xlink:href="structuredefinition-definitions.html#StructureDefinition.display"><title>Defined so that applications can use this name when displaying the value of the extension to the user</title>display</a> : <a xlink:href="datatypes.html#string">string</a> 0..1</text><text x="242.0" y="126.0" fill="black" class="diagram-class-detail"><a xlink:href="structuredefinition-definitions.html#StructureDefinition.publisher"><title>The name of the individual or organization that published the structure definition</title>publisher</a> : <a xlink:href="datatypes.html#string">string</a> 0..1</text><text x="242.0" y="140.0" fill="black" class="diagram-class-detail"><a xlink:href="structuredefinition-definitions.html#StructureDefinition.description"><title>A free text natural language description of the StructureDefinition and its use</title>description</a> : <a xlink:href="datatypes.html#string">string</a> 0..1</text><text x="242.0" y="154.0" fill="black" class="diagram-class-detail"><a xlink:href="structuredefinition-definitions.html#StructureDefinition.requirements"><title>Explains why this structure definition is needed and why it&#39;s been constrained as it has</title>requirements</a> : <a xlink:href="datatypes.html#string">string</a> 0..1</text><text x="242.0" y="168.0" fill="black" class="diagram-class-detail"><a xlink:href="structuredefinition-definitions.html#StructureDefinition.copyright"><title>A copyright statement relating to the structure definition and/or its contents. Copyright statements are generally legal restrictions on the use and publishing of the details of the constraints and mappings</title>copyright</a> : <a xlink:href="datatypes.html#string">string</a> 0..1</text><text x="242.0" y="182.0" fill="black" class="diagram-class-detail"><a xlink:href="structuredefinition-definitions.html#StructureDefinition.code"><title>A set of terms from external terminologies that may be used to assist with indexing and searching of templates</title>code</a> : <a xlink:href="datatypes.html#Coding">Coding</a> 0..* « (<a xlink:href="valueset-profile-code.html"><title>Codes for the meaning of the defined structure (SNOMED CT and LOINC codes, as an example)</title>Structure Definition Codes</a>) »</text><text x="242.0" y="196.0" fill="black" class="diagram-class-detail"><a xlink:href="structuredefinition-definitions.html#StructureDefinition.status"><title>The status of the StructureDefinition (this element modifies the meaning of other elements)</title>status</a> : <a xlink:href="datatypes.html#code">code</a> 1..1 « <a xlink:href="valueset-conformance-resource-status.html"><title>The lifecycle status of a Value Set or Concept Map</title>ConformanceResourceStatus</a> »</text><text x="242.0" y="210.0" fill="black" class="diagram-class-detail"><a xlink:href="structuredefinition-definitions.html#StructureDefinition.experimental"><title>This StructureDefinition was authored for testing purposes (or education/evaluation/marketing), and is not intended to be used for genuine usage</title>experimental</a> : <a xlink:href="datatypes.html#boolean">boolean</a> 0..1</text><text x="242.0" y="224.0" fill="black" class="diagram-class-detail"><a xlink:href="structuredefinition-definitions.html#StructureDefinition.date"><title>The date that this version of the StructureDefinition was published</title>date</a> : <a xlink:href="datatypes.html#dateTime">dateTime</a> 0..1</text><text x="242.0" y="238.0" fill="black" class="diagram-class-detail"><a xlink:href="structuredefinition-definitions.html#StructureDefinition.fhirVersion"><title>The version of the FHIR specification on which this StructureDefinition is based - this is the formal version of the specification, without the revision number, e.g. [publication].[major].[minor], which is 0.5.0 for this version</title>fhirVersion</a> : <a xlink:href="datatypes.html#id">id</a> 0..1</text><text x="242.0" y="252.0" fill="black" class="diagram-class-detail"><a xlink:href="structuredefinition-definitions.html#StructureDefinition.kind"><title>Defines the kind of structure that this definition is describing</title>kind</a> : <a xlink:href="datatypes.html#code">code</a> 1..1 « <a xlink:href="valueset-structure-definition-kind.html"><title>Defines the type of structure that a definition is describing</title>StructureDefinitionKind</a> »</text><text x="242.0" y="266.0" fill="black" class="diagram-class-detail"><a xlink:href="structuredefinition-definitions.html#StructureDefinition.constrainedType"><title>The type of type that is being constrained - a data type, a resource, including abstract ones. If this field is present, it indicates that the structure definition is a constraint. If it is not present, then the structure definition is the definition of a base structure</title>constrainedType</a> : <a xlink:href="datatypes.html#code">code</a> 0..1 « <a xlink:href="valueset-defined-types.html"><title>Either a resource or a data type</title>FHIRDefinedType</a> »</text><text x="242.0" y="280.0" fill="black" class="diagram-class-detail"><a xlink:href="structuredefinition-definitions.html#StructureDefinition.abstract"><title>Whether structure this definition describes is abstract or not  - that is, whether an actual exchanged item can ever be of this type</title>abstract</a> : <a xlink:href="datatypes.html#boolean">boolean</a> 1..1</text><text x="242.0" y="294.0" fill="black" class="diagram-class-detail"><a xlink:href="structuredefinition-definitions.html#StructureDefinition.contextType"><title>If this is an extension, Identifies the context within FHIR resources where the extension can be used</title>contextType</a> : <a xlink:href="datatypes.html#code">code</a> 0..1 « <a xlink:href="valueset-extension-context.html"><title>How an extension context is interpreted</title>ExtensionContext</a> »</text><text x="242.0" y="308.0" fill="black" class="diagram-class-detail"><a xlink:href="structuredefinition-definitions.html#StructureDefinition.context"><title>Identifies the types of resource or data type elements to which the extension can be applied</title>context</a> : <a xlink:href="datatypes.html#string">string</a> 0..*</text><text x="242.0" y="322.0" fill="black" class="diagram-class-detail"><a xlink:href="structuredefinition-definitions.html#StructureDefinition.base"><title>An absolute URI that is the base structure from which this set of constraints is derived</title>base</a> : <a xlink:href="datatypes.html#uri">uri</a> 0..1</text><rect x="0.0" y="133.0" rx="4" ry="4" width="116.0" height="64.0" filter="url(#shadow1)" style="fill:#f0f8ff;stroke:black;stroke-width:1"/><line x1="0.0" y1="161.0" x2="116.0" y2="161.0" style="stroke:dimgrey;stroke-width:1"/><text x="58.0" y="153.0" fill="black" class="diagram-class-title">Contact</text><text x="6.0" y="175.0" fill="black" class="diagram-class-detail"><a xlink:href="structuredefinition-definitions.html#StructureDefinition.contact.name"><title>The name of an individual to contact regarding the structure definition</title>name</a> : <a xlink:href="datatypes.html#string">string</a> 0..1</text><text x="6.0" y="189.0" fill="black" class="diagram-class-detail"><a xlink:href="structuredefinition-definitions.html#StructureDefinition.contact.telecom"><title>Contact details for individual (if a name was provided) or the publisher</title>telecom</a> : <a xlink:href="datatypes.html#ContactPoint">ContactPoint</a> 0..*</text><rect x="20.0" y="199.0" rx="4" ry="4" width="96.0" height="92.0" filter="url(#shadow1)" style="fill:#f0f8ff;stroke:black;stroke-width:1"/><line x1="20.0" y1="227.0" x2="116.0" y2="227.0" style="stroke:dimgrey;stroke-width:1"/><text x="68.0" y="219.0" fill="black" class="diagram-class-title">Mapping</text><text x="26.0" y="241.0" fill="black" class="diagram-class-detail"><a xlink:href="structuredefinition-definitions.html#StructureDefinition.mapping.identity"><title>An Internal id that is used to identify this mapping set when specific mappings are made</title>identity</a> : <a xlink:href="datatypes.html#id">id</a> 1..1</text><text x="26.0" y="255.0" fill="black" class="diagram-class-detail"><a xlink:href="structuredefinition-definitions.html#StructureDefinition.mapping.uri"><title>An absolute URI that identifies the specification that this mapping is expressed to</title>uri</a> : <a xlink:href="datatypes.html#uri">uri</a> 0..1</text><text x="26.0" y="269.0" fill="black" class="diagram-class-detail"><a xlink:href="structuredefinition-definitions.html#StructureDefinition.mapping.name"><title>A name for the specification that is being mapped to</title>name</a> : <a xlink:href="datatypes.html#string">string</a> 0..1</text><text x="26.0" y="283.0" fill="black" class="diagram-class-detail"><a xlink:href="structuredefinition-definitions.html#StructureDefinition.mapping.comments"><title>Comments about this mapping, including version notes, issues, scope limitations, and other important notes for usage</title>comments</a> : <a xlink:href="datatypes.html#string">string</a> 0..1</text><rect x="612.0" y="140.0" rx="4" ry="4" width="136.0" height="50.0" filter="url(#shadow1)" style="fill:#f0f8ff;stroke:black;stroke-width:1"/><line x1="612.0" y1="168.0" x2="748.0" y2="168.0" style="stroke:dimgrey;stroke-width:1"/><text x="680.0" y="160.0" fill="black" class="diagram-class-title">Snapshot</text><text x="618.0" y="182.0" fill="black" class="diagram-class-detail"><a xlink:href="structuredefinition-definitions.html#StructureDefinition.snapshot.element"><title>Captures constraints on each element within the resource</title>element</a> : <a xlink:href="elementdefinition.html#ElementDefinition">ElementDefinition</a> 1..*</text><rect x="612.0" y="220.0" rx="4" ry="4" width="136.0" height="50.0" filter="url(#shadow1)" style="fill:#f0f8ff;stroke:black;stroke-width:1"/><line x1="612.0" y1="248.0" x2="748.0" y2="248.0" style="stroke:dimgrey;stroke-width:1"/><text x="680.0" y="240.0" fill="black" class="diagram-class-title">Differential</text><text x="618.0" y="262.0" fill="black" class="diagram-class-detail"><a xlink:href="structuredefinition-definitions.html#StructureDefinition.differential.element"><title>Captures constraints on each element within the resource</title>element</a> : <a xlink:href="elementdefinition.html#ElementDefinition">ElementDefinition</a> 1..*</text><line x1="236.0" y1="165.0" x2="116.0" y2="165.0" style="stroke:navy;stroke-width:1"/><polygon points="236.0,165.0 242.0,169.0 248.0,165.0 242.0,161.0 236.0,165.0" style="fill:navy;stroke:navy;stroke-width:1" transform="rotate(180.0 236.0 165.0)"/><rect x="162.0" y="158.0" width="28.0" height="18.0" style="fill:white;stroke:black;stroke-width:0"/><text x="176.0" y="168.0" fill="black" class="diagram-class-linkage"><a xlink:href="structuredefinition-definitions.html#StructureDefinition.contact"><title>Contacts to assist a user in finding and communicating with the publisher</title>contact</a></text><text x="131.0" y="161.0" fill="black" class="diagram-class-linkage">0..*</text><line x1="236.0" y1="199.59459459459458" x2="116.0" y2="232.02702702702703" style="stroke:navy;stroke-width:1"/><polygon points="236.0,199.59459459459458 242.0,203.59459459459458 248.0,199.59459459459458 242.0,195.59459459459458 236.0,199.59459459459458" style="fill:navy;stroke:navy;stroke-width:1" transform="rotate(164.87599269168945 236.0 199.59459459459458)"/><rect x="162.0" y="208.0" width="28.0" height="18.0" style="fill:white;stroke:black;stroke-width:0"/><text x="176.0" y="218.0" fill="black" class="diagram-class-linkage"><a xlink:href="structuredefinition-definitions.html#StructureDefinition.mapping"><title>An external specification that the content is mapped to</title>mapping</a></text><text x="131.0" y="228.02702702702703" fill="black" class="diagram-class-linkage">0..*</text><line x1="492.0" y1="165.0" x2="612.0" y2="165.0" style="stroke:navy;stroke-width:1"/><polygon points="492.0,165.0 498.0,169.0 504.0,165.0 498.0,161.0 492.0,165.0" style="fill:navy;stroke:navy;stroke-width:1" transform="rotate(0.0 492.0 165.0)"/><rect x="536.0" y="158.0" width="32.0" height="18.0" style="fill:white;stroke:black;stroke-width:0"/><text x="552.0" y="168.0" fill="black" class="diagram-class-linkage"><a xlink:href="structuredefinition-definitions.html#StructureDefinition.snapshot"><title>A snapshot view is expressed in a stand alone form that can be used and interpreted without considering the base StructureDefinition</title>snapshot</a></text><text x="592.0" y="161.0" fill="black" class="diagram-class-linkage">0..1</text><line x1="492.0" y1="197.40506329113924" x2="612.0" y2="227.78481012658227" style="stroke:navy;stroke-width:1"/><polygon points="492.0,197.40506329113924 498.0,201.40506329113924 504.0,197.40506329113924 498.0,193.40506329113924 492.0,197.40506329113924" style="fill:navy;stroke:navy;stroke-width:1" transform="rotate(14.206766117760361 492.0 197.40506329113924)"/><rect x="528.0" y="205.0" width="48.0" height="18.0" style="fill:white;stroke:black;stroke-width:0"/><text x="552.0" y="215.0" fill="black" class="diagram-class-linkage"><a xlink:href="structuredefinition-definitions.html#StructureDefinition.differential"><title>A differential view is expressed relative to the base StructureDefinition - a statement of differences that it applies</title>differential</a></text><text x="592.0" y="223.78481012658227" fill="black" class="diagram-class-linkage">0..1</text></svg>