<?xml version="1.0" encoding="UTF-8"?><svg xmlns="http://www.w3.org/2000/svg" xmlns:xlink="http://www.w3.org/1999/xlink" version="1.1" width="796.0" height="196.0">  <defs>
    <filter id="shadow1" x="0" y="0" width="200%" height="200%">
      <feOffset result="offOut" in="SourceGraphic" dx="3" dy="3" />
      <feColorMatrix result="matrixOut" in="offOut" type="matrix" values="0.2 0 0 0 0 0 0.2 0 0 0 0 0 0.2 0 0 0 0 0 1 0" />
      <feGaussianBlur result="blurOut" in="matrixOut" stdDeviation="2" />
      <feBlend in="SourceGraphic" in2="blurOut" mode="normal" />
    </filter>
  </defs><rect x="0.0" y="35.0" rx="4" ry="4" width="236.0" height="106.0" filter="url(#shadow1)" style="fill:#f0f8ff;stroke:black;stroke-width:1"/><line x1="0.0" y1="63.0" x2="236.0" y2="63.0" style="stroke:dimgrey;stroke-width:1"/><text x="118.0" y="55.0" fill="black" class="diagram-class-title  diagram-class-resource">Supply<tspan class="diagram-class-title-link"> (<a xlink:href="domainresource.html" class="diagram-class-reference">DomainResource</a>)</tspan></text><text x="6.0" y="77.0" fill="black" class="diagram-class-detail"><a xlink:href="supply-definitions.html#Supply.kind"><title>Category of supply, e.g.  central, non-stock, etc. This is used to support work flows associated with the supply process</title>kind</a> : <a xlink:href="datatypes.html#CodeableConcept">CodeableConcept</a> 0..1 « <a xlink:href="valueset-supply-kind.html"><title>Category of supply</title>Supply Type</a> »</text><text x="6.0" y="91.0" fill="black" class="diagram-class-detail"><a xlink:href="supply-definitions.html#Supply.identifier"><title>Unique identifier for this supply request</title>identifier</a> : <a xlink:href="datatypes.html#Identifier">Identifier</a> 0..1</text><text x="6.0" y="105.0" fill="black" class="diagram-class-detail"><a xlink:href="supply-definitions.html#Supply.status"><title>Status of the supply request (this element modifies the meaning of other elements)</title>status</a> : <a xlink:href="datatypes.html#code">code</a> 0..1 « <a xlink:href="valueset-supply-status.html"><title>Status of the supply</title>SupplyStatus</a> »</text><text x="6.0" y="119.0" fill="black" class="diagram-class-detail"><a xlink:href="supply-definitions.html#Supply.orderedItem"><title>The item that is requested to be supplied</title>orderedItem</a> : <a xlink:href="references.html#Reference">Reference</a>(<a xlink:href="medication.html#Medication">Medication</a>|<a xlink:href="substance.html#Substance">Substance</a>|<a xlink:href="device.html#Device">Device</a>) 0..1</text><text x="6.0" y="133.0" fill="black" class="diagram-class-detail"><a xlink:href="supply-definitions.html#Supply.patient"><title>A link to a resource representing the person whom the ordered item is for</title>patient</a> : <a xlink:href="references.html#Reference">Reference</a>(<a xlink:href="patient.html#Patient">Patient</a>) 0..1</text><rect x="356.0" y="0.0" rx="4" ry="4" width="240.0" height="176.0" filter="url(#shadow1)" style="fill:#f0f8ff;stroke:black;stroke-width:1"/><line x1="356.0" y1="28.0" x2="596.0" y2="28.0" style="stroke:dimgrey;stroke-width:1"/><text x="476.0" y="20.0" fill="black" class="diagram-class-title">Dispense</text><text x="362.0" y="42.0" fill="black" class="diagram-class-detail"><a xlink:href="supply-definitions.html#Supply.dispense.identifier"><title>Identifier assigned by the dispensing facility when the item(s) is dispensed</title>identifier</a> : <a xlink:href="datatypes.html#Identifier">Identifier</a> 0..1</text><text x="362.0" y="56.0" fill="black" class="diagram-class-detail"><a xlink:href="supply-definitions.html#Supply.dispense.status"><title>A code specifying the state of the dispense event (this element modifies the meaning of other elements)</title>status</a> : <a xlink:href="datatypes.html#code">code</a> 0..1 « <a xlink:href="valueset-supply-dispense-status.html"><title>Status of the dispense</title>SupplyDispenseStatus</a> »</text><text x="362.0" y="70.0" fill="black" class="diagram-class-detail"><a xlink:href="supply-definitions.html#Supply.dispense.type"><title>Indicates the type of dispensing event that is performed. Examples include: Trial Fill, Completion of Trial, Partial Fill, Emergency Fill, Samples, etc</title>type</a> : <a xlink:href="datatypes.html#CodeableConcept">CodeableConcept</a> 0..1 « <a xlink:href="valueset-supply-item.html"><title>The actual item being supplied</title>Supply Item Type</a> »</text><text x="362.0" y="84.0" fill="black" class="diagram-class-detail"><a xlink:href="supply-definitions.html#Supply.dispense.quantity"><title>The amount of supply that has been dispensed. Includes unit of measure</title>quantity</a> : <a xlink:href="datatypes.html#Quantity">Quantity</a> 0..1</text><text x="362.0" y="98.0" fill="black" class="diagram-class-detail"><a xlink:href="supply-definitions.html#Supply.dispense.suppliedItem"><title>Identifies the medication or substance or device being dispensed. This is either a link to a resource representing the details of the item or a simple attribute carrying a code that identifies the item from a known list</title>suppliedItem</a> : <a xlink:href="references.html#Reference">Reference</a>(<a xlink:href="medication.html#Medication">Medication</a>|<a xlink:href="substance.html#Substance">Substance</a>|<a xlink:href="device.html#Device">Device</a>) 0..1</text><text x="362.0" y="112.0" fill="black" class="diagram-class-detail"><a xlink:href="supply-definitions.html#Supply.dispense.supplier"><title>The individual responsible for dispensing the medication, supplier or device</title>supplier</a> : <a xlink:href="references.html#Reference">Reference</a>(<a xlink:href="practitioner.html#Practitioner">Practitioner</a>) 0..1</text><text x="362.0" y="126.0" fill="black" class="diagram-class-detail"><a xlink:href="supply-definitions.html#Supply.dispense.whenPrepared"><title>The time the dispense event occurred</title>whenPrepared</a> : <a xlink:href="datatypes.html#Period">Period</a> 0..1</text><text x="362.0" y="140.0" fill="black" class="diagram-class-detail"><a xlink:href="supply-definitions.html#Supply.dispense.whenHandedOver"><title>The time the dispensed item was sent or handed to the patient (or agent)</title>whenHandedOver</a> : <a xlink:href="datatypes.html#dateTime">dateTime</a> 0..1</text><text x="362.0" y="154.0" fill="black" class="diagram-class-detail"><a xlink:href="supply-definitions.html#Supply.dispense.destination"><title>Identification of the facility/location where the Supply was shipped to, as part of the dispense event</title>destination</a> : <a xlink:href="references.html#Reference">Reference</a>(<a xlink:href="location.html#Location">Location</a>) 0..1</text><text x="362.0" y="168.0" fill="black" class="diagram-class-detail"><a xlink:href="supply-definitions.html#Supply.dispense.receiver"><title>Identifies the person who picked up the Supply</title>receiver</a> : <a xlink:href="references.html#Reference">Reference</a>(<a xlink:href="practitioner.html#Practitioner">Practitioner</a>) 0..*</text><line x1="236.0" y1="88.0" x2="356.0" y2="88.0" style="stroke:navy;stroke-width:1"/><polygon points="236.0,88.0 242.0,92.0 248.0,88.0 242.0,84.0 236.0,88.0" style="fill:navy;stroke:navy;stroke-width:1" transform="rotate(0.0 236.0 88.0)"/><rect x="280.0" y="81.0" width="32.0" height="18.0" style="fill:white;stroke:black;stroke-width:0"/><text x="296.0" y="91.0" fill="black" class="diagram-class-linkage"><a xlink:href="supply-definitions.html#Supply.dispense"><title>Indicates the details of the dispense event such as the days supply and quantity of a supply dispensed</title>dispense</a></text><text x="336.0" y="84.0" fill="black" class="diagram-class-linkage">0..*</text></svg>