{
  "resourceType": "TestScript",
  "id": "multiserver",
  "text": {
    "status": "generated",
    "div": "<div><p><b>Generated Narrative with Details</b></p><p><b>id</b>: multiserver</p><p><b>name</b>: Multiserver Test Script</p><p><b>description</b>: Multiserver Test Script</p><h3>Fixtures</h3><table><tr><td>-</td><td><b>Resource</b></td></tr><tr><td>*</td><td><a>Patient/patient-example.xml</a></td></tr></table><blockquote><p><b>setup</b></p><blockquote><p><b>action</b></p><h3>Operations</h3><table><tr><td>-</td><td><b>Type</b></td><td><b>ContentType</b></td><td><b>Destination</b></td><td><b>SourceId</b></td></tr><tr><td>*</td><td>create</td><td>xml</td><td>0</td><td>F1</td></tr></table></blockquote></blockquote><blockquote><p><b>test</b></p><p><b>name</b>: Read Patient</p><p><b>description</b>: Read the patient from server 0.</p><blockquote><p><b>metadata</b></p><h3>Links</h3><table><tr><td>-</td><td><b>Url</b></td><td><b>Description</b></td></tr><tr><td>*</td><td><a>http://hl7.org/implement/standards/FHIR-Develop/patient.html</a></td><td>FHIR Patient</td></tr></table><blockquote><p><b>operation</b></p><p><b>type</b>: create</p><p><b>resource</b>: Patient</p><p><b>description</b>: Patient Create Operation</p><p><b>link</b>: <a>http://hl7.org/implement/standards/FHIR-Develop/http.html#create</a></p><p><b>required</b>: true</p></blockquote><blockquote><p><b>operation</b></p><p><b>type</b>: read</p><p><b>resource</b>: Patient</p><p><b>description</b>: Patient Read Operation</p><p><b>link</b>: <a>http://hl7.org/implement/standards/FHIR-Develop/http.html#read</a></p><p><b>validated</b>: true</p></blockquote></blockquote><blockquote><p><b>action</b></p><h3>Operations</h3><table><tr><td>-</td></tr><tr><td>*</td></tr></table></blockquote><blockquote><p><b>action</b></p><h3>Asserts</h3><table><tr><td>-</td></tr><tr><td>*</td></tr></table></blockquote><blockquote><p><b>action</b></p><h3>Asserts</h3><table><tr><td>-</td></tr><tr><td>*</td></tr></table></blockquote><blockquote><p><b>action</b></p><h3>Asserts</h3><table><tr><td>-</td></tr><tr><td>*</td></tr></table></blockquote><blockquote><p><b>action</b></p><h3>Asserts</h3><table><tr><td>-</td></tr><tr><td>*</td></tr></table></blockquote></blockquote><blockquote><p><b>test</b></p><p><b>name</b>: Write Patient</p><p><b>description</b>: Write the patient read from server 0 to server 1.</p><blockquote><p><b>metadata</b></p><h3>Links</h3><table><tr><td>-</td><td><b>Url</b></td><td><b>Description</b></td></tr><tr><td>*</td><td><a>http://hl7.org/implement/standards/FHIR-Develop/patient.html</a></td><td>FHIR Patient</td></tr></table><blockquote><p><b>operation</b></p><p><b>type</b>: create</p><p><b>resource</b>: Patient</p><p><b>description</b>: Patient Create Operation</p><p><b>link</b>: <a>http://hl7.org/implement/standards/FHIR-Develop/http.html#create</a></p><p><b>required</b>: true</p></blockquote><blockquote><p><b>operation</b></p><p><b>type</b>: read</p><p><b>resource</b>: Patient</p><p><b>description</b>: Patient Read Operation</p><p><b>link</b>: <a>http://hl7.org/implement/standards/FHIR-Develop/http.html#read</a></p><p><b>validated</b>: true</p></blockquote></blockquote><blockquote><p><b>action</b></p><h3>Operations</h3><table><tr><td>-</td></tr><tr><td>*</td></tr></table></blockquote><blockquote><p><b>action</b></p><h3>Asserts</h3><table><tr><td>-</td></tr><tr><td>*</td></tr></table></blockquote><blockquote><p><b>action</b></p><h3>Operations</h3><table><tr><td>-</td></tr><tr><td>*</td></tr></table></blockquote><blockquote><p><b>action</b></p><h3>Asserts</h3><table><tr><td>-</td></tr><tr><td>*</td></tr></table></blockquote><blockquote><p><b>action</b></p><h3>Asserts</h3><table><tr><td>-</td></tr><tr><td>*</td></tr></table></blockquote><blockquote><p><b>action</b></p><h3>Asserts</h3><table><tr><td>-</td></tr><tr><td>*</td></tr></table></blockquote><blockquote><p><b>action</b></p><h3>Asserts</h3><table><tr><td>-</td></tr><tr><td>*</td></tr></table></blockquote><blockquote><p><b>action</b></p><h3>Asserts</h3><table><tr><td>-</td></tr><tr><td>*</td></tr></table></blockquote></blockquote><blockquote><p><b>test</b></p><p><b>name</b>: Update Patient</p><p><b>description</b>: Update the patient on server 0 with the one read from server 1.</p><blockquote><p><b>metadata</b></p><h3>Links</h3><table><tr><td>-</td><td><b>Url</b></td><td><b>Description</b></td></tr><tr><td>*</td><td><a>http://hl7.org/implement/standards/FHIR-Develop/patient.html</a></td><td>FHIR Patient</td></tr></table><blockquote><p><b>operation</b></p><p><b>type</b>: create</p><p><b>resource</b>: Patient</p><p><b>description</b>: Patient Create Operation</p><p><b>link</b>: <a>http://hl7.org/implement/standards/FHIR-Develop/http.html#create</a></p><p><b>required</b>: true</p></blockquote><blockquote><p><b>operation</b></p><p><b>type</b>: read</p><p><b>resource</b>: Patient</p><p><b>description</b>: Patient Read Operation</p><p><b>link</b>: <a>http://hl7.org/implement/standards/FHIR-Develop/http.html#read</a></p><p><b>validated</b>: true</p></blockquote></blockquote><blockquote><p><b>action</b></p><h3>Operations</h3><table><tr><td>-</td></tr><tr><td>*</td></tr></table></blockquote><blockquote><p><b>action</b></p><h3>Asserts</h3><table><tr><td>-</td></tr><tr><td>*</td></tr></table></blockquote><blockquote><p><b>action</b></p><h3>Operations</h3><table><tr><td>-</td></tr><tr><td>*</td></tr></table></blockquote><blockquote><p><b>action</b></p><h3>Asserts</h3><table><tr><td>-</td></tr><tr><td>*</td></tr></table></blockquote><blockquote><p><b>action</b></p><h3>Asserts</h3><table><tr><td>-</td></tr><tr><td>*</td></tr></table></blockquote><blockquote><p><b>action</b></p><h3>Asserts</h3><table><tr><td>-</td></tr><tr><td>*</td></tr></table></blockquote><blockquote><p><b>action</b></p><h3>Asserts</h3><table><tr><td>-</td></tr><tr><td>*</td></tr></table></blockquote><blockquote><p><b>action</b></p><h3>Asserts</h3><table><tr><td>-</td></tr><tr><td>*</td></tr></table></blockquote><blockquote><p><b>action</b></p><h3>Asserts</h3><table><tr><td>-</td></tr><tr><td>*</td></tr></table></blockquote></blockquote><blockquote><p><b>teardown</b></p><blockquote><p><b>action</b></p><h3>Operations</h3><table><tr><td>-</td></tr><tr><td>*</td></tr></table></blockquote><blockquote><p><b>action</b></p><h3>Operations</h3><table><tr><td>-</td></tr><tr><td>*</td></tr></table></blockquote></blockquote></div>"
  },
  "name": "Multiserver Test Script",
  "description": "Multiserver Test Script",
  "multiserver": true,
  "fixture": [
    {
      "id": "F1",
      "resource": {
        "reference": "Patient/patient-example.xml"
      }
    }
  ],
  "setup": {
    "metadata": {
      "link": [
        {
          "url": "http://hl7.org/implement/standards/FHIR-Develop/patient.html",
          "description": "FHIR Patient"
        }
      ],
      "capabilities": [
        {
          "required": true,
          "description": "Patient Create Operation",
          "link": [
            "http://hl7.org/implement/standards/FHIR-Develop/http.html#create"
          ],
          "conformance": {
            "reference": "Conformance/PatientCreate.xml"
          }
        }
      ]
    },
    "action": [
      {
        "operation": {
          "type": "create",
          "contentType": "xml",
          "destination": 0,
          "sourceId": "F1"
        }
      }
    ]
  },
  "test": [
    {
      "id": "READ01",
      "name": "Read Patient",
      "description": "Read the patient from server 0.",
      "metadata": {
        "capabilities": [
          {
            "validated": true,
            "description": "Patient Read Operation",
            "link": [
              "http://hl7.org/implement/standards/FHIR-Develop/http.html#read"
            ],
            "conformance": {
              "reference": "Conformance/PatientRead.xml"
            }
          }
        ]
      },
      "action": [
        {
          "operation": {
            "type": "read",
            "destination": 0,
            "responseId": "R1",
            "targetId": "F1"
          }
        },
        {
          "assert": {
            "response": "okay"
          }
        },
        {
          "assert": {
            "headerField": "Content-Location",
            "operator": "notEmpty"
          }
        },
        {
          "assert": {
            "resource": "Patient"
          }
        },
        {
          "assert": {
            "minimumId": "F1"
          }
        }
      ]
    },
    {
      "id": "WRITE01",
      "name": "Write Patient",
      "description": "Write the patient read from server 0 to server 1.",
      "metadata": {
        "capabilities": [
          {
            "validated": true,
            "description": "Patient Create Operation",
            "link": [
              "http://hl7.org/implement/standards/FHIR-Develop/http.html#create"
            ],
            "conformance": {
              "reference": "Conformance/PatientCreate.xml"
            }
          },
          {
            "validated": true,
            "description": "Patient Read Operation",
            "link": [
              "http://hl7.org/implement/standards/FHIR-Develop/http.html#read"
            ],
            "conformance": {
              "reference": "Conformance/PatientRead.xml"
            }
          }
        ]
      },
      "action": [
        {
          "operation": {
            "type": "create",
            "destination": 1,
            "sourceId": "R1"
          }
        },
        {
          "assert": {
            "response": "okay"
          }
        },
        {
          "operation": {
            "type": "read",
            "destination": 1,
            "responseId": "R2",
            "targetId": "R1"
          }
        },
        {
          "assert": {
            "response": "okay"
          }
        },
        {
          "assert": {
            "headerField": "Content-Location",
            "operator": "notEmpty"
          }
        },
        {
          "assert": {
            "resource": "Patient"
          }
        },
        {
          "assert": {
            "minimumId": "F1"
          }
        },
        {
          "assert": {
            "minimumId": "R1"
          }
        }
      ]
    },
    {
      "id": "UPDATE01",
      "name": "Update Patient",
      "description": "Update the patient on server 0 with the one read from server 1.",
      "metadata": {
        "capabilities": [
          {
            "validated": true,
            "description": "Patient Update Operation",
            "link": [
              "http://hl7.org/implement/standards/FHIR-Develop/http.html#update"
            ],
            "conformance": {
              "reference": "Conformance/PatientUpdate.xml"
            }
          }
        ]
      },
      "action": [
        {
          "operation": {
            "type": "update",
            "destination": 0,
            "sourceId": "R2",
            "targetId": "R1"
          }
        },
        {
          "assert": {
            "response": "okay"
          }
        },
        {
          "operation": {
            "type": "read",
            "destination": 0,
            "responseId": "R3",
            "targetId": "R1"
          }
        },
        {
          "assert": {
            "response": "okay"
          }
        },
        {
          "assert": {
            "headerField": "Content-Location",
            "operator": "notEmpty"
          }
        },
        {
          "assert": {
            "resource": "Patient"
          }
        },
        {
          "assert": {
            "minimumId": "F1"
          }
        },
        {
          "assert": {
            "minimumId": "R1"
          }
        },
        {
          "assert": {
            "minimumId": "R2"
          }
        }
      ]
    }
  ],
  "teardown": {
    "action": [
      {
        "operation": {
          "type": "delete",
          "destination": 0,
          "targetId": "F1"
        }
      },
      {
        "operation": {
          "type": "delete",
          "destination": 1,
          "targetId": "F1"
        }
      }
    ]
  }
}