{
  "resourceType": "ValueSet",
  "id": "type-of-operation",
  "meta": {
    "lastUpdated": "2015-07-14T16:14:24.220+00:00",
    "profile": [
      "http://hl7.org/fhir/StructureDefinition/valueset-shareable-definition"
    ]
  },
  "text": {
    "status": "generated",
    "div": "<div><h2>TypeOfOperation</h2><p>A code that indicates the type of operation</p><p>This value set has an inline code system http://hl7.org/fhir/type-of-operation, which defines the following codes:</p><table class=\"codes\"><tr><td><b>Code</b></td><td><b>Display</b></td><td><b>Definition</b></td></tr><tr><td>right_hemicolectomy<a name=\"right_hemicolectomy\"> </a></td><td>Right hemicolectomy</td><td/></tr><tr><td>extended_right_hemicolectomy<a name=\"extended_right_hemicolectomy\"> </a></td><td>Extended right hemicolectomy</td><td/></tr><tr><td>transverse_colectomy<a name=\"transverse_colectomy\"> </a></td><td>Transverse colectomy</td><td/></tr><tr><td>left_hemicolectomy<a name=\"left_hemicolectomy\"> </a></td><td>Left hemicolectomy</td><td/></tr><tr><td>anterior_resection<a name=\"anterior_resection\"> </a></td><td>Anterior resection</td><td/></tr><tr><td>abdominoperineal_resection<a name=\"abdominoperineal_resection\"> </a></td><td>Abdominoperineal resection</td><td/></tr><tr><td>proctocolectomy<a name=\"proctocolectomy\"> </a></td><td>Proctocolectomy</td><td/></tr><tr><td>total_colectomy_with_ileorectal_anastomosis<a name=\"total_colectomy_with_ileorectal_anastomosis\"> </a></td><td>Total colectomy with ileorectal anastomosis</td><td/></tr><tr><td>hartmanns_procedure<a name=\"hartmanns_procedure\"> </a></td><td>Hartmann’s procedure</td><td/></tr><tr><td>other_procedure_s<a name=\"other_procedure_s\"> </a></td><td>Other procedure(s)</td><td/></tr></table></div>"
  },
  "extension": [
    {
      "url": "http://hl7.org/fhir/StructureDefinition/valueset-oid",
      "valueUri": "2.16.840.1.113883.4.642.2.0"
    }
  ],
  "url": "http://hl7.org/fhir/ValueSet/type-of-operation",
  "version": "0.5.0",
  "name": "TypeOfOperation",
  "publisher": "HL7 (FHIR Project)",
  "contact": [
    {
      "telecom": [
        {
          "system": "url",
          "value": "http://hl7.org/fhir"
        },
        {
          "system": "email",
          "value": "fhir@lists.hl7.org"
        }
      ]
    }
  ],
  "description": "A code that indicates the type of operation",
  "status": "draft",
  "experimental": false,
  "date": "2015-07-14T16:14:24+00:00",
  "define": {
    "system": "http://hl7.org/fhir/type-of-operation",
    "version": "0.5.0",
    "caseSensitive": true,
    "concept": [
      {
        "code": "right_hemicolectomy",
        "display": "Right hemicolectomy"
      },
      {
        "code": "extended_right_hemicolectomy",
        "display": "Extended right hemicolectomy"
      },
      {
        "code": "transverse_colectomy",
        "display": "Transverse colectomy"
      },
      {
        "code": "left_hemicolectomy",
        "display": "Left hemicolectomy"
      },
      {
        "code": "anterior_resection",
        "display": "Anterior resection"
      },
      {
        "code": "abdominoperineal_resection",
        "display": "Abdominoperineal resection"
      },
      {
        "code": "proctocolectomy",
        "display": "Proctocolectomy"
      },
      {
        "code": "total_colectomy_with_ileorectal_anastomosis",
        "display": "Total colectomy with ileorectal anastomosis"
      },
      {
        "code": "hartmanns_procedure",
        "display": "Hartmann’s procedure"
      },
      {
        "code": "other_procedure_s",
        "display": "Other procedure(s)"
      }
    ]
  }
}