{
  "resourceType": "ValueSet",
  "id": "observation-interpretation",
  "meta": {
    "lastUpdated": "2015-07-14T16:14:24.220+00:00",
    "profile": [
      "http://hl7.org/fhir/StructureDefinition/valueset-shareable-definition"
    ]
  },
  "text": {
    "status": "generated",
    "div": "<div><p>This value set contains 30 concepts</p><table class=\"codes\"><tr><td><b>Code</b></td><td><b>System</b></td><td><b>Display</b></td></tr><tr><td><a href=\"v2/0078/index.html.html#.60\">&lt;</a></td><td>http://hl7.org/fhir/v2/0078</td><td>Below absolute low-off instrument scale</td></tr><tr><td><a href=\"v2/0078/index.html.html#.62\">&gt;</a></td><td>http://hl7.org/fhir/v2/0078</td><td>Above absolute high-off instrument scale</td></tr><tr><td><a href=\"v2/0078/index.html.html#A\">A</a></td><td>http://hl7.org/fhir/v2/0078</td><td>Abnormal (applies to non-numeric results)</td></tr><tr><td><a href=\"v2/0078/index.html.html#AA\">AA</a></td><td>http://hl7.org/fhir/v2/0078</td><td>Very abnormal (applies to non-numeric units, analogous to panic limits for numeric units)</td></tr><tr><td><a href=\"v2/0078/index.html.html#AC\">AC</a></td><td>http://hl7.org/fhir/v2/0078</td><td>Anti-complementary substances present</td></tr><tr><td><a href=\"v2/0078/index.html.html#B\">B</a></td><td>http://hl7.org/fhir/v2/0078</td><td>Better-use when direction not relevant</td></tr><tr><td><a href=\"v2/0078/index.html.html#D\">D</a></td><td>http://hl7.org/fhir/v2/0078</td><td>Significant change down</td></tr><tr><td><a href=\"v2/0078/index.html.html#DET\">DET</a></td><td>http://hl7.org/fhir/v2/0078</td><td>Detected</td></tr><tr><td><a href=\"v2/0078/index.html.html#H\">H</a></td><td>http://hl7.org/fhir/v2/0078</td><td>Above high normal</td></tr><tr><td><a href=\"v2/0078/index.html.html#HH\">HH</a></td><td>http://hl7.org/fhir/v2/0078</td><td>Above upper panic limits</td></tr><tr><td><a href=\"v2/0078/index.html.html#I\">I</a></td><td>http://hl7.org/fhir/v2/0078</td><td>Intermediate. Indicates for microbiology susceptibilities only.</td></tr><tr><td><a href=\"v2/0078/index.html.html#IND\">IND</a></td><td>http://hl7.org/fhir/v2/0078</td><td>Indeterminate</td></tr><tr><td><a href=\"v2/0078/index.html.html#L\">L</a></td><td>http://hl7.org/fhir/v2/0078</td><td>Below low normal</td></tr><tr><td><a href=\"v2/0078/index.html.html#LL\">LL</a></td><td>http://hl7.org/fhir/v2/0078</td><td>Below lower panic limits</td></tr><tr><td><a href=\"v2/0078/index.html.html#MS\">MS</a></td><td>http://hl7.org/fhir/v2/0078</td><td>Moderately susceptible. Indicates for microbiology susceptibilities only.</td></tr><tr><td><a href=\"v2/0078/index.html.html#N\">N</a></td><td>http://hl7.org/fhir/v2/0078</td><td>Normal (applies to non-numeric results)</td></tr><tr><td><a href=\"v2/0078/index.html.html#ND\">ND</a></td><td>http://hl7.org/fhir/v2/0078</td><td>Not Detected</td></tr><tr><td><a href=\"v2/0078/index.html.html#NEG\">NEG</a></td><td>http://hl7.org/fhir/v2/0078</td><td>Negative</td></tr><tr><td><a href=\"v2/0078/index.html.html#NR\">NR</a></td><td>http://hl7.org/fhir/v2/0078</td><td>Non-reactive</td></tr><tr><td><a href=\"v2/0078/index.html.html#POS\">POS</a></td><td>http://hl7.org/fhir/v2/0078</td><td>Positive</td></tr><tr><td><a href=\"v2/0078/index.html.html#QCF\">QCF</a></td><td>http://hl7.org/fhir/v2/0078</td><td>Quality Control Failure</td></tr><tr><td><a href=\"v2/0078/index.html.html#R\">R</a></td><td>http://hl7.org/fhir/v2/0078</td><td>Resistant. Indicates for microbiology susceptibilities only.</td></tr><tr><td><a href=\"v2/0078/index.html.html#RR\">RR</a></td><td>http://hl7.org/fhir/v2/0078</td><td>Reactive</td></tr><tr><td><a href=\"v2/0078/index.html.html#S\">S</a></td><td>http://hl7.org/fhir/v2/0078</td><td>Susceptible. Indicates for microbiology susceptibilities only.</td></tr><tr><td><a href=\"v2/0078/index.html.html#TOX\">TOX</a></td><td>http://hl7.org/fhir/v2/0078</td><td>Cytotoxic substance present</td></tr><tr><td><a href=\"v2/0078/index.html.html#U\">U</a></td><td>http://hl7.org/fhir/v2/0078</td><td>Significant change up</td></tr><tr><td><a href=\"v2/0078/index.html.html#VS\">VS</a></td><td>http://hl7.org/fhir/v2/0078</td><td>Very susceptible. Indicates for microbiology susceptibilities only.</td></tr><tr><td><a href=\"v2/0078/index.html.html#W\">W</a></td><td>http://hl7.org/fhir/v2/0078</td><td>Worse-use when direction not relevant</td></tr><tr><td><a href=\"v2/0078/index.html.html#WR\">WR</a></td><td>http://hl7.org/fhir/v2/0078</td><td>Weakly reactive</td></tr><tr><td><a href=\"v2/0078/index.html.html#null\">null</a></td><td>http://hl7.org/fhir/v2/0078</td><td>No range defined, or normal ranges don't apply</td></tr></table></div>"
  },
  "extension": [
    {
      "url": "http://hl7.org/fhir/StructureDefinition/valueset-oid",
      "valueUri": "2.16.840.1.113883.4.642.2.117"
    }
  ],
  "url": "http://hl7.org/fhir/ValueSet/observation-interpretation",
  "version": "0.5.0",
  "name": "Observation Interpretation Codes",
  "publisher": "FHIR Project team",
  "contact": [
    {
      "telecom": [
        {
          "system": "url",
          "value": "http://hl7.org/fhir"
        }
      ]
    }
  ],
  "description": "Value Set Contents (Expansion) for Observation Interpretation Codes at Tue, Jul 14, 2015 16:16+0000",
  "status": "draft",
  "experimental": true,
  "date": "2015-07-14T16:14:24+00:00",
  "expansion": {
    "extension": [
      {
        "url": "http://hl7.org/fhir/StructureDefinition/valueset-expansionSource",
        "valueReference": {
          "reference": "ValueSet/valueset-observation-interpretation"
        }
      }
    ],
    "identifier": "urn:uuid:71c5a471-4ec2-40c1-8353-d6eba35e52ce",
    "timestamp": "2015-07-03T23:50:48Z",
    "contains": [
      {
        "system": "http://hl7.org/fhir/v2/0078",
        "code": "<",
        "display": "Below absolute low-off instrument scale"
      },
      {
        "system": "http://hl7.org/fhir/v2/0078",
        "code": ">",
        "display": "Above absolute high-off instrument scale"
      },
      {
        "system": "http://hl7.org/fhir/v2/0078",
        "code": "A",
        "display": "Abnormal (applies to non-numeric results)"
      },
      {
        "system": "http://hl7.org/fhir/v2/0078",
        "code": "AA",
        "display": "Very abnormal (applies to non-numeric units, analogous to panic limits for numeric units)"
      },
      {
        "system": "http://hl7.org/fhir/v2/0078",
        "code": "AC",
        "display": "Anti-complementary substances present"
      },
      {
        "system": "http://hl7.org/fhir/v2/0078",
        "code": "B",
        "display": "Better-use when direction not relevant"
      },
      {
        "system": "http://hl7.org/fhir/v2/0078",
        "code": "D",
        "display": "Significant change down"
      },
      {
        "system": "http://hl7.org/fhir/v2/0078",
        "code": "DET",
        "display": "Detected"
      },
      {
        "system": "http://hl7.org/fhir/v2/0078",
        "code": "H",
        "display": "Above high normal"
      },
      {
        "system": "http://hl7.org/fhir/v2/0078",
        "code": "HH",
        "display": "Above upper panic limits"
      },
      {
        "system": "http://hl7.org/fhir/v2/0078",
        "code": "I",
        "display": "Intermediate. Indicates for microbiology susceptibilities only."
      },
      {
        "system": "http://hl7.org/fhir/v2/0078",
        "code": "IND",
        "display": "Indeterminate"
      },
      {
        "system": "http://hl7.org/fhir/v2/0078",
        "code": "L",
        "display": "Below low normal"
      },
      {
        "system": "http://hl7.org/fhir/v2/0078",
        "code": "LL",
        "display": "Below lower panic limits"
      },
      {
        "system": "http://hl7.org/fhir/v2/0078",
        "code": "MS",
        "display": "Moderately susceptible. Indicates for microbiology susceptibilities only."
      },
      {
        "system": "http://hl7.org/fhir/v2/0078",
        "code": "N",
        "display": "Normal (applies to non-numeric results)"
      },
      {
        "system": "http://hl7.org/fhir/v2/0078",
        "code": "ND",
        "display": "Not Detected"
      },
      {
        "system": "http://hl7.org/fhir/v2/0078",
        "code": "NEG",
        "display": "Negative"
      },
      {
        "system": "http://hl7.org/fhir/v2/0078",
        "code": "NR",
        "display": "Non-reactive"
      },
      {
        "system": "http://hl7.org/fhir/v2/0078",
        "code": "POS",
        "display": "Positive"
      },
      {
        "system": "http://hl7.org/fhir/v2/0078",
        "code": "QCF",
        "display": "Quality Control Failure"
      },
      {
        "system": "http://hl7.org/fhir/v2/0078",
        "code": "R",
        "display": "Resistant. Indicates for microbiology susceptibilities only."
      },
      {
        "system": "http://hl7.org/fhir/v2/0078",
        "code": "RR",
        "display": "Reactive"
      },
      {
        "system": "http://hl7.org/fhir/v2/0078",
        "code": "S",
        "display": "Susceptible. Indicates for microbiology susceptibilities only."
      },
      {
        "system": "http://hl7.org/fhir/v2/0078",
        "code": "TOX",
        "display": "Cytotoxic substance present"
      },
      {
        "system": "http://hl7.org/fhir/v2/0078",
        "code": "U",
        "display": "Significant change up"
      },
      {
        "system": "http://hl7.org/fhir/v2/0078",
        "code": "VS",
        "display": "Very susceptible. Indicates for microbiology susceptibilities only."
      },
      {
        "system": "http://hl7.org/fhir/v2/0078",
        "code": "W",
        "display": "Worse-use when direction not relevant"
      },
      {
        "system": "http://hl7.org/fhir/v2/0078",
        "code": "WR",
        "display": "Weakly reactive"
      },
      {
        "system": "http://hl7.org/fhir/v2/0078",
        "code": "null",
        "display": "No range defined, or normal ranges don't apply"
      }
    ]
  }
}