{
  "resourceType": "ValueSet",
  "id": "hspc-heartratemeasbodylocationprecoord",
  "meta": {
    "lastUpdated": "2015-07-14T16:14:24.220+00:00",
    "profile": [
      "http://hl7.org/fhir/StructureDefinition/valueset-shareable-definition"
    ]
  },
  "text": {
    "status": "generated",
    "div": "<div><h2>HSPC Heart Rate Measurement Body Location Precoodinated</h2><p>SELECT SNOMED CT code system values.</p><p><b>Copyright Statement:</b> TBD</p><p>This value set includes codes defined in other code systems, using the following rules:</p><ul><li>Include these codes as defined in http://snomed.info/sct<table><tr><td><b>Code</b></td><td><b>Display</b></td></tr><tr><td>181332001</td><td>Radial artery</td><td/></tr><tr><td>13383001</td><td>Apex of heart</td><td/></tr></table></li></ul></div>"
  },
  "extension": [
    {
      "url": "http://hl7.org/fhir/StructureDefinition/valueset-oid",
      "valueUri": "2.16.840.1.113883.4.642.2.0"
    }
  ],
  "url": "http://hl7.org/fhir/ValueSet/hspc-heartratemeasbodylocationprecoord",
  "version": "0.01",
  "name": "HSPC Heart Rate Measurement Body Location Precoodinated",
  "immutable": true,
  "publisher": "Health Services Platform Consortium (HSPC)",
  "contact": [
    {
      "telecom": [
        {
          "system": "url",
          "value": "http://hl7.org/fhir"
        },
        {
          "system": "email",
          "value": "fhir@lists.hl7.org"
        }
      ]
    }
  ],
  "description": "SELECT SNOMED CT code system values.",
  "copyright": "TBD",
  "status": "draft",
  "experimental": true,
  "extensible": true,
  "date": "2015-06-11",
  "compose": {
    "include": [
      {
        "system": "http://snomed.info/sct",
        "concept": [
          {
            "code": "181332001",
            "display": "Radial artery"
          },
          {
            "code": "13383001",
            "display": "Apex of heart"
          }
        ]
      }
    ]
  }
}