{
  "resourceType": "ValueSet",
  "id": "hspc-ageUOM",
  "meta": {
    "lastUpdated": "2015-07-14T16:14:24.220+00:00",
    "profile": [
      "http://hl7.org/fhir/StructureDefinition/valueset-shareable-definition"
    ]
  },
  "text": {
    "status": "generated",
    "div": "<div><h2>HSPC Age Units of Measure Value Set</h2><p>The list of codes used as units of measure for an individual's age.</p><p><b>Copyright Statement:</b> This value set includes content from UCUM. Implementer use of UCUM is not covered by this agreement</p><p>This value set includes codes defined in other code systems, using the following rules:</p><ul><li>Include these codes as defined in http://unitsofmeasure.org<table><tr><td><b>Code</b></td><td><b>Display</b></td></tr><tr><td>mo</td><td>Month [time]</td><td/></tr><tr><td>wk</td><td>Week [time]</td><td/></tr><tr><td>a</td><td>Year [time]</td><td/></tr><tr><td>d</td><td>Day [time]</td><td/></tr><tr><td>h</td><td>Hour [time]</td><td/></tr></table></li></ul></div>"
  },
  "extension": [
    {
      "url": "http://hl7.org/fhir/StructureDefinition/valueset-oid",
      "valueUri": "2.16.840.1.113883.4.642.2.0"
    }
  ],
  "url": "http://hl7.org/fhir/ValueSet/hspc-ageUOM",
  "version": "0.5.0",
  "name": "HSPC Age Units of Measure Value Set",
  "publisher": "HSPC",
  "contact": [
    {
      "telecom": [
        {
          "system": "url",
          "value": "http://healthcaresoa.org"
        }
      ]
    }
  ],
  "description": "The list of codes used as units of measure for an individual's age.",
  "copyright": "This value set includes content from UCUM. Implementer use of UCUM is not covered by this agreement",
  "status": "draft",
  "experimental": true,
  "date": "2015-07-14T16:14:24+00:00",
  "compose": {
    "include": [
      {
        "system": "http://unitsofmeasure.org",
        "concept": [
          {
            "code": "mo",
            "display": "Month [time]"
          },
          {
            "code": "wk",
            "display": "Week [time]"
          },
          {
            "code": "a",
            "display": "Year [time]"
          },
          {
            "code": "d",
            "display": "Day [time]"
          },
          {
            "code": "h",
            "display": "Hour [time]"
          }
        ]
      }
    ]
  }
}