{
  "resourceType": "ValueSet",
  "id": "animal-genderstatus",
  "meta": {
    "lastUpdated": "2015-07-14T16:14:24.220+00:00",
    "profile": [
      "http://hl7.org/fhir/StructureDefinition/valueset-shareable-definition"
    ]
  },
  "text": {
    "status": "generated",
    "div": "<div><h2>GenderStatus</h2><p> This example value set defines a set of codes that can be used to indicate the current state of the      animal's reproductive organs.</p><p>This value set has an inline code system http://hl7.org/fhir/animal-genderstatus, which defines the following codes:</p><table class=\"codes\"><tr><td><b>Code</b></td><td><b>Display</b></td><td><b>Definition</b></td></tr><tr><td>neutered<a name=\"neutered\"> </a></td><td>Neutered</td><td>The animal has been castrated and is infertile</td></tr><tr><td>intact<a name=\"intact\"> </a></td><td>Intact</td><td>The animal's reproductive organs are intact</td></tr><tr><td>unknown<a name=\"unknown\"> </a></td><td>Unknown</td><td>Unable to determine whether the animal has been neutered</td></tr></table><p><b>Additional Language Displays</b></p><table class=\"codes\"><tr><td><b>Code</b></td><td><b>nl</b></td></tr><tr><td>neutered</td><td>gesteriliseerd</td></tr><tr><td>intact</td><td>intact</td></tr><tr><td>unknown</td><td>onbekend</td></tr></table></div>"
  },
  "extension": [
    {
      "url": "http://hl7.org/fhir/StructureDefinition/valueset-oid",
      "valueUri": "2.16.840.1.113883.4.642.2.131"
    }
  ],
  "url": "http://hl7.org/fhir/ValueSet/animal-genderstatus",
  "version": "0.5.0",
  "name": "GenderStatus",
  "publisher": "FHIR Project team",
  "contact": [
    {
      "telecom": [
        {
          "system": "url",
          "value": "http://hl7.org/fhir"
        }
      ]
    }
  ],
  "description": " This example value set defines a set of codes that can be used to indicate the current state of the      animal's reproductive organs.",
  "status": "draft",
  "experimental": true,
  "date": "2015-07-14T16:14:24+00:00",
  "define": {
    "extension": [
      {
        "url": "http://hl7.org/fhir/StructureDefinition/valueset-oid",
        "valueUri": "urn:oid:2.16.840.1.113883.4.642.1.131"
      }
    ],
    "system": "http://hl7.org/fhir/animal-genderstatus",
    "caseSensitive": true,
    "concept": [
      {
        "code": "neutered",
        "display": "Neutered",
        "definition": "The animal has been castrated and is infertile",
        "designation": [
          {
            "language": "nl",
            "value": "gesteriliseerd"
          }
        ]
      },
      {
        "code": "intact",
        "display": "Intact",
        "definition": "The animal's reproductive organs are intact",
        "designation": [
          {
            "language": "nl",
            "value": "intact"
          }
        ]
      },
      {
        "code": "unknown",
        "display": "Unknown",
        "definition": "Unable to determine whether the animal has been neutered",
        "designation": [
          {
            "language": "nl",
            "value": "onbekend"
          }
        ]
      }
    ]
  }
}