{
  "resourceType": "ValueSet",
  "id": "hspc-RealLabCodes",
  "meta": {
    "lastUpdated": "2015-07-14T16:14:24.220+00:00",
    "profile": [
      "http://hl7.org/fhir/StructureDefinition/valueset-shareable-definition"
    ]
  },
  "text": {
    "status": "generated",
    "div": "<div><h2>HSPC Real Labs</h2><p>Ordinal LOINC codes used in HSPC</p><p><b>Copyright Statement:</b> This content LOINC&reg; is copyright &copy; 1995 Regenstrief Institute, Inc. and the LOINC Committee, and available at no cost under the license at http://loinc.org/terms-of-use</p><p>This value set includes codes defined in other code systems, using the following rules:</p><ul><li>Include these codes as defined in http://loinc.org<table><tr><td><b>Code</b></td><td><b>Display</b></td></tr><tr><td>2964-5</td><td>Specific gravity of Body fluid</td><td/></tr><tr><td>2965-2</td><td>Specific gravity of Urine</td><td/></tr><tr><td>38875-1</td><td>INR in Unspecified specimen by Coagulation assay|INR in Platelet poor plasma or blood by Coagulation assay</td><td/></tr><tr><td>9322-9</td><td>Cholesterol.total/Cholesterol in HDL [Percentile]</td><td/></tr></table></li></ul></div>"
  },
  "extension": [
    {
      "url": "http://hl7.org/fhir/StructureDefinition/valueset-oid",
      "valueUri": "2.16.840.1.113883.4.642.2.0"
    }
  ],
  "url": "http://hl7.org/fhir/ValueSet/hspc-RealLabCodes",
  "version": "0.5.0",
  "name": "HSPC Real Labs",
  "publisher": "HSPC",
  "contact": [
    {
      "telecom": [
        {
          "system": "url",
          "value": "http://healthcaresoa.org"
        }
      ]
    }
  ],
  "description": "Ordinal LOINC codes used in HSPC",
  "copyright": "This content LOINC® is copyright © 1995 Regenstrief Institute, Inc. and the LOINC Committee, and available at no cost under the license at http://loinc.org/terms-of-use",
  "status": "draft",
  "experimental": true,
  "date": "2015-02-20T13:44:49+11:00",
  "compose": {
    "include": [
      {
        "system": "http://loinc.org",
        "concept": [
          {
            "code": "2964-5",
            "display": "Specific gravity of Body fluid"
          },
          {
            "code": "2965-2",
            "display": "Specific gravity of Urine"
          },
          {
            "code": "38875-1",
            "display": "INR in Unspecified specimen by Coagulation assay|INR in Platelet poor plasma or blood by Coagulation assay"
          },
          {
            "code": "9322-9",
            "display": "Cholesterol.total/Cholesterol in HDL [Percentile]"
          }
        ]
      }
    ]
  }
}