{
  "resourceType": "ValueSet",
  "id": "location-physical-type",
  "meta": {
    "lastUpdated": "2015-07-14T16:14:24.220+00:00",
    "profile": [
      "http://hl7.org/fhir/StructureDefinition/valueset-shareable-definition"
    ]
  },
  "text": {
    "status": "generated",
    "div": "<div><h2>LocationType</h2><p>This example value set defines a set of codes that can be used to indicate the physical form of the Location.</p><p>This value set has an inline code system http://hl7.org/fhir/location-physical-type, which defines the following codes:</p><table class=\"codes\"><tr><td><b>Code</b></td><td><b>Display</b></td><td><b>Definition</b></td></tr><tr><td>bu<a name=\"bu\"> </a></td><td>Building</td><td>Any Building or structure. This may contain rooms, corridors, wings, etc. It may not have walls, or a roof, but is considered a defined/allocated space.</td></tr><tr><td>wi<a name=\"wi\"> </a></td><td>Wing</td><td>A Wing within a Building, this often contains levels, rooms and corridors.</td></tr><tr><td>lvl<a name=\"lvl\"> </a></td><td>Level</td><td>A Level in a multi-level Building/Structure</td></tr><tr><td>co<a name=\"co\"> </a></td><td>Corridor</td><td>Any corridor within a Building, that is not within</td></tr><tr><td>ro<a name=\"ro\"> </a></td><td>Room</td><td>A space that is allocated as a room, it may have walls/roof etc, but does not require these</td></tr><tr><td>bd<a name=\"bd\"> </a></td><td>Bed</td><td>A space that is allocated for sleeping/laying on</td></tr><tr><td>ve<a name=\"ve\"> </a></td><td>Vehicle</td><td>A means of transportation</td></tr><tr><td>ho<a name=\"ho\"> </a></td><td>House</td><td>A residential dwelling. Usually used to reference a location that a person/patient may reside</td></tr><tr><td>ca<a name=\"ca\"> </a></td><td>Cabinet</td><td>A container that can store goods, equipment, medications or other items</td></tr><tr><td>rd<a name=\"rd\"> </a></td><td>Road</td><td>A defined path to travel between 2 points that has a known name</td></tr><tr><td>jdn<a name=\"jdn\"> </a></td><td>Jurisdiction</td><td>A wide scope that covers a conceptual domain, such as a Nation (Country wide community or Federal Government - e.g. Ministry of Health),  Province or State (community or Government), Business (throughout the enterprise), Nation with a business scope of an agency (eg. CDC, FDA etc.) or a Business segment (UK Pharmacy)</td></tr><tr><td>area<a name=\"area\"> </a></td><td>Area</td><td>An defined boundary, such as a state, region, country, county</td></tr></table></div>"
  },
  "extension": [
    {
      "url": "http://hl7.org/fhir/StructureDefinition/valueset-oid",
      "valueUri": "2.16.840.1.113883.4.642.2.336"
    }
  ],
  "url": "http://hl7.org/fhir/ValueSet/location-physical-type",
  "version": "0.5.0",
  "name": "LocationType",
  "publisher": "FHIR Project team",
  "contact": [
    {
      "telecom": [
        {
          "system": "url",
          "value": "http://hl7.org/fhir"
        }
      ]
    }
  ],
  "description": "This example value set defines a set of codes that can be used to indicate the physical form of the Location.",
  "status": "draft",
  "experimental": true,
  "date": "2015-07-14T16:14:24+00:00",
  "define": {
    "extension": [
      {
        "url": "http://hl7.org/fhir/StructureDefinition/valueset-oid",
        "valueUri": "urn:oid:2.16.840.1.113883.4.642.1.336"
      }
    ],
    "system": "http://hl7.org/fhir/location-physical-type",
    "caseSensitive": true,
    "concept": [
      {
        "code": "bu",
        "display": "Building",
        "definition": "Any Building or structure. This may contain rooms, corridors, wings, etc. It may not have walls, or a roof, but is considered a defined/allocated space."
      },
      {
        "code": "wi",
        "display": "Wing",
        "definition": "A Wing within a Building, this often contains levels, rooms and corridors."
      },
      {
        "code": "lvl",
        "display": "Level",
        "definition": "A Level in a multi-level Building/Structure"
      },
      {
        "code": "co",
        "display": "Corridor",
        "definition": "Any corridor within a Building, that is not within"
      },
      {
        "code": "ro",
        "display": "Room",
        "definition": "A space that is allocated as a room, it may have walls/roof etc, but does not require these"
      },
      {
        "code": "bd",
        "display": "Bed",
        "definition": "A space that is allocated for sleeping/laying on"
      },
      {
        "code": "ve",
        "display": "Vehicle",
        "definition": "A means of transportation"
      },
      {
        "code": "ho",
        "display": "House",
        "definition": "A residential dwelling. Usually used to reference a location that a person/patient may reside"
      },
      {
        "code": "ca",
        "display": "Cabinet",
        "definition": "A container that can store goods, equipment, medications or other items"
      },
      {
        "code": "rd",
        "display": "Road",
        "definition": "A defined path to travel between 2 points that has a known name"
      },
      {
        "code": "jdn",
        "display": "Jurisdiction",
        "definition": "A wide scope that covers a conceptual domain, such as a Nation (Country wide community or Federal Government - e.g. Ministry of Health),  Province or State (community or Government), Business (throughout the enterprise), Nation with a business scope of an agency (eg. CDC, FDA etc.) or a Business segment (UK Pharmacy)"
      },
      {
        "code": "area",
        "display": "Area",
        "definition": "An defined boundary, such as a state, region, country, county"
      }
    ]
  }
}