{
  "resourceType": "ValueSet",
  "id": "knowledge-module-code",
  "meta": {
    "lastUpdated": "2015-07-14T16:14:24.220+00:00",
    "profile": [
      "http://hl7.org/fhir/StructureDefinition/valueset-shareable-definition"
    ]
  },
  "text": {
    "status": "generated",
    "div": "<div><h2>KnowledgeModuleCode</h2><p>The code for knowledge modules</p><p>This value set has an inline code system http://hl7.org/fhir/knowledge-module-code, which defines the following codes:</p><table class=\"codes\"><tr><td><b>Code</b></td><td><b>Display</b></td><td><b>Definition</b></td></tr><tr><td>requirements<a name=\"requirements\"> </a></td><td>Requirements</td><td>The resource is a description of data requirements</td></tr><tr><td>module<a name=\"module\"> </a></td><td>Module</td><td>The resource is a description of a knowledge module</td></tr><tr><td>artifact<a name=\"artifact\"> </a></td><td>Artifact</td><td>The resource is a knowledge artifact</td></tr></table></div>"
  },
  "extension": [
    {
      "url": "http://hl7.org/fhir/StructureDefinition/valueset-oid",
      "valueUri": "2.16.840.1.113883.4.642.2.0"
    }
  ],
  "url": "http://hl7.org/fhir/ValueSet/knowledge-module-code",
  "version": "0.5.0",
  "name": "KnowledgeModuleCode",
  "publisher": "HL7 (FHIR Project)",
  "contact": [
    {
      "telecom": [
        {
          "system": "url",
          "value": "http://hl7.org/fhir"
        },
        {
          "system": "email",
          "value": "fhir@lists.hl7.org"
        }
      ]
    }
  ],
  "description": "The code for knowledge modules",
  "status": "draft",
  "experimental": false,
  "date": "2015-07-14T16:14:24+00:00",
  "define": {
    "system": "http://hl7.org/fhir/knowledge-module-code",
    "version": "0.5.0",
    "caseSensitive": true,
    "concept": [
      {
        "code": "requirements",
        "display": "Requirements",
        "definition": "The resource is a description of data requirements"
      },
      {
        "code": "module",
        "display": "Module",
        "definition": "The resource is a description of a knowledge module"
      },
      {
        "code": "artifact",
        "display": "Artifact",
        "definition": "The resource is a knowledge artifact"
      }
    ]
  }
}