{
  "resourceType": "ValueSet",
  "id": "tumour-perforation",
  "meta": {
    "lastUpdated": "2015-07-14T16:14:24.220+00:00",
    "profile": [
      "http://hl7.org/fhir/StructureDefinition/valueset-shareable-definition"
    ]
  },
  "text": {
    "status": "generated",
    "div": "<div><h2>TumourPerforation</h2><p>A code that indicates the presence or absence of a tumour perforation</p><p>This value set has an inline code system http://hl7.org/fhir/tumour-perforation, which defines the following codes:</p><table class=\"codes\"><tr><td><b>Code</b></td><td><b>Display</b></td><td><b>Definition</b></td></tr><tr><td>present<a name=\"present\"> </a></td><td>Present</td><td/></tr><tr><td>absent<a name=\"absent\"> </a></td><td>Absent</td><td/></tr><tr><td>UNK<a name=\"UNK\"> </a></td><td>Unknown</td><td/></tr><tr><td>really-unknown<a name=\"really-unknown\"> </a></td><td>Status-Unknown</td><td/></tr></table></div>"
  },
  "extension": [
    {
      "url": "http://hl7.org/fhir/StructureDefinition/valueset-oid",
      "valueUri": "2.16.840.1.113883.4.642.2.0"
    }
  ],
  "url": "http://hl7.org/fhir/ValueSet/tumour-perforation",
  "version": "0.5.0",
  "name": "TumourPerforation",
  "publisher": "HL7 (FHIR Project)",
  "contact": [
    {
      "telecom": [
        {
          "system": "url",
          "value": "http://hl7.org/fhir"
        },
        {
          "system": "email",
          "value": "fhir@lists.hl7.org"
        }
      ]
    }
  ],
  "description": "A code that indicates the presence or absence of a tumour perforation",
  "status": "draft",
  "experimental": false,
  "date": "2015-07-14T16:14:24+00:00",
  "define": {
    "system": "http://hl7.org/fhir/tumour-perforation",
    "version": "0.5.0",
    "caseSensitive": true,
    "concept": [
      {
        "code": "present",
        "display": "Present"
      },
      {
        "code": "absent",
        "display": "Absent"
      },
      {
        "code": "UNK",
        "display": "Unknown"
      },
      {
        "code": "really-unknown",
        "display": "Status-Unknown"
      }
    ]
  }
}