{
  "resourceType": "ValueSet",
  "id": "dysplasia",
  "meta": {
    "lastUpdated": "2015-07-14T16:14:24.220+00:00",
    "profile": [
      "http://hl7.org/fhir/StructureDefinition/valueset-shareable-definition"
    ]
  },
  "text": {
    "status": "generated",
    "div": "<div><h2>Dysplasia</h2><p>A code that indicates dysplasia if Ulcerative colitis or Crohn's disease is selected for relevant coexistent pathological abnormalities</p><p>This value set has an inline code system http://hl7.org/fhir/dysplasia, which defines the following codes:</p><table class=\"codes\"><tr><td><b>Code</b></td><td><b>Display</b></td><td><b>Definition</b></td></tr><tr><td>with_dysplasia<a name=\"with_dysplasia\"> </a></td><td>With dysplasia</td><td/></tr><tr><td>without_dysplasia<a name=\"without_dysplasia\"> </a></td><td>Without dysplasia</td><td/></tr></table></div>"
  },
  "extension": [
    {
      "url": "http://hl7.org/fhir/StructureDefinition/valueset-oid",
      "valueUri": "2.16.840.1.113883.4.642.2.0"
    }
  ],
  "url": "http://hl7.org/fhir/ValueSet/dysplasia",
  "version": "0.5.0",
  "name": "Dysplasia",
  "publisher": "HL7 (FHIR Project)",
  "contact": [
    {
      "telecom": [
        {
          "system": "url",
          "value": "http://hl7.org/fhir"
        },
        {
          "system": "email",
          "value": "fhir@lists.hl7.org"
        }
      ]
    }
  ],
  "description": "A code that indicates dysplasia if Ulcerative colitis or Crohn's disease is selected for relevant coexistent pathological abnormalities",
  "status": "draft",
  "experimental": false,
  "date": "2015-07-14T16:14:24+00:00",
  "define": {
    "system": "http://hl7.org/fhir/dysplasia",
    "version": "0.5.0",
    "caseSensitive": true,
    "concept": [
      {
        "code": "with_dysplasia",
        "display": "With dysplasia"
      },
      {
        "code": "without_dysplasia",
        "display": "Without dysplasia"
      }
    ]
  }
}