{
  "resourceType": "ValueSet",
  "id": "immunization-recommendation-status",
  "meta": {
    "lastUpdated": "2015-07-14T16:14:24.220+00:00",
    "profile": [
      "http://hl7.org/fhir/StructureDefinition/valueset-shareable-definition"
    ]
  },
  "text": {
    "status": "generated",
    "div": "<div><h2>Immunization Recommendation Status Codes</h2><p>The value set to instantiate this attribute should be drawn from a terminologically robust code system that consists of or          contains concepts to support the medication process, in particular the process and reasons for dispensing. This value set is provided as a suggestive example</p><p>This value set has an inline code system http://hl7.org/fhir/immunization-recommendation-status, which defines the following codes:</p><table class=\"codes\"><tr><td><b>Code</b></td><td><b>Display</b></td><td><b>Definition</b></td></tr><tr><td>due<a name=\"due\"> </a></td><td>due</td><td>The patient is due for their next vaccination</td></tr><tr><td>overdue<a name=\"overdue\"> </a></td><td>overdue</td><td>The patient is considered overdue for their next vaccination</td></tr></table></div>"
  },
  "extension": [
    {
      "url": "http://hl7.org/fhir/StructureDefinition/valueset-oid",
      "valueUri": "2.16.840.1.113883.4.642.2.355"
    }
  ],
  "url": "http://hl7.org/fhir/ValueSet/immunization-recommendation-status",
  "version": "0.5.0",
  "name": "Immunization Recommendation Status Codes",
  "publisher": "FHIR Project team",
  "contact": [
    {
      "telecom": [
        {
          "system": "url",
          "value": "http://hl7.org/fhir"
        }
      ]
    }
  ],
  "description": "The value set to instantiate this attribute should be drawn from a terminologically robust code system that consists of or          contains concepts to support the medication process, in particular the process and reasons for dispensing. This value set is provided as a suggestive example",
  "status": "draft",
  "experimental": true,
  "date": "2015-07-14T16:14:24+00:00",
  "define": {
    "extension": [
      {
        "url": "http://hl7.org/fhir/StructureDefinition/valueset-oid",
        "valueUri": "urn:oid:2.16.840.1.113883.4.642.1.355"
      }
    ],
    "system": "http://hl7.org/fhir/immunization-recommendation-status",
    "caseSensitive": true,
    "concept": [
      {
        "code": "due",
        "display": "due",
        "definition": "The patient is due for their next vaccination"
      },
      {
        "code": "overdue",
        "display": "overdue",
        "definition": "The patient is considered overdue for their next vaccination"
      }
    ]
  }
}