{
  "resourceType": "ValueSet",
  "id": "qicore-condition-criticality",
  "meta": {
    "lastUpdated": "2015-07-14T16:14:24.220+00:00",
    "profile": [
      "http://hl7.org/fhir/StructureDefinition/valueset-shareable-definition"
    ]
  },
  "text": {
    "status": "generated",
    "div": "<div><h2>QICore Condition Criticality Codes</h2><p>Value Set for QICore Condition Criticality (Example)</p><p>This value set has an inline code system http://hl7.org/fhir/qicore-condition-criticality, which defines the following codes:</p><table class=\"codes\"><tr><td><b>Code</b></td><td><b>Display</b></td><td><b>Definition</b></td></tr><tr><td>unspecified<a name=\"unspecified\"> </a></td><td>Not Specified</td><td>The criticality of the condition is not specified</td></tr><tr><td>self-resolving<a name=\"self-resolving\"> </a></td><td>Expected to Self-Resolve</td><td>The condition is expected to resolve on its own</td></tr><tr><td>controllable<a name=\"controllable\"> </a></td><td>Controllable</td><td>The condition is considered to be controllable</td></tr><tr><td>functional-loss<a name=\"functional-loss\"> </a></td><td>Potential loss of function or capacity</td><td>The condition may result in partial or full loss of function or capacity</td></tr><tr><td>life-threatening<a name=\"life-threatening\"> </a></td><td>Life Threatening</td><td>The condition is considered to be life-threatening</td></tr><tr><td>requires-hospitalization<a name=\"requires-hospitalization\"> </a></td><td>Requires Hospitalization</td><td>The condition requires hospitalization</td></tr></table></div>"
  },
  "extension": [
    {
      "url": "http://hl7.org/fhir/StructureDefinition/valueset-oid",
      "valueUri": "2.16.840.1.113883.4.642.2.0"
    }
  ],
  "url": "http://hl7.org/fhir/ValueSet/qicore-condition-criticality",
  "version": "0.5.0",
  "name": "QICore Condition Criticality Codes",
  "publisher": "HL7 Clinical Quality Information (CQI) Work Group",
  "contact": [
    {
      "telecom": [
        {
          "system": "url",
          "value": "http://www.hl7.org/Special/committees/cqi"
        }
      ]
    }
  ],
  "description": "Value Set for QICore Condition Criticality (Example)",
  "status": "draft",
  "experimental": true,
  "date": "2015-07-14T16:14:24+00:00",
  "define": {
    "system": "http://hl7.org/fhir/qicore-condition-criticality",
    "caseSensitive": true,
    "concept": [
      {
        "code": "unspecified",
        "display": "Not Specified",
        "definition": "The criticality of the condition is not specified"
      },
      {
        "code": "self-resolving",
        "display": "Expected to Self-Resolve",
        "definition": "The condition is expected to resolve on its own"
      },
      {
        "code": "controllable",
        "display": "Controllable",
        "definition": "The condition is considered to be controllable"
      },
      {
        "code": "functional-loss",
        "display": "Potential loss of function or capacity",
        "definition": "The condition may result in partial or full loss of function or capacity"
      },
      {
        "code": "life-threatening",
        "display": "Life Threatening",
        "definition": "The condition is considered to be life-threatening"
      },
      {
        "code": "requires-hospitalization",
        "display": "Requires Hospitalization",
        "definition": "The condition requires hospitalization"
      }
    ]
  }
}