{
  "resourceType": "ValueSet",
  "id": "account-status",
  "meta": {
    "lastUpdated": "2015-07-14T16:14:24.220+00:00",
    "profile": [
      "http://hl7.org/fhir/StructureDefinition/valueset-shareable-definition"
    ]
  },
  "text": {
    "status": "generated",
    "div": "<div><h2>AccountStatus</h2><p>Indicates whether the account is available to be used</p><p>This value set has an inline code system http://hl7.org/fhir/account-status, which defines the following codes:</p><table class=\"codes\"><tr><td><b>Code</b></td><td><b>Display</b></td><td><b>Definition</b></td></tr><tr><td>active<a name=\"active\"> </a></td><td>Active</td><td>This account is active and may be used</td></tr><tr><td>inactive<a name=\"inactive\"> </a></td><td>Inactive</td><td>This account is inactive and should not be used to track financial information</td></tr></table></div>"
  },
  "extension": [
    {
      "url": "http://hl7.org/fhir/StructureDefinition/valueset-oid",
      "valueUri": "2.16.840.1.113883.4.642.2.0"
    }
  ],
  "url": "http://hl7.org/fhir/ValueSet/account-status",
  "version": "0.5.0",
  "name": "AccountStatus",
  "publisher": "HL7 (FHIR Project)",
  "contact": [
    {
      "telecom": [
        {
          "system": "url",
          "value": "http://hl7.org/fhir"
        },
        {
          "system": "email",
          "value": "fhir@lists.hl7.org"
        }
      ]
    }
  ],
  "description": "Indicates whether the account is available to be used",
  "status": "draft",
  "experimental": false,
  "date": "2015-07-14T16:14:24+00:00",
  "define": {
    "extension": [
      {
        "url": "http://hl7.org/fhir/StructureDefinition/valueset-oid",
        "valueUri": "urn:oid:2.16.840.1.113883.4.642.1.0"
      }
    ],
    "system": "http://hl7.org/fhir/account-status",
    "version": "0.5.0",
    "caseSensitive": true,
    "concept": [
      {
        "code": "active",
        "display": "Active",
        "definition": "This account is active and may be used"
      },
      {
        "code": "inactive",
        "display": "Inactive",
        "definition": "This account is inactive and should not be used to track financial information"
      }
    ]
  }
}