{
  "resourceType": "ValueSet",
  "id": "hspc-respratemethoddevice",
  "meta": {
    "lastUpdated": "2015-07-14T16:14:24.220+00:00",
    "profile": [
      "http://hl7.org/fhir/StructureDefinition/valueset-shareable-definition"
    ]
  },
  "text": {
    "status": "generated",
    "div": "<div><h2>HSPC Respiratory Rate Measurement Method/Device value set</h2><p>Select SNOMED CT code system values.</p><p><b>Copyright Statement:</b> TBD</p><p>This value set includes codes defined in other code systems, using the following rules:</p><ul><li>Include these codes as defined in http://snomed.info/sct<table><tr><td><b>Code</b></td><td><b>Display</b></td></tr><tr><td>37931006</td><td>auscultation</td><td/></tr><tr><td>32750006</td><td>visual observation</td><td/></tr><tr><td>463698006</td><td>pneumograph</td><td/></tr><tr><td>250863006</td><td>capnograph waveform</td><td/></tr><tr><td>334990001</td><td>peak flow meter</td><td/></tr><tr><td>17120007</td><td>biofeedback, strain gage</td><td/></tr></table></li></ul></div>"
  },
  "extension": [
    {
      "url": "http://hl7.org/fhir/StructureDefinition/valueset-oid",
      "valueUri": "2.16.840.1.113883.4.642.2.0"
    }
  ],
  "url": "http://hl7.org/fhir/ValueSet/hspc-respratemethoddevice",
  "version": "0.01",
  "name": "HSPC Respiratory Rate Measurement Method/Device value set",
  "immutable": true,
  "publisher": "Health Services Platform Consortium (HSPC)",
  "contact": [
    {
      "telecom": [
        {
          "system": "url",
          "value": "http://hl7.org/fhir"
        },
        {
          "system": "email",
          "value": "fhir@lists.hl7.org"
        }
      ]
    }
  ],
  "description": "Select SNOMED CT code system values.",
  "copyright": "TBD",
  "status": "draft",
  "experimental": true,
  "extensible": true,
  "date": "2015-06-09",
  "compose": {
    "include": [
      {
        "system": "http://snomed.info/sct",
        "concept": [
          {
            "code": "37931006",
            "display": "auscultation"
          },
          {
            "code": "32750006",
            "display": "visual observation"
          },
          {
            "code": "463698006",
            "display": "pneumograph"
          },
          {
            "code": "250863006",
            "display": "capnograph waveform"
          },
          {
            "code": "334990001",
            "display": "peak flow meter"
          },
          {
            "code": "17120007",
            "display": "biofeedback, strain gage"
          }
        ]
      }
    ]
  }
}