{
  "resourceType": "ValueSet",
  "id": "daf-substance-rxnorm",
  "meta": {
    "lastUpdated": "2015-07-14T16:14:24.220+00:00"
  },
  "text": {
    "status": "generated",
    "div": "<div><h2>DAF Substanc RxNorm Codes</h2><p>All RxNorm codes that have TTY = IN,PIN,MIN,BN, but TTY != OCD</p><p>This value set includes codes defined in other code systems, using the following rules:</p><ul><li> and http://www.nlm.nih.gov/research/umls/rxnorm where TTY  in  IN,PIN,MIN,BN</li><li> and http://www.nlm.nih.gov/research/umls/rxnorm where TTY  =  OCD</li></ul></div>"
  },
  "extension": [
    {
      "url": "http://hl7.org/fhir/StructureDefinition/valueset-oid",
      "valueUri": "urn:oid:2.16.840.1.113762.1.4.1010.7"
    }
  ],
  "url": "http://hl7.org/fhir/ValueSet/daf-substance-rxnorm",
  "name": "DAF Substanc RxNorm Codes",
  "publisher": "FHIR Project team",
  "contact": [
    {
      "telecom": [
        {
          "system": "url",
          "value": "http://hl7.org/fhir"
        }
      ]
    }
  ],
  "description": "All RxNorm codes that have TTY = IN,PIN,MIN,BN, but TTY != OCD",
  "status": "draft",
  "compose": {
    "include": [
      {
        "system": "http://www.nlm.nih.gov/research/umls/rxnorm",
        "filter": [
          {
            "property": "TTY",
            "op": "in",
            "value": "IN,PIN,MIN,BN"
          }
        ]
      }
    ],
    "exclude": [
      {
        "system": "http://www.nlm.nih.gov/research/umls/rxnorm",
        "filter": [
          {
            "property": "TTY",
            "op": "=",
            "value": "OCD"
          }
        ]
      }
    ]
  }
}