{
  "resourceType": "ValueSet",
  "id": "rel-to-ant-peritoneal-reflectn",
  "meta": {
    "lastUpdated": "2015-07-14T16:14:24.220+00:00",
    "profile": [
      "http://hl7.org/fhir/StructureDefinition/valueset-shareable-definition"
    ]
  },
  "text": {
    "status": "generated",
    "div": "<div><h2>RelationshipToAnteriorPeritonealReflection</h2><p>A code that indicates the site of tumour in relation to the anterior level of the peritoneal reflection</p><p>This value set has an inline code system http://hl7.org/fhir/rel-to-ant-peritoneal-reflectn, which defines the following codes:</p><table class=\"codes\"><tr><td><b>Code</b></td><td><b>Display</b></td><td><b>Definition</b></td></tr><tr><td>entirely_above<a name=\"entirely_above\"> </a></td><td>Entirely above</td><td/></tr><tr><td>astride<a name=\"astride\"> </a></td><td>Astride</td><td/></tr><tr><td>entirely_below<a name=\"entirely_below\"> </a></td><td>Entirely below</td><td/></tr></table></div>"
  },
  "extension": [
    {
      "url": "http://hl7.org/fhir/StructureDefinition/valueset-oid",
      "valueUri": "2.16.840.1.113883.4.642.2.0"
    }
  ],
  "url": "http://hl7.org/fhir/ValueSet/rel-to-ant-peritoneal-reflectn",
  "version": "0.5.0",
  "name": "RelationshipToAnteriorPeritonealReflection",
  "publisher": "HL7 (FHIR Project)",
  "contact": [
    {
      "telecom": [
        {
          "system": "url",
          "value": "http://hl7.org/fhir"
        },
        {
          "system": "email",
          "value": "fhir@lists.hl7.org"
        }
      ]
    }
  ],
  "description": "A code that indicates the site of tumour in relation to the anterior level of the peritoneal reflection",
  "status": "draft",
  "experimental": false,
  "date": "2015-07-14T16:14:24+00:00",
  "define": {
    "system": "http://hl7.org/fhir/rel-to-ant-peritoneal-reflectn",
    "version": "0.5.0",
    "caseSensitive": true,
    "concept": [
      {
        "code": "entirely_above",
        "display": "Entirely above"
      },
      {
        "code": "astride",
        "display": "Astride"
      },
      {
        "code": "entirely_below",
        "display": "Entirely below"
      }
    ]
  }
}