{
  "resourceType": "ValueSet",
  "id": "classification-or-context",
  "meta": {
    "lastUpdated": "2015-07-14T16:14:24.220+00:00",
    "profile": [
      "http://hl7.org/fhir/StructureDefinition/valueset-shareable-definition"
    ]
  },
  "text": {
    "status": "generated",
    "div": "<div><h2>ClassificationOrContext</h2><p>Identifies whether a useContext represents a context or classification for the element</p><p>This value set has an inline code system http://hl7.org/fhir/classification-or-context, which defines the following codes:</p><table class=\"codes\"><tr><td><b>Code</b></td><td><b>Display</b></td><td><b>Definition</b></td></tr><tr><td>classification<a name=\"classification\"> </a></td><td>Classification</td><td>Indicates the useContext is a classification - e.g. Administrative, financial, etc.</td></tr><tr><td>context<a name=\"context\"> </a></td><td>Context</td><td>Indicates the useContext is a context - a domain of use - e.g. Particular country, organization or system</td></tr></table></div>"
  },
  "extension": [
    {
      "url": "http://hl7.org/fhir/StructureDefinition/valueset-oid",
      "valueUri": "2.16.840.1.113883.4.642.2.2143"
    }
  ],
  "url": "http://hl7.org/fhir/ValueSet/classification-or-context",
  "version": "0.5.0",
  "name": "ClassificationOrContext",
  "publisher": "HL7 (FHIR Project)",
  "contact": [
    {
      "telecom": [
        {
          "system": "url",
          "value": "http://hl7.org/fhir"
        },
        {
          "system": "email",
          "value": "fhir@lists.hl7.org"
        }
      ]
    }
  ],
  "description": "Identifies whether a useContext represents a context or classification for the element",
  "status": "draft",
  "experimental": false,
  "date": "2015-07-14T16:14:24+00:00",
  "define": {
    "extension": [
      {
        "url": "http://hl7.org/fhir/StructureDefinition/valueset-oid",
        "valueUri": "urn:oid:2.16.840.1.113883.4.642.1.2143"
      }
    ],
    "system": "http://hl7.org/fhir/classification-or-context",
    "version": "0.5.0",
    "caseSensitive": true,
    "concept": [
      {
        "code": "classification",
        "display": "Classification",
        "definition": "Indicates the useContext is a classification - e.g. Administrative, financial, etc."
      },
      {
        "code": "context",
        "display": "Context",
        "definition": "Indicates the useContext is a context - a domain of use - e.g. Particular country, organization or system"
      }
    ]
  }
}