{
  "resourceType": "ValueSet",
  "id": "organization-type",
  "meta": {
    "lastUpdated": "2015-07-14T16:14:24.220+00:00",
    "profile": [
      "http://hl7.org/fhir/StructureDefinition/valueset-shareable-definition"
    ]
  },
  "text": {
    "status": "generated",
    "div": "<div><h2>OrganizationType</h2><p>This example value set defines a set of codes that can be used to indicate a type of organization.</p><p>This value set has an inline code system http://hl7.org/fhir/organization-type, which defines the following codes:</p><table class=\"codes\"><tr><td><b>Code</b></td><td><b>Display</b></td><td><b>Definition</b></td></tr><tr><td>prov<a name=\"prov\"> </a></td><td>Healthcare Provider</td><td>An organization that provides healthcare services</td></tr><tr><td>dept<a name=\"dept\"> </a></td><td>Hospital Department</td><td>A department or ward within a hospital (Generally is not applicable to top level organizations)</td></tr><tr><td>team<a name=\"team\"> </a></td><td>Organizational team</td><td>An organizational team is usualy a grouping of practitioners that perform a specific function within an organization (which could be a top level organization, or a department)</td></tr><tr><td>govt<a name=\"govt\"> </a></td><td>Government</td><td>A political body, often used when including organization records for government bodies such as a Federal Government, State or Local Government</td></tr><tr><td>ins<a name=\"ins\"> </a></td><td>Insurance Company</td><td>A company that provides insurance to its subscribers that may include healthcare related policies</td></tr><tr><td>edu<a name=\"edu\"> </a></td><td>Educational Institute</td><td>An educational institution that provides education or research facilitites</td></tr><tr><td>reli<a name=\"reli\"> </a></td><td>Religious Institution</td><td>An organization that identified as a part of a religeous institution</td></tr></table></div>"
  },
  "extension": [
    {
      "url": "http://hl7.org/fhir/StructureDefinition/valueset-oid",
      "valueUri": "2.16.840.1.113883.4.642.2.125"
    }
  ],
  "url": "http://hl7.org/fhir/ValueSet/organization-type",
  "version": "0.5.0",
  "name": "OrganizationType",
  "publisher": "FHIR Project team",
  "contact": [
    {
      "telecom": [
        {
          "system": "url",
          "value": "http://hl7.org/fhir"
        }
      ]
    }
  ],
  "description": "This example value set defines a set of codes that can be used to indicate a type of organization.",
  "status": "draft",
  "experimental": true,
  "date": "2015-07-14T16:14:24+00:00",
  "define": {
    "extension": [
      {
        "url": "http://hl7.org/fhir/StructureDefinition/valueset-oid",
        "valueUri": "urn:oid:2.16.840.1.113883.4.642.1.125"
      }
    ],
    "system": "http://hl7.org/fhir/organization-type",
    "caseSensitive": true,
    "concept": [
      {
        "code": "prov",
        "display": "Healthcare Provider",
        "definition": "An organization that provides healthcare services"
      },
      {
        "code": "dept",
        "display": "Hospital Department",
        "definition": "A department or ward within a hospital (Generally is not applicable to top level organizations)"
      },
      {
        "code": "team",
        "display": "Organizational team",
        "definition": "An organizational team is usualy a grouping of practitioners that perform a specific function within an organization (which could be a top level organization, or a department)"
      },
      {
        "code": "govt",
        "display": "Government",
        "definition": "A political body, often used when including organization records for government bodies such as a Federal Government, State or Local Government"
      },
      {
        "code": "ins",
        "display": "Insurance Company",
        "definition": "A company that provides insurance to its subscribers that may include healthcare related policies"
      },
      {
        "code": "edu",
        "display": "Educational Institute",
        "definition": "An educational institution that provides education or research facilitites"
      },
      {
        "code": "reli",
        "display": "Religious Institution",
        "definition": "An organization that identified as a part of a religeous institution"
      }
    ]
  }
}