<?xml version="1.0" encoding="UTF-8"?>
<sch:schema xmlns:sch="http://purl.oclc.org/dsdl/schematron" queryBinding="xslt2">
  <sch:ns prefix="f" uri="http://hl7.org/fhir"/>
  <sch:ns prefix="h" uri="http://www.w3.org/1999/xhtml"/>
  <!-- 
    This file contains just the constraints for the resource ValueSet
    It is provided for documentation purposes. When actually validating,
    always use fhir-invariants.sch (because of the way containment works)
    Alternatively you can use this file to build a smaller version of
    fhir-invariants.sch (the contents are identical; only include those 
    resources relevant to your implementation).
  -->
    <sch:pattern>
      <sch:title>Global</sch:title>
      <sch:rule context="f:*">
        <sch:assert test="@value|f:*|h:div">global-1: All FHIR elements must have a @value or children</sch:assert>
      </sch:rule>
    </sch:pattern>
  <sch:pattern>
    <sch:title>ValueSet</sch:title>
    <sch:rule context="f:ValueSet">
      <sch:assert test="not(exists(f:contained/f:meta/f:versionId)) and not(exists(f:contained/f:meta/f:lastUpdated))">dom-4: If a resource is contained in another resource, it SHALL NOT have a meta.versionId or a meta.lastUpdated</sch:assert>
      <sch:assert test="not(exists(for $id in f:contained/*/@id return $id[not(ancestor::f:contained/parent::*/descendant::f:reference/@value=concat('#', $id))]))">dom-3: If the resource is contained in another resource, it SHALL be referred to from elsewhere in the resource</sch:assert>
      <sch:assert test="not(parent::f:contained and f:contained)">dom-2: If the resource is contained in another resource, it SHALL NOT contain nested Resources</sch:assert>
      <sch:assert test="not(parent::f:contained and f:text)">dom-1: If the resource is contained in another resource, it SHALL NOT contain any narrative</sch:assert>
    </sch:rule>
    <sch:rule context="f:ValueSet/f:text/f:div">
      <sch:assert test="descendant::text()[normalize-space(.)!=''] or descendant::h:img[@src]">txt-2: The narrative SHALL have some non-whitespace content</sch:assert>
      <sch:assert test="not(descendant-or-self::*[not(local-name(.)=('a', 'abbr', 'acronym', 'b', 'big', 'blockquote', 'br', 'caption', 'cite', 'code', 'colgroup', 'dd', 'dfn', 'div', 'dl', 'dt', 'em', 'h1', 'h2', 'h3', 'h4', 'h5', 'h6', 'hr', 'i', 'img', 'li', 'ol', 'p', 'pre', 'q', 'samp', 'small', 'span', 'strong', 'table', 'tbody', 'td', 'tfoot', 'th', 'thead', 'tr', 'tt', 'ul', 'var'))])">txt-1: The narrative SHALL contain only the basic html formatting elements described in chapters 7-11 (except section 4 of chapter 9) and 15 of the HTML 4.0 standard, &lt;a&gt; elements (either name or href), images and internally contained style attributes</sch:assert>
      <sch:assert test="not(descendant-or-self::*/@*[not(name(.)=('abbr', 'accesskey', 'align', 'alt', 'axis', 'bgcolor', 'border', 'cellhalign', 'cellpadding', 'cellspacing', 'cellvalign', 'char', 'charoff', 'charset', 'cite', 'class', 'colspan', 'compact', 'coords', 'dir', 'frame', 'headers', 'height', 'href', 'hreflang', 'hspace', 'id', 'lang', 'longdesc', 'name', 'nowrap', 'rel', 'rev', 'rowspan', 'rules', 'scope', 'shape', 'span', 'src', 'start', 'style', 'summary', 'tabindex', 'title', 'type', 'valign', 'value', 'vspace', 'width'))])">txt-3: The narrative SHALL contain only the basic html formatting attributes described in chapters 7-11 (except section 4 of chapter 9) and 15 of the HTML 4.0 standard, &lt;a&gt; elements (either name or href), images and internally contained style attributes</sch:assert>
    </sch:rule>
    <sch:rule context="f:ValueSet">
      <sch:assert test="not(f:define/f:system/@value = f:identifier/@value)">vsd-7: A defined code system (if present) SHALL have a different identifier to the value set itself</sch:assert>
      <sch:assert test="exists(f:define) or exists(f:compose) or exists(f:expansion)">vsd-5: Value set SHALL contain either a define, a compose, or an expansion element</sch:assert>
      <sch:assert test="not(exists(f:compose)) or (count(f:compose/f:import)!=1 or exists(f:compose/f:include) or exists(f:compose/f:exclude) or exists(f:define))">vsd-2: A value set with only one import SHALL also have an include and/or an exclude unless the value set defines its own codes</sch:assert>
    </sch:rule>
    <sch:rule context="f:ValueSet/f:identifier/f:period">
      <sch:assert test="not(exists(f:start)) or not(exists(f:end)) or (f:start/@value &lt;= f:end/@value)">per-1: If present, start SHALL have a lower value than end</sch:assert>
    </sch:rule>
    <sch:rule context="f:ValueSet/f:identifier/f:assigner">
      <sch:assert test="not(starts-with(f:reference/@value, '#')) or exists(ancestor::f:entry/f:resource/f:*/f:contained/f:*[f:id/@value=substring-after(current()/f:reference/@value, '#')]|/*/f:contained/f:*[f:id/@value=substring-after(current()/f:reference/@value, '#')])">ref-1: SHALL have a local reference if the resource is provided inline</sch:assert>
    </sch:rule>
    <sch:rule context="f:ValueSet/f:contact/f:telecom">
      <sch:assert test="not(exists(f:value)) or exists(f:system)">cpt-2: A system is required if a value is provided.</sch:assert>
    </sch:rule>
    <sch:rule context="f:ValueSet/f:contact/f:telecom/f:period">
      <sch:assert test="not(exists(f:start)) or not(exists(f:end)) or (f:start/@value &lt;= f:end/@value)">per-1: If present, start SHALL have a lower value than end</sch:assert>
    </sch:rule>
    <sch:rule context="f:ValueSet/f:define">
      <sch:assert test="count(descendant::f:concept)=count(distinct-values(descendant::f:concept/f:code/@value))">vsd-8: Codes must be unique</sch:assert>
      <sch:assert test="count(distinct-values(descendant::f:concept/f:code/@value))=count(descendant::f:concept)">vsd-3: Within a code system definition, all the codes SHALL be unique</sch:assert>
    </sch:rule>
    <sch:rule context="f:ValueSet/f:compose">
      <sch:assert test="exists(f:include) or exists(f:import)">vsd-1: A value set composition SHALL have an include or an import</sch:assert>
    </sch:rule>
    <sch:rule context="f:ValueSet/f:compose/f:include">
      <sch:assert test="not(exists(f:concept)) or not(exists(f:filter))">vsd-11: Cannot have both concept and filter</sch:assert>
    </sch:rule>
    <sch:rule context="f:ValueSet/f:expansion/f:contains">
      <sch:assert test="exists(f:code) or (f:abstract/@value = 'true')">vsd-9: Must have a code if not abstract</sch:assert>
      <sch:assert test="exists(f:code) or exists(f:display)">vsd-6: SHALL have a code or a display</sch:assert>
      <sch:assert test="exists(f:system) or not(exists(f:code))">vsd-10: Must have a system if a code is present</sch:assert>
    </sch:rule>
    </sch:pattern>
</sch:schema>
