{
  "resourceType": "ValueSet",
  "id": "example-inline",
  "meta": {
    "profile": [
      "http://hl7.org/fhir/StructureDefinition/valueset-shareable-definition"
    ]
  },
  "text": {
    "status": "generated",
    "div": "<div>\n      <p>Value set &quot;ACME Codes for Cholesterol&quot;: This is an example value set that includes \n        all the  codes for serum cholesterol defined by ACME inc.</p>\n      <p>Developed by: FHIR project team (example)</p>\n      <p>Published for testing on 13-June 2012</p>\n      <p>This value set includes all the ACME codes for serum cholesterol:</p>\n\t\t\t<table class=\"grid\">\n\t\t\t  <tr>\n\t\t\t\t <td><b>Code</b></td>\n\t\t\t\t <td><b>Display</b></td>\n\t\t\t\t <td><b>Definition</b></td>\n\t\t\t\t</tr>\n\t\t\t  <tr>\n\t\t\t\t <td>chol-mmol</td>\n\t\t\t\t <td>SChol (mmol/L)</td>\n\t\t\t\t <td>Serum Cholesterol, in mmol/L</td>\n\t\t\t\t</tr>\n\t\t\t  <tr>\n\t\t\t\t <td>chol-mass</td>\n\t\t\t\t <td>SChol (mg/L)</td>\n\t\t\t\t <td>Serum Cholesterol, in mg/L</td>\n\t\t\t\t</tr>\n\t\t\t  <tr>\n\t\t\t\t <td>chol</td>\n\t\t\t\t <td>SChol</td>\n\t\t\t\t <td>Serum Cholesterol</td>\n\t\t\t\t</tr>\n\t\t\t</table>\n    </div>"
  },
  "url": "http://hl7.org/fhir/ValueSet/example-inline",
  "identifier": {
    "system": "http://acme.com/identifiers/valuesets",
    "value": "loinc-cholesterol-inl"
  },
  "version": "20150622",
  "name": "ACME Codes for Cholesterol in Serum/Plasma",
  "publisher": "HL7 International",
  "contact": [
    {
      "name": "FHIR project team",
      "telecom": [
        {
          "system": "url",
          "value": "http://hl7.org/fhir"
        }
      ]
    }
  ],
  "description": "This is an example value set that includes all the ACME codes for serum/plasma cholesterol from v2.36",
  "status": "draft",
  "experimental": true,
  "date": "2015-06-22",
  "define": {
    "system": "http://acme.com/config/fhir/codesystems/cholesterol",
    "version": "4.2.3",
    "caseSensitive": true,
    "concept": [
      {
        "code": "chol-mmol",
        "display": "SChol (mmol/L)",
        "definition": "Serum Cholesterol, in mmol/L",
        "designation": [
          {
            "use": {
              "system": "http://acme.com/config/fhir/codesystems/internal",
              "code": "internal-label"
            },
            "value": "From ACME POC Testing"
          }
        ]
      },
      {
        "code": "chol-mass",
        "display": "SChol (mg/L)",
        "definition": "Serum Cholesterol, in mg/L",
        "designation": [
          {
            "use": {
              "system": "http://acme.com/config/fhir/codesystems/internal",
              "code": "internal-label"
            },
            "value": "From Paragon Labs"
          }
        ]
      },
      {
        "code": "chol",
        "display": "SChol",
        "definition": "Serum Cholesterol",
        "designation": [
          {
            "use": {
              "system": "http://acme.com/config/fhir/codesystems/internal",
              "code": "internal-label"
            },
            "value": "Obdurate Labs uses this with both kinds of units..."
          }
        ]
      }
    ]
  }
}