{
  "resourceType": "ValueSet",
  "id": "provenance-agent-type",
  "meta": {
    "lastUpdated": "2015-07-14T16:14:24.220+00:00",
    "profile": [
      "http://hl7.org/fhir/StructureDefinition/valueset-shareable-definition"
    ]
  },
  "text": {
    "status": "generated",
    "div": "<div><h2>ProvenanceParticipantType</h2><p>The type of a provenance participant. Use either a defined FHIR resource type, or, if the reference is not to a resource, one of the defined codes, or some other code if none of the defined codes are appropriate</p><p>This value set has an inline code system http://hl7.org/fhir/provenance-participant-type, which defines the following codes:</p><table class=\"codes\"><tr><td><b>Code</b></td><td><b>Definition</b></td></tr><tr><td>person<a name=\"person\"> </a></td><td>The participant is a person acting on their on behalf or on behalf of the patient rather than as an practitioner for an organization.  I.e. &quot;not a healthcare provider&quot;</td></tr><tr><td>practitioner<a name=\"practitioner\"> </a></td><td>The participant is a practitioner, a person (provider) who is directly or indirectly involved in the provisioning of healthcare.</td></tr><tr><td>organization<a name=\"organization\"> </a></td><td>The participant is an organization</td></tr><tr><td>software<a name=\"software\"> </a></td><td>The participant is a software application including services, algorithms, etc.</td></tr><tr><td>patient<a name=\"patient\"> </a></td><td>The participant is the patient, a person or animal receiving care or other health-related services.</td></tr><tr><td>device<a name=\"device\"> </a></td><td>The participant is a device, an instance of a manufactured thing that is used in the provision of healthcare without being substantially changed through that activity. The device may be a machine, an insert, a computer, an application, etc. This includes durable (reusable) medical equipment as well as disposable equipment used for diagnostic, treatment, and research for healthcare and public health.</td></tr><tr><td>relatedPerson<a name=\"relatedPerson\"> </a></td><td>The participant is a related person, a person that is involved in the care for a patient, but who is not the target of healthcare, nor has a formal responsibility in the care process.</td></tr></table></div>"
  },
  "extension": [
    {
      "url": "http://hl7.org/fhir/StructureDefinition/valueset-oid",
      "valueUri": "2.16.840.1.113883.4.642.2.270"
    }
  ],
  "url": "http://hl7.org/fhir/ValueSet/provenance-agent-type",
  "version": "0.5.0",
  "name": "ProvenanceParticipantType",
  "publisher": "HL7 (FHIR Project)",
  "contact": [
    {
      "telecom": [
        {
          "system": "url",
          "value": "http://hl7.org/fhir"
        }
      ]
    },
    {
      "telecom": [
        {
          "system": "email",
          "value": "fhir@lists.hl7.org"
        }
      ]
    }
  ],
  "description": "The type of a provenance participant. Use either a defined FHIR resource type, or, if the reference is not to a resource, one of the defined codes, or some other code if none of the defined codes are appropriate",
  "status": "draft",
  "experimental": true,
  "date": "2023-05-12",
  "define": {
    "extension": [
      {
        "url": "http://hl7.org/fhir/StructureDefinition/valueset-oid",
        "valueUri": "urn:oid:2.16.840.1.113883.4.642.1.270"
      }
    ],
    "system": "http://hl7.org/fhir/provenance-participant-type",
    "caseSensitive": true,
    "concept": [
      {
        "code": "person",
        "definition": "The participant is a person acting on their on behalf or on behalf of the patient rather than as an practitioner for an organization.  I.e. \"not a healthcare provider\""
      },
      {
        "code": "practitioner",
        "definition": "The participant is a practitioner, a person (provider) who is directly or indirectly involved in the provisioning of healthcare."
      },
      {
        "code": "organization",
        "definition": "The participant is an organization"
      },
      {
        "code": "software",
        "definition": "The participant is a software application including services, algorithms, etc."
      },
      {
        "code": "patient",
        "definition": "The participant is the patient, a person or animal receiving care or other health-related services."
      },
      {
        "code": "device",
        "definition": "The participant is a device, an instance of a manufactured thing that is used in the provision of healthcare without being substantially changed through that activity. The device may be a machine, an insert, a computer, an application, etc. This includes durable (reusable) medical equipment as well as disposable equipment used for diagnostic, treatment, and research for healthcare and public health."
      },
      {
        "code": "relatedPerson",
        "definition": "The participant is a related person, a person that is involved in the care for a patient, but who is not the target of healthcare, nor has a formal responsibility in the care process."
      }
    ]
  }
}