{
  "resourceType": "ValueSet",
  "id": "procedure-outcome",
  "meta": {
    "lastUpdated": "2015-07-14T16:14:24.220+00:00",
    "profile": [
      "http://hl7.org/fhir/StructureDefinition/valueset-shareable-definition"
    ]
  },
  "text": {
    "status": "generated",
    "div": "<div><h2>Procedure Outcome Codes (SNOMED CT)</h2><p>Procedure Outcome code: A selection of relevant SNOMED CT codes</p><p><b>Copyright Statement:</b> This value set includes content from SNOMED CT, which is copyright &copy; 2002+ International Health Terminology Standards Development Organisation (IHTSDO), and distributed by agreement between IHTSDO and HL7. Implementer use of SNOMED CT is not covered by this agreement</p><p>This value set includes codes defined in other code systems, using the following rules:</p><ul><li>Include these codes as defined in http://snomed.info/sct<table><tr><td><b>Code</b></td><td><b>Display</b></td></tr><tr><td>385669000</td><td>Successful (qualifier value)</td><td/></tr><tr><td>385671000</td><td>Unsuccessful (qualifier value)</td><td/></tr><tr><td>385670004</td><td>Partially successful (qualifier value)</td><td/></tr></table></li></ul></div>"
  },
  "extension": [
    {
      "url": "http://hl7.org/fhir/StructureDefinition/valueset-oid",
      "valueUri": "2.16.840.1.113883.4.642.2.1889"
    }
  ],
  "url": "http://hl7.org/fhir/ValueSet/procedure-outcome",
  "version": "0.5.0",
  "name": "Procedure Outcome Codes (SNOMED CT)",
  "publisher": "FHIR Project team",
  "contact": [
    {
      "telecom": [
        {
          "system": "url",
          "value": "http://hl7.org/fhir"
        }
      ]
    }
  ],
  "description": "Procedure Outcome code: A selection of relevant SNOMED CT codes",
  "copyright": "This value set includes content from SNOMED CT, which is copyright © 2002+ International Health Terminology Standards Development Organisation (IHTSDO), and distributed by agreement between IHTSDO and HL7. Implementer use of SNOMED CT is not covered by this agreement",
  "status": "draft",
  "experimental": true,
  "date": "2015-07-14T16:14:24+00:00",
  "compose": {
    "include": [
      {
        "system": "http://snomed.info/sct",
        "concept": [
          {
            "code": "385669000"
          },
          {
            "code": "385671000"
          },
          {
            "code": "385670004"
          }
        ]
      }
    ]
  }
}