{
  "resourceType": "ValueSet",
  "id": "hspc-Ordinal-Abnormal-Union",
  "meta": {
    "lastUpdated": "2015-07-14T16:14:24.220+00:00",
    "profile": [
      "http://hl7.org/fhir/StructureDefinition/valueset-shareable-definition"
    ]
  },
  "text": {
    "status": "generated",
    "div": "<div><p>This value set contains 194 concepts</p><table class=\"codes\"><tr><td><b>Code</b></td><td><b>System</b></td><td><b>Display</b></td></tr><tr><td><a href=\"v3/ObservationInterpretation/index.html.html#CAR\">CAR</a></td><td>http://hl7.org/fhir/v3/ObservationInterpretation</td><td>Carrier</td></tr><tr><td><a href=\"v3/ObservationInterpretation/index.html.html#Carrier\">Carrier</a></td><td>http://hl7.org/fhir/v3/ObservationInterpretation</td><td>Carrier</td></tr><tr><td><a href=\"v3/ObservationInterpretation/index.html.html#B\">B</a></td><td>http://hl7.org/fhir/v3/ObservationInterpretation</td><td>Better</td></tr><tr><td><a href=\"v3/ObservationInterpretation/index.html.html#D\">D</a></td><td>http://hl7.org/fhir/v3/ObservationInterpretation</td><td>Significant change down</td></tr><tr><td><a href=\"v3/ObservationInterpretation/index.html.html#U\">U</a></td><td>http://hl7.org/fhir/v3/ObservationInterpretation</td><td>Significant change up</td></tr><tr><td><a href=\"v3/ObservationInterpretation/index.html.html#W\">W</a></td><td>http://hl7.org/fhir/v3/ObservationInterpretation</td><td>Worse</td></tr><tr><td><a href=\"v3/ObservationInterpretation/index.html.html#.60\">&lt;</a></td><td>http://hl7.org/fhir/v3/ObservationInterpretation</td><td>Off scale low</td></tr><tr><td><a href=\"v3/ObservationInterpretation/index.html.html#.62\">&gt;</a></td><td>http://hl7.org/fhir/v3/ObservationInterpretation</td><td>Off scale high</td></tr><tr><td><a href=\"v3/ObservationInterpretation/index.html.html#AC\">AC</a></td><td>http://hl7.org/fhir/v3/ObservationInterpretation</td><td>Anti-complementary substances present</td></tr><tr><td><a href=\"v3/ObservationInterpretation/index.html.html#IE\">IE</a></td><td>http://hl7.org/fhir/v3/ObservationInterpretation</td><td>Insufficient evidence</td></tr><tr><td><a href=\"v3/ObservationInterpretation/index.html.html#QCF\">QCF</a></td><td>http://hl7.org/fhir/v3/ObservationInterpretation</td><td>Quality control failure</td></tr><tr><td><a href=\"v3/ObservationInterpretation/index.html.html#TOX\">TOX</a></td><td>http://hl7.org/fhir/v3/ObservationInterpretation</td><td>Cytotoxic substance present</td></tr><tr><td><a href=\"v3/ObservationInterpretation/index.html.html#A\">A</a></td><td>http://hl7.org/fhir/v3/ObservationInterpretation</td><td>Abnormal</td></tr><tr><td><a href=\"v3/ObservationInterpretation/index.html.html#AA\">AA</a></td><td>http://hl7.org/fhir/v3/ObservationInterpretation</td><td>Critically abnormal</td></tr><tr><td><a href=\"v3/ObservationInterpretation/index.html.html#HH\">HH</a></td><td>http://hl7.org/fhir/v3/ObservationInterpretation</td><td>Critically high</td></tr><tr><td><a href=\"v3/ObservationInterpretation/index.html.html#LL\">LL</a></td><td>http://hl7.org/fhir/v3/ObservationInterpretation</td><td>Critically low</td></tr><tr><td><a href=\"v3/ObservationInterpretation/index.html.html#H\">H</a></td><td>http://hl7.org/fhir/v3/ObservationInterpretation</td><td>High</td></tr><tr><td><a href=\"v3/ObservationInterpretation/index.html.html#H.62\">H&gt;</a></td><td>http://hl7.org/fhir/v3/ObservationInterpretation</td><td>Significantly high</td></tr><tr><td><a href=\"v3/ObservationInterpretation/index.html.html#L\">L</a></td><td>http://hl7.org/fhir/v3/ObservationInterpretation</td><td>Low</td></tr><tr><td><a href=\"v3/ObservationInterpretation/index.html.html#L.60\">L&lt;</a></td><td>http://hl7.org/fhir/v3/ObservationInterpretation</td><td>Significantly low</td></tr><tr><td><a href=\"v3/ObservationInterpretation/index.html.html#N\">N</a></td><td>http://hl7.org/fhir/v3/ObservationInterpretation</td><td>Normal</td></tr><tr><td><a href=\"v3/ObservationInterpretation/index.html.html#I\">I</a></td><td>http://hl7.org/fhir/v3/ObservationInterpretation</td><td>Intermediate</td></tr><tr><td><a href=\"v3/ObservationInterpretation/index.html.html#MS\">MS</a></td><td>http://hl7.org/fhir/v3/ObservationInterpretation</td><td>moderately susceptible</td></tr><tr><td><a href=\"v3/ObservationInterpretation/index.html.html#NS\">NS</a></td><td>http://hl7.org/fhir/v3/ObservationInterpretation</td><td>Non-susceptible</td></tr><tr><td><a href=\"v3/ObservationInterpretation/index.html.html#R\">R</a></td><td>http://hl7.org/fhir/v3/ObservationInterpretation</td><td>Resistant</td></tr><tr><td><a href=\"v3/ObservationInterpretation/index.html.html#SYN-R\">SYN-R</a></td><td>http://hl7.org/fhir/v3/ObservationInterpretation</td><td>Synergy - resistant</td></tr><tr><td><a href=\"v3/ObservationInterpretation/index.html.html#S\">S</a></td><td>http://hl7.org/fhir/v3/ObservationInterpretation</td><td>Susceptible</td></tr><tr><td><a href=\"v3/ObservationInterpretation/index.html.html#SDD\">SDD</a></td><td>http://hl7.org/fhir/v3/ObservationInterpretation</td><td>Susceptible-dose dependent</td></tr><tr><td><a href=\"v3/ObservationInterpretation/index.html.html#SYN-S\">SYN-S</a></td><td>http://hl7.org/fhir/v3/ObservationInterpretation</td><td>Synergy - susceptible</td></tr><tr><td><a href=\"v3/ObservationInterpretation/index.html.html#VS\">VS</a></td><td>http://hl7.org/fhir/v3/ObservationInterpretation</td><td>very susceptible</td></tr><tr><td><a href=\"v3/ObservationInterpretation/index.html.html#EX\">EX</a></td><td>http://hl7.org/fhir/v3/ObservationInterpretation</td><td>outside threshold</td></tr><tr><td><a href=\"v3/ObservationInterpretation/index.html.html#HX\">HX</a></td><td>http://hl7.org/fhir/v3/ObservationInterpretation</td><td>above high threshold</td></tr><tr><td><a href=\"v3/ObservationInterpretation/index.html.html#LX\">LX</a></td><td>http://hl7.org/fhir/v3/ObservationInterpretation</td><td>below low threshold</td></tr><tr><td><a href=\"v3/ObservationInterpretation/index.html.html#IND\">IND</a></td><td>http://hl7.org/fhir/v3/ObservationInterpretation</td><td>Indeterminate</td></tr><tr><td><a href=\"v3/ObservationInterpretation/index.html.html#NEG\">NEG</a></td><td>http://hl7.org/fhir/v3/ObservationInterpretation</td><td>Negative</td></tr><tr><td><a href=\"v3/ObservationInterpretation/index.html.html#ND\">ND</a></td><td>http://hl7.org/fhir/v3/ObservationInterpretation</td><td>Not detected</td></tr><tr><td><a href=\"v3/ObservationInterpretation/index.html.html#POS\">POS</a></td><td>http://hl7.org/fhir/v3/ObservationInterpretation</td><td>Positive</td></tr><tr><td><a href=\"v3/ObservationInterpretation/index.html.html#DET\">DET</a></td><td>http://hl7.org/fhir/v3/ObservationInterpretation</td><td>Detected</td></tr><tr><td><a href=\"v3/ObservationInterpretation/index.html.html#NR\">NR</a></td><td>http://hl7.org/fhir/v3/ObservationInterpretation</td><td>Non-reactive</td></tr><tr><td><a href=\"v3/ObservationInterpretation/index.html.html#RR\">RR</a></td><td>http://hl7.org/fhir/v3/ObservationInterpretation</td><td>Reactive</td></tr><tr><td><a href=\"v3/ObservationInterpretation/index.html.html#WR\">WR</a></td><td>http://hl7.org/fhir/v3/ObservationInterpretation</td><td>Weakly reactive</td></tr><tr><td>1250004</td><td>http://snomed.info/sct</td><td>Decreased (qualifier value)</td></tr><tr><td>18043004</td><td>http://snomed.info/sct</td><td>Thin (qualifier value)</td></tr><tr><td>18307000</td><td>http://snomed.info/sct</td><td>Altered (qualifier value)</td></tr><tr><td>20572008</td><td>http://snomed.info/sct</td><td>Good (qualifier value)</td></tr><tr><td>30714006</td><td>http://snomed.info/sct</td><td>Resistant (qualifier value)</td></tr><tr><td>35105006</td><td>http://snomed.info/sct</td><td>Augmented</td></tr><tr><td>41277001</td><td>http://snomed.info/sct</td><td>Lacking (qualifier value)</td></tr><tr><td>42425007</td><td>http://snomed.info/sct</td><td>Equivocal (qualifier value)</td></tr><tr><td>54328002</td><td>http://snomed.info/sct</td><td>Indifferent (qualifier value)</td></tr><tr><td>62482003</td><td>http://snomed.info/sct</td><td>Low (qualifier value)</td></tr><tr><td>71978007</td><td>http://snomed.info/sct</td><td>Inadequate (qualifier value)</td></tr><tr><td>75540009</td><td>http://snomed.info/sct</td><td>High (qualifier value)</td></tr><tr><td>82334004</td><td>http://snomed.info/sct</td><td>Indeterminate (qualifier value)</td></tr><tr><td>84496004</td><td>http://snomed.info/sct</td><td>Microscopic (qualifier value)</td></tr><tr><td>88323005</td><td>http://snomed.info/sct</td><td>Adequate (qualifier value)</td></tr><tr><td>131196009</td><td>http://snomed.info/sct</td><td>Susceptible (qualifier value)</td></tr><tr><td>134223000</td><td>http://snomed.info/sct</td><td>Narrow (qualifier value)</td></tr><tr><td>255358001</td><td>http://snomed.info/sct</td><td>Rapid (qualifier value)</td></tr><tr><td>255359009</td><td>http://snomed.info/sct</td><td>Reducible (qualifier value)</td></tr><tr><td>255361000</td><td>http://snomed.info/sct</td><td>Slow (qualifier value)</td></tr><tr><td>255507004</td><td>http://snomed.info/sct</td><td>Small (qualifier value)</td></tr><tr><td>255509001</td><td>http://snomed.info/sct</td><td>Large (qualifier value)</td></tr><tr><td>255510006</td><td>http://snomed.info/sct</td><td>Slight (qualifier value)</td></tr><tr><td>255511005</td><td>http://snomed.info/sct</td><td>Long (qualifier value)</td></tr><tr><td>255587001</td><td>http://snomed.info/sct</td><td>Peak (qualifier value)</td></tr><tr><td>255588006</td><td>http://snomed.info/sct</td><td>Trough (qualifier value)</td></tr><tr><td>257390007</td><td>http://snomed.info/sct</td><td>Static (qualifier value)</td></tr><tr><td>258262008</td><td>http://snomed.info/sct</td><td>Very large (qualifier value)</td></tr><tr><td>260352001</td><td>http://snomed.info/sct</td><td>Marginate (qualifier value)</td></tr><tr><td>260354000</td><td>http://snomed.info/sct</td><td>Moderate number (qualifier value)</td></tr><tr><td>260355004</td><td>http://snomed.info/sct</td><td>Moderate peak (qualifier value)</td></tr><tr><td>260356003</td><td>http://snomed.info/sct</td><td>Moderately resistant (qualifier value)</td></tr><tr><td>260357007</td><td>http://snomed.info/sct</td><td>Moderately susceptible (qualifier value)</td></tr><tr><td>260358002</td><td>http://snomed.info/sct</td><td>Very (qualifier value)</td></tr><tr><td>260359005</td><td>http://snomed.info/sct</td><td>Very heavy (qualifier value)</td></tr><tr><td>260360000</td><td>http://snomed.info/sct</td><td>Very high (qualifier value)</td></tr><tr><td>260361001</td><td>http://snomed.info/sct</td><td>Very light (qualifier value)</td></tr><tr><td>260362008</td><td>http://snomed.info/sct</td><td>Very low (qualifier value)</td></tr><tr><td>260364009</td><td>http://snomed.info/sct</td><td>Additive (qualifier value)</td></tr><tr><td>260365005</td><td>http://snomed.info/sct</td><td>Heightened (qualifier value)</td></tr><tr><td>260366006</td><td>http://snomed.info/sct</td><td>Increase (qualifier value)</td></tr><tr><td>260369004</td><td>http://snomed.info/sct</td><td>Increasing (qualifier value)</td></tr><tr><td>260370003</td><td>http://snomed.info/sct</td><td>Decrease (qualifier value)</td></tr><tr><td>260371004</td><td>http://snomed.info/sct</td><td>Decreasing (qualifier value)</td></tr><tr><td>260372006</td><td>http://snomed.info/sct</td><td>Deficient (qualifier value)</td></tr><tr><td>260375008</td><td>http://snomed.info/sct</td><td>Efficient (qualifier value)</td></tr><tr><td>260376009</td><td>http://snomed.info/sct</td><td>Enlarged (qualifier value)</td></tr><tr><td>260377000</td><td>http://snomed.info/sct</td><td>Exaggerated (qualifier value)</td></tr><tr><td>260378005</td><td>http://snomed.info/sct</td><td>Excessive (qualifier value)</td></tr><tr><td>260379002</td><td>http://snomed.info/sct</td><td>Impaired (qualifier value)</td></tr><tr><td>260380004</td><td>http://snomed.info/sct</td><td>Inconsistent (qualifier value)</td></tr><tr><td>260381000</td><td>http://snomed.info/sct</td><td>Inefficient (qualifier value)</td></tr><tr><td>260382007</td><td>http://snomed.info/sct</td><td>Large peak (qualifier value)</td></tr><tr><td>260383002</td><td>http://snomed.info/sct</td><td>Late (qualifier value)</td></tr><tr><td>260384008</td><td>http://snomed.info/sct</td><td>Long duration (qualifier value)</td></tr><tr><td>260394003</td><td>http://snomed.info/sct</td><td>Normal limits (qualifier value)</td></tr><tr><td>260395002</td><td>http://snomed.info/sct</td><td>Normal range (qualifier value)</td></tr><tr><td>260396001</td><td>http://snomed.info/sct</td><td>Numerous (qualifier value)</td></tr><tr><td>260398000</td><td>http://snomed.info/sct</td><td>Overaction (+) (qualifier value)</td></tr><tr><td>260399008</td><td>http://snomed.info/sct</td><td>Raised (qualifier value)</td></tr><tr><td>260400001</td><td>http://snomed.info/sct</td><td>Reduced (qualifier value)</td></tr><tr><td>260401002</td><td>http://snomed.info/sct</td><td>Semi-formed (qualifier value)</td></tr><tr><td>260402009</td><td>http://snomed.info/sct</td><td>Short duration (qualifier value)</td></tr><tr><td>260403004</td><td>http://snomed.info/sct</td><td>Small peak (qualifier value)</td></tr><tr><td>260404005</td><td>http://snomed.info/sct</td><td>Strong (qualifier value)</td></tr><tr><td>260405006</td><td>http://snomed.info/sct</td><td>Trace (qualifier value)</td></tr><tr><td>260406007</td><td>http://snomed.info/sct</td><td>Underaction (-) (qualifier value)</td></tr><tr><td>260407003</td><td>http://snomed.info/sct</td><td>Weak (qualifier value)</td></tr><tr><td>260409000</td><td>http://snomed.info/sct</td><td>Well defined (qualifier value)</td></tr><tr><td>263656005</td><td>http://snomed.info/sct</td><td>Accurate (qualifier value)</td></tr><tr><td>263745000</td><td>http://snomed.info/sct</td><td>Efficient emptying (qualifier value)</td></tr><tr><td>263776006</td><td>http://snomed.info/sct</td><td>Heavy growth (qualifier value)</td></tr><tr><td>263782009</td><td>http://snomed.info/sct</td><td>Inaccurate (qualifier value)</td></tr><tr><td>263812008</td><td>http://snomed.info/sct</td><td>Moderate growth (qualifier value)</td></tr><tr><td>263865001</td><td>http://snomed.info/sct</td><td>Scanty (qualifier value)</td></tr><tr><td>263866000</td><td>http://snomed.info/sct</td><td>Scanty growth (qualifier value)</td></tr><tr><td>263920009</td><td>http://snomed.info/sct</td><td>Unrecordable (qualifier value)</td></tr><tr><td>263926003</td><td>http://snomed.info/sct</td><td>Very slow (qualifier value)</td></tr><tr><td>264535005</td><td>http://snomed.info/sct</td><td>Inefficient emptying (qualifier value)</td></tr><tr><td>264841006</td><td>http://snomed.info/sct</td><td>Intermediately susceptible (qualifier value)</td></tr><tr><td>300841009</td><td>http://snomed.info/sct</td><td>Poorly defined (qualifier value)</td></tr><tr><td>359530003</td><td>http://snomed.info/sct</td><td>Shortened (qualifier value)</td></tr><tr><td>367450005</td><td>http://snomed.info/sct</td><td>Short (qualifier value)</td></tr><tr><td>371879000</td><td>http://snomed.info/sct</td><td>Abnormally high (qualifier value)</td></tr><tr><td>371880002</td><td>http://snomed.info/sct</td><td>Abnormally low (qualifier value)</td></tr><tr><td>371925005</td><td>http://snomed.info/sct</td><td>Most significant (qualifier value)</td></tr><tr><td>371926006</td><td>http://snomed.info/sct</td><td>Highly significant (qualifier value)</td></tr><tr><td>371927002</td><td>http://snomed.info/sct</td><td>Moderately significant (qualifier value)</td></tr><tr><td>371928007</td><td>http://snomed.info/sct</td><td>Not significant (qualifier value)</td></tr><tr><td>371929004</td><td>http://snomed.info/sct</td><td>Minimally significant (qualifier value)</td></tr><tr><td>385440003</td><td>http://snomed.info/sct</td><td>Lowered (qualifier value)</td></tr><tr><td>386134007</td><td>http://snomed.info/sct</td><td>Significant (qualifier value)</td></tr><tr><td>386135008</td><td>http://snomed.info/sct</td><td>Significance undetermined (qualifier value)</td></tr><tr><td>419984006</td><td>http://snomed.info/sct</td><td>Inconclusive (qualifier value)</td></tr><tr><td>423437008</td><td>http://snomed.info/sct</td><td>Insufficient (qualifier value)</td></tr><tr><td>425404009</td><td>http://snomed.info/sct</td><td>Slightly (qualifier value)</td></tr><tr><td>425405005</td><td>http://snomed.info/sct</td><td>Excellent (qualifier value)</td></tr><tr><td>428247006</td><td>http://snomed.info/sct</td><td>Blunted (qualifier value)</td></tr><tr><td>428691001</td><td>http://snomed.info/sct</td><td>Accentuated (qualifier value)</td></tr><tr><td>444871000124104</td><td>http://snomed.info/sct</td><td>Very good (qualifier value)</td></tr><tr><td>445451000124105</td><td>http://snomed.info/sct</td><td>Moderately good (qualifier value)</td></tr><tr><td>445511000124105</td><td>http://snomed.info/sct</td><td>Fair (qualifier value)</td></tr><tr><td>10828004</td><td>http://snomed.info/sct</td><td>Positive (qualifier value)</td></tr><tr><td>43261007</td><td>http://snomed.info/sct</td><td>Abnormal presence of (qualifier value)</td></tr><tr><td>46651001</td><td>http://snomed.info/sct</td><td>Isolated (qualifier value)</td></tr><tr><td>52101004</td><td>http://snomed.info/sct</td><td>Present (qualifier value)</td></tr><tr><td>83185005</td><td>http://snomed.info/sct</td><td>Sensitive (qualifier value)</td></tr><tr><td>260347006</td><td>http://snomed.info/sct</td><td>Present + out of ++++ (qualifier value)</td></tr><tr><td>260348001</td><td>http://snomed.info/sct</td><td>Present ++ out of ++++ (qualifier value)</td></tr><tr><td>260349009</td><td>http://snomed.info/sct</td><td>Present +++ out of ++++ (qualifier value)</td></tr><tr><td>260350009</td><td>http://snomed.info/sct</td><td>Present ++++ out of ++++ (qualifier value)</td></tr><tr><td>260351008</td><td>http://snomed.info/sct</td><td>Just noticeable (qualifier value)</td></tr><tr><td>260373001</td><td>http://snomed.info/sct</td><td>Detected (qualifier value)</td></tr><tr><td>260408008</td><td>http://snomed.info/sct</td><td>Weakly positive (qualifier value)</td></tr><tr><td>260410005</td><td>http://snomed.info/sct</td><td>Vital (qualifier value)</td></tr><tr><td>260412002</td><td>http://snomed.info/sct</td><td>Anaerobes detected (qualifier value)</td></tr><tr><td>260417008</td><td>http://snomed.info/sct</td><td>Strains different (qualifier value)</td></tr><tr><td>260418003</td><td>http://snomed.info/sct</td><td>Strains similar (qualifier value)</td></tr><tr><td>260976002</td><td>http://snomed.info/sct</td><td>Presence of infection (qualifier value)</td></tr><tr><td>263650004</td><td>http://snomed.info/sct</td><td>Presence of calculi (qualifier value)</td></tr><tr><td>263651000</td><td>http://snomed.info/sct</td><td>Presence of delta phalanx (qualifier value)</td></tr><tr><td>264840007</td><td>http://snomed.info/sct</td><td>Hyperplasia present (qualifier value)</td></tr><tr><td>264866005</td><td>http://snomed.info/sct</td><td>Neoplasm present (qualifier value)</td></tr><tr><td>264872005</td><td>http://snomed.info/sct</td><td>Nodules present (qualifier value)</td></tr><tr><td>373066001</td><td>http://snomed.info/sct</td><td>Yes (qualifier value)</td></tr><tr><td>441517005</td><td>http://snomed.info/sct</td><td>Present two plus out of three plus (qualifier value)</td></tr><tr><td>441521003</td><td>http://snomed.info/sct</td><td>Present three plus out of three plus (qualifier value)</td></tr><tr><td>441614007</td><td>http://snomed.info/sct</td><td>Present one plus out of three plus (qualifier value)</td></tr><tr><td>2667000</td><td>http://snomed.info/sct</td><td>Absent (qualifier value)</td></tr><tr><td>17511009</td><td>http://snomed.info/sct</td><td>Normal absence (qualifier value)</td></tr><tr><td>47492008</td><td>http://snomed.info/sct</td><td>Not seen (qualifier value)</td></tr><tr><td>260353006</td><td>http://snomed.info/sct</td><td>Nothing at all (qualifier value)</td></tr><tr><td>260385009</td><td>http://snomed.info/sct</td><td>Negative (qualifier value)</td></tr><tr><td>260386005</td><td>http://snomed.info/sct</td><td>Nil (qualifier value)</td></tr><tr><td>260387001</td><td>http://snomed.info/sct</td><td>No anaerobes detected (qualifier value)</td></tr><tr><td>260389003</td><td>http://snomed.info/sct</td><td>No reaction (qualifier value)</td></tr><tr><td>260390007</td><td>http://snomed.info/sct</td><td>Non-vital (qualifier value)</td></tr><tr><td>260391006</td><td>http://snomed.info/sct</td><td>Noninflammatory (qualifier value)</td></tr><tr><td>260392004</td><td>http://snomed.info/sct</td><td>Non-patent (qualifier value)</td></tr><tr><td>260393009</td><td>http://snomed.info/sct</td><td>Non-pigmented (qualifier value)</td></tr><tr><td>260413007</td><td>http://snomed.info/sct</td><td>None (qualifier value)</td></tr><tr><td>260414001</td><td>http://snomed.info/sct</td><td>Nothing (qualifier value)</td></tr><tr><td>260415000</td><td>http://snomed.info/sct</td><td>Not detected (qualifier value)</td></tr><tr><td>260416004</td><td>http://snomed.info/sct</td><td>Not itching (qualifier value)</td></tr><tr><td>264868006</td><td>http://snomed.info/sct</td><td>No growth (qualifier value)</td></tr><tr><td>264869003</td><td>http://snomed.info/sct</td><td>No neoplasm (qualifier value)</td></tr><tr><td>264871003</td><td>http://snomed.info/sct</td><td>Nodules absent (qualifier value)</td></tr><tr><td>264887000</td><td>http://snomed.info/sct</td><td>Not isolated (qualifier value)</td></tr><tr><td>264915001</td><td>http://snomed.info/sct</td><td>Receptor absent</td></tr><tr><td>264929000</td><td>http://snomed.info/sct</td><td>Superadded infection absent (qualifier value)</td></tr><tr><td>276727009</td><td>http://snomed.info/sct</td><td>Null (qualifier value)</td></tr><tr><td>373067005</td><td>http://snomed.info/sct</td><td>No (qualifier value)</td></tr><tr><td>444991000124106</td><td>http://snomed.info/sct</td><td>Repeatedly non-reactive (qualifier value)</td></tr></table></div>"
  },
  "extension": [
    {
      "url": "http://hl7.org/fhir/StructureDefinition/valueset-oid",
      "valueUri": "2.16.840.1.113883.4.642.2.0"
    }
  ],
  "url": "http://hl7.org/fhir/ValueSet/hspc-Ordinal-Abnormal-Union",
  "version": "0.01",
  "name": "Ordinal Assessment or Interpretation",
  "publisher": "HSPC",
  "contact": [
    {
      "telecom": [
        {
          "system": "url",
          "value": "http://www.clinicaleleement.com"
        }
      ]
    }
  ],
  "description": "Value Set Contents (Expansion) for Ordinal Assessment or Interpretation at Tue, Jul 14, 2015 16:16+0000",
  "copyright": "IHC",
  "status": "draft",
  "experimental": true,
  "date": "2014-06-25",
  "expansion": {
    "extension": [
      {
        "url": "http://hl7.org/fhir/StructureDefinition/valueset-expansionSource",
        "valueReference": {
          "reference": "ValueSet/valueset-hspc-Ordinal-Abnormal-Union"
        }
      },
      {
        "url": "http://hl7.org/fhir/StructureDefinition/valueset-unclosed",
        "valueBoolean": true
      }
    ],
    "identifier": "urn:uuid:070b4149-b8ba-4ca3-97ea-fc6496ae8abc",
    "timestamp": "2015-07-03T23:51:33Z",
    "contains": [
      {
        "extension": [
          {
            "url": "http://hl7.org/fhir/StructureDefinition/valueset-definition",
            "valueString": "The patient is considered as carrier based on the testing results. A carrier is an individual who carries an altered form of a gene which can lead to having a child or offspring in future generations with a genetic disorder."
          }
        ],
        "system": "http://hl7.org/fhir/v3/ObservationInterpretation",
        "code": "CAR",
        "display": "Carrier"
      },
      {
        "extension": [
          {
            "url": "http://hl7.org/fhir/StructureDefinition/valueset-definition",
            "valueString": "The patient is considered as carrier based on the testing results. A carrier is an individual who carries an altered form of a gene which can lead to having a child or offspring in future generations with a genetic disorder.                                                                                     Deprecation Comment:                             This code is currently the same string as the print name for this concept and is inconsistent with the conventions being used for the other codes in the coding system, as it is a full word with initial capitalization, rather than an all upper case mnemonic.  The recommendation from OO is to deprecate the code \"Carrier\" and to add \"CAR\" as the new active code representation for this concept."
          }
        ],
        "system": "http://hl7.org/fhir/v3/ObservationInterpretation",
        "code": "Carrier",
        "display": "Carrier"
      },
      {
        "extension": [
          {
            "url": "http://hl7.org/fhir/StructureDefinition/valueset-definition",
            "valueString": "The current result or observation value has improved compared to the previous result or observation value (the change is significant as defined in the respective test procedure).                          [Note: This can be applied to quantitative or qualitative observations.]"
          }
        ],
        "system": "http://hl7.org/fhir/v3/ObservationInterpretation",
        "code": "B",
        "display": "Better"
      },
      {
        "extension": [
          {
            "url": "http://hl7.org/fhir/StructureDefinition/valueset-definition",
            "valueString": "The current result has decreased from the previous result for a quantitative observation (the change is significant as defined in the respective test procedure)."
          }
        ],
        "system": "http://hl7.org/fhir/v3/ObservationInterpretation",
        "code": "D",
        "display": "Significant change down"
      },
      {
        "extension": [
          {
            "url": "http://hl7.org/fhir/StructureDefinition/valueset-definition",
            "valueString": "The current result has increased from the previous result for a quantitative observation (the change is significant as defined in the respective test procedure)."
          }
        ],
        "system": "http://hl7.org/fhir/v3/ObservationInterpretation",
        "code": "U",
        "display": "Significant change up"
      },
      {
        "extension": [
          {
            "url": "http://hl7.org/fhir/StructureDefinition/valueset-definition",
            "valueString": "The current result or observation value has degraded compared to the previous result or observation value (the change is significant as defined in the respective test procedure).                          [Note: This can be applied to quantitative or qualitative observations.]"
          }
        ],
        "system": "http://hl7.org/fhir/v3/ObservationInterpretation",
        "code": "W",
        "display": "Worse"
      },
      {
        "extension": [
          {
            "url": "http://hl7.org/fhir/StructureDefinition/valueset-definition",
            "valueString": "The result is below the minimum detection limit (the test procedure or equipment is the limiting factor).                          Synonyms: Below analytical limit, low off scale."
          }
        ],
        "system": "http://hl7.org/fhir/v3/ObservationInterpretation",
        "code": "<",
        "display": "Off scale low"
      },
      {
        "extension": [
          {
            "url": "http://hl7.org/fhir/StructureDefinition/valueset-definition",
            "valueString": "The result is above the maximum quantifiable limit (the test procedure or equipment is the limiting factor).                          Synonyms: Above analytical limit, high off scale."
          }
        ],
        "system": "http://hl7.org/fhir/v3/ObservationInterpretation",
        "code": ">",
        "display": "Off scale high"
      },
      {
        "extension": [
          {
            "url": "http://hl7.org/fhir/StructureDefinition/valueset-definition",
            "valueString": "A valid result cannot be obtained for the specified component / analyte due to the presence of anti-complementary substances in the sample."
          }
        ],
        "system": "http://hl7.org/fhir/v3/ObservationInterpretation",
        "code": "AC",
        "display": "Anti-complementary substances present"
      },
      {
        "extension": [
          {
            "url": "http://hl7.org/fhir/StructureDefinition/valueset-definition",
            "valueString": "There is insufficient evidence that the species in question is a good target for therapy with the drug.  A categorical interpretation is not possible.                          [Note: A MIC with \"IE\" and/or a comment may be reported (without an accompanying S, I or R-categorization).]"
          }
        ],
        "system": "http://hl7.org/fhir/v3/ObservationInterpretation",
        "code": "IE",
        "display": "Insufficient evidence"
      },
      {
        "extension": [
          {
            "url": "http://hl7.org/fhir/StructureDefinition/valueset-definition",
            "valueString": "A result cannot be considered valid for the specified component / analyte or organism due to failure in the quality control testing component."
          }
        ],
        "system": "http://hl7.org/fhir/v3/ObservationInterpretation",
        "code": "QCF",
        "display": "Quality control failure"
      },
      {
        "extension": [
          {
            "url": "http://hl7.org/fhir/StructureDefinition/valueset-definition",
            "valueString": "A valid result cannot be obtained for the specified organism or cell line due to the presence of cytotoxic substances in the sample or culture."
          }
        ],
        "system": "http://hl7.org/fhir/v3/ObservationInterpretation",
        "code": "TOX",
        "display": "Cytotoxic substance present"
      },
      {
        "extension": [
          {
            "url": "http://hl7.org/fhir/StructureDefinition/valueset-definition",
            "valueString": "The result or observation value is outside the reference range or expected norm (as defined for the respective test procedure).                          [Note: Typically applies to non-numeric results.]"
          }
        ],
        "system": "http://hl7.org/fhir/v3/ObservationInterpretation",
        "code": "A",
        "display": "Abnormal"
      },
      {
        "extension": [
          {
            "url": "http://hl7.org/fhir/StructureDefinition/valueset-definition",
            "valueString": "The result or observation value is outside a reference range or expected norm at a level at which immediate action should be considered for patient safety (as defined for the respective test procedure).                          [Note: Typically applies to non-numeric results.  Analogous to critical/panic limits for numeric results.]"
          }
        ],
        "system": "http://hl7.org/fhir/v3/ObservationInterpretation",
        "code": "AA",
        "display": "Critically abnormal"
      },
      {
        "extension": [
          {
            "url": "http://hl7.org/fhir/StructureDefinition/valueset-definition",
            "valueString": "The result for a quantitative observation is above a reference level at which immediate action should be considered for patient safety (as defined for the respective test procedure).                          Synonym: Above upper panic limits."
          }
        ],
        "system": "http://hl7.org/fhir/v3/ObservationInterpretation",
        "code": "HH",
        "display": "Critically high"
      },
      {
        "extension": [
          {
            "url": "http://hl7.org/fhir/StructureDefinition/valueset-definition",
            "valueString": "The result for a quantitative observation is below a reference level at which immediate action should be considered for patient safety (as defined for the respective test procedure).                          Synonym: Below lower panic limits."
          }
        ],
        "system": "http://hl7.org/fhir/v3/ObservationInterpretation",
        "code": "LL",
        "display": "Critically low"
      },
      {
        "extension": [
          {
            "url": "http://hl7.org/fhir/StructureDefinition/valueset-definition",
            "valueString": "The result for a quantitative observation is above the upper limit of the reference range (as defined for the respective test procedure).                          Synonym: Above high normal"
          }
        ],
        "system": "http://hl7.org/fhir/v3/ObservationInterpretation",
        "code": "H",
        "display": "High"
      },
      {
        "extension": [
          {
            "url": "http://hl7.org/fhir/StructureDefinition/valueset-definition",
            "valueString": "A test result that is significantly higher than the reference (normal) or therapeutic interval, but has not reached the critically high value and might need special attention, as defined by the laboratory or the clinician.[Note: This level is situated between 'H' and 'HH'.]                                                      Deprecation Comment: The code 'H>' is being deprecated in order to align with the use of the code 'HU' for \"Very high\" in V2 Table 0078 \"Interpretation Codes\".                          [Note: The use of code 'H>' is non-preferred, as this code is deprecated and on track to be retired; use code 'HU' instead."
          }
        ],
        "system": "http://hl7.org/fhir/v3/ObservationInterpretation",
        "code": "H>",
        "display": "Significantly high"
      },
      {
        "extension": [
          {
            "url": "http://hl7.org/fhir/StructureDefinition/valueset-definition",
            "valueString": "The result for a quantitative observation is below the lower limit of the reference range (as defined for the respective test procedure).                          Synonym: Below low normal"
          }
        ],
        "system": "http://hl7.org/fhir/v3/ObservationInterpretation",
        "code": "L",
        "display": "Low"
      },
      {
        "extension": [
          {
            "url": "http://hl7.org/fhir/StructureDefinition/valueset-definition",
            "valueString": "A test result that is significantly lower than the reference (normal) or therapeutic interval, but has not reached the critically low value and might need special attention, as defined by the laboratory or the clinician.[Note: This level is situated between 'L' and 'LL'.]                                                      Deprecation Comment: The code 'L<' is being deprecated in order to align with the use of the code 'LU' for \"Very low\" in V2 Table 0078 \"Interpretation Codes\".                          [Note: The use of code 'L<' is non-preferred, as this code is deprecated and on track to be retired; use code 'LU' instead."
          }
        ],
        "system": "http://hl7.org/fhir/v3/ObservationInterpretation",
        "code": "L<",
        "display": "Significantly low"
      },
      {
        "extension": [
          {
            "url": "http://hl7.org/fhir/StructureDefinition/valueset-definition",
            "valueString": "The result or observation value is within the reference range or expected norm (as defined for the respective test procedure).                          [Note: Applies to numeric or non-numeric results.]"
          }
        ],
        "system": "http://hl7.org/fhir/v3/ObservationInterpretation",
        "code": "N",
        "display": "Normal"
      },
      {
        "extension": [
          {
            "url": "http://hl7.org/fhir/StructureDefinition/valueset-definition",
            "valueString": "Bacterial strain inhibited in vitro by a concentration of an antimicrobial agent that is associated with uncertain therapeutic effect. Reference: CLSI (http://www.clsi.org/Content/NavigationMenu/Resources/HarmonizedTerminologyDatabase/Harmonized_Terminolo.htm) Projects: ISO 20776-1, ISO 20776-2                          [Note 1: Bacterial strains are categorized as intermediate by applying the appropriate breakpoints in a defined phenotypic test system.]                          [Note 2: This class of susceptibility implies that an infection due to the isolate can be appropriately treated in body sites where the drugs are physiologically concentrated or when a high dosage of drug can be used.]                          [Note 3: This class also indicates a \"buffer zone,\" to prevent small, uncontrolled, technical factors from causing major discrepancies in interpretations.]                          [Note 4: These breakpoints can be altered due to changes in circumstances (e.g., changes in commonly used drug dosages, emergence of new resistance mechanisms).]"
          }
        ],
        "system": "http://hl7.org/fhir/v3/ObservationInterpretation",
        "code": "I",
        "display": "Intermediate"
      },
      {
        "extension": [
          {
            "url": "http://hl7.org/fhir/StructureDefinition/valueset-definition",
            "valueString": "The patient is considered as carrier based on the testing results. A carrier is an individual who carries an altered form of a gene which can lead to having a child or offspring in future generations with a genetic disorder.                                                                                     Deprecation Comment:                             This antimicrobial susceptibility test interpretation concept is recommended by OO to be deprecated as it is no longer recommended for use in susceptibility testing by CLSI (reference CLSI document M100-S22; Vol. 32 No.3; CLSI Performance Standards for Antimicrobial Susceptibility Testing; Twenty-Second Informational Supplement. Jan 2012)."
          }
        ],
        "system": "http://hl7.org/fhir/v3/ObservationInterpretation",
        "code": "MS",
        "display": "moderately susceptible"
      },
      {
        "extension": [
          {
            "url": "http://hl7.org/fhir/StructureDefinition/valueset-definition",
            "valueString": "A category used for isolates for which only a susceptible interpretive criterion has been designated because of the absence or rare occurrence of resistant strains. Isolates that have MICs above or zone diameters below the value indicated for the susceptible breakpoint should be reported as non-susceptible.                          NOTE 1: An isolate that is interpreted as non-susceptible does not necessarily mean that the isolate has a resistance mechanism. It is possible that isolates with MICs above the susceptible breakpoint that lack resistance mechanisms may be encountered within the wild-type distribution subsequent to the time the susceptible-only breakpoint is set.                           NOTE 2: For strains yielding results in the \"nonsusceptible\" category, organism identification and antimicrobial susceptibility test results should be confirmed.                          Synonym: decreased susceptibility."
          }
        ],
        "system": "http://hl7.org/fhir/v3/ObservationInterpretation",
        "code": "NS",
        "display": "Non-susceptible"
      },
      {
        "extension": [
          {
            "url": "http://hl7.org/fhir/StructureDefinition/valueset-definition",
            "valueString": "Bacterial strain inhibited in vitro by a concentration of an antimicrobial agent that is associated with a high likelihood of therapeutic failure. Reference: CLSI (http://www.clsi.org/Content/NavigationMenu/Resources/HarmonizedTerminologyDatabase/Harmonized_Terminolo.htm)   Projects: ISO 20776-1, ISO 20776-2                          [Note 1: Bacterial strains are categorized as resistant by applying the appropriate breakpoints in a defined phenotypic test system.]                          [Note 2: This breakpoint can be altered due to changes in circumstances (e.g., changes in commonly used drug dosages, emergence of new resistance mechanisms).]"
          }
        ],
        "system": "http://hl7.org/fhir/v3/ObservationInterpretation",
        "code": "R",
        "display": "Resistant"
      },
      {
        "extension": [
          {
            "url": "http://hl7.org/fhir/StructureDefinition/valueset-definition",
            "valueString": "A category for isolates where the bacteria (e.g. enterococci) are not susceptible in vitro to a combination therapy (e.g., high-level aminoglycoside and cell wall active agent).  This is predictive that this combination therapy will not be effective.                                                       Usage Note: Since the use of penicillin or ampicillin alone often results in treatment failure of serious enterococcal or other bacterial infections, combination therapy is usually indicated to enhance bactericidal activity. The synergy between a cell wall active agent (such as penicillin, ampicillin, or vancomycin) and an aminoglycoside (such as gentamicin, kanamycin or streptomycin) is best predicted by screening for high-level bacterial resistance to the aminoglycoside.                                                      Open Issue: The print name of the code is very general and the description is very specific to a pair of classes of agents, which may lead to confusion of these concepts in the future should other synergies be found."
          }
        ],
        "system": "http://hl7.org/fhir/v3/ObservationInterpretation",
        "code": "SYN-R",
        "display": "Synergy - resistant"
      },
      {
        "extension": [
          {
            "url": "http://hl7.org/fhir/StructureDefinition/valueset-definition",
            "valueString": "Bacterial strain inhibited by in vitro concentration of an antimicrobial agent that is associated with a high likelihood of therapeutic success. Reference: CLSI (http://www.clsi.org/Content/NavigationMenu/Resources/HarmonizedTerminologyDatabase/Harmonized_Terminolo.htm) Synonym (earlier term): Sensitive Projects: ISO 20776-1, ISO 20776-2                          [Note 1: Bacterial strains are categorized as susceptible by applying the appropriate breakpoints in a defined phenotypic system.]                          [Note 2: This breakpoint can be altered due to changes in circumstances (e.g., changes in commonly used drug dosages, emergence of new resistance mechanisms).]"
          }
        ],
        "system": "http://hl7.org/fhir/v3/ObservationInterpretation",
        "code": "S",
        "display": "Susceptible"
      },
      {
        "extension": [
          {
            "url": "http://hl7.org/fhir/StructureDefinition/valueset-definition",
            "valueString": "A category that includes isolates with antimicrobial agent minimum inhibitory concentrations (MICs) that approach usually attainable blood and tissue levels and for which response rates may be lower than for susceptible isolates.                          Reference: CLSI document M44-A2 2009 \"Method for antifungal disk diffusion susceptibility testing of yeasts; approved guideline - second edition\" - page 2."
          }
        ],
        "system": "http://hl7.org/fhir/v3/ObservationInterpretation",
        "code": "SDD",
        "display": "Susceptible-dose dependent"
      },
      {
        "extension": [
          {
            "url": "http://hl7.org/fhir/StructureDefinition/valueset-definition",
            "valueString": "A category for isolates where the bacteria (e.g. enterococci) are susceptible in vitro to a combination therapy (e.g., high-level aminoglycoside and cell wall active agent).  This is predictive that this combination therapy will be effective.                                                       Usage Note: Since the use of penicillin or ampicillin alone often results in treatment failure of serious enterococcal or other bacterial infections, combination therapy is usually indicated to enhance bactericidal activity. The synergy between a cell wall active agent (such as penicillin, ampicillin, or vancomycin) and an aminoglycoside (such as gentamicin, kanamycin or streptomycin) is best predicted by screening for high-level bacterial resistance to the aminoglycoside.                                                      Open Issue: The print name of the code is very general and the description is very specific to a pair of classes of agents, which may lead to confusion of these concepts in the future should other synergies be found."
          }
        ],
        "system": "http://hl7.org/fhir/v3/ObservationInterpretation",
        "code": "SYN-S",
        "display": "Synergy - susceptible"
      },
      {
        "extension": [
          {
            "url": "http://hl7.org/fhir/StructureDefinition/valueset-definition",
            "valueString": "The patient is considered as carrier based on the testing results. A carrier is an individual who carries an altered form of a gene which can lead to having a child or offspring in future generations with a genetic disorder.                                                                                     Deprecation Comment:                             This antimicrobial susceptibility test interpretation concept is recommended by OO to be deprecated as it is no longer recommended for use in susceptibility testing by CLSI (reference CLSI document M100-S22; Vol. 32 No.3; CLSI Performance Standards for Antimicrobial Susceptibility Testing; Twenty-Second Informational Supplement. Jan 2012)."
          }
        ],
        "system": "http://hl7.org/fhir/v3/ObservationInterpretation",
        "code": "VS",
        "display": "very susceptible"
      },
      {
        "extension": [
          {
            "url": "http://hl7.org/fhir/StructureDefinition/valueset-definition",
            "valueString": "The observation/test result is interpreted as being outside the inclusion range for a particular protocol within which the result is being reported.                           Example: A positive result on a Hepatitis screening test.                            Open Issue: EX, HX, LX: These three concepts do not seem to meet a clear need in the vocabulary, and their use in observation interpretation appears likely to be covered by other existing concepts (e.g., A, H, L).  The only apparent significant difference is their reference to use in protocols for exclusion of study subjects. These concepts/codes were proposed by RCRIM for use in the CTLaboratory message.  They were submitted and approved in the November 2005 Harmonization cycle in proposal \"030103C_VOCAB_RCRIM_l_quade_RCRIM Obs Interp_20051028154455\".  However, this proposal was not fully implemented in the vocabulary.  The proposal recommended creation of the x_ClinicalResearchExclusion domain in ObservationInterpretation with a value set including those three concepts/codes, but there is no subdomain of that name or equivalent with a binding to either of the value sets that contain these concepts/codes. Members of the OO WG have recently attempted to contact members of RCRIM regarding these concepts, both by email and at the recent WGM in Atlanta, without response.  It is felt by OO that the best course of action to take at this time is to add this comprehensive Open Issue rather than deprecate these three concepts at this time, until further discussion is held."
          }
        ],
        "system": "http://hl7.org/fhir/v3/ObservationInterpretation",
        "code": "EX",
        "display": "outside threshold"
      },
      {
        "extension": [
          {
            "url": "http://hl7.org/fhir/StructureDefinition/valueset-definition",
            "valueString": "The observation/test result is interpreted as being outside the inclusion range for a particular protocol within which the result is being reported.                           Example: A positive result on a Hepatitis screening test.                            Open Issue: EX, HX, LX: These three concepts do not seem to meet a clear need in the vocabulary, and their use in observation interpretation appears likely to be covered by other existing concepts (e.g., A, H, L).  The only apparent significant difference is their reference to use in protocols for exclusion of study subjects.  These concepts/codes were proposed by RCRIM for use in the CTLaboratory message.  They were submitted and approved in the November 2005 Harmonization cycle in proposal \"030103C_VOCAB_RCRIM_l_quade_RCRIM Obs Interp_20051028154455\". However, this proposal was not fully implemented in the vocabulary.  The proposal recommended creation of the x_ClinicalResearchExclusion domain in ObservationInterpretation with a value set including those three concepts/codes, but there is no subdomain of that name or equivalent with a binding to either of the value sets that contain these concepts/codes.  Members of the OO WG have recently attempted to contact members of RCRIM regarding these concepts, both by email and at the recent WGM in Atlanta, without response.  It is felt by OO that the best course of action to take at this time is to add this comprehensive Open Issue rather than deprecate these three concepts at this time, until further discussion is held."
          }
        ],
        "system": "http://hl7.org/fhir/v3/ObservationInterpretation",
        "code": "HX",
        "display": "above high threshold"
      },
      {
        "extension": [
          {
            "url": "http://hl7.org/fhir/StructureDefinition/valueset-definition",
            "valueString": "The numeric observation/test result is interpreted as being below the low threshold value for a particular protocol within which the result is being reported.                          Example: A Total White Blood Cell Count falling below a protocol-defined threshold value of 3000/mm^3                            Open Issue: EX, HX, LX: These three concepts do not seem to meet a clear need in the vocabulary, and their use in observation interpretation appears likely to be covered by other existing concepts (e.g., A, H, L).  The only apparent significant difference is their reference to use in protocols for exclusion of study subjects.  These concepts/codes were proposed by RCRIM for use in the CTLaboratory message.  They were submitted and approved in the November 2005 Harmonization cycle in proposal \"030103C_VOCAB_RCRIM_l_quade_RCRIM Obs Interp_20051028154455\".  However, this proposal was not fully implemented in the vocabulary.  The proposal recommended creation of the x_ClinicalResearchExclusion domain in ObservationInterpretation with a value set including those three concepts/codes, but there is no subdomain of that name or equivalent with a binding to either of the value sets that contain these concepts/codes.  Members of the OO WG have recently attempted to contact members of RCRIM regarding these concepts, both by email and at the recent WGM in Atlanta, without response.  It is felt by OO that the best course of action to take at this time is to add this comprehensive Open Issue rather than deprecate these three concepts at this time, until further discussion is held."
          }
        ],
        "system": "http://hl7.org/fhir/v3/ObservationInterpretation",
        "code": "LX",
        "display": "below low threshold"
      },
      {
        "extension": [
          {
            "url": "http://hl7.org/fhir/StructureDefinition/valueset-definition",
            "valueString": "The specified component / analyte, organism or clinical sign could neither be declared positive / negative or detected / not detected by the performed test or procedure."
          }
        ],
        "system": "http://hl7.org/fhir/v3/ObservationInterpretation",
        "code": "IND",
        "display": "Indeterminate"
      },
      {
        "extension": [
          {
            "url": "http://hl7.org/fhir/StructureDefinition/valueset-definition",
            "valueString": "An absence finding of the specified component / analyte, organism or clinical sign based on the established threshold of the performed test or procedure.                          [Note: Negative does not necessarily imply the complete absence of the specified item.]"
          }
        ],
        "system": "http://hl7.org/fhir/v3/ObservationInterpretation",
        "code": "NEG",
        "display": "Negative"
      },
      {
        "extension": [
          {
            "url": "http://hl7.org/fhir/StructureDefinition/valueset-definition",
            "valueString": "The presence of the specified component / analyte, organism or clinical sign could not be determined within the limit of detection of the performed test or procedure."
          }
        ],
        "system": "http://hl7.org/fhir/v3/ObservationInterpretation",
        "code": "ND",
        "display": "Not detected"
      },
      {
        "extension": [
          {
            "url": "http://hl7.org/fhir/StructureDefinition/valueset-definition",
            "valueString": "A presence finding of the specified component / analyte, organism or clinical sign based on the established threshold of the performed test or procedure."
          }
        ],
        "system": "http://hl7.org/fhir/v3/ObservationInterpretation",
        "code": "POS",
        "display": "Positive"
      },
      {
        "extension": [
          {
            "url": "http://hl7.org/fhir/StructureDefinition/valueset-definition",
            "valueString": "The measurement of the specified component / analyte, organism or clinical sign above the limit of detection of the performed test or procedure."
          }
        ],
        "system": "http://hl7.org/fhir/v3/ObservationInterpretation",
        "code": "DET",
        "display": "Detected"
      },
      {
        "extension": [
          {
            "url": "http://hl7.org/fhir/StructureDefinition/valueset-definition",
            "valueString": "An absence finding used to indicate that the specified component / analyte did not react measurably with the reagent."
          }
        ],
        "system": "http://hl7.org/fhir/v3/ObservationInterpretation",
        "code": "NR",
        "display": "Non-reactive"
      },
      {
        "extension": [
          {
            "url": "http://hl7.org/fhir/StructureDefinition/valueset-definition",
            "valueString": "A presence finding used to indicate that the specified component / analyte reacted with the reagent above the reliably measurable limit of the performed test."
          }
        ],
        "system": "http://hl7.org/fhir/v3/ObservationInterpretation",
        "code": "RR",
        "display": "Reactive"
      },
      {
        "extension": [
          {
            "url": "http://hl7.org/fhir/StructureDefinition/valueset-definition",
            "valueString": "A weighted presence finding used to indicate that the specified component / analyte reacted with the reagent, but below the reliably measurable limit of the performed test."
          }
        ],
        "system": "http://hl7.org/fhir/v3/ObservationInterpretation",
        "code": "WR",
        "display": "Weakly reactive"
      },
      {
        "system": "http://snomed.info/sct",
        "code": "1250004",
        "display": "Decreased (qualifier value)"
      },
      {
        "system": "http://snomed.info/sct",
        "code": "18043004",
        "display": "Thin (qualifier value)"
      },
      {
        "system": "http://snomed.info/sct",
        "code": "18307000",
        "display": "Altered (qualifier value)"
      },
      {
        "system": "http://snomed.info/sct",
        "code": "20572008",
        "display": "Good (qualifier value)"
      },
      {
        "system": "http://snomed.info/sct",
        "code": "30714006",
        "display": "Resistant (qualifier value)"
      },
      {
        "system": "http://snomed.info/sct",
        "code": "35105006",
        "display": "Augmented"
      },
      {
        "system": "http://snomed.info/sct",
        "code": "41277001",
        "display": "Lacking (qualifier value)"
      },
      {
        "system": "http://snomed.info/sct",
        "code": "42425007",
        "display": "Equivocal (qualifier value)"
      },
      {
        "system": "http://snomed.info/sct",
        "code": "54328002",
        "display": "Indifferent (qualifier value)"
      },
      {
        "system": "http://snomed.info/sct",
        "code": "62482003",
        "display": "Low (qualifier value)"
      },
      {
        "system": "http://snomed.info/sct",
        "code": "71978007",
        "display": "Inadequate (qualifier value)"
      },
      {
        "system": "http://snomed.info/sct",
        "code": "75540009",
        "display": "High (qualifier value)"
      },
      {
        "system": "http://snomed.info/sct",
        "code": "82334004",
        "display": "Indeterminate (qualifier value)"
      },
      {
        "system": "http://snomed.info/sct",
        "code": "84496004",
        "display": "Microscopic (qualifier value)"
      },
      {
        "system": "http://snomed.info/sct",
        "code": "88323005",
        "display": "Adequate (qualifier value)"
      },
      {
        "system": "http://snomed.info/sct",
        "code": "131196009",
        "display": "Susceptible (qualifier value)"
      },
      {
        "system": "http://snomed.info/sct",
        "code": "134223000",
        "display": "Narrow (qualifier value)"
      },
      {
        "system": "http://snomed.info/sct",
        "code": "255358001",
        "display": "Rapid (qualifier value)"
      },
      {
        "system": "http://snomed.info/sct",
        "code": "255359009",
        "display": "Reducible (qualifier value)"
      },
      {
        "system": "http://snomed.info/sct",
        "code": "255361000",
        "display": "Slow (qualifier value)"
      },
      {
        "system": "http://snomed.info/sct",
        "code": "255507004",
        "display": "Small (qualifier value)"
      },
      {
        "system": "http://snomed.info/sct",
        "code": "255509001",
        "display": "Large (qualifier value)"
      },
      {
        "system": "http://snomed.info/sct",
        "code": "255510006",
        "display": "Slight (qualifier value)"
      },
      {
        "system": "http://snomed.info/sct",
        "code": "255511005",
        "display": "Long (qualifier value)"
      },
      {
        "system": "http://snomed.info/sct",
        "code": "255587001",
        "display": "Peak (qualifier value)"
      },
      {
        "system": "http://snomed.info/sct",
        "code": "255588006",
        "display": "Trough (qualifier value)"
      },
      {
        "system": "http://snomed.info/sct",
        "code": "257390007",
        "display": "Static (qualifier value)"
      },
      {
        "system": "http://snomed.info/sct",
        "code": "258262008",
        "display": "Very large (qualifier value)"
      },
      {
        "system": "http://snomed.info/sct",
        "code": "260352001",
        "display": "Marginate (qualifier value)"
      },
      {
        "system": "http://snomed.info/sct",
        "code": "260354000",
        "display": "Moderate number (qualifier value)"
      },
      {
        "system": "http://snomed.info/sct",
        "code": "260355004",
        "display": "Moderate peak (qualifier value)"
      },
      {
        "system": "http://snomed.info/sct",
        "code": "260356003",
        "display": "Moderately resistant (qualifier value)"
      },
      {
        "system": "http://snomed.info/sct",
        "code": "260357007",
        "display": "Moderately susceptible (qualifier value)"
      },
      {
        "system": "http://snomed.info/sct",
        "code": "260358002",
        "display": "Very (qualifier value)"
      },
      {
        "system": "http://snomed.info/sct",
        "code": "260359005",
        "display": "Very heavy (qualifier value)"
      },
      {
        "system": "http://snomed.info/sct",
        "code": "260360000",
        "display": "Very high (qualifier value)"
      },
      {
        "system": "http://snomed.info/sct",
        "code": "260361001",
        "display": "Very light (qualifier value)"
      },
      {
        "system": "http://snomed.info/sct",
        "code": "260362008",
        "display": "Very low (qualifier value)"
      },
      {
        "system": "http://snomed.info/sct",
        "code": "260364009",
        "display": "Additive (qualifier value)"
      },
      {
        "system": "http://snomed.info/sct",
        "code": "260365005",
        "display": "Heightened (qualifier value)"
      },
      {
        "system": "http://snomed.info/sct",
        "code": "260366006",
        "display": "Increase (qualifier value)"
      },
      {
        "system": "http://snomed.info/sct",
        "code": "260369004",
        "display": "Increasing (qualifier value)"
      },
      {
        "system": "http://snomed.info/sct",
        "code": "260370003",
        "display": "Decrease (qualifier value)"
      },
      {
        "system": "http://snomed.info/sct",
        "code": "260371004",
        "display": "Decreasing (qualifier value)"
      },
      {
        "system": "http://snomed.info/sct",
        "code": "260372006",
        "display": "Deficient (qualifier value)"
      },
      {
        "system": "http://snomed.info/sct",
        "code": "260375008",
        "display": "Efficient (qualifier value)"
      },
      {
        "system": "http://snomed.info/sct",
        "code": "260376009",
        "display": "Enlarged (qualifier value)"
      },
      {
        "system": "http://snomed.info/sct",
        "code": "260377000",
        "display": "Exaggerated (qualifier value)"
      },
      {
        "system": "http://snomed.info/sct",
        "code": "260378005",
        "display": "Excessive (qualifier value)"
      },
      {
        "system": "http://snomed.info/sct",
        "code": "260379002",
        "display": "Impaired (qualifier value)"
      },
      {
        "system": "http://snomed.info/sct",
        "code": "260380004",
        "display": "Inconsistent (qualifier value)"
      },
      {
        "system": "http://snomed.info/sct",
        "code": "260381000",
        "display": "Inefficient (qualifier value)"
      },
      {
        "system": "http://snomed.info/sct",
        "code": "260382007",
        "display": "Large peak (qualifier value)"
      },
      {
        "system": "http://snomed.info/sct",
        "code": "260383002",
        "display": "Late (qualifier value)"
      },
      {
        "system": "http://snomed.info/sct",
        "code": "260384008",
        "display": "Long duration (qualifier value)"
      },
      {
        "system": "http://snomed.info/sct",
        "code": "260394003",
        "display": "Normal limits (qualifier value)"
      },
      {
        "system": "http://snomed.info/sct",
        "code": "260395002",
        "display": "Normal range (qualifier value)"
      },
      {
        "system": "http://snomed.info/sct",
        "code": "260396001",
        "display": "Numerous (qualifier value)"
      },
      {
        "system": "http://snomed.info/sct",
        "code": "260398000",
        "display": "Overaction (+) (qualifier value)"
      },
      {
        "system": "http://snomed.info/sct",
        "code": "260399008",
        "display": "Raised (qualifier value)"
      },
      {
        "system": "http://snomed.info/sct",
        "code": "260400001",
        "display": "Reduced (qualifier value)"
      },
      {
        "system": "http://snomed.info/sct",
        "code": "260401002",
        "display": "Semi-formed (qualifier value)"
      },
      {
        "system": "http://snomed.info/sct",
        "code": "260402009",
        "display": "Short duration (qualifier value)"
      },
      {
        "system": "http://snomed.info/sct",
        "code": "260403004",
        "display": "Small peak (qualifier value)"
      },
      {
        "system": "http://snomed.info/sct",
        "code": "260404005",
        "display": "Strong (qualifier value)"
      },
      {
        "system": "http://snomed.info/sct",
        "code": "260405006",
        "display": "Trace (qualifier value)"
      },
      {
        "system": "http://snomed.info/sct",
        "code": "260406007",
        "display": "Underaction (-) (qualifier value)"
      },
      {
        "system": "http://snomed.info/sct",
        "code": "260407003",
        "display": "Weak (qualifier value)"
      },
      {
        "system": "http://snomed.info/sct",
        "code": "260409000",
        "display": "Well defined (qualifier value)"
      },
      {
        "system": "http://snomed.info/sct",
        "code": "263656005",
        "display": "Accurate (qualifier value)"
      },
      {
        "system": "http://snomed.info/sct",
        "code": "263745000",
        "display": "Efficient emptying (qualifier value)"
      },
      {
        "system": "http://snomed.info/sct",
        "code": "263776006",
        "display": "Heavy growth (qualifier value)"
      },
      {
        "system": "http://snomed.info/sct",
        "code": "263782009",
        "display": "Inaccurate (qualifier value)"
      },
      {
        "system": "http://snomed.info/sct",
        "code": "263812008",
        "display": "Moderate growth (qualifier value)"
      },
      {
        "system": "http://snomed.info/sct",
        "code": "263865001",
        "display": "Scanty (qualifier value)"
      },
      {
        "system": "http://snomed.info/sct",
        "code": "263866000",
        "display": "Scanty growth (qualifier value)"
      },
      {
        "system": "http://snomed.info/sct",
        "code": "263920009",
        "display": "Unrecordable (qualifier value)"
      },
      {
        "system": "http://snomed.info/sct",
        "code": "263926003",
        "display": "Very slow (qualifier value)"
      },
      {
        "system": "http://snomed.info/sct",
        "code": "264535005",
        "display": "Inefficient emptying (qualifier value)"
      },
      {
        "system": "http://snomed.info/sct",
        "code": "264841006",
        "display": "Intermediately susceptible (qualifier value)"
      },
      {
        "system": "http://snomed.info/sct",
        "code": "300841009",
        "display": "Poorly defined (qualifier value)"
      },
      {
        "system": "http://snomed.info/sct",
        "code": "359530003",
        "display": "Shortened (qualifier value)"
      },
      {
        "system": "http://snomed.info/sct",
        "code": "367450005",
        "display": "Short (qualifier value)"
      },
      {
        "system": "http://snomed.info/sct",
        "code": "371879000",
        "display": "Abnormally high (qualifier value)"
      },
      {
        "system": "http://snomed.info/sct",
        "code": "371880002",
        "display": "Abnormally low (qualifier value)"
      },
      {
        "system": "http://snomed.info/sct",
        "code": "371925005",
        "display": "Most significant (qualifier value)"
      },
      {
        "system": "http://snomed.info/sct",
        "code": "371926006",
        "display": "Highly significant (qualifier value)"
      },
      {
        "system": "http://snomed.info/sct",
        "code": "371927002",
        "display": "Moderately significant (qualifier value)"
      },
      {
        "system": "http://snomed.info/sct",
        "code": "371928007",
        "display": "Not significant (qualifier value)"
      },
      {
        "system": "http://snomed.info/sct",
        "code": "371929004",
        "display": "Minimally significant (qualifier value)"
      },
      {
        "system": "http://snomed.info/sct",
        "code": "385440003",
        "display": "Lowered (qualifier value)"
      },
      {
        "system": "http://snomed.info/sct",
        "code": "386134007",
        "display": "Significant (qualifier value)"
      },
      {
        "system": "http://snomed.info/sct",
        "code": "386135008",
        "display": "Significance undetermined (qualifier value)"
      },
      {
        "system": "http://snomed.info/sct",
        "code": "419984006",
        "display": "Inconclusive (qualifier value)"
      },
      {
        "system": "http://snomed.info/sct",
        "code": "423437008",
        "display": "Insufficient (qualifier value)"
      },
      {
        "system": "http://snomed.info/sct",
        "code": "425404009",
        "display": "Slightly (qualifier value)"
      },
      {
        "system": "http://snomed.info/sct",
        "code": "425405005",
        "display": "Excellent (qualifier value)"
      },
      {
        "system": "http://snomed.info/sct",
        "code": "428247006",
        "display": "Blunted (qualifier value)"
      },
      {
        "system": "http://snomed.info/sct",
        "code": "428691001",
        "display": "Accentuated (qualifier value)"
      },
      {
        "system": "http://snomed.info/sct",
        "code": "444871000124104",
        "display": "Very good (qualifier value)"
      },
      {
        "system": "http://snomed.info/sct",
        "code": "445451000124105",
        "display": "Moderately good (qualifier value)"
      },
      {
        "system": "http://snomed.info/sct",
        "code": "445511000124105",
        "display": "Fair (qualifier value)"
      },
      {
        "system": "http://snomed.info/sct",
        "code": "10828004",
        "display": "Positive (qualifier value)"
      },
      {
        "system": "http://snomed.info/sct",
        "code": "43261007",
        "display": "Abnormal presence of (qualifier value)"
      },
      {
        "system": "http://snomed.info/sct",
        "code": "46651001",
        "display": "Isolated (qualifier value)"
      },
      {
        "system": "http://snomed.info/sct",
        "code": "52101004",
        "display": "Present (qualifier value)"
      },
      {
        "system": "http://snomed.info/sct",
        "code": "83185005",
        "display": "Sensitive (qualifier value)"
      },
      {
        "system": "http://snomed.info/sct",
        "code": "260347006",
        "display": "Present + out of ++++ (qualifier value)"
      },
      {
        "system": "http://snomed.info/sct",
        "code": "260348001",
        "display": "Present ++ out of ++++ (qualifier value)"
      },
      {
        "system": "http://snomed.info/sct",
        "code": "260349009",
        "display": "Present +++ out of ++++ (qualifier value)"
      },
      {
        "system": "http://snomed.info/sct",
        "code": "260350009",
        "display": "Present ++++ out of ++++ (qualifier value)"
      },
      {
        "system": "http://snomed.info/sct",
        "code": "260351008",
        "display": "Just noticeable (qualifier value)"
      },
      {
        "system": "http://snomed.info/sct",
        "code": "260373001",
        "display": "Detected (qualifier value)"
      },
      {
        "system": "http://snomed.info/sct",
        "code": "260408008",
        "display": "Weakly positive (qualifier value)"
      },
      {
        "system": "http://snomed.info/sct",
        "code": "260410005",
        "display": "Vital (qualifier value)"
      },
      {
        "system": "http://snomed.info/sct",
        "code": "260412002",
        "display": "Anaerobes detected (qualifier value)"
      },
      {
        "system": "http://snomed.info/sct",
        "code": "260417008",
        "display": "Strains different (qualifier value)"
      },
      {
        "system": "http://snomed.info/sct",
        "code": "260418003",
        "display": "Strains similar (qualifier value)"
      },
      {
        "system": "http://snomed.info/sct",
        "code": "260976002",
        "display": "Presence of infection (qualifier value)"
      },
      {
        "system": "http://snomed.info/sct",
        "code": "263650004",
        "display": "Presence of calculi (qualifier value)"
      },
      {
        "system": "http://snomed.info/sct",
        "code": "263651000",
        "display": "Presence of delta phalanx (qualifier value)"
      },
      {
        "system": "http://snomed.info/sct",
        "code": "264840007",
        "display": "Hyperplasia present (qualifier value)"
      },
      {
        "system": "http://snomed.info/sct",
        "code": "264866005",
        "display": "Neoplasm present (qualifier value)"
      },
      {
        "system": "http://snomed.info/sct",
        "code": "264872005",
        "display": "Nodules present (qualifier value)"
      },
      {
        "system": "http://snomed.info/sct",
        "code": "373066001",
        "display": "Yes (qualifier value)"
      },
      {
        "system": "http://snomed.info/sct",
        "code": "441517005",
        "display": "Present two plus out of three plus (qualifier value)"
      },
      {
        "system": "http://snomed.info/sct",
        "code": "441521003",
        "display": "Present three plus out of three plus (qualifier value)"
      },
      {
        "system": "http://snomed.info/sct",
        "code": "441614007",
        "display": "Present one plus out of three plus (qualifier value)"
      },
      {
        "system": "http://snomed.info/sct",
        "code": "2667000",
        "display": "Absent (qualifier value)"
      },
      {
        "system": "http://snomed.info/sct",
        "code": "17511009",
        "display": "Normal absence (qualifier value)"
      },
      {
        "system": "http://snomed.info/sct",
        "code": "47492008",
        "display": "Not seen (qualifier value)"
      },
      {
        "system": "http://snomed.info/sct",
        "code": "260353006",
        "display": "Nothing at all (qualifier value)"
      },
      {
        "system": "http://snomed.info/sct",
        "code": "260385009",
        "display": "Negative (qualifier value)"
      },
      {
        "system": "http://snomed.info/sct",
        "code": "260386005",
        "display": "Nil (qualifier value)"
      },
      {
        "system": "http://snomed.info/sct",
        "code": "260387001",
        "display": "No anaerobes detected (qualifier value)"
      },
      {
        "system": "http://snomed.info/sct",
        "code": "260389003",
        "display": "No reaction (qualifier value)"
      },
      {
        "system": "http://snomed.info/sct",
        "code": "260390007",
        "display": "Non-vital (qualifier value)"
      },
      {
        "system": "http://snomed.info/sct",
        "code": "260391006",
        "display": "Noninflammatory (qualifier value)"
      },
      {
        "system": "http://snomed.info/sct",
        "code": "260392004",
        "display": "Non-patent (qualifier value)"
      },
      {
        "system": "http://snomed.info/sct",
        "code": "260393009",
        "display": "Non-pigmented (qualifier value)"
      },
      {
        "system": "http://snomed.info/sct",
        "code": "260413007",
        "display": "None (qualifier value)"
      },
      {
        "system": "http://snomed.info/sct",
        "code": "260414001",
        "display": "Nothing (qualifier value)"
      },
      {
        "system": "http://snomed.info/sct",
        "code": "260415000",
        "display": "Not detected (qualifier value)"
      },
      {
        "system": "http://snomed.info/sct",
        "code": "260416004",
        "display": "Not itching (qualifier value)"
      },
      {
        "system": "http://snomed.info/sct",
        "code": "264868006",
        "display": "No growth (qualifier value)"
      },
      {
        "system": "http://snomed.info/sct",
        "code": "264869003",
        "display": "No neoplasm (qualifier value)"
      },
      {
        "system": "http://snomed.info/sct",
        "code": "264871003",
        "display": "Nodules absent (qualifier value)"
      },
      {
        "system": "http://snomed.info/sct",
        "code": "264887000",
        "display": "Not isolated (qualifier value)"
      },
      {
        "system": "http://snomed.info/sct",
        "code": "264915001",
        "display": "Receptor absent"
      },
      {
        "system": "http://snomed.info/sct",
        "code": "264929000",
        "display": "Superadded infection absent (qualifier value)"
      },
      {
        "system": "http://snomed.info/sct",
        "code": "276727009",
        "display": "Null (qualifier value)"
      },
      {
        "system": "http://snomed.info/sct",
        "code": "373067005",
        "display": "No (qualifier value)"
      },
      {
        "system": "http://snomed.info/sct",
        "code": "444991000124106",
        "display": "Repeatedly non-reactive (qualifier value)"
      }
    ]
  }
}