{
  "resourceType": "ValueSet",
  "id": "list-status",
  "meta": {
    "lastUpdated": "2015-07-14T16:14:24.220+00:00",
    "profile": [
      "http://hl7.org/fhir/StructureDefinition/valueset-shareable-definition"
    ]
  },
  "text": {
    "status": "generated",
    "div": "<div><h2>ListStatus</h2><p>The current state of the list</p><p>This value set has an inline code system http://hl7.org/fhir/list-status, which defines the following codes:</p><table class=\"codes\"><tr><td><b>Code</b></td><td><b>Display</b></td><td><b>Definition</b></td></tr><tr><td>current<a name=\"current\"> </a></td><td>Current</td><td>The list is considered to be an active part of the patient's record.</td></tr><tr><td>retired<a name=\"retired\"> </a></td><td>Retired</td><td>The list is &quot;old&quot; and should no longer be considered accurate or relevant.</td></tr><tr><td>entered-in-error<a name=\"entered-in-error\"> </a></td><td>Entered In Error</td><td>The list was never accurate.  It is retained for medico-legal purposes only.</td></tr></table></div>"
  },
  "extension": [
    {
      "url": "http://hl7.org/fhir/StructureDefinition/valueset-oid",
      "valueUri": "2.16.840.1.113883.4.642.2.2007"
    }
  ],
  "url": "http://hl7.org/fhir/ValueSet/list-status",
  "version": "0.5.0",
  "name": "ListStatus",
  "publisher": "HL7 (FHIR Project)",
  "contact": [
    {
      "telecom": [
        {
          "system": "url",
          "value": "http://hl7.org/fhir"
        },
        {
          "system": "email",
          "value": "fhir@lists.hl7.org"
        }
      ]
    }
  ],
  "description": "The current state of the list",
  "status": "draft",
  "experimental": false,
  "date": "2015-07-14T16:14:24+00:00",
  "define": {
    "extension": [
      {
        "url": "http://hl7.org/fhir/StructureDefinition/valueset-oid",
        "valueUri": "urn:oid:2.16.840.1.113883.4.642.1.2007"
      }
    ],
    "system": "http://hl7.org/fhir/list-status",
    "version": "0.5.0",
    "caseSensitive": true,
    "concept": [
      {
        "code": "current",
        "display": "Current",
        "definition": "The list is considered to be an active part of the patient's record."
      },
      {
        "code": "retired",
        "display": "Retired",
        "definition": "The list is \"old\" and should no longer be considered accurate or relevant."
      },
      {
        "code": "entered-in-error",
        "display": "Entered In Error",
        "definition": "The list was never accurate.  It is retained for medico-legal purposes only."
      }
    ]
  }
}