{
  "resourceType": "ValueSet",
  "id": "hspc-gestagemeasmethdev",
  "meta": {
    "lastUpdated": "2015-07-14T16:14:24.220+00:00",
    "profile": [
      "http://hl7.org/fhir/StructureDefinition/valueset-shareable-definition"
    ]
  },
  "text": {
    "status": "generated",
    "div": "<div><h2>HSPC Gestational Age at Birth Meas Method Device</h2><p>SELECT SNOMED CT code system values and LOINC system code values.</p><p><b>Copyright Statement:</b> TBD</p><p>This value set includes codes defined in other code systems, using the following rules:</p><ul><li>Include these codes as defined in http://snomed.info/sct<table><tr><td><b>Code</b></td><td><b>Display</b></td></tr><tr><td>21840007</td><td>date of last menstrual period</td><td/></tr><tr><td>248986005</td><td>estimated date of conception</td><td/></tr><tr><td>16310003</td><td>ultrasound</td><td/></tr><tr><td>34536000</td><td>amniocentesis</td><td/></tr></table></li><li>Include these codes as defined in http://loinc.org<table><tr><td><b>Code</b></td><td><b>Display</b></td></tr><tr><td>11881-0</td><td>Uterus Fundal height Tape measure</td><td/></tr><tr><td>11850-5</td><td>Gestational sac Mean diameter US</td><td/></tr><tr><td>11957-8</td><td>Fetal Crown Rump length US</td><td/></tr><tr><td>11820-8</td><td>Fetal Head Diameter.biparietal US</td><td/></tr><tr><td>11963-6</td><td>Fetal Femur diaphysis [Length] US</td><td/></tr><tr><td>11979-2</td><td>Fetal Abdomen Circumference US</td><td/></tr><tr><td>11984-2</td><td>Fetal Head Circumference US</td><td/></tr></table></li></ul></div>"
  },
  "extension": [
    {
      "url": "http://hl7.org/fhir/StructureDefinition/valueset-oid",
      "valueUri": "2.16.840.1.113883.4.642.2.0"
    }
  ],
  "url": "http://hl7.org/fhir/ValueSet/hspc-gestagemeasmethdev",
  "version": "0.01",
  "name": "HSPC Gestational Age at Birth Meas Method Device",
  "immutable": true,
  "publisher": "Health Services Platform Consortium (HSPC)",
  "contact": [
    {
      "telecom": [
        {
          "system": "url",
          "value": "http://hl7.org/fhir"
        },
        {
          "system": "email",
          "value": "fhir@lists.hl7.org"
        }
      ]
    }
  ],
  "description": "SELECT SNOMED CT code system values and LOINC system code values.",
  "copyright": "TBD",
  "status": "draft",
  "experimental": true,
  "extensible": true,
  "date": "2015-02-09",
  "compose": {
    "include": [
      {
        "system": "http://snomed.info/sct",
        "concept": [
          {
            "code": "21840007",
            "display": "date of last menstrual period"
          },
          {
            "code": "248986005",
            "display": "estimated date of conception"
          },
          {
            "code": "16310003",
            "display": "ultrasound"
          },
          {
            "code": "34536000",
            "display": "amniocentesis"
          }
        ]
      },
      {
        "system": "http://loinc.org",
        "concept": [
          {
            "code": "11881-0",
            "display": "Uterus Fundal height Tape measure"
          },
          {
            "code": "11850-5",
            "display": "Gestational sac Mean diameter US"
          },
          {
            "code": "11957-8",
            "display": "Fetal Crown Rump length US"
          },
          {
            "code": "11820-8",
            "display": "Fetal Head Diameter.biparietal US"
          },
          {
            "code": "11963-6",
            "display": "Fetal Femur diaphysis [Length] US"
          },
          {
            "code": "11979-2",
            "display": "Fetal Abdomen Circumference US"
          },
          {
            "code": "11984-2",
            "display": "Fetal Head Circumference US"
          }
        ]
      }
    ]
  }
}