{
  "resourceType": "ValueSet",
  "id": "specimen-container-type",
  "meta": {
    "lastUpdated": "2015-07-14T16:14:24.220+00:00",
    "profile": [
      "http://hl7.org/fhir/StructureDefinition/valueset-shareable-definition"
    ]
  },
  "text": {
    "status": "generated",
    "div": "<div><p>This value set contains 2 concepts</p><table class=\"codes\"><tr><td><b>Code</b></td><td><b>System</b></td><td><b>Display</b></td></tr><tr><td>434746001</td><td>http://snomed.info/sct</td><td>Specimen vial (physical object)</td></tr><tr><td>434822004</td><td>http://snomed.info/sct</td><td>Specimen well (physical object)</td></tr></table></div>"
  },
  "extension": [
    {
      "url": "http://hl7.org/fhir/StructureDefinition/valueset-oid",
      "valueUri": "2.16.840.1.113883.4.642.2.264"
    }
  ],
  "url": "http://hl7.org/fhir/ValueSet/specimen-container-type",
  "version": "0.5.0",
  "name": "SpecimenContainer",
  "publisher": "FHIR Project team",
  "contact": [
    {
      "telecom": [
        {
          "system": "url",
          "value": "http://hl7.org/fhir"
        }
      ]
    }
  ],
  "description": "Value Set Contents (Expansion) for SpecimenContainer at Tue, Jul 14, 2015 16:16+0000",
  "copyright": "This value set includes content from SNOMED CT, which is copyright © 2002+ International Health Terminology Standards Development Organisation (IHTSDO), and distributed by agreement between IHTSDO and HL7. Implementer use of SNOMED CT is not covered by this agreement",
  "status": "draft",
  "experimental": true,
  "date": "2015-07-14T16:14:24+00:00",
  "expansion": {
    "extension": [
      {
        "url": "http://hl7.org/fhir/StructureDefinition/valueset-expansionSource",
        "valueReference": {
          "reference": "ValueSet/valueset-specimen-container-type"
        }
      },
      {
        "url": "http://hl7.org/fhir/StructureDefinition/valueset-unclosed",
        "valueBoolean": true
      }
    ],
    "identifier": "urn:uuid:362d9e2a-7e7b-4327-b84e-5ece3ea376f3",
    "timestamp": "2015-07-03T23:50:53Z",
    "contains": [
      {
        "system": "http://snomed.info/sct",
        "code": "434746001",
        "display": "Specimen vial (physical object)"
      },
      {
        "system": "http://snomed.info/sct",
        "code": "434822004",
        "display": "Specimen well (physical object)"
      }
    ]
  }
}