{
  "resourceType": "ValueSet",
  "id": "msh2",
  "meta": {
    "lastUpdated": "2015-07-14T16:14:24.220+00:00",
    "profile": [
      "http://hl7.org/fhir/StructureDefinition/valueset-shareable-definition"
    ]
  },
  "text": {
    "status": "generated",
    "div": "<div><h2>Msh2</h2><p>A code that indicates MSH-2 testing</p><p>This value set has an inline code system http://hl7.org/fhir/msh2, which defines the following codes:</p><table class=\"codes\"><tr><td><b>Code</b></td><td><b>Display</b></td><td><b>Definition</b></td></tr><tr><td>not_tested<a name=\"not_tested\"> </a></td><td>Not tested</td><td/></tr><tr><td>normal_staining<a name=\"normal_staining\"> </a></td><td>Normal staining</td><td/></tr><tr><td>loss_of_staining<a name=\"loss_of_staining\"> </a></td><td>Loss of staining</td><td/></tr></table></div>"
  },
  "extension": [
    {
      "url": "http://hl7.org/fhir/StructureDefinition/valueset-oid",
      "valueUri": "2.16.840.1.113883.4.642.2.0"
    }
  ],
  "url": "http://hl7.org/fhir/ValueSet/msh2",
  "version": "0.5.0",
  "name": "Msh2",
  "publisher": "HL7 (FHIR Project)",
  "contact": [
    {
      "telecom": [
        {
          "system": "url",
          "value": "http://hl7.org/fhir"
        },
        {
          "system": "email",
          "value": "fhir@lists.hl7.org"
        }
      ]
    }
  ],
  "description": "A code that indicates MSH-2 testing",
  "status": "draft",
  "experimental": false,
  "date": "2015-07-14T16:14:24+00:00",
  "define": {
    "system": "http://hl7.org/fhir/msh2",
    "version": "0.5.0",
    "caseSensitive": true,
    "concept": [
      {
        "code": "not_tested",
        "display": "Not tested"
      },
      {
        "code": "normal_staining",
        "display": "Normal staining"
      },
      {
        "code": "loss_of_staining",
        "display": "Loss of staining"
      }
    ]
  }
}