{
  "resourceType": "ValueSet",
  "id": "knowledge-module-status",
  "meta": {
    "lastUpdated": "2015-07-14T16:14:24.220+00:00",
    "profile": [
      "http://hl7.org/fhir/StructureDefinition/valueset-shareable-definition"
    ]
  },
  "text": {
    "status": "generated",
    "div": "<div><h2>KnowledgeModuleStatus</h2><p>The status of the knowledge module</p><p>This value set has an inline code system http://hl7.org/fhir/knowledge-module-status, which defines the following codes:</p><table class=\"codes\"><tr><td><b>Code</b></td><td><b>Display</b></td><td><b>Definition</b></td></tr><tr><td>draft<a name=\"draft\"> </a></td><td>Draft</td><td>The module is in draft state</td></tr><tr><td>active<a name=\"active\"> </a></td><td>Active</td><td>The module is active</td></tr><tr><td>retired<a name=\"retired\"> </a></td><td>Retired</td><td>The module is retired</td></tr></table></div>"
  },
  "extension": [
    {
      "url": "http://hl7.org/fhir/StructureDefinition/valueset-oid",
      "valueUri": "2.16.840.1.113883.4.642.2.0"
    }
  ],
  "url": "http://hl7.org/fhir/ValueSet/knowledge-module-status",
  "version": "0.5.0",
  "name": "KnowledgeModuleStatus",
  "publisher": "HL7 (FHIR Project)",
  "contact": [
    {
      "telecom": [
        {
          "system": "url",
          "value": "http://hl7.org/fhir"
        },
        {
          "system": "email",
          "value": "fhir@lists.hl7.org"
        }
      ]
    }
  ],
  "description": "The status of the knowledge module",
  "status": "draft",
  "experimental": false,
  "date": "2015-07-14T16:14:24+00:00",
  "define": {
    "system": "http://hl7.org/fhir/knowledge-module-status",
    "version": "0.5.0",
    "caseSensitive": true,
    "concept": [
      {
        "code": "draft",
        "display": "Draft",
        "definition": "The module is in draft state"
      },
      {
        "code": "active",
        "display": "Active",
        "definition": "The module is active"
      },
      {
        "code": "retired",
        "display": "Retired",
        "definition": "The module is retired"
      }
    ]
  }
}