{
  "resourceType": "ValueSet",
  "id": "udi",
  "meta": {
    "lastUpdated": "2015-07-14T16:14:24.220+00:00",
    "profile": [
      "http://hl7.org/fhir/StructureDefinition/valueset-shareable-definition"
    ]
  },
  "text": {
    "status": "generated",
    "div": "<div><h2>UDI Codes</h2><p>This value set includes sample UDI codes.</p><p><b>Copyright Statement:</b> This is an example set</p><p>This value set has an inline code system http://hl7.org/fhir/ex-udi, which defines the following codes:</p><table class=\"codes\"><tr><td><b>Code</b></td><td><b>Definition</b></td></tr><tr><td>{01}123456789<a name=\".12301.125123456789\"> </a></td><td/></tr></table></div>"
  },
  "extension": [
    {
      "url": "http://hl7.org/fhir/StructureDefinition/valueset-oid",
      "valueUri": "2.16.840.1.113883.4.642.2.465"
    }
  ],
  "url": "http://hl7.org/fhir/ValueSet/udi",
  "version": "0.5.0",
  "name": "UDI Codes",
  "publisher": "Financial Management",
  "contact": [
    {
      "telecom": [
        {
          "system": "url",
          "value": "http://hl7.org/fhir"
        }
      ]
    }
  ],
  "description": "This value set includes sample UDI codes.",
  "copyright": "This is an example set",
  "status": "draft",
  "experimental": true,
  "date": "2015-07-14T16:14:24+00:00",
  "define": {
    "extension": [
      {
        "url": "http://hl7.org/fhir/StructureDefinition/valueset-oid",
        "valueUri": "urn:oid:2.16.840.1.113883.4.642.1.465"
      }
    ],
    "system": "http://hl7.org/fhir/ex-udi",
    "caseSensitive": true,
    "concept": [
      {
        "code": "{01}123456789"
      }
    ]
  }
}