<?xml version="1.0" encoding="UTF-8"?><svg xmlns="http://www.w3.org/2000/svg" xmlns:xlink="http://www.w3.org/1999/xlink" version="1.1" width="1008.0" height="538.0">  <defs>
    <filter id="shadow1" x="0" y="0" width="200%" height="200%">
      <feOffset result="offOut" in="SourceGraphic" dx="3" dy="3" />
      <feColorMatrix result="matrixOut" in="offOut" type="matrix" values="0.2 0 0 0 0 0 0.2 0 0 0 0 0 0.2 0 0 0 0 0 1 0" />
      <feGaussianBlur result="blurOut" in="matrixOut" stdDeviation="2" />
      <feBlend in="SourceGraphic" in2="blurOut" mode="normal" />
    </filter>
  </defs><rect x="190.0" y="0.0" rx="4" ry="4" width="256.0" height="246.0" filter="url(#shadow1)" style="fill:#f0f8ff;stroke:black;stroke-width:1"/><line x1="190.0" y1="28.0" x2="446.0" y2="28.0" style="stroke:dimgrey;stroke-width:1"/><text x="318.0" y="20.0" fill="black" class="diagram-class-title  diagram-class-resource">ValueSet<tspan class="diagram-class-title-link"> (<a xlink:href="domainresource.html" class="diagram-class-reference">DomainResource</a>)</tspan></text><text x="196.0" y="42.0" fill="black" class="diagram-class-detail"><a xlink:href="valueset-definitions.html#ValueSet.url"><title>An absolute uri that is used to identify this value set when it is referenced in a specification, model, design or an instance (should be globally unique URI, and can be urn:uuid: or urn:oid:)</title>url</a> : <a xlink:href="datatypes.html#uri">uri</a> 0..1</text><text x="196.0" y="56.0" fill="black" class="diagram-class-detail"><a xlink:href="valueset-definitions.html#ValueSet.identifier"><title>Formal identifier that is used to identify this value set when it is represented in other formats, or referenced in a specification, model, design or an instance</title>identifier</a> : <a xlink:href="datatypes.html#Identifier">Identifier</a> 0..1</text><text x="196.0" y="70.0" fill="black" class="diagram-class-detail"><a xlink:href="valueset-definitions.html#ValueSet.version"><title>Used to identify this version of the value set when it is referenced in a specification, model, design or instance. This is an arbitrary value managed by the profile author manually and the value should be a timestamp</title>version</a> : <a xlink:href="datatypes.html#string">string</a> 0..1</text><text x="196.0" y="84.0" fill="black" class="diagram-class-detail"><a xlink:href="valueset-definitions.html#ValueSet.name"><title>A free text natural language name describing the value set</title>name</a> : <a xlink:href="datatypes.html#string">string</a> 0..1</text><text x="196.0" y="98.0" fill="black" class="diagram-class-detail"><a xlink:href="valueset-definitions.html#ValueSet.useContext"><title>The content was developed with a focus and intent of supporting the contexts that are listed. These terms may be used to assist with indexing and searching of value set definitions</title>useContext</a> : <a xlink:href="datatypes.html#CodeableConcept">CodeableConcept</a> 0..* « <a xlink:href="valueset-use-context.html"><title>Indicates the countries, regions, disciplines and other aspects of use this artifact is targeted for use within</title>Context of Use ValueSet</a>+ »</text><text x="196.0" y="112.0" fill="black" class="diagram-class-detail"><a xlink:href="valueset-definitions.html#ValueSet.immutable"><title>If this is set to &#39;true&#39;, then no new versions of the content logical definition can be created.  Note: Other metadata might still change</title>immutable</a> : <a xlink:href="datatypes.html#boolean">boolean</a> 0..1</text><text x="196.0" y="126.0" fill="black" class="diagram-class-detail"><a xlink:href="valueset-definitions.html#ValueSet.publisher"><title>The name of the individual or organization that published the value set</title>publisher</a> : <a xlink:href="datatypes.html#string">string</a> 0..1</text><text x="196.0" y="140.0" fill="black" class="diagram-class-detail"><a xlink:href="valueset-definitions.html#ValueSet.description"><title>A free text natural language description of the use of the value set - reason for definition, &quot;the semantic space&quot; to be included in the value set, conditions of use, etc. The description may include a list of expected usages for the value set and can also describe the approach taken to build the value set</title>description</a> : <a xlink:href="datatypes.html#string">string</a> 0..1</text><text x="196.0" y="154.0" fill="black" class="diagram-class-detail"><a xlink:href="valueset-definitions.html#ValueSet.requirements"><title>Explains why this value set is needed and why it&#39;s been constrained as it has</title>requirements</a> : <a xlink:href="datatypes.html#string">string</a> 0..1</text><text x="196.0" y="168.0" fill="black" class="diagram-class-detail"><a xlink:href="valueset-definitions.html#ValueSet.copyright"><title>A copyright statement relating to the value set and/or its contents. Copyright statements are generally legal restrictions on the use and publishing of the value set</title>copyright</a> : <a xlink:href="datatypes.html#string">string</a> 0..1</text><text x="196.0" y="182.0" fill="black" class="diagram-class-detail"><a xlink:href="valueset-definitions.html#ValueSet.status"><title>The status of the value set (this element modifies the meaning of other elements)</title>status</a> : <a xlink:href="datatypes.html#code">code</a> 1..1 « <a xlink:href="valueset-conformance-resource-status.html"><title>The lifecycle status of a Value Set or Concept Map</title>ConformanceResourceStatus</a> »</text><text x="196.0" y="196.0" fill="black" class="diagram-class-detail"><a xlink:href="valueset-definitions.html#ValueSet.experimental"><title>This valueset was authored for testing purposes (or education/evaluation/marketing), and is not intended to be used for genuine usage</title>experimental</a> : <a xlink:href="datatypes.html#boolean">boolean</a> 0..1</text><text x="196.0" y="210.0" fill="black" class="diagram-class-detail"><a xlink:href="valueset-definitions.html#ValueSet.extensible"><title>Whether this is intended to be used with an extensible binding or not</title>extensible</a> : <a xlink:href="datatypes.html#boolean">boolean</a> 0..1</text><text x="196.0" y="224.0" fill="black" class="diagram-class-detail"><a xlink:href="valueset-definitions.html#ValueSet.date"><title>The date that the value set status was last changed</title>date</a> : <a xlink:href="datatypes.html#dateTime">dateTime</a> 0..1</text><text x="196.0" y="238.0" fill="black" class="diagram-class-detail"><a xlink:href="valueset-definitions.html#ValueSet.lockedDate"><title>If a Locked Date is defined, then the Content Logical Definition must be evaluated using the current version of all referenced code system(s) and value sets as of the Locked Date</title>lockedDate</a> : <a xlink:href="datatypes.html#date">date</a> 0..1</text><rect x="510.0" y="0.0" rx="4" ry="4" width="116.0" height="64.0" filter="url(#shadow1)" style="fill:#f0f8ff;stroke:black;stroke-width:1"/><line x1="510.0" y1="28.0" x2="626.0" y2="28.0" style="stroke:dimgrey;stroke-width:1"/><text x="568.0" y="20.0" fill="black" class="diagram-class-title">Contact</text><text x="516.0" y="42.0" fill="black" class="diagram-class-detail"><a xlink:href="valueset-definitions.html#ValueSet.contact.name"><title>The name of an individual to contact regarding the value set</title>name</a> : <a xlink:href="datatypes.html#string">string</a> 0..1</text><text x="516.0" y="56.0" fill="black" class="diagram-class-detail"><a xlink:href="valueset-definitions.html#ValueSet.contact.telecom"><title>Contact details for individual (if a name was provided) or the publisher</title>telecom</a> : <a xlink:href="datatypes.html#ContactPoint">ContactPoint</a> 0..*</text><rect x="0.0" y="0.0" rx="4" ry="4" width="120.0" height="78.0" filter="url(#shadow1)" style="fill:#f0f8ff;stroke:black;stroke-width:1"/><line x1="0.0" y1="28.0" x2="120.0" y2="28.0" style="stroke:dimgrey;stroke-width:1"/><text x="60.0" y="20.0" fill="black" class="diagram-class-title">Define</text><text x="6.0" y="42.0" fill="black" class="diagram-class-detail"><a xlink:href="valueset-definitions.html#ValueSet.define.system"><title>An absolute URI that is used to reference this code system, including in [Coding]{datatypes.html#Coding}.system</title>system</a> : <a xlink:href="datatypes.html#uri">uri</a> 1..1</text><text x="6.0" y="56.0" fill="black" class="diagram-class-detail"><a xlink:href="valueset-definitions.html#ValueSet.define.version"><title>The version of this code system that defines the codes. Note that the version is optional because a well maintained code system does not suffer from versioning, and therefore the version does not need to be maintained. However many code systems are not well maintained, and the version needs to be defined and tracked</title>version</a> : <a xlink:href="datatypes.html#string">string</a> 0..1</text><text x="6.0" y="70.0" fill="black" class="diagram-class-detail"><a xlink:href="valueset-definitions.html#ValueSet.define.caseSensitive"><title>If code comparison is case sensitive when codes within this system are compared to each other</title>caseSensitive</a> : <a xlink:href="datatypes.html#boolean">boolean</a> 0..1</text><rect x="0.0" y="140.0" rx="4" ry="4" width="104.0" height="92.0" filter="url(#shadow1)" style="fill:#f0f8ff;stroke:black;stroke-width:1"/><line x1="0.0" y1="168.0" x2="104.0" y2="168.0" style="stroke:dimgrey;stroke-width:1"/><text x="52.0" y="160.0" fill="black" class="diagram-class-title">ConceptDefinition</text><text x="6.0" y="182.0" fill="black" class="diagram-class-detail"><a xlink:href="valueset-definitions.html#ValueSet.define.concept.code"><title>Code that identifies concept</title>code</a> : <a xlink:href="datatypes.html#code">code</a> 1..1</text><text x="6.0" y="196.0" fill="black" class="diagram-class-detail"><a xlink:href="valueset-definitions.html#ValueSet.define.concept.abstract"><title>If this code is not for use as a real concept</title>abstract</a> : <a xlink:href="datatypes.html#boolean">boolean</a> 0..1</text><text x="6.0" y="210.0" fill="black" class="diagram-class-detail"><a xlink:href="valueset-definitions.html#ValueSet.define.concept.display"><title>Text to Display to the user</title>display</a> : <a xlink:href="datatypes.html#string">string</a> 0..1</text><text x="6.0" y="224.0" fill="black" class="diagram-class-detail"><a xlink:href="valueset-definitions.html#ValueSet.define.concept.definition"><title>The formal definition of the concept. Formal definitions are not required, because of the prevalence of legacy systems without them, but they are highly recommended, as without them there is no formal meaning associated with the concept</title>definition</a> : <a xlink:href="datatypes.html#string">string</a> 0..1</text><rect x="0.0" y="280.0" rx="4" ry="4" width="160.0" height="78.0" filter="url(#shadow1)" style="fill:#f0f8ff;stroke:black;stroke-width:1"/><line x1="0.0" y1="308.0" x2="160.0" y2="308.0" style="stroke:dimgrey;stroke-width:1"/><text x="80.0" y="300.0" fill="black" class="diagram-class-title">Designation</text><text x="6.0" y="322.0" fill="black" class="diagram-class-detail"><a xlink:href="valueset-definitions.html#ValueSet.define.concept.designation.language"><title>The language this designation is defined for</title>language</a> : <a xlink:href="datatypes.html#code">code</a> 0..1 « <a xlink:href="http://tools.ietf.org/html/bcp47"><title>A human language</title>Language</a> »</text><text x="6.0" y="336.0" fill="black" class="diagram-class-detail"><a xlink:href="valueset-definitions.html#ValueSet.define.concept.designation.use"><title>A code that details how this designation would be used</title>use</a> : <a xlink:href="datatypes.html#Coding">Coding</a> 0..1 « <a xlink:href="valueset-designation-use.html"><title>Details of how a designation would be used</title>Designation Use</a>+ »</text><text x="6.0" y="350.0" fill="black" class="diagram-class-detail"><a xlink:href="valueset-definitions.html#ValueSet.define.concept.designation.value"><title>The text value for this designation</title>value</a> : <a xlink:href="datatypes.html#string">string</a> 1..1</text><rect x="230.0" y="290.0" rx="4" ry="4" width="76.0" height="50.0" filter="url(#shadow1)" style="fill:#f0f8ff;stroke:black;stroke-width:1"/><line x1="230.0" y1="318.0" x2="306.0" y2="318.0" style="stroke:dimgrey;stroke-width:1"/><text x="268.0" y="310.0" fill="black" class="diagram-class-title">Compose</text><text x="236.0" y="332.0" fill="black" class="diagram-class-detail"><a xlink:href="valueset-definitions.html#ValueSet.compose.import"><title>Includes the contents of the referenced value set as a part of the contents of this value set. This is an absolute URI that is a reference to ValueSet.uri</title>import</a> : <a xlink:href="datatypes.html#uri">uri</a> 0..*</text><rect x="240.0" y="390.0" rx="4" ry="4" width="92.0" height="64.0" filter="url(#shadow1)" style="fill:#f0f8ff;stroke:black;stroke-width:1"/><line x1="240.0" y1="418.0" x2="332.0" y2="418.0" style="stroke:dimgrey;stroke-width:1"/><text x="286.0" y="410.0" fill="black" class="diagram-class-title">ConceptSet</text><text x="246.0" y="432.0" fill="black" class="diagram-class-detail"><a xlink:href="valueset-definitions.html#ValueSet.compose.include.system"><title>An absolute URI which is the code system from which the selected codes come from</title>system</a> : <a xlink:href="datatypes.html#uri">uri</a> 1..1</text><text x="246.0" y="446.0" fill="black" class="diagram-class-detail"><a xlink:href="valueset-definitions.html#ValueSet.compose.include.version"><title>The version of the code system that the codes are selected from</title>version</a> : <a xlink:href="datatypes.html#string">string</a> 0..1</text><rect x="70.0" y="390.0" rx="4" ry="4" width="92.0" height="64.0" filter="url(#shadow1)" style="fill:#f0f8ff;stroke:black;stroke-width:1"/><line x1="70.0" y1="418.0" x2="162.0" y2="418.0" style="stroke:dimgrey;stroke-width:1"/><text x="116.0" y="410.0" fill="black" class="diagram-class-title">ConceptReference</text><text x="76.0" y="432.0" fill="black" class="diagram-class-detail"><a xlink:href="valueset-definitions.html#ValueSet.compose.include.concept.code"><title>Specifies a code for the concept to be included or excluded</title>code</a> : <a xlink:href="datatypes.html#code">code</a> 1..1</text><text x="76.0" y="446.0" fill="black" class="diagram-class-detail"><a xlink:href="valueset-definitions.html#ValueSet.compose.include.concept.display"><title>The text to display to the user for this concept in the context of this valueset. If no display is provided, then applications using the value set use the display specified for the code by the system</title>display</a> : <a xlink:href="datatypes.html#string">string</a> 0..1</text><rect x="420.0" y="420.0" rx="4" ry="4" width="140.0" height="78.0" filter="url(#shadow1)" style="fill:#f0f8ff;stroke:black;stroke-width:1"/><line x1="420.0" y1="448.0" x2="560.0" y2="448.0" style="stroke:dimgrey;stroke-width:1"/><text x="490.0" y="440.0" fill="black" class="diagram-class-title">Filter</text><text x="426.0" y="462.0" fill="black" class="diagram-class-detail"><a xlink:href="valueset-definitions.html#ValueSet.compose.include.filter.property"><title>A code that identifies a property defined in the code system</title>property</a> : <a xlink:href="datatypes.html#code">code</a> 1..1</text><text x="426.0" y="476.0" fill="black" class="diagram-class-detail"><a xlink:href="valueset-definitions.html#ValueSet.compose.include.filter.op"><title>The kind of operation to perform as a part of the filter criteria</title>op</a> : <a xlink:href="datatypes.html#code">code</a> 1..1 « <a xlink:href="valueset-filter-operator.html"><title>The kind of operation to perform as a part of a property based filter</title>FilterOperator</a> »</text><text x="426.0" y="490.0" fill="black" class="diagram-class-detail"><a xlink:href="valueset-definitions.html#ValueSet.compose.include.filter.value"><title>The match value may be either a code defined by the system, or a string value which is used a regex match on the literal string of the property value</title>value</a> : <a xlink:href="datatypes.html#code">code</a> 1..1</text><rect x="500.0" y="185.0" rx="4" ry="4" width="108.0" height="92.0" filter="url(#shadow1)" style="fill:#f0f8ff;stroke:black;stroke-width:1"/><line x1="500.0" y1="213.0" x2="608.0" y2="213.0" style="stroke:dimgrey;stroke-width:1"/><text x="554.0" y="205.0" fill="black" class="diagram-class-title">Expansion</text><text x="506.0" y="227.0" fill="black" class="diagram-class-detail"><a xlink:href="valueset-definitions.html#ValueSet.expansion.identifier"><title>An identifier that uniquely identifies this expansion of the valueset. Systems may re-use the same identifier as long as the expansion and the definition remain the same, but are not required to do so</title>identifier</a> : <a xlink:href="datatypes.html#uri">uri</a> 1..1</text><text x="506.0" y="241.0" fill="black" class="diagram-class-detail"><a xlink:href="valueset-definitions.html#ValueSet.expansion.timestamp"><title>The time at which the expansion was produced by the expanding system</title>timestamp</a> : <a xlink:href="datatypes.html#dateTime">dateTime</a> 1..1</text><text x="506.0" y="255.0" fill="black" class="diagram-class-detail"><a xlink:href="valueset-definitions.html#ValueSet.expansion.total"><title>The total nober of concepts in the expansion. If the number of concept nodes in this resource is less than the stated number, then the server can return more using the offset parameter</title>total</a> : <a xlink:href="datatypes.html#integer">integer</a> 0..1</text><text x="506.0" y="269.0" fill="black" class="diagram-class-detail"><a xlink:href="valueset-definitions.html#ValueSet.expansion.count"><title>If paging is being used, the offset at which this resource starts - e.g. this resource is a partial view into the expansion. If paging is not being used, this element SHALL not be present</title>count</a> : <a xlink:href="datatypes.html#integer">integer</a> 0..1</text><rect x="480.0" y="80.0" rx="4" ry="4" width="228.0" height="64.0" filter="url(#shadow1)" style="fill:#f0f8ff;stroke:black;stroke-width:1"/><line x1="480.0" y1="108.0" x2="708.0" y2="108.0" style="stroke:dimgrey;stroke-width:1"/><text x="594.0" y="100.0" fill="black" class="diagram-class-title">Parameter</text><text x="486.0" y="122.0" fill="black" class="diagram-class-detail"><a xlink:href="valueset-definitions.html#ValueSet.expansion.parameter.name"><title>The name of the parameter</title>name</a> : <a xlink:href="datatypes.html#string">string</a> 1..1</text><text x="486.0" y="136.0" fill="black" class="diagram-class-detail"><a xlink:href="valueset-definitions.html#ValueSet.expansion.parameter.value_x_"><title>The value of the parameter</title>value[x]</a> : <a xlink:href="datatypes.html#string">string</a>|<a xlink:href="datatypes.html#boolean">boolean</a>|<a xlink:href="datatypes.html#integer">integer</a>|<a xlink:href="datatypes.html#decimal">decimal</a>|<a xlink:href="datatypes.html#uri">uri</a>|<a xlink:href="datatypes.html#code">code</a> 0..1</text><rect x="440.0" y="290.0" rx="4" ry="4" width="100.0" height="106.0" filter="url(#shadow1)" style="fill:#f0f8ff;stroke:black;stroke-width:1"/><line x1="440.0" y1="318.0" x2="540.0" y2="318.0" style="stroke:dimgrey;stroke-width:1"/><text x="490.0" y="310.0" fill="black" class="diagram-class-title">Contains</text><text x="446.0" y="332.0" fill="black" class="diagram-class-detail"><a xlink:href="valueset-definitions.html#ValueSet.expansion.contains.system"><title>An absolute URI which is the code system in which the code for this item in the expansion is defined</title>system</a> : <a xlink:href="datatypes.html#uri">uri</a> 0..1</text><text x="446.0" y="346.0" fill="black" class="diagram-class-detail"><a xlink:href="valueset-definitions.html#ValueSet.expansion.contains.abstract"><title>If true, this entry is included in the expansion for navigational purposes, and the user cannot select the code directly as a proper value</title>abstract</a> : <a xlink:href="datatypes.html#boolean">boolean</a> 0..1</text><text x="446.0" y="360.0" fill="black" class="diagram-class-detail"><a xlink:href="valueset-definitions.html#ValueSet.expansion.contains.version"><title>The version of this code system that defined this code and/or display. This should only be used with code systems that do not enforce concept permanence</title>version</a> : <a xlink:href="datatypes.html#string">string</a> 0..1</text><text x="446.0" y="374.0" fill="black" class="diagram-class-detail"><a xlink:href="valueset-definitions.html#ValueSet.expansion.contains.code"><title>Code - if blank, this is not a choosable code</title>code</a> : <a xlink:href="datatypes.html#code">code</a> 0..1</text><text x="446.0" y="388.0" fill="black" class="diagram-class-detail"><a xlink:href="valueset-definitions.html#ValueSet.expansion.contains.display"><title>User display for the concept</title>display</a> : <a xlink:href="datatypes.html#string">string</a> 0..1</text><line x1="446.0" y1="76.40800000000002" x2="510.0" y2="53.11200000000002" style="stroke:navy;stroke-width:1"/><polygon points="446.0,76.40800000000002 452.0,80.40800000000002 458.0,76.40800000000002 452.0,72.40800000000002 446.0,76.40800000000002" style="fill:navy;stroke:navy;stroke-width:1" transform="rotate(-20.001505936653842 446.0 76.40800000000002)"/><rect x="464.0" y="57.0" width="28.0" height="18.0" style="fill:white;stroke:black;stroke-width:0"/><text x="478.0" y="67.0" fill="black" class="diagram-class-linkage"><a xlink:href="valueset-definitions.html#ValueSet.contact"><title>Contacts to assist a user in finding and communicating with the publisher</title>contact</a></text><text x="490.0" y="49.11200000000002" fill="black" class="diagram-class-linkage">0..*</text><line x1="61.68421052631579" y1="232.0" x2="71.78947368421052" y2="280.0" style="stroke:navy;stroke-width:1"/><polygon points="61.68421052631579,232.0 67.68421052631578,236.0 73.68421052631578,232.0 67.68421052631578,228.0 61.68421052631579,232.0" style="fill:navy;stroke:navy;stroke-width:1" transform="rotate(78.11134196037203 61.68421052631579 232.0)"/><rect x="44.0" y="249.0" width="44.0" height="18.0" style="fill:white;stroke:black;stroke-width:0"/><text x="66.0" y="259.0" fill="black" class="diagram-class-linkage"><a xlink:href="valueset-definitions.html#ValueSet.define.concept.designation"><title>Additional representations for the concept - other languages, aliases, specialized purposes, used for particular purposes, etc</title>designation</a></text><text x="71.78947368421052" y="276.0" fill="black" class="diagram-class-linkage">0..*</text><line x1="104.0" y1="161.0" x2="164.0" y2="161.0" style="stroke:navy;stroke-width:1"/><line x1="164.0" y1="161.0" x2="164.0" y2="211.0" style="stroke:navy;stroke-width:1"/><line x1="164.0" y1="211.0" x2="104.0" y2="211.0" style="stroke:navy;stroke-width:1"/><polygon points="104.0,161.0 110.0,165.0 116.0,161.0 110.0,157.0 104.0,161.0" style="fill:navy;stroke:navy;stroke-width:1" transform="rotate(0.0 104.0 161.0)"/><rect x="150.0" y="179.0" width="28.0" height="18.0" style="fill:white;stroke:black;stroke-width:0"/><text x="164.0" y="189.0" fill="black" class="diagram-class-linkage"><a xlink:href="valueset-definitions.html#ValueSet.define.concept.concept"><title>Child Concepts (is-a / contains)</title>concept</a></text><text x="119.0" y="207.0" fill="black" class="diagram-class-linkage">0..*</text><line x1="57.87755102040816" y1="78.0" x2="54.50340136054422" y2="140.0" style="stroke:navy;stroke-width:1"/><polygon points="57.87755102040816,78.0 63.87755102040816,82.0 69.87755102040816,78.0 63.87755102040816,74.0 57.87755102040816,78.0" style="fill:navy;stroke:navy;stroke-width:1" transform="rotate(93.1150647599055 57.87755102040816 78.0)"/><rect x="42.0" y="102.0" width="28.0" height="18.0" style="fill:white;stroke:black;stroke-width:0"/><text x="56.0" y="112.0" fill="black" class="diagram-class-linkage"><a xlink:href="valueset-definitions.html#ValueSet.define.concept"><title>Concepts in the code system</title>concept</a></text><text x="54.50340136054422" y="136.0" fill="black" class="diagram-class-linkage">0..*</text><line x1="190.0" y1="81.32558139534885" x2="120.0" y2="58.53488372093024" style="stroke:navy;stroke-width:1"/><polygon points="190.0,81.32558139534885 196.0,85.32558139534885 202.0,81.32558139534885 196.0,77.32558139534885 190.0,81.32558139534885" style="fill:navy;stroke:navy;stroke-width:1" transform="rotate(-161.96571443287013 190.0 81.32558139534885)"/><rect x="143.0" y="62.0" width="24.0" height="18.0" style="fill:white;stroke:black;stroke-width:0"/><text x="155.0" y="72.0" fill="black" class="diagram-class-linkage"><a xlink:href="valueset-definitions.html#ValueSet.define"><title>A definition of an code system, inlined into the value set</title>define</a></text><text x="135.0" y="54.53488372093024" fill="black" class="diagram-class-linkage">0..1</text><line x1="104.81553398058253" y1="390.0" x2="93.63106796116506" y2="358.0" style="stroke:navy;stroke-width:1"/><polygon points="104.81553398058253,390.0 110.81553398058253,394.0 116.81553398058253,390.0 110.81553398058253,386.0 104.81553398058253,390.0" style="fill:navy;stroke:navy;stroke-width:1" transform="rotate(-109.26526430918003 104.81553398058253 390.0)"/><rect x="77.0" y="367.0" width="44.0" height="18.0" style="fill:white;stroke:black;stroke-width:0"/><text x="99.0" y="377.0" fill="black" class="diagram-class-linkage"><a xlink:href="valueset-definitions.html#ValueSet.compose.include.concept.designation"><title>Additional representations for this concept when used in this value set - other languages, aliases, specialized purposes, used for particular purposes, etc</title>designation</a></text><text x="93.63106796116506" y="372.0" fill="black" class="diagram-class-linkage">0..*</text><line x1="240.0" y1="422.0" x2="162.0" y2="422.0" style="stroke:navy;stroke-width:1"/><polygon points="240.0,422.0 246.0,426.0 252.0,422.0 246.0,418.0 240.0,422.0" style="fill:navy;stroke:navy;stroke-width:1" transform="rotate(180.0 240.0 422.0)"/><rect x="187.0" y="415.0" width="28.0" height="18.0" style="fill:white;stroke:black;stroke-width:0"/><text x="201.0" y="425.0" fill="black" class="diagram-class-linkage"><a xlink:href="valueset-definitions.html#ValueSet.compose.include.concept"><title>Specifies a concept to be included or excluded</title>concept</a></text><text x="177.0" y="418.0" fill="black" class="diagram-class-linkage">0..*</text><line x1="332.0" y1="430.34313725490193" x2="420.0" y2="446.30392156862746" style="stroke:navy;stroke-width:1"/><polygon points="332.0,430.34313725490193 338.0,434.34313725490193 344.0,430.34313725490193 338.0,426.34313725490193 332.0,430.34313725490193" style="fill:navy;stroke:navy;stroke-width:1" transform="rotate(10.280128705194606 332.0 430.34313725490193)"/><rect x="364.0" y="431.0" width="24.0" height="18.0" style="fill:white;stroke:black;stroke-width:0"/><text x="376.0" y="441.0" fill="black" class="diagram-class-linkage"><a xlink:href="valueset-definitions.html#ValueSet.compose.include.filter"><title>Select concepts by specify a matching criteria based on the properties (including relationships) defined by the system. If multiple filters are specified, they SHALL all be true</title>filter</a></text><text x="400.0" y="442.30392156862746" fill="black" class="diagram-class-linkage">0..*</text><line x1="247.20560747663552" y1="340.0000000000002" x2="255.6168224299065" y2="389.9999999999998" style="stroke:navy;stroke-width:1"/><polygon points="247.20560747663552,340.0000000000002 253.20560747663552,344.0000000000002 259.2056074766355,340.0000000000002 253.20560747663552,336.0000000000002 247.20560747663552,340.0000000000002" style="fill:navy;stroke:navy;stroke-width:1" transform="rotate(80.45086607126403 247.20560747663552 340.0000000000002)"/><rect x="237.0" y="358.0" width="28.0" height="18.0" style="fill:white;stroke:black;stroke-width:0"/><text x="251.0" y="368.0" fill="black" class="diagram-class-linkage"><a xlink:href="valueset-definitions.html#ValueSet.compose.include"><title>Include one or more codes from a code system</title>include</a></text><text x="255.6168224299065" y="385.9999999999998" fill="black" class="diagram-class-linkage">0..*</text><line x1="297.2056074766355" y1="340.0000000000002" x2="305.6168224299065" y2="389.9999999999998" style="stroke:navy;stroke-width:1"/><polygon points="297.2056074766355,340.0000000000002 303.2056074766355,344.0000000000002 309.2056074766355,340.0000000000002 303.2056074766355,336.0000000000002 297.2056074766355,340.0000000000002" style="fill:navy;stroke:navy;stroke-width:1" transform="rotate(80.45086607126403 297.2056074766355 340.0000000000002)"/><rect x="287.0" y="372.0" width="28.0" height="18.0" style="fill:white;stroke:black;stroke-width:0"/><text x="301.0" y="382.0" fill="black" class="diagram-class-linkage"><a xlink:href="valueset-definitions.html#ValueSet.compose.exclude"><title>Exclude one or more codes from the value set</title>exclude</a></text><text x="305.6168224299065" y="385.9999999999998" fill="black" class="diagram-class-linkage">0..*</text><line x1="285.96875" y1="246.0" x2="274.51041666666663" y2="290.0" style="stroke:navy;stroke-width:1"/><polygon points="285.96875,246.0 291.96875,250.0 297.96875,246.0 291.96875,242.0 285.96875,246.0" style="fill:navy;stroke:navy;stroke-width:1" transform="rotate(104.59657552549423 285.96875 246.0)"/><rect x="266.0" y="261.0" width="28.0" height="18.0" style="fill:white;stroke:black;stroke-width:0"/><text x="280.0" y="271.0" fill="black" class="diagram-class-linkage"><a xlink:href="valueset-definitions.html#ValueSet.compose"><title>When value set includes codes from elsewhere</title>compose</a></text><text x="274.51041666666663" y="286.0" fill="black" class="diagram-class-linkage">0..1</text><line x1="569.4621848739496" y1="185.0" x2="583.2436974789916" y2="144.0" style="stroke:navy;stroke-width:1"/><polygon points="569.4621848739496,185.0 575.4621848739496,189.0 581.4621848739496,185.0 575.4621848739496,181.0 569.4621848739496,185.0" style="fill:navy;stroke:navy;stroke-width:1" transform="rotate(-71.42072961955527 569.4621848739496 185.0)"/><rect x="558.0" y="157.0" width="36.0" height="18.0" style="fill:white;stroke:black;stroke-width:0"/><text x="576.0" y="167.0" fill="black" class="diagram-class-linkage"><a xlink:href="valueset-definitions.html#ValueSet.expansion.parameter"><title>A Parameter that controlled the expansion process. These parameters may be used by users of expanded value sets to check whether the expansion is suitable for a particular purpose, or to pick the correct expansion</title>parameter</a></text><text x="583.2436974789916" y="158.0" fill="black" class="diagram-class-linkage">0..*</text><line x1="540.0" y1="318.0" x2="600.0" y2="318.0" style="stroke:navy;stroke-width:1"/><line x1="600.0" y1="318.0" x2="600.0" y2="368.0" style="stroke:navy;stroke-width:1"/><line x1="600.0" y1="368.0" x2="540.0" y2="368.0" style="stroke:navy;stroke-width:1"/><polygon points="540.0,318.0 546.0,322.0 552.0,318.0 546.0,314.0 540.0,318.0" style="fill:navy;stroke:navy;stroke-width:1" transform="rotate(0.0 540.0 318.0)"/><rect x="584.0" y="336.0" width="32.0" height="18.0" style="fill:white;stroke:black;stroke-width:0"/><text x="600.0" y="346.0" fill="black" class="diagram-class-linkage"><a xlink:href="valueset-definitions.html#ValueSet.expansion.contains.contains"><title>Codes contained in this concept</title>contains</a></text><text x="555.0" y="364.0" fill="black" class="diagram-class-linkage">0..*</text><line x1="527.7142857142857" y1="277.0000000000001" x2="520.2857142857143" y2="289.9999999999999" style="stroke:navy;stroke-width:1"/><polygon points="527.7142857142857,277.0000000000001 533.7142857142857,281.0000000000001 539.7142857142857,277.0000000000001 533.7142857142857,273.0000000000001 527.7142857142857,277.0000000000001" style="fill:navy;stroke:navy;stroke-width:1" transform="rotate(119.74488129694237 527.7142857142857 277.0000000000001)"/><rect x="508.0" y="276.0" width="32.0" height="18.0" style="fill:white;stroke:black;stroke-width:0"/><text x="524.0" y="286.0" fill="black" class="diagram-class-linkage"><a xlink:href="valueset-definitions.html#ValueSet.expansion.contains"><title>The codes that are contained in the value set expansion</title>contains</a></text><text x="520.2857142857143" y="285.9999999999999" fill="black" class="diagram-class-linkage">0..*</text><line x1="446.0" y1="181.57627118644066" x2="500.0" y2="206.28813559322035" style="stroke:navy;stroke-width:1"/><polygon points="446.0,181.57627118644066 452.0,185.57627118644066 458.0,181.57627118644066 452.0,177.57627118644066 446.0,181.57627118644066" style="fill:navy;stroke:navy;stroke-width:1" transform="rotate(24.59011716619603 446.0 181.57627118644066)"/><rect x="455.0" y="186.0" width="36.0" height="18.0" style="fill:white;stroke:black;stroke-width:0"/><text x="473.0" y="196.0" fill="black" class="diagram-class-linkage"><a xlink:href="valueset-definitions.html#ValueSet.expansion"><title>A value set can also be &quot;expanded&quot;, where the value set is turned into a simple collection of enumerated codes. This element holds the expansion, if it has been performed</title>expansion</a></text><text x="480.0" y="202.28813559322035" fill="black" class="diagram-class-linkage">0..1</text></svg>