{
  "resourceType": "ValueSet",
  "id": "hspc-ReportingPriority",
  "meta": {
    "lastUpdated": "2015-07-14T16:14:24.220+00:00",
    "profile": [
      "http://hl7.org/fhir/StructureDefinition/valueset-shareable-definition"
    ]
  },
  "text": {
    "status": "generated",
    "div": "<div><p>This value set contains 15 concepts</p><table class=\"codes\"><tr><td><b>Code</b></td><td><b>System</b></td><td><b>Display</b></td></tr><tr><td><a href=\"v3/ActPriority/index.html.html#A\">A</a></td><td>http://hl7.org/fhir/v3/ActPriority</td><td>ASAP</td></tr><tr><td><a href=\"v3/ActPriority/index.html.html#CR\">CR</a></td><td>http://hl7.org/fhir/v3/ActPriority</td><td>callback results</td></tr><tr><td><a href=\"v3/ActPriority/index.html.html#CS\">CS</a></td><td>http://hl7.org/fhir/v3/ActPriority</td><td>callback for scheduling</td></tr><tr><td><a href=\"v3/ActPriority/index.html.html#CSP\">CSP</a></td><td>http://hl7.org/fhir/v3/ActPriority</td><td>callback placer for scheduling</td></tr><tr><td><a href=\"v3/ActPriority/index.html.html#CSR\">CSR</a></td><td>http://hl7.org/fhir/v3/ActPriority</td><td>contact recipient for scheduling</td></tr><tr><td><a href=\"v3/ActPriority/index.html.html#EL\">EL</a></td><td>http://hl7.org/fhir/v3/ActPriority</td><td>elective</td></tr><tr><td><a href=\"v3/ActPriority/index.html.html#EM\">EM</a></td><td>http://hl7.org/fhir/v3/ActPriority</td><td>emergency</td></tr><tr><td><a href=\"v3/ActPriority/index.html.html#P\">P</a></td><td>http://hl7.org/fhir/v3/ActPriority</td><td>preop</td></tr><tr><td><a href=\"v3/ActPriority/index.html.html#PRN\">PRN</a></td><td>http://hl7.org/fhir/v3/ActPriority</td><td>as needed</td></tr><tr><td><a href=\"v3/ActPriority/index.html.html#R\">R</a></td><td>http://hl7.org/fhir/v3/ActPriority</td><td>routine</td></tr><tr><td><a href=\"v3/ActPriority/index.html.html#RR\">RR</a></td><td>http://hl7.org/fhir/v3/ActPriority</td><td>rush reporting</td></tr><tr><td><a href=\"v3/ActPriority/index.html.html#S\">S</a></td><td>http://hl7.org/fhir/v3/ActPriority</td><td>stat</td></tr><tr><td><a href=\"v3/ActPriority/index.html.html#T\">T</a></td><td>http://hl7.org/fhir/v3/ActPriority</td><td>timing critical</td></tr><tr><td><a href=\"v3/ActPriority/index.html.html#UD\">UD</a></td><td>http://hl7.org/fhir/v3/ActPriority</td><td>use as directed</td></tr><tr><td><a href=\"v3/ActPriority/index.html.html#UR\">UR</a></td><td>http://hl7.org/fhir/v3/ActPriority</td><td>urgent</td></tr></table></div>"
  },
  "extension": [
    {
      "url": "http://hl7.org/fhir/StructureDefinition/valueset-oid",
      "valueUri": "2.16.840.1.113883.4.642.2.0"
    }
  ],
  "url": "http://hl7.org/fhir/ValueSet/hspc-ReportingPriority",
  "version": "0.01",
  "name": "ReportingPriority",
  "publisher": "Intermountain Healthcare",
  "contact": [
    {
      "telecom": [
        {
          "system": "url",
          "value": "http://www.clinicaleleement.com"
        }
      ]
    }
  ],
  "description": "Value Set Contents (Expansion) for ReportingPriority at Tue, Jul 14, 2015 16:16+0000",
  "copyright": "IHC",
  "status": "draft",
  "experimental": true,
  "date": "2014-06-25",
  "expansion": {
    "extension": [
      {
        "url": "http://hl7.org/fhir/StructureDefinition/valueset-expansionSource",
        "valueReference": {
          "reference": "ValueSet/valueset-hspc-ReportingPriority"
        }
      }
    ],
    "identifier": "urn:uuid:0a1ceca6-a1c7-4422-b2a1-2da2bc2b9725",
    "timestamp": "2015-07-03T23:51:44Z",
    "contains": [
      {
        "extension": [
          {
            "url": "http://hl7.org/fhir/StructureDefinition/valueset-definition",
            "valueString": "As soon as possible, next highest priority after stat."
          }
        ],
        "system": "http://hl7.org/fhir/v3/ActPriority",
        "code": "A",
        "display": "ASAP"
      },
      {
        "extension": [
          {
            "url": "http://hl7.org/fhir/StructureDefinition/valueset-definition",
            "valueString": "Filler should contact the placer as soon as results are available, even for preliminary results.  (Was \"C\" in HL7 verion 2.3's reporting priority.)"
          }
        ],
        "system": "http://hl7.org/fhir/v3/ActPriority",
        "code": "CR",
        "display": "callback results"
      },
      {
        "extension": [
          {
            "url": "http://hl7.org/fhir/StructureDefinition/valueset-definition",
            "valueString": "Filler should contact the placer (or target) to schedule the service.  (Was \"C\" in HL7 version 2.3's TQ-priority component.)"
          }
        ],
        "system": "http://hl7.org/fhir/v3/ActPriority",
        "code": "CS",
        "display": "callback for scheduling"
      },
      {
        "extension": [
          {
            "url": "http://hl7.org/fhir/StructureDefinition/valueset-definition",
            "valueString": "Filler should contact the placer to schedule the service.  (Was \"C\" in HL7 version 2.3's TQ-priority component.)"
          }
        ],
        "system": "http://hl7.org/fhir/v3/ActPriority",
        "code": "CSP",
        "display": "callback placer for scheduling"
      },
      {
        "extension": [
          {
            "url": "http://hl7.org/fhir/StructureDefinition/valueset-definition",
            "valueString": "Filler should contact the service recipient (target) to schedule the service.  (Was \"C\" in HL7 version 2.3's TQ-priority component.)"
          }
        ],
        "system": "http://hl7.org/fhir/v3/ActPriority",
        "code": "CSR",
        "display": "contact recipient for scheduling"
      },
      {
        "extension": [
          {
            "url": "http://hl7.org/fhir/StructureDefinition/valueset-definition",
            "valueString": "Beneficial to the patient but not essential for survival."
          }
        ],
        "system": "http://hl7.org/fhir/v3/ActPriority",
        "code": "EL",
        "display": "elective"
      },
      {
        "extension": [
          {
            "url": "http://hl7.org/fhir/StructureDefinition/valueset-definition",
            "valueString": "An unforeseen combination of circumstances or the resulting state that calls for immediate action."
          }
        ],
        "system": "http://hl7.org/fhir/v3/ActPriority",
        "code": "EM",
        "display": "emergency"
      },
      {
        "extension": [
          {
            "url": "http://hl7.org/fhir/StructureDefinition/valueset-definition",
            "valueString": "Used to indicate that a service is to be performed prior to a scheduled surgery.  When ordering a service and using the pre-op priority, a check is done to see the amount of time that must be allowed for performance of the service.  When the order is placed, a message can be generated indicating the time needed for the service so that it is not ordered in conflict with a scheduled operation."
          }
        ],
        "system": "http://hl7.org/fhir/v3/ActPriority",
        "code": "P",
        "display": "preop"
      },
      {
        "extension": [
          {
            "url": "http://hl7.org/fhir/StructureDefinition/valueset-definition",
            "valueString": "An \"as needed\" order should be accompanied by a description of what constitutes a need. This description is represented by an observation service predicate as a precondition."
          }
        ],
        "system": "http://hl7.org/fhir/v3/ActPriority",
        "code": "PRN",
        "display": "as needed"
      },
      {
        "extension": [
          {
            "url": "http://hl7.org/fhir/StructureDefinition/valueset-definition",
            "valueString": "Routine service, do at usual work hours."
          }
        ],
        "system": "http://hl7.org/fhir/v3/ActPriority",
        "code": "R",
        "display": "routine"
      },
      {
        "extension": [
          {
            "url": "http://hl7.org/fhir/StructureDefinition/valueset-definition",
            "valueString": "A report should be prepared and sent as quickly as possible."
          }
        ],
        "system": "http://hl7.org/fhir/v3/ActPriority",
        "code": "RR",
        "display": "rush reporting"
      },
      {
        "extension": [
          {
            "url": "http://hl7.org/fhir/StructureDefinition/valueset-definition",
            "valueString": "With highest priority (e.g., emergency)."
          }
        ],
        "system": "http://hl7.org/fhir/v3/ActPriority",
        "code": "S",
        "display": "stat"
      },
      {
        "extension": [
          {
            "url": "http://hl7.org/fhir/StructureDefinition/valueset-definition",
            "valueString": "It is critical to come as close as possible to the requested time (e.g., for a through antimicrobial level)."
          }
        ],
        "system": "http://hl7.org/fhir/v3/ActPriority",
        "code": "T",
        "display": "timing critical"
      },
      {
        "extension": [
          {
            "url": "http://hl7.org/fhir/StructureDefinition/valueset-definition",
            "valueString": "Drug is to be used as directed by the prescriber."
          }
        ],
        "system": "http://hl7.org/fhir/v3/ActPriority",
        "code": "UD",
        "display": "use as directed"
      },
      {
        "extension": [
          {
            "url": "http://hl7.org/fhir/StructureDefinition/valueset-definition",
            "valueString": "Calls for prompt action."
          }
        ],
        "system": "http://hl7.org/fhir/v3/ActPriority",
        "code": "UR",
        "display": "urgent"
      }
    ]
  }
}