{
  "resourceType": "ValueSet",
  "id": "peritoneum",
  "meta": {
    "lastUpdated": "2015-07-14T16:14:24.220+00:00",
    "profile": [
      "http://hl7.org/fhir/StructureDefinition/valueset-shareable-definition"
    ]
  },
  "text": {
    "status": "generated",
    "div": "<div><h2>Peritoneum</h2><p>A code that indicates the tumour invovlement in the peritoneum</p><p>This value set has an inline code system http://hl7.org/fhir/peritoneum, which defines the following codes:</p><table class=\"codes\"><tr><td><b>Code</b></td><td><b>Display</b></td><td><b>Definition</b></td></tr><tr><td>tumour_invades_peritoneal_surface<a name=\"tumour_invades_peritoneal_surface\"> </a></td><td>Tumour invades to the peritoneal surface</td><td/></tr><tr><td>tumour_formed_nodule<a name=\"tumour_formed_nodule\"> </a></td><td>Tumour has formed nodule(s) discrete from the tumour mass along the serosal surface</td><td/></tr></table></div>"
  },
  "extension": [
    {
      "url": "http://hl7.org/fhir/StructureDefinition/valueset-oid",
      "valueUri": "2.16.840.1.113883.4.642.2.0"
    }
  ],
  "url": "http://hl7.org/fhir/ValueSet/peritoneum",
  "version": "0.5.0",
  "name": "Peritoneum",
  "publisher": "HL7 (FHIR Project)",
  "contact": [
    {
      "telecom": [
        {
          "system": "url",
          "value": "http://hl7.org/fhir"
        },
        {
          "system": "email",
          "value": "fhir@lists.hl7.org"
        }
      ]
    }
  ],
  "description": "A code that indicates the tumour invovlement in the peritoneum",
  "status": "draft",
  "experimental": false,
  "date": "2015-07-14T16:14:24+00:00",
  "define": {
    "system": "http://hl7.org/fhir/peritoneum",
    "version": "0.5.0",
    "caseSensitive": true,
    "concept": [
      {
        "code": "tumour_invades_peritoneal_surface",
        "display": "Tumour invades to the peritoneal surface"
      },
      {
        "code": "tumour_formed_nodule",
        "display": "Tumour has formed nodule(s) discrete from the tumour mass along the serosal surface"
      }
    ]
  }
}