{
  "resourceType": "ValueSet",
  "id": "location-mode",
  "meta": {
    "lastUpdated": "2015-07-14T16:14:24.220+00:00",
    "profile": [
      "http://hl7.org/fhir/StructureDefinition/valueset-shareable-definition"
    ]
  },
  "text": {
    "status": "generated",
    "div": "<div><h2>LocationMode</h2><p>Indicates whether a resource instance represents a specific location or a class of locations</p><p>This value set has an inline code system http://hl7.org/fhir/location-mode, which defines the following codes:</p><table class=\"codes\"><tr><td><b>Code</b></td><td><b>Display</b></td><td><b>Definition</b></td></tr><tr><td>instance<a name=\"instance\"> </a></td><td>Instance</td><td>The Location resource represents a specific instance of a Location (e.g. Operating Theatre 1A)</td></tr><tr><td>kind<a name=\"kind\"> </a></td><td>Kind</td><td>The Location represents a class of Locations (e.g. Any Operating Theatre). Although this class of locations could be constrained within a specific boundary (such as organization, or parent location, address etc)</td></tr></table></div>"
  },
  "extension": [
    {
      "url": "http://hl7.org/fhir/StructureDefinition/valueset-oid",
      "valueUri": "2.16.840.1.113883.4.642.2.337"
    }
  ],
  "url": "http://hl7.org/fhir/ValueSet/location-mode",
  "version": "0.5.0",
  "name": "LocationMode",
  "publisher": "HL7 (FHIR Project)",
  "contact": [
    {
      "telecom": [
        {
          "system": "url",
          "value": "http://hl7.org/fhir"
        },
        {
          "system": "email",
          "value": "fhir@lists.hl7.org"
        }
      ]
    }
  ],
  "description": "Indicates whether a resource instance represents a specific location or a class of locations",
  "status": "draft",
  "experimental": false,
  "date": "2015-07-14T16:14:24+00:00",
  "define": {
    "extension": [
      {
        "url": "http://hl7.org/fhir/StructureDefinition/valueset-oid",
        "valueUri": "urn:oid:2.16.840.1.113883.4.642.1.337"
      }
    ],
    "system": "http://hl7.org/fhir/location-mode",
    "version": "0.5.0",
    "caseSensitive": true,
    "concept": [
      {
        "code": "instance",
        "display": "Instance",
        "definition": "The Location resource represents a specific instance of a Location (e.g. Operating Theatre 1A)"
      },
      {
        "code": "kind",
        "display": "Kind",
        "definition": "The Location represents a class of Locations (e.g. Any Operating Theatre). Although this class of locations could be constrained within a specific boundary (such as organization, or parent location, address etc)"
      }
    ]
  }
}