{
  "resourceType": "ValueSet",
  "id": "care-plan-status",
  "meta": {
    "lastUpdated": "2015-07-14T16:14:24.220+00:00",
    "profile": [
      "http://hl7.org/fhir/StructureDefinition/valueset-shareable-definition"
    ]
  },
  "text": {
    "status": "generated",
    "div": "<div><h2>CarePlanStatus</h2><p>Indicates whether the plan is currently being acted upon, represents future intentions or is now just historical record.</p><p>This value set has an inline code system http://hl7.org/fhir/care-plan-status, which defines the following codes:</p><table class=\"codes\"><tr><td><b>Code</b></td><td><b>Display</b></td><td><b>Definition</b></td></tr><tr><td>planned<a name=\"planned\"> </a></td><td>Planned</td><td>The plan is in development or awaiting use but is not yet intended to be acted upon.</td></tr><tr><td>active<a name=\"active\"> </a></td><td>Active</td><td>The plan is intended to be followed and used as part of patient care</td></tr><tr><td>completed<a name=\"completed\"> </a></td><td>Completed</td><td>The plan is no longer in use and is not expected to be followed or used in patient care</td></tr></table></div>"
  },
  "extension": [
    {
      "url": "http://hl7.org/fhir/StructureDefinition/valueset-oid",
      "valueUri": "2.16.840.1.113883.4.642.2.36"
    }
  ],
  "url": "http://hl7.org/fhir/ValueSet/care-plan-status",
  "version": "0.5.0",
  "name": "CarePlanStatus",
  "publisher": "HL7 (FHIR Project)",
  "contact": [
    {
      "telecom": [
        {
          "system": "url",
          "value": "http://hl7.org/fhir"
        },
        {
          "system": "email",
          "value": "fhir@lists.hl7.org"
        }
      ]
    }
  ],
  "description": "Indicates whether the plan is currently being acted upon, represents future intentions or is now just historical record.",
  "status": "draft",
  "experimental": false,
  "date": "2015-07-14T16:14:24+00:00",
  "define": {
    "extension": [
      {
        "url": "http://hl7.org/fhir/StructureDefinition/valueset-oid",
        "valueUri": "urn:oid:2.16.840.1.113883.4.642.1.36"
      }
    ],
    "system": "http://hl7.org/fhir/care-plan-status",
    "version": "0.5.0",
    "caseSensitive": true,
    "concept": [
      {
        "code": "planned",
        "display": "Planned",
        "definition": "The plan is in development or awaiting use but is not yet intended to be acted upon."
      },
      {
        "code": "active",
        "display": "Active",
        "definition": "The plan is intended to be followed and used as part of patient care"
      },
      {
        "code": "completed",
        "display": "Completed",
        "definition": "The plan is no longer in use and is not expected to be followed or used in patient care"
      }
    ]
  }
}