{
  "resourceType": "ValueSet",
  "id": "knowledge-request-code",
  "meta": {
    "lastUpdated": "2015-07-14T16:14:24.220+00:00",
    "profile": [
      "http://hl7.org/fhir/StructureDefinition/valueset-shareable-definition"
    ]
  },
  "text": {
    "status": "generated",
    "div": "<div><h2>KnowledgeRequestCode</h2><p>The code for knowledge requests</p><p>This value set has an inline code system http://hl7.org/fhir/knowledge-request-code, which defines the following codes:</p><table class=\"codes\"><tr><td><b>Code</b></td><td><b>Display</b></td><td><b>Definition</b></td></tr><tr><td>request<a name=\"request\"> </a></td><td>Request</td><td>The resource is a knowledge request</td></tr></table></div>"
  },
  "extension": [
    {
      "url": "http://hl7.org/fhir/StructureDefinition/valueset-oid",
      "valueUri": "2.16.840.1.113883.4.642.2.0"
    }
  ],
  "url": "http://hl7.org/fhir/ValueSet/knowledge-request-code",
  "version": "0.5.0",
  "name": "KnowledgeRequestCode",
  "publisher": "HL7 (FHIR Project)",
  "contact": [
    {
      "telecom": [
        {
          "system": "url",
          "value": "http://hl7.org/fhir"
        },
        {
          "system": "email",
          "value": "fhir@lists.hl7.org"
        }
      ]
    }
  ],
  "description": "The code for knowledge requests",
  "status": "draft",
  "experimental": false,
  "date": "2015-07-14T16:14:24+00:00",
  "define": {
    "system": "http://hl7.org/fhir/knowledge-request-code",
    "version": "0.5.0",
    "caseSensitive": true,
    "concept": [
      {
        "code": "request",
        "display": "Request",
        "definition": "The resource is a knowledge request"
      }
    ]
  }
}