{
  "resourceType": "ValueSet",
  "id": "anterior-resection-type",
  "meta": {
    "lastUpdated": "2015-07-14T16:14:24.220+00:00",
    "profile": [
      "http://hl7.org/fhir/StructureDefinition/valueset-shareable-definition"
    ]
  },
  "text": {
    "status": "generated",
    "div": "<div><h2>AnteriorResectionType</h2><p>A code that idicates the type of anterior resection</p><p>This value set has an inline code system http://hl7.org/fhir/anterior-resection-type, which defines the following codes:</p><table class=\"codes\"><tr><td><b>Code</b></td><td><b>Display</b></td><td><b>Definition</b></td></tr><tr><td>high<a name=\"high\"> </a></td><td>High</td><td/></tr><tr><td>low<a name=\"low\"> </a></td><td>Low</td><td/></tr><tr><td>ultralow<a name=\"ultralow\"> </a></td><td>Ultralow</td><td/></tr></table></div>"
  },
  "extension": [
    {
      "url": "http://hl7.org/fhir/StructureDefinition/valueset-oid",
      "valueUri": "2.16.840.1.113883.4.642.2.0"
    }
  ],
  "url": "http://hl7.org/fhir/ValueSet/anterior-resection-type",
  "version": "0.5.0",
  "name": "AnteriorResectionType",
  "publisher": "HL7 (FHIR Project)",
  "contact": [
    {
      "telecom": [
        {
          "system": "url",
          "value": "http://hl7.org/fhir"
        },
        {
          "system": "email",
          "value": "fhir@lists.hl7.org"
        }
      ]
    }
  ],
  "description": "A code that idicates the type of anterior resection",
  "status": "draft",
  "experimental": false,
  "date": "2015-07-14T16:14:24+00:00",
  "define": {
    "system": "http://hl7.org/fhir/anterior-resection-type",
    "version": "0.5.0",
    "caseSensitive": true,
    "concept": [
      {
        "code": "high",
        "display": "High"
      },
      {
        "code": "low",
        "display": "Low"
      },
      {
        "code": "ultralow",
        "display": "Ultralow"
      }
    ]
  }
}