{
  "resourceType": "ValueSet",
  "id": "reason-medication-given-codes",
  "meta": {
    "lastUpdated": "2015-07-14T16:14:24.220+00:00",
    "profile": [
      "http://hl7.org/fhir/StructureDefinition/valueset-shareable-definition"
    ]
  },
  "text": {
    "status": "generated",
    "div": "<div><h2>Reason Medication Given Codes</h2><p>This value set is provided as an exemplar. The value set to instantiate this attribute should be drawn from a terminologically robust code system that consists of or contains concepts to support the medication process</p><p>This value set has an inline code system http://hl7.org/fhir/reason-medication-given, which defines the following codes:</p><table class=\"codes\"><tr><td><b>Code</b></td><td><b>Display</b></td><td><b>Definition</b></td></tr><tr><td>a<a name=\"a\"> </a></td><td>None</td><td>No reason known</td></tr><tr><td>b<a name=\"b\"> </a></td><td>Given as Ordered</td><td>The administration was following an ordered protocol</td></tr><tr><td>c<a name=\"c\"> </a></td><td>Emergency</td><td>The administration was needed to treat an emergency</td></tr></table></div>"
  },
  "extension": [
    {
      "url": "http://hl7.org/fhir/StructureDefinition/valueset-oid",
      "valueUri": "2.16.840.1.113883.4.642.2.966"
    }
  ],
  "url": "http://hl7.org/fhir/ValueSet/reason-medication-given-codes",
  "version": "0.5.0",
  "name": "Reason Medication Given Codes",
  "publisher": "FHIR Project team",
  "contact": [
    {
      "telecom": [
        {
          "system": "url",
          "value": "http://hl7.org/fhir"
        }
      ]
    }
  ],
  "description": "This value set is provided as an exemplar. The value set to instantiate this attribute should be drawn from a terminologically robust code system that consists of or contains concepts to support the medication process",
  "status": "draft",
  "experimental": true,
  "date": "2015-07-14T16:14:24+00:00",
  "define": {
    "extension": [
      {
        "url": "http://hl7.org/fhir/StructureDefinition/valueset-oid",
        "valueUri": "urn:oid:2.16.840.1.113883.4.642.1.966"
      }
    ],
    "system": "http://hl7.org/fhir/reason-medication-given",
    "caseSensitive": true,
    "concept": [
      {
        "code": "a",
        "display": "None",
        "definition": "No reason known"
      },
      {
        "code": "b",
        "display": "Given as Ordered",
        "definition": "The administration was following an ordered protocol"
      },
      {
        "code": "c",
        "display": "Emergency",
        "definition": "The administration was needed to treat an emergency"
      }
    ]
  }
}