{
  "resourceType": "ValueSet",
  "id": "histological-grade",
  "meta": {
    "lastUpdated": "2015-07-14T16:14:24.220+00:00",
    "profile": [
      "http://hl7.org/fhir/StructureDefinition/valueset-shareable-definition"
    ]
  },
  "text": {
    "status": "generated",
    "div": "<div><h2>HistologicalGrade</h2><p>A code that indicates the histological grade of the tumour</p><p>This value set has an inline code system http://hl7.org/fhir/histological-grade, which defines the following codes:</p><table class=\"codes\"><tr><td><b>Code</b></td><td><b>Display</b></td><td><b>Definition</b></td></tr><tr><td>low_grade<a name=\"low_grade\"> </a></td><td>Low grade – well and moderately differentiated</td><td/></tr><tr><td>high_grade<a name=\"high_grade\"> </a></td><td>High grade - poorly and undifferentiated</td><td/></tr></table></div>"
  },
  "extension": [
    {
      "url": "http://hl7.org/fhir/StructureDefinition/valueset-oid",
      "valueUri": "2.16.840.1.113883.4.642.2.0"
    }
  ],
  "url": "http://hl7.org/fhir/ValueSet/histological-grade",
  "version": "0.5.0",
  "name": "HistologicalGrade",
  "publisher": "HL7 (FHIR Project)",
  "contact": [
    {
      "telecom": [
        {
          "system": "url",
          "value": "http://hl7.org/fhir"
        },
        {
          "system": "email",
          "value": "fhir@lists.hl7.org"
        }
      ]
    }
  ],
  "description": "A code that indicates the histological grade of the tumour",
  "status": "draft",
  "experimental": false,
  "date": "2015-07-14T16:14:24+00:00",
  "define": {
    "system": "http://hl7.org/fhir/histological-grade",
    "version": "0.5.0",
    "caseSensitive": true,
    "concept": [
      {
        "code": "low_grade",
        "display": "Low grade – well and moderately differentiated"
      },
      {
        "code": "high_grade",
        "display": "High grade - poorly and undifferentiated"
      }
    ]
  }
}