{
  "resourceType": "ValueSet",
  "id": "process-priority",
  "meta": {
    "lastUpdated": "2015-07-14T16:14:24.220+00:00",
    "profile": [
      "http://hl7.org/fhir/StructureDefinition/valueset-shareable-definition"
    ]
  },
  "text": {
    "status": "generated",
    "div": "<div><h2>Priority Codes</h2><p>This value set includes the financial processing priority codes</p><p><b>Copyright Statement:</b> This is an example set</p><p>This value set has an inline code system http://hl7.org/fhir/processpriority, which defines the following codes:</p><table class=\"codes\"><tr><td><b>Code</b></td><td><b>Definition</b></td></tr><tr><td>stat<a name=\"stat\"> </a></td><td/></tr><tr><td>normal<a name=\"normal\"> </a></td><td/></tr><tr><td>deferred<a name=\"deferred\"> </a></td><td/></tr></table></div>"
  },
  "extension": [
    {
      "url": "http://hl7.org/fhir/StructureDefinition/valueset-oid",
      "valueUri": "2.16.840.1.113883.4.642.2.464"
    }
  ],
  "url": "http://hl7.org/fhir/ValueSet/process-priority",
  "version": "0.5.0",
  "name": "Priority Codes",
  "publisher": "Financial Management",
  "contact": [
    {
      "telecom": [
        {
          "system": "url",
          "value": "http://hl7.org/fhir"
        }
      ]
    }
  ],
  "description": "This value set includes the financial processing priority codes",
  "copyright": "This is an example set",
  "status": "draft",
  "experimental": true,
  "date": "2015-07-14T16:14:24+00:00",
  "define": {
    "extension": [
      {
        "url": "http://hl7.org/fhir/StructureDefinition/valueset-oid",
        "valueUri": "urn:oid:2.16.840.1.113883.4.642.1.464"
      }
    ],
    "system": "http://hl7.org/fhir/processpriority",
    "caseSensitive": true,
    "concept": [
      {
        "code": "stat"
      },
      {
        "code": "normal"
      },
      {
        "code": "deferred"
      }
    ]
  }
}