{
  "resourceType": "ValueSet",
  "id": "v2-0910",
  "meta": {
    "profile": [
      "http://hl7.org/fhir/StructureDefinition/valueset-shareable-definition"
    ]
  },
  "text": {
    "status": "additional",
    "div": "<div><p>Acquisition Modality</p>\r\n<table class=\"grid\"><tr><td><b>Code</b></td><td><b>Description</b></td><td><b>Version</b></td></tr><tr><td>…<a name=\".8230\"> </a></td><td>Acquisition Modality codes, Context Group 29, Digital Imaging and Communications in Medicine (DICOM) - Part 16: Content Mapping Resource (PS3.16), available free at http://dicom.nema.org</td><td>added v2.7</td></tr></table>\r\n</div>"
  },
  "url": "http://hl7.org/fhir/ValueSet/v2-0910",
  "version": "2.7",
  "name": "v2 Acquisition Modality",
  "publisher": "HL7, Inc",
  "contact": [
    {
      "telecom": [
        {
          "system": "url",
          "value": "http://hl7.org"
        }
      ]
    }
  ],
  "description": "FHIR Value set/code system definition for HL7 v2 table 0910 ( Acquisition Modality)",
  "status": "active",
  "experimental": true,
  "date": "2011-01-28",
  "define": {
    "system": "http://hl7.org/fhir/v2/0910",
    "caseSensitive": true,
    "concept": [
      {
        "code": "…",
        "display": "Acquisition Modality codes, Context Group 29, Digital Imaging and Communications in Medicine (DICOM) - Part 16: Content Mapping Resource (PS3.16), available free at http://dicom.nema.org"
      }
    ]
  }
}