{
  "resourceType": "ValueSet",
  "id": "v3-ActExposureLevelCode",
  "meta": {
    "lastUpdated": "2015-03-23T00:00:00.000+00:00",
    "profile": [
      "http://hl7.org/fhir/StructureDefinition/valueset-shareable-definition"
    ]
  },
  "text": {
    "status": "generated",
    "div": "<div><p>Release Date: 2015-03-23</p>\r\n<p>OID for code system: 2.16.840.1.113883.5.1114</p>\r\n<h2>Description</h2>\r\n<p>\n                  A qualitative measure of the degree of exposure to the causative agent.  This includes concepts such as &quot;low&quot;, &quot;medium&quot; and &quot;high&quot;.  This quantifies how the quantity that was available to be administered to the target differs from typical or background levels of the substance.<br/>\r\n\n               </p>\r\n<hr/>\r\n<table class=\"grid\">\r\n <tr><td><b>Level</b></td><td><b>Code</b></td><td><b>Display</b></td><td><b>Definition</b></td></tr>\r\n <tr><td>1</td><td><span style=\"color: grey\"><i>(_ActExposureLevelCode)</i></span></td><td><a name=\"_ActExposureLevelCode\">&nbsp;</a></td><td>\n                        A qualitative measure of the degree of exposure to the causative agent.  This includes concepts such as &quot;low&quot;, &quot;medium&quot; and &quot;high&quot;.  This quantifies how the quantity that was available to be administered to the target differs from typical or background levels of the substance.<br/>\r\n\n                     </td></tr>\r\n <tr><td>2</td><td>&nbsp;&nbsp;HIGH<a name=\"HIGH\"> </a></td><td>high</td><td>\n                        \n                           Description: Exposure to an agent at a relatively high level above background.<br/>\r\n\n                     </td></tr>\r\n <tr><td>2</td><td>&nbsp;&nbsp;LOW<a name=\"LOW\"> </a></td><td>low</td><td>\n                        \n                           Description: Exposure to an agent at a relatively low level above background.<br/>\r\n\n                     </td></tr>\r\n <tr><td>2</td><td>&nbsp;&nbsp;MEDIUM<a name=\"MEDIUM\"> </a></td><td>medium</td><td>\n                        \n                           Description: Exposure to an agent at a relatively moderate level above background.A<br/>\r\n\n                     </td></tr>\r\n</table>\r\n</div>"
  },
  "url": "http://hl7.org/fhir/ValueSet/v3-ActExposureLevelCode",
  "version": "2015-03-23",
  "name": "v3 Code System ActExposureLevelCode",
  "publisher": "HL7, Inc",
  "contact": [
    {
      "telecom": [
        {
          "system": "url",
          "value": "http://hl7.org"
        }
      ]
    }
  ],
  "description": " A qualitative measure of the degree of exposure to the causative agent.  This includes concepts such as \"low\", \"medium\" and \"high\".  This quantifies how the quantity that was available to be administered to the target differs from typical or background levels of the substance.",
  "status": "active",
  "experimental": false,
  "date": "2015-03-23",
  "define": {
    "extension": [
      {
        "url": "http://hl7.org/fhir/StructureDefinition/valueset-oid",
        "valueUri": "urn:oid:2.16.840.1.113883.5.1114"
      }
    ],
    "system": "http://hl7.org/fhir/v3/ActExposureLevelCode",
    "caseSensitive": true,
    "concept": [
      {
        "code": "_ActExposureLevelCode",
        "abstract": true,
        "display": "ActExposureLevelCode",
        "definition": "A qualitative measure of the degree of exposure to the causative agent.  This includes concepts such as \"low\", \"medium\" and \"high\".  This quantifies how the quantity that was available to be administered to the target differs from typical or background levels of the substance.",
        "concept": [
          {
            "code": "HIGH",
            "abstract": false,
            "display": "high",
            "definition": "Description: Exposure to an agent at a relatively high level above background."
          },
          {
            "code": "LOW",
            "abstract": false,
            "display": "low",
            "definition": "Description: Exposure to an agent at a relatively low level above background."
          },
          {
            "code": "MEDIUM",
            "abstract": false,
            "display": "medium",
            "definition": "Description: Exposure to an agent at a relatively moderate level above background.A"
          }
        ]
      }
    ]
  }
}