{
  "resourceType": "ValueSet",
  "id": "v2-0256",
  "meta": {
    "profile": [
      "http://hl7.org/fhir/StructureDefinition/valueset-shareable-definition"
    ]
  },
  "text": {
    "status": "additional",
    "div": "<div><p>Time Delay Post Challenge</p>\r\n<table class=\"grid\"><tr><td><b>Code</b></td><td><b>Description</b></td><td><b>Version</b></td></tr><tr><td>10D<a name=\"10D\"> </a></td><td>10 days</td><td>added v2.3.1</td></tr><tr><td>10M<a name=\"10M\"> </a></td><td>10 minutes post challenge</td><td>added v2.3.1</td></tr><tr><td>12H<a name=\"12H\"> </a></td><td>12 hours post challenge</td><td>added v2.3.1</td></tr><tr><td>15M<a name=\"15M\"> </a></td><td>15 minutes post challenge</td><td>added v2.3.1</td></tr><tr><td>1H<a name=\"1H\"> </a></td><td>1 hour post challenge</td><td>added v2.3.1</td></tr><tr><td>1L<a name=\"1L\"> </a></td><td>1 month (30 days) post challenge</td><td>added v2.3.1</td></tr><tr><td>1M<a name=\"1M\"> </a></td><td>1 minute post challenge</td><td>added v2.3.1</td></tr><tr><td>1W<a name=\"1W\"> </a></td><td>1 week</td><td>added v2.3.1</td></tr><tr><td>2.5H<a name=\"2.465H\"> </a></td><td>2 Â½ hours post challenge</td><td>added v2.3.1</td></tr><tr><td>20M<a name=\"20M\"> </a></td><td>20 minutes post challenge</td><td>added v2.3.1</td></tr><tr><td>24H<a name=\"24H\"> </a></td><td>24 hours post challenge</td><td>added v2.3.1</td></tr><tr><td>25M<a name=\"25M\"> </a></td><td>25 minutes post challenge</td><td>added v2.3.1</td></tr><tr><td>2D<a name=\"2D\"> </a></td><td>2 days</td><td>added v2.3.1</td></tr><tr><td>2H<a name=\"2H\"> </a></td><td>2 hours post challenge</td><td>added v2.3.1</td></tr><tr><td>2L<a name=\"2L\"> </a></td><td>2 months (60 days) post challenge</td><td>added v2.3.1</td></tr><tr><td>2M<a name=\"2M\"> </a></td><td>2 minutes post challenge</td><td>added v2.3.1</td></tr><tr><td>2W<a name=\"2W\"> </a></td><td>2 weeks</td><td>added v2.3.1</td></tr><tr><td>30M<a name=\"30M\"> </a></td><td>30 minutes post challenge</td><td>added v2.3.1</td></tr><tr><td>3D<a name=\"3D\"> </a></td><td>3 days</td><td>added v2.3.1</td></tr><tr><td>3H<a name=\"3H\"> </a></td><td>3 hours post challenge</td><td>added v2.3.1</td></tr><tr><td>3L<a name=\"3L\"> </a></td><td>3 months (90 days) post challenge</td><td>added v2.3.1</td></tr><tr><td>3M<a name=\"3M\"> </a></td><td>3 minutes post challenge</td><td>added v2.3.1</td></tr><tr><td>3W<a name=\"3W\"> </a></td><td>3 weeks</td><td>added v2.3.1</td></tr><tr><td>4D<a name=\"4D\"> </a></td><td>4 days</td><td>added v2.3.1</td></tr><tr><td>4H<a name=\"4H\"> </a></td><td>4 hours post challenge</td><td>added v2.3.1</td></tr><tr><td>4M<a name=\"4M\"> </a></td><td>4 minutes post challenge</td><td>added v2.3.1</td></tr><tr><td>4W<a name=\"4W\"> </a></td><td>4 weeks</td><td>added v2.3.1</td></tr><tr><td>5D<a name=\"5D\"> </a></td><td>5 days</td><td>added v2.3.1</td></tr><tr><td>5H<a name=\"5H\"> </a></td><td>5  hours post challenge</td><td>added v2.3.1</td></tr><tr><td>5M<a name=\"5M\"> </a></td><td>5 minutes post challenge</td><td>added v2.3.1</td></tr><tr><td>6D<a name=\"6D\"> </a></td><td>6 days</td><td>added v2.3.1</td></tr><tr><td>6H<a name=\"6H\"> </a></td><td>6 hours post challenge</td><td>added v2.3.1</td></tr><tr><td>6M<a name=\"6M\"> </a></td><td>6 minutes post challenge</td><td>added v2.3.1</td></tr><tr><td>7D<a name=\"7D\"> </a></td><td>7 days</td><td>added v2.3.1</td></tr><tr><td>7H<a name=\"7H\"> </a></td><td>7 hours post challenge</td><td>added v2.3.1</td></tr><tr><td>7M<a name=\"7M\"> </a></td><td>7 minutes post challenge</td><td>added v2.3.1</td></tr><tr><td>8H<a name=\"8H\"> </a></td><td>8 hours post challenge</td><td>added v2.3.1</td></tr><tr><td>8H SHIFT<a name=\"8HSHIFT\"> </a></td><td>8 hours aligned on nursing shifts</td><td>added v2.3.1</td></tr><tr><td>8M<a name=\"8M\"> </a></td><td>8 minutes post challenge</td><td>added v2.3.1</td></tr><tr><td>9M<a name=\"9M\"> </a></td><td>9 minutes post challenge</td><td>added v2.3.1</td></tr><tr><td>BS<a name=\"BS\"> </a></td><td>Baseline (time just before the challenge)</td><td>added v2.3.1</td></tr><tr><td>PEAK<a name=\"PEAK\"> </a></td><td>The time post drug dose at which the highest drug level is reached (differs by drug)</td><td>added v2.3.1</td></tr><tr><td>RANDOM<a name=\"RANDOM\"> </a></td><td>Time from the challenge, or dose not specified. (random)</td><td>added v2.3.1</td></tr><tr><td>TROUGH<a name=\"TROUGH\"> </a></td><td>The time post drug dose at which the lowest drug level is reached (varies with drug)</td><td>added v2.3.1</td></tr></table>\r\n</div>"
  },
  "url": "http://hl7.org/fhir/ValueSet/v2-0256",
  "version": "2.7",
  "name": "v2 Time Delay Post Challenge",
  "publisher": "HL7, Inc",
  "contact": [
    {
      "telecom": [
        {
          "system": "url",
          "value": "http://hl7.org"
        }
      ]
    }
  ],
  "description": "FHIR Value set/code system definition for HL7 v2 table 0256 ( Time Delay Post Challenge)",
  "status": "active",
  "experimental": true,
  "date": "2011-01-28",
  "define": {
    "system": "http://hl7.org/fhir/v2/0256",
    "caseSensitive": true,
    "concept": [
      {
        "code": "10D",
        "display": "10 days"
      },
      {
        "code": "10M",
        "display": "10 minutes post challenge"
      },
      {
        "code": "12H",
        "display": "12 hours post challenge"
      },
      {
        "code": "15M",
        "display": "15 minutes post challenge"
      },
      {
        "code": "1H",
        "display": "1 hour post challenge"
      },
      {
        "code": "1L",
        "display": "1 month (30 days) post challenge"
      },
      {
        "code": "1M",
        "display": "1 minute post challenge"
      },
      {
        "code": "1W",
        "display": "1 week"
      },
      {
        "code": "2.5H",
        "display": "2 Â½ hours post challenge"
      },
      {
        "code": "20M",
        "display": "20 minutes post challenge"
      },
      {
        "code": "24H",
        "display": "24 hours post challenge"
      },
      {
        "code": "25M",
        "display": "25 minutes post challenge"
      },
      {
        "code": "2D",
        "display": "2 days"
      },
      {
        "code": "2H",
        "display": "2 hours post challenge"
      },
      {
        "code": "2L",
        "display": "2 months (60 days) post challenge"
      },
      {
        "code": "2M",
        "display": "2 minutes post challenge"
      },
      {
        "code": "2W",
        "display": "2 weeks"
      },
      {
        "code": "30M",
        "display": "30 minutes post challenge"
      },
      {
        "code": "3D",
        "display": "3 days"
      },
      {
        "code": "3H",
        "display": "3 hours post challenge"
      },
      {
        "code": "3L",
        "display": "3 months (90 days) post challenge"
      },
      {
        "code": "3M",
        "display": "3 minutes post challenge"
      },
      {
        "code": "3W",
        "display": "3 weeks"
      },
      {
        "code": "4D",
        "display": "4 days"
      },
      {
        "code": "4H",
        "display": "4 hours post challenge"
      },
      {
        "code": "4M",
        "display": "4 minutes post challenge"
      },
      {
        "code": "4W",
        "display": "4 weeks"
      },
      {
        "code": "5D",
        "display": "5 days"
      },
      {
        "code": "5H",
        "display": "5  hours post challenge"
      },
      {
        "code": "5M",
        "display": "5 minutes post challenge"
      },
      {
        "code": "6D",
        "display": "6 days"
      },
      {
        "code": "6H",
        "display": "6 hours post challenge"
      },
      {
        "code": "6M",
        "display": "6 minutes post challenge"
      },
      {
        "code": "7D",
        "display": "7 days"
      },
      {
        "code": "7H",
        "display": "7 hours post challenge"
      },
      {
        "code": "7M",
        "display": "7 minutes post challenge"
      },
      {
        "code": "8H",
        "display": "8 hours post challenge"
      },
      {
        "code": "8H SHIFT",
        "display": "8 hours aligned on nursing shifts"
      },
      {
        "code": "8M",
        "display": "8 minutes post challenge"
      },
      {
        "code": "9M",
        "display": "9 minutes post challenge"
      },
      {
        "code": "BS",
        "display": "Baseline (time just before the challenge)"
      },
      {
        "code": "PEAK",
        "display": "The time post drug dose at which the highest drug level is reached (differs by drug)"
      },
      {
        "code": "RANDOM",
        "display": "Time from the challenge, or dose not specified. (random)"
      },
      {
        "code": "TROUGH",
        "display": "The time post drug dose at which the lowest drug level is reached (varies with drug)"
      }
    ]
  }
}