{
  "resourceType": "ValueSet",
  "id": "v3-SetOperator",
  "meta": {
    "lastUpdated": "2015-03-23T00:00:00.000+00:00",
    "profile": [
      "http://hl7.org/fhir/StructureDefinition/valueset-shareable-definition"
    ]
  },
  "text": {
    "status": "generated",
    "div": "<div><p>Release Date: 2015-03-23</p>\r\n<p>OID for code system: 2.16.840.1.113883.5.1069</p>\r\n<p>OID for value set: 2.16.840.1.113883.1.11.17416 (this is the value set that includes the entire code system)</p>\r\n<table class=\"grid\">\r\n <tr><td><b>Level</b></td><td><b>Code</b></td><td><b>Display</b></td><td><b>Definition</b></td></tr>\r\n <tr><td>1</td><td><span style=\"color: grey\"><i>(_ValueSetOperator)</i></span></td><td><a name=\"_ValueSetOperator\">&nbsp;</a></td><td>\n                        Operations that can be used to associate concepts in a terminology.<br/>\r\n\n                     </td></tr>\r\n <tr><td>2</td><td>&nbsp;&nbsp;E<a name=\"E\"> </a></td><td>exclude</td><td>\n                        Form the set-difference with this value, i.e., exclude this element or set from the resulting set.<br/>\r\n\n                     </td></tr>\r\n <tr><td>2</td><td>&nbsp;&nbsp;I<a name=\"I\"> </a></td><td>include</td><td>\n                        Form the union with this value, i.e., include this element or set in the resulting set.<br/>\r\n\n                     </td></tr>\r\n <tr><td>1</td><td>A<a name=\"A\"> </a></td><td>intersect</td><td>\n                        Form the intersection with the value.<br/>\r\n\n                     </td></tr>\r\n <tr><td>1</td><td>H<a name=\"H\"> </a></td><td>convex hull</td><td>\n                        Form the convex hull with the value. The convex hull is defined over ordered domains and is the smallest contiguous superset (interval) that of all the operand sets.<br/>\r\n\n                     </td></tr>\r\n <tr><td>1</td><td>P<a name=\"P\"> </a></td><td>periodic hull</td><td>\n                        Form the periodic hull with the value. The periodic hull is defined over ordered domains and is the periodic set that contains all contiguous supersets of pairs of intervals generated by the operand periodic intervals.<br/>\r\n\n                     </td></tr>\r\n</table>\r\n</div>"
  },
  "extension": [
    {
      "url": "http://hl7.org/fhir/StructureDefinition/valueset-oid",
      "valueUri": "urn:oid:2.16.840.1.113883.1.11.17416"
    }
  ],
  "url": "http://hl7.org/fhir/ValueSet/v3-SetOperator",
  "version": "2015-03-23",
  "name": "v3 Code System SetOperator",
  "publisher": "HL7, Inc",
  "contact": [
    {
      "telecom": [
        {
          "system": "url",
          "value": "http://hl7.org"
        }
      ]
    }
  ],
  "description": "**** MISSING DEFINITIONS ****",
  "status": "active",
  "experimental": false,
  "date": "2015-03-23",
  "define": {
    "extension": [
      {
        "url": "http://hl7.org/fhir/StructureDefinition/valueset-oid",
        "valueUri": "urn:oid:2.16.840.1.113883.5.1069"
      }
    ],
    "system": "http://hl7.org/fhir/v3/SetOperator",
    "caseSensitive": true,
    "concept": [
      {
        "code": "_ValueSetOperator",
        "abstract": true,
        "display": "ValueSetOperator",
        "definition": "Operations that can be used to associate concepts in a terminology.",
        "concept": [
          {
            "code": "E",
            "abstract": false,
            "display": "exclude",
            "definition": "Form the set-difference with this value, i.e., exclude this element or set from the resulting set."
          },
          {
            "code": "I",
            "abstract": false,
            "display": "include",
            "definition": "Form the union with this value, i.e., include this element or set in the resulting set."
          }
        ]
      },
      {
        "code": "A",
        "abstract": false,
        "display": "intersect",
        "definition": "Form the intersection with the value."
      },
      {
        "code": "H",
        "abstract": false,
        "display": "convex hull",
        "definition": "Form the convex hull with the value. The convex hull is defined over ordered domains and is the smallest contiguous superset (interval) that of all the operand sets."
      },
      {
        "code": "P",
        "abstract": false,
        "display": "periodic hull",
        "definition": "Form the periodic hull with the value. The periodic hull is defined over ordered domains and is the periodic set that contains all contiguous supersets of pairs of intervals generated by the operand periodic intervals."
      }
    ]
  }
}