{
  "resourceType": "ValueSet",
  "id": "v2-0487",
  "meta": {
    "profile": [
      "http://hl7.org/fhir/StructureDefinition/valueset-shareable-definition"
    ]
  },
  "text": {
    "status": "additional",
    "div": "<div><p>Specimen Type</p>\r\n<table class=\"grid\"><tr><td><b>Code</b></td><td><b>Description</b></td><td><b>Version</b></td></tr><tr><td>...<a name=\".46.46.46\"> </a></td><td>No suggested values</td><td>added v2.6, removed after v2.6</td></tr><tr><td>ABS<a name=\"ABS\"> </a></td><td>Abscess</td><td>added v2.5</td></tr><tr><td>ACNE<a name=\"ACNE\"> </a></td><td>Tissue, Acne</td><td>added v2.5</td></tr><tr><td>ACNFLD<a name=\"ACNFLD\"> </a></td><td>Fluid, Acne</td><td>added v2.5</td></tr><tr><td>AIRS<a name=\"AIRS\"> </a></td><td>Air Sample</td><td>added v2.5</td></tr><tr><td>ALL<a name=\"ALL\"> </a></td><td>Allograft</td><td>added v2.5</td></tr><tr><td>AMP<a name=\"AMP\"> </a></td><td>Amputation</td><td>added v2.5</td></tr><tr><td>ANGI<a name=\"ANGI\"> </a></td><td>Catheter Tip, Angio</td><td>added v2.5</td></tr><tr><td>ARTC<a name=\"ARTC\"> </a></td><td>Catheter Tip, Arterial</td><td>added v2.5</td></tr><tr><td>ASERU<a name=\"ASERU\"> </a></td><td>Serum, Acute</td><td>added v2.5</td></tr><tr><td>ASP<a name=\"ASP\"> </a></td><td>Aspirate</td><td>added v2.5</td></tr><tr><td>ATTE<a name=\"ATTE\"> </a></td><td>Environment, Attest</td><td>added v2.5</td></tr><tr><td>AUTOA<a name=\"AUTOA\"> </a></td><td>Environmental, Autoclave Ampule</td><td>added v2.7</td></tr><tr><td>AUTOC<a name=\"AUTOC\"> </a></td><td>Environmental, Autoclave Capsule</td><td>added v2.5</td></tr><tr><td>AUTP<a name=\"AUTP\"> </a></td><td>Autopsy</td><td>added v2.5</td></tr><tr><td>BBL<a name=\"BBL\"> </a></td><td>Blood bag</td><td>added v2.5</td></tr><tr><td>BCYST<a name=\"BCYST\"> </a></td><td>Cyst, Baker's</td><td>added v2.5</td></tr><tr><td>BITE<a name=\"BITE\"> </a></td><td>Bite</td><td>added v2.5</td></tr><tr><td>BLEB<a name=\"BLEB\"> </a></td><td>Bleb</td><td>added v2.5</td></tr><tr><td>BLIST<a name=\"BLIST\"> </a></td><td>Blister</td><td>added v2.5</td></tr><tr><td>BOIL<a name=\"BOIL\"> </a></td><td>Boil</td><td>added v2.5</td></tr><tr><td>BON<a name=\"BON\"> </a></td><td>Bone</td><td>added v2.5.1</td></tr><tr><td>BONE<a name=\"BONE\"> </a></td><td>Bone</td><td>added v2.5, removed after v2.5</td></tr><tr><td>BOWL<a name=\"BOWL\"> </a></td><td>Bowel contents</td><td>added v2.5</td></tr><tr><td>BPU<a name=\"BPU\"> </a></td><td>Blood product unit</td><td>added v2.5</td></tr><tr><td>BRN<a name=\"BRN\"> </a></td><td>Burn</td><td>added v2.5</td></tr><tr><td>BRSH<a name=\"BRSH\"> </a></td><td>Brush</td><td>added v2.5</td></tr><tr><td>BRTH<a name=\"BRTH\"> </a></td><td>Breath (use EXHLD)</td><td>added v2.5</td></tr><tr><td>BRUS<a name=\"BRUS\"> </a></td><td>Brushing</td><td>added v2.5</td></tr><tr><td>BUB<a name=\"BUB\"> </a></td><td>Bubo</td><td>added v2.5</td></tr><tr><td>BULLA<a name=\"BULLA\"> </a></td><td>Bulla/Bullae</td><td>added v2.5</td></tr><tr><td>BX<a name=\"BX\"> </a></td><td>Biopsy</td><td>added v2.5</td></tr><tr><td>CALC<a name=\"CALC\"> </a></td><td>Calculus (=Stone)</td><td>added v2.5</td></tr><tr><td>CARBU<a name=\"CARBU\"> </a></td><td>Carbuncle</td><td>added v2.5</td></tr><tr><td>CAT<a name=\"CAT\"> </a></td><td>Catheter</td><td>added v2.5</td></tr><tr><td>CBITE<a name=\"CBITE\"> </a></td><td>Bite, Cat</td><td>added v2.5</td></tr><tr><td>CLIPP<a name=\"CLIPP\"> </a></td><td>Clippings</td><td>added v2.5</td></tr><tr><td>CNJT<a name=\"CNJT\"> </a></td><td>Conjunctiva</td><td>added v2.5</td></tr><tr><td>COL<a name=\"COL\"> </a></td><td>Colostrum</td><td>added v2.5</td></tr><tr><td>CONE<a name=\"CONE\"> </a></td><td>Biospy, Cone</td><td>added v2.5</td></tr><tr><td>CSCR<a name=\"CSCR\"> </a></td><td>Scratch, Cat</td><td>added v2.5</td></tr><tr><td>CSERU<a name=\"CSERU\"> </a></td><td>Serum, Convalescent</td><td>added v2.5</td></tr><tr><td>CSITE<a name=\"CSITE\"> </a></td><td>Catheter Insertion Site</td><td>added v2.5</td></tr><tr><td>CSMY<a name=\"CSMY\"> </a></td><td>Fluid,  Cystostomy Tube</td><td>added v2.5</td></tr><tr><td>CST<a name=\"CST\"> </a></td><td>Fluid, Cyst</td><td>added v2.5</td></tr><tr><td>CSVR<a name=\"CSVR\"> </a></td><td>Blood, Cell Saver</td><td>added v2.5</td></tr><tr><td>CTP<a name=\"CTP\"> </a></td><td>Catheter tip</td><td>added v2.5</td></tr><tr><td>CVPS<a name=\"CVPS\"> </a></td><td>Site, CVP</td><td>added v2.5</td></tr><tr><td>CVPT<a name=\"CVPT\"> </a></td><td>Catheter Tip, CVP</td><td>added v2.5</td></tr><tr><td>CYN<a name=\"CYN\"> </a></td><td>Nodule, Cystic</td><td>added v2.5</td></tr><tr><td>CYST<a name=\"CYST\"> </a></td><td>Cyst</td><td>added v2.5</td></tr><tr><td>DBITE<a name=\"DBITE\"> </a></td><td>Bite, Dog</td><td>added v2.5</td></tr><tr><td>DCS<a name=\"DCS\"> </a></td><td>Sputum, Deep Cough</td><td>added v2.5</td></tr><tr><td>DEC<a name=\"DEC\"> </a></td><td>Ulcer, Decubitus</td><td>added v2.5</td></tr><tr><td>DEION<a name=\"DEION\"> </a></td><td>Environmental, Water  (Deionized)</td><td>added v2.5</td></tr><tr><td>DIA<a name=\"DIA\"> </a></td><td>Dialysate</td><td>added v2.5</td></tr><tr><td>DISCHG<a name=\"DISCHG\"> </a></td><td>Discharge</td><td>added v2.5</td></tr><tr><td>DIV<a name=\"DIV\"> </a></td><td>Diverticulum</td><td>added v2.5</td></tr><tr><td>DRN<a name=\"DRN\"> </a></td><td>Drain</td><td>added v2.5</td></tr><tr><td>DRNG<a name=\"DRNG\"> </a></td><td>Drainage, Tube</td><td>added v2.5</td></tr><tr><td>DRNGP<a name=\"DRNGP\"> </a></td><td>Drainage, Penrose</td><td>added v2.5</td></tr><tr><td>EARW<a name=\"EARW\"> </a></td><td>Ear wax (cerumen)</td><td>added v2.5</td></tr><tr><td>EBRUSH<a name=\"EBRUSH\"> </a></td><td>Brush, Esophageal</td><td>added v2.5</td></tr><tr><td>EEYE<a name=\"EEYE\"> </a></td><td>Environmental, Eye Wash</td><td>added v2.5</td></tr><tr><td>EFF<a name=\"EFF\"> </a></td><td>Environmental, Effluent</td><td>added v2.5</td></tr><tr><td>EFFUS<a name=\"EFFUS\"> </a></td><td>Effusion</td><td>added v2.5</td></tr><tr><td>EFOD<a name=\"EFOD\"> </a></td><td>Environmental, Food</td><td>added v2.5</td></tr><tr><td>EISO<a name=\"EISO\"> </a></td><td>Environmental, Isolette</td><td>added v2.5</td></tr><tr><td>ELT<a name=\"ELT\"> </a></td><td>Electrode</td><td>added v2.5</td></tr><tr><td>ENVIR<a name=\"ENVIR\"> </a></td><td>Environmental, Unidentified Substance</td><td>added v2.5</td></tr><tr><td>EOTH<a name=\"EOTH\"> </a></td><td>Environmental, Other Substance</td><td>added v2.5</td></tr><tr><td>ESOI<a name=\"ESOI\"> </a></td><td>Environmental, Soil</td><td>added v2.5</td></tr><tr><td>ESOS<a name=\"ESOS\"> </a></td><td>Environmental, Solution (Sterile)</td><td>added v2.5</td></tr><tr><td>ETA<a name=\"ETA\"> </a></td><td>Aspirate,  Endotrach</td><td>added v2.5</td></tr><tr><td>ETTP<a name=\"ETTP\"> </a></td><td>Catheter Tip, Endotracheal</td><td>added v2.5</td></tr><tr><td>ETTUB<a name=\"ETTUB\"> </a></td><td>Tube, Endotracheal</td><td>added v2.5</td></tr><tr><td>EWHI<a name=\"EWHI\"> </a></td><td>Environmental, Whirlpool</td><td>added v2.5</td></tr><tr><td>EXG<a name=\"EXG\"> </a></td><td>Gas, exhaled (=breath)</td><td>added v2.5</td></tr><tr><td>EXS<a name=\"EXS\"> </a></td><td>Shunt, External</td><td>added v2.5</td></tr><tr><td>EXUDTE<a name=\"EXUDTE\"> </a></td><td>Exudate</td><td>added v2.5</td></tr><tr><td>FAW<a name=\"FAW\"> </a></td><td>Environmental, Water  (Well)</td><td>added v2.5</td></tr><tr><td>FBLOOD<a name=\"FBLOOD\"> </a></td><td>Blood, Fetal</td><td>added v2.5</td></tr><tr><td>FGA<a name=\"FGA\"> </a></td><td>Fluid,  Abdomen</td><td>added v2.5</td></tr><tr><td>FIST<a name=\"FIST\"> </a></td><td>Fistula</td><td>added v2.5</td></tr><tr><td>FLD<a name=\"FLD\"> </a></td><td>Fluid, Other</td><td>added v2.5</td></tr><tr><td>FLT<a name=\"FLT\"> </a></td><td>Filter</td><td>added v2.5</td></tr><tr><td>FLU<a name=\"FLU\"> </a></td><td>Fluid, Body unsp</td><td>added v2.5</td></tr><tr><td>FLUID<a name=\"FLUID\"> </a></td><td>Fluid</td><td>added v2.5</td></tr><tr><td>FOLEY<a name=\"FOLEY\"> </a></td><td>Catheter Tip, Foley</td><td>added v2.5</td></tr><tr><td>FRS<a name=\"FRS\"> </a></td><td>Fluid, Respiratory</td><td>added v2.5</td></tr><tr><td>FSCLP<a name=\"FSCLP\"> </a></td><td>Scalp, Fetal</td><td>added v2.5</td></tr><tr><td>FUR<a name=\"FUR\"> </a></td><td>Furuncle</td><td>added v2.5</td></tr><tr><td>GAS<a name=\"GAS\"> </a></td><td>Gas</td><td>added v2.5</td></tr><tr><td>GASA<a name=\"GASA\"> </a></td><td>Aspirate, Gastric</td><td>added v2.5</td></tr><tr><td>GASAN<a name=\"GASAN\"> </a></td><td>Antrum, Gastric</td><td>added v2.5</td></tr><tr><td>GASBR<a name=\"GASBR\"> </a></td><td>Brushing, Gastric</td><td>added v2.5</td></tr><tr><td>GASD<a name=\"GASD\"> </a></td><td>Drainage, Gastric</td><td>added v2.5</td></tr><tr><td>GAST<a name=\"GAST\"> </a></td><td>Fluid/contents, Gastric</td><td>added v2.5</td></tr><tr><td>GENV<a name=\"GENV\"> </a></td><td>Genital vaginal</td><td>added v2.5</td></tr><tr><td>GRAFT<a name=\"GRAFT\"> </a></td><td>Graft</td><td>added v2.5</td></tr><tr><td>GRAFTS<a name=\"GRAFTS\"> </a></td><td>Graft Site</td><td>added v2.7</td></tr><tr><td>GRANU<a name=\"GRANU\"> </a></td><td>Granuloma</td><td>added v2.5</td></tr><tr><td>GROSH<a name=\"GROSH\"> </a></td><td>Catheter, Groshong</td><td>added v2.5</td></tr><tr><td>GSOL<a name=\"GSOL\"> </a></td><td>Solution, Gastrostomy</td><td>added v2.5</td></tr><tr><td>GSPEC<a name=\"GSPEC\"> </a></td><td>Biopsy, Gastric</td><td>added v2.5</td></tr><tr><td>GT<a name=\"GT\"> </a></td><td>Tube, Gastric</td><td>added v2.5</td></tr><tr><td>GTUBE<a name=\"GTUBE\"> </a></td><td>Drainage Tube, Drainage (Gastrostomy)</td><td>added v2.5</td></tr><tr><td>HBITE<a name=\"HBITE\"> </a></td><td>Bite, Human</td><td>added v2.5</td></tr><tr><td>HBLUD<a name=\"HBLUD\"> </a></td><td>Blood, Autopsy</td><td>added v2.5</td></tr><tr><td>HEMAQ<a name=\"HEMAQ\"> </a></td><td>Catheter Tip, Hemaquit</td><td>added v2.5</td></tr><tr><td>HEMO<a name=\"HEMO\"> </a></td><td>Catheter Tip, Hemovac</td><td>added v2.5</td></tr><tr><td>HERNI<a name=\"HERNI\"> </a></td><td>Tissue, Herniated</td><td>added v2.5</td></tr><tr><td>HEV<a name=\"HEV\"> </a></td><td>Drain, Hemovac</td><td>added v2.5</td></tr><tr><td>HIC<a name=\"HIC\"> </a></td><td>Catheter, Hickman</td><td>added v2.5</td></tr><tr><td>HYDC<a name=\"HYDC\"> </a></td><td>Fluid, Hydrocele</td><td>added v2.5</td></tr><tr><td>IBITE<a name=\"IBITE\"> </a></td><td>Bite, Insect</td><td>added v2.5</td></tr><tr><td>ICYST<a name=\"ICYST\"> </a></td><td>Cyst, Inclusion</td><td>added v2.5</td></tr><tr><td>IDC<a name=\"IDC\"> </a></td><td>Catheter Tip, Indwelling</td><td>added v2.5</td></tr><tr><td>IHG<a name=\"IHG\"> </a></td><td>Gas, Inhaled</td><td>added v2.5</td></tr><tr><td>ILEO<a name=\"ILEO\"> </a></td><td>Drainage, Ileostomy</td><td>added v2.5</td></tr><tr><td>ILLEG<a name=\"ILLEG\"> </a></td><td>Source of Specimen Is Illegible</td><td>added v2.5</td></tr><tr><td>IMP<a name=\"IMP\"> </a></td><td>Implant</td><td>added v2.5</td></tr><tr><td>INCI<a name=\"INCI\"> </a></td><td>Site, Incision/Surgical</td><td>added v2.5</td></tr><tr><td>INFIL<a name=\"INFIL\"> </a></td><td>Infiltrate</td><td>added v2.5</td></tr><tr><td>INS<a name=\"INS\"> </a></td><td>Insect</td><td>added v2.5</td></tr><tr><td>INTRD<a name=\"INTRD\"> </a></td><td>Catheter Tip, Introducer</td><td>added v2.5</td></tr><tr><td>IT<a name=\"IT\"> </a></td><td>Intubation tube</td><td>added v2.5</td></tr><tr><td>IUD<a name=\"IUD\"> </a></td><td>Intrauterine Device</td><td>added v2.5</td></tr><tr><td>IVCAT<a name=\"IVCAT\"> </a></td><td>Catheter Tip, IV</td><td>added v2.5</td></tr><tr><td>IVFLD<a name=\"IVFLD\"> </a></td><td>Fluid, IV</td><td>added v2.5</td></tr><tr><td>IVTIP<a name=\"IVTIP\"> </a></td><td>Tubing Tip, IV</td><td>added v2.5</td></tr><tr><td>JEJU<a name=\"JEJU\"> </a></td><td>Drainage, Jejunal</td><td>added v2.5</td></tr><tr><td>JNTFLD<a name=\"JNTFLD\"> </a></td><td>Fluid, Joint</td><td>added v2.5</td></tr><tr><td>JP<a name=\"JP\"> </a></td><td>Drainage, Jackson Pratt</td><td>added v2.5</td></tr><tr><td>KELOI<a name=\"KELOI\"> </a></td><td>Lavage</td><td>added v2.5</td></tr><tr><td>KIDFLD<a name=\"KIDFLD\"> </a></td><td>Fluid, Kidney</td><td>added v2.5</td></tr><tr><td>LAVG<a name=\"LAVG\"> </a></td><td>Lavage, Bronhial</td><td>added v2.5</td></tr><tr><td>LAVGG<a name=\"LAVGG\"> </a></td><td>Lavage, Gastric</td><td>added v2.5</td></tr><tr><td>LAVGP<a name=\"LAVGP\"> </a></td><td>Lavage, Peritoneal</td><td>added v2.5</td></tr><tr><td>LAVPG<a name=\"LAVPG\"> </a></td><td>Lavage, Pre-Bronch</td><td>added v2.5</td></tr><tr><td>LENS1<a name=\"LENS1\"> </a></td><td>Contact Lens</td><td>added v2.5</td></tr><tr><td>LENS2<a name=\"LENS2\"> </a></td><td>Contact Lens Case</td><td>added v2.5</td></tr><tr><td>LESN<a name=\"LESN\"> </a></td><td>Lesion</td><td>added v2.5</td></tr><tr><td>LIQ<a name=\"LIQ\"> </a></td><td>Liquid, Unspecified</td><td>added v2.5</td></tr><tr><td>LIQO<a name=\"LIQO\"> </a></td><td>Liquid, Other</td><td>added v2.5</td></tr><tr><td>LSAC<a name=\"LSAC\"> </a></td><td>Fluid, Lumbar Sac</td><td>added v2.5</td></tr><tr><td>MAHUR<a name=\"MAHUR\"> </a></td><td>Catheter Tip, Makurkour</td><td>added v2.5</td></tr><tr><td>MASS<a name=\"MASS\"> </a></td><td>Mass</td><td>added v2.5</td></tr><tr><td>MBLD<a name=\"MBLD\"> </a></td><td>Blood, Menstrual</td><td>added v2.5</td></tr><tr><td>MUCOS<a name=\"MUCOS\"> </a></td><td>Mucosa</td><td>added v2.5</td></tr><tr><td>MUCUS<a name=\"MUCUS\"> </a></td><td>Mucus</td><td>added v2.5</td></tr><tr><td>NASDR<a name=\"NASDR\"> </a></td><td>Drainage, Nasal</td><td>added v2.5</td></tr><tr><td>NEDL<a name=\"NEDL\"> </a></td><td>Needle</td><td>added v2.5</td></tr><tr><td>NEPH<a name=\"NEPH\"> </a></td><td>Site, Nephrostomy</td><td>added v2.5</td></tr><tr><td>NGASP<a name=\"NGASP\"> </a></td><td>Aspirate, Nasogastric</td><td>added v2.5</td></tr><tr><td>NGAST<a name=\"NGAST\"> </a></td><td>Drainage, Nasogastric</td><td>added v2.5</td></tr><tr><td>NGS<a name=\"NGS\"> </a></td><td>Site, Naso/Gastric</td><td>added v2.5</td></tr><tr><td>NODUL<a name=\"NODUL\"> </a></td><td>Nodule(s)</td><td>added v2.5</td></tr><tr><td>NSECR<a name=\"NSECR\"> </a></td><td>Secretion, Nasal</td><td>added v2.5</td></tr><tr><td>ORH<a name=\"ORH\"> </a></td><td>Other</td><td>added v2.5</td></tr><tr><td>ORL<a name=\"ORL\"> </a></td><td>Lesion, Oral</td><td>added v2.5</td></tr><tr><td>OTH<a name=\"OTH\"> </a></td><td>Source, Other</td><td>added v2.5</td></tr><tr><td>PACEM<a name=\"PACEM\"> </a></td><td>Pacemaker</td><td>added v2.5</td></tr><tr><td>PCFL<a name=\"PCFL\"> </a></td><td>Fluid, Pericardial</td><td>added v2.5</td></tr><tr><td>PDSIT<a name=\"PDSIT\"> </a></td><td>Site, Peritoneal Dialysis</td><td>added v2.5</td></tr><tr><td>PDTS<a name=\"PDTS\"> </a></td><td>Site, Peritoneal Dialysis Tunnel</td><td>added v2.5</td></tr><tr><td>PELVA<a name=\"PELVA\"> </a></td><td>Abscess, Pelvic</td><td>added v2.5</td></tr><tr><td>PENIL<a name=\"PENIL\"> </a></td><td>Lesion, Penile</td><td>added v2.5</td></tr><tr><td>PERIA<a name=\"PERIA\"> </a></td><td>Abscess, Perianal</td><td>added v2.5</td></tr><tr><td>PILOC<a name=\"PILOC\"> </a></td><td>Cyst, Pilonidal</td><td>added v2.5</td></tr><tr><td>PINS<a name=\"PINS\"> </a></td><td>Site, Pin</td><td>added v2.5</td></tr><tr><td>PIS<a name=\"PIS\"> </a></td><td>Site, Pacemaker Insetion</td><td>added v2.5</td></tr><tr><td>PLAN<a name=\"PLAN\"> </a></td><td>Plant Material</td><td>added v2.5</td></tr><tr><td>PLAS<a name=\"PLAS\"> </a></td><td>Plasma</td><td>added v2.5</td></tr><tr><td>PLB<a name=\"PLB\"> </a></td><td>Plasma bag</td><td>added v2.5</td></tr><tr><td>PLEVS<a name=\"PLEVS\"> </a></td><td>Serum, Peak Level</td><td>added v2.5</td></tr><tr><td>PND<a name=\"PND\"> </a></td><td>Drainage, Penile</td><td>added v2.5</td></tr><tr><td>POL<a name=\"POL\"> </a></td><td>Polyps</td><td>added v2.5</td></tr><tr><td>POPGS<a name=\"POPGS\"> </a></td><td>Graft Site, Popliteal</td><td>added v2.5</td></tr><tr><td>POPLG<a name=\"POPLG\"> </a></td><td>Graft, Popliteal</td><td>added v2.5</td></tr><tr><td>POPLV<a name=\"POPLV\"> </a></td><td>Site, Popliteal Vein</td><td>added v2.5</td></tr><tr><td>PORTA<a name=\"PORTA\"> </a></td><td>Catheter, Porta</td><td>added v2.5</td></tr><tr><td>PPP<a name=\"PPP\"> </a></td><td>Plasma, Platelet poor</td><td>added v2.5</td></tr><tr><td>PROST<a name=\"PROST\"> </a></td><td>Prosthetic Device</td><td>added v2.5</td></tr><tr><td>PRP<a name=\"PRP\"> </a></td><td>Plasma, Platelet rich</td><td>added v2.5</td></tr><tr><td>PSC<a name=\"PSC\"> </a></td><td>Pseudocyst</td><td>added v2.5</td></tr><tr><td>PUNCT<a name=\"PUNCT\"> </a></td><td>Wound, Puncture</td><td>added v2.5</td></tr><tr><td>PUS<a name=\"PUS\"> </a></td><td>Pus</td><td>added v2.5.1</td></tr><tr><td>PUSFR<a name=\"PUSFR\"> </a></td><td>Pustule</td><td>added v2.5</td></tr><tr><td>PUST<a name=\"PUST\"> </a></td><td>Pus</td><td>added v2.5</td></tr><tr><td>QC3<a name=\"QC3\"> </a></td><td>Quality Control</td><td>added v2.5</td></tr><tr><td>RANDU<a name=\"RANDU\"> </a></td><td>Urine, Random</td><td>added v2.5</td></tr><tr><td>RBITE<a name=\"RBITE\"> </a></td><td>Bite, Reptile</td><td>added v2.5</td></tr><tr><td>RECT<a name=\"RECT\"> </a></td><td>Drainage, Rectal</td><td>added v2.5</td></tr><tr><td>RECTA<a name=\"RECTA\"> </a></td><td>Abscess, Rectal</td><td>added v2.5</td></tr><tr><td>RENALC<a name=\"RENALC\"> </a></td><td>Cyst, Renal</td><td>added v2.5</td></tr><tr><td>RENC<a name=\"RENC\"> </a></td><td>Fluid, Renal Cyst</td><td>added v2.5</td></tr><tr><td>RES<a name=\"RES\"> </a></td><td>Respiratory</td><td>added v2.5</td></tr><tr><td>SAL<a name=\"SAL\"> </a></td><td>Saliva</td><td>added v2.5</td></tr><tr><td>SCAR<a name=\"SCAR\"> </a></td><td>Tissue, Keloid (Scar)</td><td>added v2.5</td></tr><tr><td>SCLV<a name=\"SCLV\"> </a></td><td>Catheter Tip, Subclavian</td><td>added v2.5</td></tr><tr><td>SCROA<a name=\"SCROA\"> </a></td><td>Abscess, Scrotal</td><td>added v2.5</td></tr><tr><td>SECRE<a name=\"SECRE\"> </a></td><td>Secretion(s)</td><td>added v2.5</td></tr><tr><td>SER<a name=\"SER\"> </a></td><td>Serum</td><td>added v2.5</td></tr><tr><td>SHU<a name=\"SHU\"> </a></td><td>Site, Shunt</td><td>added v2.5</td></tr><tr><td>SHUNF<a name=\"SHUNF\"> </a></td><td>Fluid, Shunt</td><td>added v2.5</td></tr><tr><td>SHUNT<a name=\"SHUNT\"> </a></td><td>Shunt</td><td>added v2.5</td></tr><tr><td>SITE<a name=\"SITE\"> </a></td><td>Site</td><td>added v2.5</td></tr><tr><td>SKBP<a name=\"SKBP\"> </a></td><td>Biopsy, Skin</td><td>added v2.5</td></tr><tr><td>SKN<a name=\"SKN\"> </a></td><td>Skin</td><td>added v2.5</td></tr><tr><td>SMM<a name=\"SMM\"> </a></td><td>Mass, Sub-Mandibular</td><td>added v2.5</td></tr><tr><td>SNV<a name=\"SNV\"> </a></td><td>Fluid, synovial (Joint fluid)</td><td>added v2.5</td></tr><tr><td>SPRM<a name=\"SPRM\"> </a></td><td>Spermatozoa</td><td>added v2.5</td></tr><tr><td>SPRP<a name=\"SPRP\"> </a></td><td>Catheter Tip, Suprapubic</td><td>added v2.5</td></tr><tr><td>SPRPB<a name=\"SPRPB\"> </a></td><td>Cathether Tip, Suprapubic</td><td>added v2.5</td></tr><tr><td>SPS<a name=\"SPS\"> </a></td><td>Environmental, Spore Strip</td><td>added v2.5</td></tr><tr><td>SPT<a name=\"SPT\"> </a></td><td>Sputum</td><td>added v2.5</td></tr><tr><td>SPTC<a name=\"SPTC\"> </a></td><td>Sputum - coughed</td><td>added v2.5</td></tr><tr><td>SPTT<a name=\"SPTT\"> </a></td><td>Sputum - tracheal aspirate</td><td>added v2.5</td></tr><tr><td>SPUT1<a name=\"SPUT1\"> </a></td><td>Sputum, Simulated</td><td>added v2.5</td></tr><tr><td>SPUTIN<a name=\"SPUTIN\"> </a></td><td>Sputum, Inducted</td><td>added v2.5</td></tr><tr><td>SPUTSP<a name=\"SPUTSP\"> </a></td><td>Sputum, Spontaneous</td><td>added v2.5</td></tr><tr><td>STER<a name=\"STER\"> </a></td><td>Environmental, Sterrad</td><td>added v2.5</td></tr><tr><td>STL<a name=\"STL\"> </a></td><td>Stool = Fecal</td><td>added v2.5</td></tr><tr><td>STONE<a name=\"STONE\"> </a></td><td>Stone, Kidney</td><td>added v2.5</td></tr><tr><td>SUBMA<a name=\"SUBMA\"> </a></td><td>Abscess, Submandibular</td><td>added v2.5</td></tr><tr><td>SUBMX<a name=\"SUBMX\"> </a></td><td>Abscess, Submaxillary</td><td>added v2.5</td></tr><tr><td>SUMP<a name=\"SUMP\"> </a></td><td>Drainage, Sump</td><td>added v2.5</td></tr><tr><td>SUP<a name=\"SUP\"> </a></td><td>Suprapubic Tap</td><td>added v2.5</td></tr><tr><td>SUTUR<a name=\"SUTUR\"> </a></td><td>Suture</td><td>added v2.5</td></tr><tr><td>SWGZ<a name=\"SWGZ\"> </a></td><td>Catheter Tip, Swan Gantz</td><td>added v2.5</td></tr><tr><td>TASP<a name=\"TASP\"> </a></td><td>Aspirate, Tracheal</td><td>added v2.5</td></tr><tr><td>TISS<a name=\"TISS\"> </a></td><td>Tissue</td><td>added v2.5</td></tr><tr><td>TISU<a name=\"TISU\"> </a></td><td>Tissue ulcer</td><td>added v2.5</td></tr><tr><td>TLC<a name=\"TLC\"> </a></td><td>Cathether Tip, Triple Lumen</td><td>added v2.5</td></tr><tr><td>TRAC<a name=\"TRAC\"> </a></td><td>Site, Tracheostomy</td><td>added v2.5</td></tr><tr><td>TRANS<a name=\"TRANS\"> </a></td><td>Transudate</td><td>added v2.5</td></tr><tr><td>TSERU<a name=\"TSERU\"> </a></td><td>Serum, Trough</td><td>added v2.5</td></tr><tr><td>TSTES<a name=\"TSTES\"> </a></td><td>Abscess, Testicular</td><td>added v2.5</td></tr><tr><td>TTRA<a name=\"TTRA\"> </a></td><td>Aspirate, Transtracheal</td><td>added v2.5</td></tr><tr><td>TUBES<a name=\"TUBES\"> </a></td><td>Tubes</td><td>added v2.5</td></tr><tr><td>TUMOR<a name=\"TUMOR\"> </a></td><td>Tumor</td><td>added v2.5</td></tr><tr><td>TZANC<a name=\"TZANC\"> </a></td><td>Smear, Tzanck</td><td>added v2.5</td></tr><tr><td>UDENT<a name=\"UDENT\"> </a></td><td>Source, Unidentified</td><td>added v2.5</td></tr><tr><td>UR<a name=\"UR\"> </a></td><td>Urine</td><td>added v2.5</td></tr><tr><td>URC<a name=\"URC\"> </a></td><td>Urine clean catch</td><td>added v2.5</td></tr><tr><td>URINB<a name=\"URINB\"> </a></td><td>Urine, Bladder Washings</td><td>added v2.5</td></tr><tr><td>URINC<a name=\"URINC\"> </a></td><td>Urine, Catheterized</td><td>added v2.5</td></tr><tr><td>URINM<a name=\"URINM\"> </a></td><td>Urine, Midstream</td><td>added v2.5</td></tr><tr><td>URINN<a name=\"URINN\"> </a></td><td>Urine, Nephrostomy</td><td>added v2.5</td></tr><tr><td>URINP<a name=\"URINP\"> </a></td><td>Urine, Pedibag</td><td>added v2.5</td></tr><tr><td>URT<a name=\"URT\"> </a></td><td>Urine catheter</td><td>added v2.5</td></tr><tr><td>USCOP<a name=\"USCOP\"> </a></td><td>Urine, Cystoscopy</td><td>added v2.5</td></tr><tr><td>USPEC<a name=\"USPEC\"> </a></td><td>Source, Unspecified</td><td>added v2.5</td></tr><tr><td>VASTIP<a name=\"VASTIP\"> </a></td><td>Catheter Tip, Vas</td><td>added v2.5</td></tr><tr><td>VENT<a name=\"VENT\"> </a></td><td>Catheter Tip, Ventricular</td><td>added v2.5</td></tr><tr><td>VITF<a name=\"VITF\"> </a></td><td>Vitreous Fluid</td><td>added v2.5</td></tr><tr><td>VOM<a name=\"VOM\"> </a></td><td>Vomitus</td><td>added v2.5.1</td></tr><tr><td>WASH<a name=\"WASH\"> </a></td><td>Wash</td><td>added v2.5</td></tr><tr><td>WASI<a name=\"WASI\"> </a></td><td>Washing, e.g. bronchial washing</td><td>added v2.5</td></tr><tr><td>WAT<a name=\"WAT\"> </a></td><td>Water</td><td>added v2.5</td></tr><tr><td>WB<a name=\"WB\"> </a></td><td>Blood, Whole</td><td>added v2.5</td></tr><tr><td>WEN<a name=\"WEN\"> </a></td><td>Wen</td><td>added v2.5</td></tr><tr><td>WICK<a name=\"WICK\"> </a></td><td>Wick</td><td>added v2.5</td></tr><tr><td>WND<a name=\"WND\"> </a></td><td>Wound</td><td>added v2.5</td></tr><tr><td>WNDA<a name=\"WNDA\"> </a></td><td>Wound abscess</td><td>added v2.5</td></tr><tr><td>WNDD<a name=\"WNDD\"> </a></td><td>Wound drainage</td><td>added v2.5</td></tr><tr><td>WNDE<a name=\"WNDE\"> </a></td><td>Wound exudate</td><td>added v2.5</td></tr><tr><td>WORM<a name=\"WORM\"> </a></td><td>Worm</td><td>added v2.5</td></tr><tr><td>WRT<a name=\"WRT\"> </a></td><td>Wart</td><td>added v2.5</td></tr><tr><td>WWA<a name=\"WWA\"> </a></td><td>Environmental, Water</td><td>added v2.5</td></tr><tr><td>WWO<a name=\"WWO\"> </a></td><td>Environmental, Water (Ocean)</td><td>added v2.5</td></tr><tr><td>WWT<a name=\"WWT\"> </a></td><td>Environmental, Water  (Tap)</td><td>added v2.5</td></tr></table>\r\n</div>"
  },
  "url": "http://hl7.org/fhir/ValueSet/v2-0487",
  "version": "2.7",
  "name": "v2 Specimen Type",
  "publisher": "HL7, Inc",
  "contact": [
    {
      "telecom": [
        {
          "system": "url",
          "value": "http://hl7.org"
        }
      ]
    }
  ],
  "description": "FHIR Value set/code system definition for HL7 v2 table 0487 ( Specimen Type)",
  "status": "active",
  "experimental": true,
  "date": "2011-01-28",
  "define": {
    "system": "http://hl7.org/fhir/v2/0487",
    "caseSensitive": true,
    "concept": [
      {
        "extension": [
          {
            "url": "http://hl7.org/fhir/StructureDefinition/valueset-deprecated",
            "valueBoolean": true
          }
        ],
        "code": "...",
        "display": "No suggested values"
      },
      {
        "code": "ABS",
        "display": "Abscess"
      },
      {
        "code": "ACNE",
        "display": "Tissue, Acne"
      },
      {
        "code": "ACNFLD",
        "display": "Fluid, Acne"
      },
      {
        "code": "AIRS",
        "display": "Air Sample"
      },
      {
        "code": "ALL",
        "display": "Allograft"
      },
      {
        "code": "AMP",
        "display": "Amputation"
      },
      {
        "code": "ANGI",
        "display": "Catheter Tip, Angio"
      },
      {
        "code": "ARTC",
        "display": "Catheter Tip, Arterial"
      },
      {
        "code": "ASERU",
        "display": "Serum, Acute"
      },
      {
        "code": "ASP",
        "display": "Aspirate"
      },
      {
        "code": "ATTE",
        "display": "Environment, Attest"
      },
      {
        "code": "AUTOA",
        "display": "Environmental, Autoclave Ampule"
      },
      {
        "code": "AUTOC",
        "display": "Environmental, Autoclave Capsule"
      },
      {
        "code": "AUTP",
        "display": "Autopsy"
      },
      {
        "code": "BBL",
        "display": "Blood bag"
      },
      {
        "code": "BCYST",
        "display": "Cyst, Baker's"
      },
      {
        "code": "BITE",
        "display": "Bite"
      },
      {
        "code": "BLEB",
        "display": "Bleb"
      },
      {
        "code": "BLIST",
        "display": "Blister"
      },
      {
        "code": "BOIL",
        "display": "Boil"
      },
      {
        "code": "BON",
        "display": "Bone"
      },
      {
        "extension": [
          {
            "url": "http://hl7.org/fhir/StructureDefinition/valueset-deprecated",
            "valueBoolean": true
          }
        ],
        "code": "BONE",
        "display": "Bone"
      },
      {
        "code": "BOWL",
        "display": "Bowel contents"
      },
      {
        "code": "BPU",
        "display": "Blood product unit"
      },
      {
        "code": "BRN",
        "display": "Burn"
      },
      {
        "code": "BRSH",
        "display": "Brush"
      },
      {
        "code": "BRTH",
        "display": "Breath (use EXHLD)"
      },
      {
        "code": "BRUS",
        "display": "Brushing"
      },
      {
        "code": "BUB",
        "display": "Bubo"
      },
      {
        "code": "BULLA",
        "display": "Bulla/Bullae"
      },
      {
        "code": "BX",
        "display": "Biopsy"
      },
      {
        "code": "CALC",
        "display": "Calculus (=Stone)"
      },
      {
        "code": "CARBU",
        "display": "Carbuncle"
      },
      {
        "code": "CAT",
        "display": "Catheter"
      },
      {
        "code": "CBITE",
        "display": "Bite, Cat"
      },
      {
        "code": "CLIPP",
        "display": "Clippings"
      },
      {
        "code": "CNJT",
        "display": "Conjunctiva"
      },
      {
        "code": "COL",
        "display": "Colostrum"
      },
      {
        "code": "CONE",
        "display": "Biospy, Cone"
      },
      {
        "code": "CSCR",
        "display": "Scratch, Cat"
      },
      {
        "code": "CSERU",
        "display": "Serum, Convalescent"
      },
      {
        "code": "CSITE",
        "display": "Catheter Insertion Site"
      },
      {
        "code": "CSMY",
        "display": "Fluid,  Cystostomy Tube"
      },
      {
        "code": "CST",
        "display": "Fluid, Cyst"
      },
      {
        "code": "CSVR",
        "display": "Blood, Cell Saver"
      },
      {
        "code": "CTP",
        "display": "Catheter tip"
      },
      {
        "code": "CVPS",
        "display": "Site, CVP"
      },
      {
        "code": "CVPT",
        "display": "Catheter Tip, CVP"
      },
      {
        "code": "CYN",
        "display": "Nodule, Cystic"
      },
      {
        "code": "CYST",
        "display": "Cyst"
      },
      {
        "code": "DBITE",
        "display": "Bite, Dog"
      },
      {
        "code": "DCS",
        "display": "Sputum, Deep Cough"
      },
      {
        "code": "DEC",
        "display": "Ulcer, Decubitus"
      },
      {
        "code": "DEION",
        "display": "Environmental, Water  (Deionized)"
      },
      {
        "code": "DIA",
        "display": "Dialysate"
      },
      {
        "code": "DISCHG",
        "display": "Discharge"
      },
      {
        "code": "DIV",
        "display": "Diverticulum"
      },
      {
        "code": "DRN",
        "display": "Drain"
      },
      {
        "code": "DRNG",
        "display": "Drainage, Tube"
      },
      {
        "code": "DRNGP",
        "display": "Drainage, Penrose"
      },
      {
        "code": "EARW",
        "display": "Ear wax (cerumen)"
      },
      {
        "code": "EBRUSH",
        "display": "Brush, Esophageal"
      },
      {
        "code": "EEYE",
        "display": "Environmental, Eye Wash"
      },
      {
        "code": "EFF",
        "display": "Environmental, Effluent"
      },
      {
        "code": "EFFUS",
        "display": "Effusion"
      },
      {
        "code": "EFOD",
        "display": "Environmental, Food"
      },
      {
        "code": "EISO",
        "display": "Environmental, Isolette"
      },
      {
        "code": "ELT",
        "display": "Electrode"
      },
      {
        "code": "ENVIR",
        "display": "Environmental, Unidentified Substance"
      },
      {
        "code": "EOTH",
        "display": "Environmental, Other Substance"
      },
      {
        "code": "ESOI",
        "display": "Environmental, Soil"
      },
      {
        "code": "ESOS",
        "display": "Environmental, Solution (Sterile)"
      },
      {
        "code": "ETA",
        "display": "Aspirate,  Endotrach"
      },
      {
        "code": "ETTP",
        "display": "Catheter Tip, Endotracheal"
      },
      {
        "code": "ETTUB",
        "display": "Tube, Endotracheal"
      },
      {
        "code": "EWHI",
        "display": "Environmental, Whirlpool"
      },
      {
        "code": "EXG",
        "display": "Gas, exhaled (=breath)"
      },
      {
        "code": "EXS",
        "display": "Shunt, External"
      },
      {
        "code": "EXUDTE",
        "display": "Exudate"
      },
      {
        "code": "FAW",
        "display": "Environmental, Water  (Well)"
      },
      {
        "code": "FBLOOD",
        "display": "Blood, Fetal"
      },
      {
        "code": "FGA",
        "display": "Fluid,  Abdomen"
      },
      {
        "code": "FIST",
        "display": "Fistula"
      },
      {
        "code": "FLD",
        "display": "Fluid, Other"
      },
      {
        "code": "FLT",
        "display": "Filter"
      },
      {
        "code": "FLU",
        "display": "Fluid, Body unsp"
      },
      {
        "code": "FLUID",
        "display": "Fluid"
      },
      {
        "code": "FOLEY",
        "display": "Catheter Tip, Foley"
      },
      {
        "code": "FRS",
        "display": "Fluid, Respiratory"
      },
      {
        "code": "FSCLP",
        "display": "Scalp, Fetal"
      },
      {
        "code": "FUR",
        "display": "Furuncle"
      },
      {
        "code": "GAS",
        "display": "Gas"
      },
      {
        "code": "GASA",
        "display": "Aspirate, Gastric"
      },
      {
        "code": "GASAN",
        "display": "Antrum, Gastric"
      },
      {
        "code": "GASBR",
        "display": "Brushing, Gastric"
      },
      {
        "code": "GASD",
        "display": "Drainage, Gastric"
      },
      {
        "code": "GAST",
        "display": "Fluid/contents, Gastric"
      },
      {
        "code": "GENV",
        "display": "Genital vaginal"
      },
      {
        "code": "GRAFT",
        "display": "Graft"
      },
      {
        "code": "GRAFTS",
        "display": "Graft Site"
      },
      {
        "code": "GRANU",
        "display": "Granuloma"
      },
      {
        "code": "GROSH",
        "display": "Catheter, Groshong"
      },
      {
        "code": "GSOL",
        "display": "Solution, Gastrostomy"
      },
      {
        "code": "GSPEC",
        "display": "Biopsy, Gastric"
      },
      {
        "code": "GT",
        "display": "Tube, Gastric"
      },
      {
        "code": "GTUBE",
        "display": "Drainage Tube, Drainage (Gastrostomy)"
      },
      {
        "code": "HBITE",
        "display": "Bite, Human"
      },
      {
        "code": "HBLUD",
        "display": "Blood, Autopsy"
      },
      {
        "code": "HEMAQ",
        "display": "Catheter Tip, Hemaquit"
      },
      {
        "code": "HEMO",
        "display": "Catheter Tip, Hemovac"
      },
      {
        "code": "HERNI",
        "display": "Tissue, Herniated"
      },
      {
        "code": "HEV",
        "display": "Drain, Hemovac"
      },
      {
        "code": "HIC",
        "display": "Catheter, Hickman"
      },
      {
        "code": "HYDC",
        "display": "Fluid, Hydrocele"
      },
      {
        "code": "IBITE",
        "display": "Bite, Insect"
      },
      {
        "code": "ICYST",
        "display": "Cyst, Inclusion"
      },
      {
        "code": "IDC",
        "display": "Catheter Tip, Indwelling"
      },
      {
        "code": "IHG",
        "display": "Gas, Inhaled"
      },
      {
        "code": "ILEO",
        "display": "Drainage, Ileostomy"
      },
      {
        "code": "ILLEG",
        "display": "Source of Specimen Is Illegible"
      },
      {
        "code": "IMP",
        "display": "Implant"
      },
      {
        "code": "INCI",
        "display": "Site, Incision/Surgical"
      },
      {
        "code": "INFIL",
        "display": "Infiltrate"
      },
      {
        "code": "INS",
        "display": "Insect"
      },
      {
        "code": "INTRD",
        "display": "Catheter Tip, Introducer"
      },
      {
        "code": "IT",
        "display": "Intubation tube"
      },
      {
        "code": "IUD",
        "display": "Intrauterine Device"
      },
      {
        "code": "IVCAT",
        "display": "Catheter Tip, IV"
      },
      {
        "code": "IVFLD",
        "display": "Fluid, IV"
      },
      {
        "code": "IVTIP",
        "display": "Tubing Tip, IV"
      },
      {
        "code": "JEJU",
        "display": "Drainage, Jejunal"
      },
      {
        "code": "JNTFLD",
        "display": "Fluid, Joint"
      },
      {
        "code": "JP",
        "display": "Drainage, Jackson Pratt"
      },
      {
        "code": "KELOI",
        "display": "Lavage"
      },
      {
        "code": "KIDFLD",
        "display": "Fluid, Kidney"
      },
      {
        "code": "LAVG",
        "display": "Lavage, Bronhial"
      },
      {
        "code": "LAVGG",
        "display": "Lavage, Gastric"
      },
      {
        "code": "LAVGP",
        "display": "Lavage, Peritoneal"
      },
      {
        "code": "LAVPG",
        "display": "Lavage, Pre-Bronch"
      },
      {
        "code": "LENS1",
        "display": "Contact Lens"
      },
      {
        "code": "LENS2",
        "display": "Contact Lens Case"
      },
      {
        "code": "LESN",
        "display": "Lesion"
      },
      {
        "code": "LIQ",
        "display": "Liquid, Unspecified"
      },
      {
        "code": "LIQO",
        "display": "Liquid, Other"
      },
      {
        "code": "LSAC",
        "display": "Fluid, Lumbar Sac"
      },
      {
        "code": "MAHUR",
        "display": "Catheter Tip, Makurkour"
      },
      {
        "code": "MASS",
        "display": "Mass"
      },
      {
        "code": "MBLD",
        "display": "Blood, Menstrual"
      },
      {
        "code": "MUCOS",
        "display": "Mucosa"
      },
      {
        "code": "MUCUS",
        "display": "Mucus"
      },
      {
        "code": "NASDR",
        "display": "Drainage, Nasal"
      },
      {
        "code": "NEDL",
        "display": "Needle"
      },
      {
        "code": "NEPH",
        "display": "Site, Nephrostomy"
      },
      {
        "code": "NGASP",
        "display": "Aspirate, Nasogastric"
      },
      {
        "code": "NGAST",
        "display": "Drainage, Nasogastric"
      },
      {
        "code": "NGS",
        "display": "Site, Naso/Gastric"
      },
      {
        "code": "NODUL",
        "display": "Nodule(s)"
      },
      {
        "code": "NSECR",
        "display": "Secretion, Nasal"
      },
      {
        "code": "ORH",
        "display": "Other"
      },
      {
        "code": "ORL",
        "display": "Lesion, Oral"
      },
      {
        "code": "OTH",
        "display": "Source, Other"
      },
      {
        "code": "PACEM",
        "display": "Pacemaker"
      },
      {
        "code": "PCFL",
        "display": "Fluid, Pericardial"
      },
      {
        "code": "PDSIT",
        "display": "Site, Peritoneal Dialysis"
      },
      {
        "code": "PDTS",
        "display": "Site, Peritoneal Dialysis Tunnel"
      },
      {
        "code": "PELVA",
        "display": "Abscess, Pelvic"
      },
      {
        "code": "PENIL",
        "display": "Lesion, Penile"
      },
      {
        "code": "PERIA",
        "display": "Abscess, Perianal"
      },
      {
        "code": "PILOC",
        "display": "Cyst, Pilonidal"
      },
      {
        "code": "PINS",
        "display": "Site, Pin"
      },
      {
        "code": "PIS",
        "display": "Site, Pacemaker Insetion"
      },
      {
        "code": "PLAN",
        "display": "Plant Material"
      },
      {
        "code": "PLAS",
        "display": "Plasma"
      },
      {
        "code": "PLB",
        "display": "Plasma bag"
      },
      {
        "code": "PLEVS",
        "display": "Serum, Peak Level"
      },
      {
        "code": "PND",
        "display": "Drainage, Penile"
      },
      {
        "code": "POL",
        "display": "Polyps"
      },
      {
        "code": "POPGS",
        "display": "Graft Site, Popliteal"
      },
      {
        "code": "POPLG",
        "display": "Graft, Popliteal"
      },
      {
        "code": "POPLV",
        "display": "Site, Popliteal Vein"
      },
      {
        "code": "PORTA",
        "display": "Catheter, Porta"
      },
      {
        "code": "PPP",
        "display": "Plasma, Platelet poor"
      },
      {
        "code": "PROST",
        "display": "Prosthetic Device"
      },
      {
        "code": "PRP",
        "display": "Plasma, Platelet rich"
      },
      {
        "code": "PSC",
        "display": "Pseudocyst"
      },
      {
        "code": "PUNCT",
        "display": "Wound, Puncture"
      },
      {
        "code": "PUS",
        "display": "Pus"
      },
      {
        "code": "PUSFR",
        "display": "Pustule"
      },
      {
        "code": "PUST",
        "display": "Pus"
      },
      {
        "code": "QC3",
        "display": "Quality Control"
      },
      {
        "code": "RANDU",
        "display": "Urine, Random"
      },
      {
        "code": "RBITE",
        "display": "Bite, Reptile"
      },
      {
        "code": "RECT",
        "display": "Drainage, Rectal"
      },
      {
        "code": "RECTA",
        "display": "Abscess, Rectal"
      },
      {
        "code": "RENALC",
        "display": "Cyst, Renal"
      },
      {
        "code": "RENC",
        "display": "Fluid, Renal Cyst"
      },
      {
        "code": "RES",
        "display": "Respiratory"
      },
      {
        "code": "SAL",
        "display": "Saliva"
      },
      {
        "code": "SCAR",
        "display": "Tissue, Keloid (Scar)"
      },
      {
        "code": "SCLV",
        "display": "Catheter Tip, Subclavian"
      },
      {
        "code": "SCROA",
        "display": "Abscess, Scrotal"
      },
      {
        "code": "SECRE",
        "display": "Secretion(s)"
      },
      {
        "code": "SER",
        "display": "Serum"
      },
      {
        "code": "SHU",
        "display": "Site, Shunt"
      },
      {
        "code": "SHUNF",
        "display": "Fluid, Shunt"
      },
      {
        "code": "SHUNT",
        "display": "Shunt"
      },
      {
        "code": "SITE",
        "display": "Site"
      },
      {
        "code": "SKBP",
        "display": "Biopsy, Skin"
      },
      {
        "code": "SKN",
        "display": "Skin"
      },
      {
        "code": "SMM",
        "display": "Mass, Sub-Mandibular"
      },
      {
        "code": "SNV",
        "display": "Fluid, synovial (Joint fluid)"
      },
      {
        "code": "SPRM",
        "display": "Spermatozoa"
      },
      {
        "code": "SPRP",
        "display": "Catheter Tip, Suprapubic"
      },
      {
        "code": "SPRPB",
        "display": "Cathether Tip, Suprapubic"
      },
      {
        "code": "SPS",
        "display": "Environmental, Spore Strip"
      },
      {
        "code": "SPT",
        "display": "Sputum"
      },
      {
        "code": "SPTC",
        "display": "Sputum - coughed"
      },
      {
        "code": "SPTT",
        "display": "Sputum - tracheal aspirate"
      },
      {
        "code": "SPUT1",
        "display": "Sputum, Simulated"
      },
      {
        "code": "SPUTIN",
        "display": "Sputum, Inducted"
      },
      {
        "code": "SPUTSP",
        "display": "Sputum, Spontaneous"
      },
      {
        "code": "STER",
        "display": "Environmental, Sterrad"
      },
      {
        "code": "STL",
        "display": "Stool = Fecal"
      },
      {
        "code": "STONE",
        "display": "Stone, Kidney"
      },
      {
        "code": "SUBMA",
        "display": "Abscess, Submandibular"
      },
      {
        "code": "SUBMX",
        "display": "Abscess, Submaxillary"
      },
      {
        "code": "SUMP",
        "display": "Drainage, Sump"
      },
      {
        "code": "SUP",
        "display": "Suprapubic Tap"
      },
      {
        "code": "SUTUR",
        "display": "Suture"
      },
      {
        "code": "SWGZ",
        "display": "Catheter Tip, Swan Gantz"
      },
      {
        "code": "TASP",
        "display": "Aspirate, Tracheal"
      },
      {
        "code": "TISS",
        "display": "Tissue"
      },
      {
        "code": "TISU",
        "display": "Tissue ulcer"
      },
      {
        "code": "TLC",
        "display": "Cathether Tip, Triple Lumen"
      },
      {
        "code": "TRAC",
        "display": "Site, Tracheostomy"
      },
      {
        "code": "TRANS",
        "display": "Transudate"
      },
      {
        "code": "TSERU",
        "display": "Serum, Trough"
      },
      {
        "code": "TSTES",
        "display": "Abscess, Testicular"
      },
      {
        "code": "TTRA",
        "display": "Aspirate, Transtracheal"
      },
      {
        "code": "TUBES",
        "display": "Tubes"
      },
      {
        "code": "TUMOR",
        "display": "Tumor"
      },
      {
        "code": "TZANC",
        "display": "Smear, Tzanck"
      },
      {
        "code": "UDENT",
        "display": "Source, Unidentified"
      },
      {
        "code": "UR",
        "display": "Urine"
      },
      {
        "code": "URC",
        "display": "Urine clean catch"
      },
      {
        "code": "URINB",
        "display": "Urine, Bladder Washings"
      },
      {
        "code": "URINC",
        "display": "Urine, Catheterized"
      },
      {
        "code": "URINM",
        "display": "Urine, Midstream"
      },
      {
        "code": "URINN",
        "display": "Urine, Nephrostomy"
      },
      {
        "code": "URINP",
        "display": "Urine, Pedibag"
      },
      {
        "code": "URT",
        "display": "Urine catheter"
      },
      {
        "code": "USCOP",
        "display": "Urine, Cystoscopy"
      },
      {
        "code": "USPEC",
        "display": "Source, Unspecified"
      },
      {
        "code": "VASTIP",
        "display": "Catheter Tip, Vas"
      },
      {
        "code": "VENT",
        "display": "Catheter Tip, Ventricular"
      },
      {
        "code": "VITF",
        "display": "Vitreous Fluid"
      },
      {
        "code": "VOM",
        "display": "Vomitus"
      },
      {
        "code": "WASH",
        "display": "Wash"
      },
      {
        "code": "WASI",
        "display": "Washing, e.g. bronchial washing"
      },
      {
        "code": "WAT",
        "display": "Water"
      },
      {
        "code": "WB",
        "display": "Blood, Whole"
      },
      {
        "code": "WEN",
        "display": "Wen"
      },
      {
        "code": "WICK",
        "display": "Wick"
      },
      {
        "code": "WND",
        "display": "Wound"
      },
      {
        "code": "WNDA",
        "display": "Wound abscess"
      },
      {
        "code": "WNDD",
        "display": "Wound drainage"
      },
      {
        "code": "WNDE",
        "display": "Wound exudate"
      },
      {
        "code": "WORM",
        "display": "Worm"
      },
      {
        "code": "WRT",
        "display": "Wart"
      },
      {
        "code": "WWA",
        "display": "Environmental, Water"
      },
      {
        "code": "WWO",
        "display": "Environmental, Water (Ocean)"
      },
      {
        "code": "WWT",
        "display": "Environmental, Water  (Tap)"
      }
    ]
  }
}