{
  "resourceType": "ValueSet",
  "id": "v2-0316",
  "meta": {
    "profile": [
      "http://hl7.org/fhir/StructureDefinition/valueset-shareable-definition"
    ]
  },
  "text": {
    "status": "additional",
    "div": "<div><p>Organ Donor Code</p>\r\n<table class=\"grid\"><tr><td><b>Code</b></td><td><b>Description</b></td><td><b>Version</b></td></tr><tr><td>F<a name=\"F\"> </a></td><td>Yes, patient is a documented donor, but documentation is not on file</td><td>added v2.3</td></tr><tr><td>I<a name=\"I\"> </a></td><td>No, patient is not a documented donor, but information was provided</td><td>added v2.3.1</td></tr><tr><td>N<a name=\"N\"> </a></td><td>No, patient has not agreed to be a donor</td><td>added v2.3</td></tr><tr><td>P<a name=\"P\"> </a></td><td>Patient leaves organ donation decision to a specific person</td><td>added v2.4</td></tr><tr><td>R<a name=\"R\"> </a></td><td>Patient leaves organ donation decision to relatives</td><td>added v2.4</td></tr><tr><td>U<a name=\"U\"> </a></td><td>Unknown</td><td>added v2.3</td></tr><tr><td>Y<a name=\"Y\"> </a></td><td>Yes, patient is a documented donor and documentation is on file</td><td>added v2.3</td></tr></table>\r\n</div>"
  },
  "url": "http://hl7.org/fhir/ValueSet/v2-0316",
  "version": "2.7",
  "name": "v2 Organ Donor Code",
  "publisher": "HL7, Inc",
  "contact": [
    {
      "telecom": [
        {
          "system": "url",
          "value": "http://hl7.org"
        }
      ]
    }
  ],
  "description": "FHIR Value set/code system definition for HL7 v2 table 0316 ( Organ Donor Code)",
  "status": "active",
  "experimental": true,
  "date": "2011-01-28",
  "define": {
    "system": "http://hl7.org/fhir/v2/0316",
    "caseSensitive": true,
    "concept": [
      {
        "code": "F",
        "display": "Yes, patient is a documented donor, but documentation is not on file"
      },
      {
        "code": "I",
        "display": "No, patient is not a documented donor, but information was provided"
      },
      {
        "code": "N",
        "display": "No, patient has not agreed to be a donor"
      },
      {
        "code": "P",
        "display": "Patient leaves organ donation decision to a specific person"
      },
      {
        "code": "R",
        "display": "Patient leaves organ donation decision to relatives"
      },
      {
        "code": "U",
        "display": "Unknown"
      },
      {
        "code": "Y",
        "display": "Yes, patient is a documented donor and documentation is on file"
      }
    ]
  }
}