{
  "resourceType": "ValueSet",
  "id": "v2-0790",
  "meta": {
    "profile": [
      "http://hl7.org/fhir/StructureDefinition/valueset-shareable-definition"
    ]
  },
  "text": {
    "status": "additional",
    "div": "<div><p>Approving Regulatory Agency</p>\r\n<table class=\"grid\"><tr><td><b>Code</b></td><td><b>Description</b></td><td><b>Version</b></td></tr><tr><td>AMA<a name=\"AMA\"> </a></td><td>American Medical Association</td><td>added v2.6</td></tr><tr><td>FDA<a name=\"FDA\"> </a></td><td>Food and Drug Administration</td><td>added v2.6</td></tr></table>\r\n</div>"
  },
  "url": "http://hl7.org/fhir/ValueSet/v2-0790",
  "version": "2.7",
  "name": "v2 Approving Regulatory Agency",
  "publisher": "HL7, Inc",
  "contact": [
    {
      "telecom": [
        {
          "system": "url",
          "value": "http://hl7.org"
        }
      ]
    }
  ],
  "description": "FHIR Value set/code system definition for HL7 v2 table 0790 ( Approving Regulatory Agency)",
  "status": "active",
  "experimental": true,
  "date": "2011-01-28",
  "define": {
    "system": "http://hl7.org/fhir/v2/0790",
    "caseSensitive": true,
    "concept": [
      {
        "code": "AMA",
        "display": "American Medical Association"
      },
      {
        "code": "FDA",
        "display": "Food and Drug Administration"
      }
    ]
  }
}