{
  "resourceType": "ValueSet",
  "id": "v2-0002",
  "meta": {
    "profile": [
      "http://hl7.org/fhir/StructureDefinition/valueset-shareable-definition"
    ]
  },
  "text": {
    "status": "additional",
    "div": "<div><p>Marital Status</p>\r\n<table class=\"grid\"><tr><td><b>Code</b></td><td><b>Description</b></td><td><b>Nederlands (Dutch)</b></td><td><b>Version</b></td></tr><tr><td>A<a name=\"A\"> </a></td><td>Separated</td><td>Uit elkaar</td><td>from v2.1</td></tr><tr><td>B<a name=\"B\"> </a></td><td>Unmarried</td><td>Niet getrouwd</td><td>added v2.4</td></tr><tr><td>C<a name=\"C\"> </a></td><td>Common law</td><td>Volgens jurisprudentie</td><td>added v2.4</td></tr><tr><td>D<a name=\"D\"> </a></td><td>Divorced</td><td>Gescheiden na huwelijk</td><td>from v2.1</td></tr><tr><td>E<a name=\"E\"> </a></td><td>Legally Separated</td><td>Wettelijk gescheiden</td><td>added v2.4</td></tr><tr><td>G<a name=\"G\"> </a></td><td>Living together</td><td>Samenlevend</td><td>added v2.4</td></tr><tr><td>I<a name=\"I\"> </a></td><td>Interlocutory</td><td>Tijdelijke overeenkomst</td><td>added v2.4</td></tr><tr><td>M<a name=\"M\"> </a></td><td>Married</td><td>Getrouwd</td><td>from v2.1</td></tr><tr><td>N<a name=\"N\"> </a></td><td>Annulled</td><td>Nietig verklaard</td><td>added v2.4</td></tr><tr><td>O<a name=\"O\"> </a></td><td>Other</td><td>Anders</td><td>added v2.4</td></tr><tr><td>P<a name=\"P\"> </a></td><td>Domestic partner</td><td>Huisgenoot</td><td>added v2.4</td></tr><tr><td>R<a name=\"R\"> </a></td><td>Registered domestic partner</td><td>Geregistreerd partnerschap</td><td>added v2.4</td></tr><tr><td>S<a name=\"S\"> </a></td><td>Single</td><td>Alleenstaand</td><td>from v2.1</td></tr><tr><td>T<a name=\"T\"> </a></td><td>Unreported</td><td>Niet vermeld</td><td>added v2.4</td></tr><tr><td>U<a name=\"U\"> </a></td><td>Unknown</td><td>Onbekend</td><td>added v2.4</td></tr><tr><td>W<a name=\"W\"> </a></td><td>Widowed</td><td>Weduwe/weduwnaar</td><td>from v2.1</td></tr></table>\r\n</div>"
  },
  "url": "http://hl7.org/fhir/ValueSet/v2-0002",
  "version": "2.7",
  "name": "v2 Marital Status",
  "publisher": "HL7, Inc",
  "contact": [
    {
      "telecom": [
        {
          "system": "url",
          "value": "http://hl7.org"
        }
      ]
    }
  ],
  "description": "FHIR Value set/code system definition for HL7 v2 table 0002 ( Marital Status)",
  "status": "active",
  "experimental": true,
  "date": "2011-01-28",
  "define": {
    "system": "http://hl7.org/fhir/v2/0002",
    "caseSensitive": true,
    "concept": [
      {
        "code": "A",
        "display": "Separated",
        "designation": [
          {
            "language": "nl",
            "value": "Uit elkaar"
          }
        ]
      },
      {
        "code": "B",
        "display": "Unmarried",
        "designation": [
          {
            "language": "nl",
            "value": "Niet getrouwd"
          }
        ]
      },
      {
        "code": "C",
        "display": "Common law",
        "designation": [
          {
            "language": "nl",
            "value": "Volgens jurisprudentie"
          }
        ]
      },
      {
        "code": "D",
        "display": "Divorced",
        "designation": [
          {
            "language": "nl",
            "value": "Gescheiden na huwelijk"
          }
        ]
      },
      {
        "code": "E",
        "display": "Legally Separated",
        "designation": [
          {
            "language": "nl",
            "value": "Wettelijk gescheiden"
          }
        ]
      },
      {
        "code": "G",
        "display": "Living together",
        "designation": [
          {
            "language": "nl",
            "value": "Samenlevend"
          }
        ]
      },
      {
        "code": "I",
        "display": "Interlocutory",
        "designation": [
          {
            "language": "nl",
            "value": "Tijdelijke overeenkomst"
          }
        ]
      },
      {
        "code": "M",
        "display": "Married",
        "designation": [
          {
            "language": "nl",
            "value": "Getrouwd"
          }
        ]
      },
      {
        "code": "N",
        "display": "Annulled",
        "designation": [
          {
            "language": "nl",
            "value": "Nietig verklaard"
          }
        ]
      },
      {
        "code": "O",
        "display": "Other",
        "designation": [
          {
            "language": "nl",
            "value": "Anders"
          }
        ]
      },
      {
        "code": "P",
        "display": "Domestic partner",
        "designation": [
          {
            "language": "nl",
            "value": "Huisgenoot"
          }
        ]
      },
      {
        "code": "R",
        "display": "Registered domestic partner",
        "designation": [
          {
            "language": "nl",
            "value": "Geregistreerd partnerschap"
          }
        ]
      },
      {
        "code": "S",
        "display": "Single",
        "designation": [
          {
            "language": "nl",
            "value": "Alleenstaand"
          }
        ]
      },
      {
        "code": "T",
        "display": "Unreported",
        "designation": [
          {
            "language": "nl",
            "value": "Niet vermeld"
          }
        ]
      },
      {
        "code": "U",
        "display": "Unknown",
        "designation": [
          {
            "language": "nl",
            "value": "Onbekend"
          }
        ]
      },
      {
        "code": "W",
        "display": "Widowed",
        "designation": [
          {
            "language": "nl",
            "value": "Weduwe/weduwnaar"
          }
        ]
      }
    ]
  }
}