{
  "resourceType": "ValueSet",
  "id": "v3-ObservationInterpretation",
  "meta": {
    "lastUpdated": "2015-03-23T00:00:00.000+00:00",
    "profile": [
      "http://hl7.org/fhir/StructureDefinition/valueset-shareable-definition"
    ]
  },
  "text": {
    "status": "generated",
    "div": "<div><p>Release Date: 2015-03-23</p>\r\n<p>OID for code system: 2.16.840.1.113883.5.83</p>\r\n<p>OID for value set: 2.16.840.1.113883.1.11.78 (this is the value set that includes the entire code system)</p>\r\n<h2>Description</h2>\r\n<p>\n                  One or more codes specifying a rough qualitative interpretation of the observation, such as &quot;normal&quot;, &quot;abnormal&quot;, &quot;below normal&quot;, &quot;change up&quot;, &quot;resistant&quot;, &quot;susceptible&quot;, etc.<br/>\r\n\n                  \n                     OpenIssue: Description copied from Concept Domain of same name.  Must be verified.  Note also that this might be identical to the V2 code system of interpretation codes (formerly Abnormal Flags in older versions).<br/>\r\n\n               </p>\r\n<hr/>\r\n<table class=\"grid\">\r\n <tr><td><b>Level</b></td><td><b>Code</b></td><td><b>Display</b></td><td><b>Definition</b></td></tr>\r\n <tr><td>1</td><td><span style=\"color: grey\"><i>(_GeneticObservationInterpretation)</i></span></td><td><a name=\"_GeneticObservationInterpretation\">&nbsp;</a></td><td>\n                        Codes that specify interpretation of genetic analysis, such as &quot;positive&quot;, &quot;negative&quot;, &quot;carrier&quot;, &quot;responsive&quot;, etc.<br/>\r\n\n                     </td></tr>\r\n <tr><td>2</td><td>&nbsp;&nbsp;CAR<a name=\"CAR\"> </a></td><td>Carrier</td><td>\n                        The patient is considered as carrier based on the testing results. A carrier is an individual who carries an altered form of a gene which can lead to having a child or offspring in future generations with a genetic disorder.<br/>\r\n\n                     </td></tr>\r\n <tr style=\"background: #EFEFEF\"><td>2</td><td>&nbsp;&nbsp;Carrier<a name=\"Carrier\"> </a> <b><i>Deprecated</i></b></td><td>Carrier</td><td>\n                        The patient is considered as carrier based on the testing results. A carrier is an individual who carries an altered form of a gene which can lead to having a child or offspring in future generations with a genetic disorder.<br/>\r\n\n                        \n                           \n                              Deprecation Comment: \n                           This code is currently the same string as the print name for this concept and is inconsistent with the conventions being used for the other codes in the coding system, as it is a full word with initial capitalization, rather than an all upper case mnemonic.  The recommendation from OO is to deprecate the code &quot;Carrier&quot; and to add &quot;CAR&quot; as the new active code representation for this concept.<br/>\r\n\n                     </td></tr>\r\n <tr><td>1</td><td><span style=\"color: grey\"><i>(_ObservationInterpretationChange)</i></span></td><td><a name=\"_ObservationInterpretationChange\">&nbsp;</a></td><td>\n                        Interpretations of change of quantity and/or severity. At most one of B or W and one of U or D allowed.<br/>\r\n\n                     </td></tr>\r\n <tr><td>2</td><td>&nbsp;&nbsp;B<a name=\"B\"> </a></td><td>Better</td><td>\n                        The current result or observation value has improved compared to the previous result or observation value (the change is significant as defined in the respective test procedure).<br/>\r\n\n                        [Note: This can be applied to quantitative or qualitative observations.]<br/>\r\n\n                     </td></tr>\r\n <tr><td>2</td><td>&nbsp;&nbsp;D<a name=\"D\"> </a></td><td>Significant change down</td><td>\n                        The current result has decreased from the previous result for a quantitative observation (the change is significant as defined in the respective test procedure).<br/>\r\n\n                     </td></tr>\r\n <tr><td>2</td><td>&nbsp;&nbsp;U<a name=\"U\"> </a></td><td>Significant change up</td><td>\n                        The current result has increased from the previous result for a quantitative observation (the change is significant as defined in the respective test procedure).<br/>\r\n\n                     </td></tr>\r\n <tr><td>2</td><td>&nbsp;&nbsp;W<a name=\"W\"> </a></td><td>Worse</td><td>\n                        The current result or observation value has degraded compared to the previous result or observation value (the change is significant as defined in the respective test procedure).<br/>\r\n\n                        [Note: This can be applied to quantitative or qualitative observations.]<br/>\r\n\n                     </td></tr>\r\n <tr><td>1</td><td><span style=\"color: grey\"><i>(_ObservationInterpretationExceptions)</i></span></td><td><a name=\"_ObservationInterpretationExceptions\">&nbsp;</a></td><td>\n                        Technical exceptions resulting in the inability to provide an interpretation. At most one allowed. Does not imply normality or severity.<br/>\r\n\n                     </td></tr>\r\n <tr><td>2</td><td>&nbsp;&nbsp;&lt;<a name=\".60\"> </a></td><td>Off scale low</td><td>\n                        The result is below the minimum detection limit (the test procedure or equipment is the limiting factor).<br/>\r\n\n                        Synonyms: Below analytical limit, low off scale.<br/>\r\n\n                     </td></tr>\r\n <tr><td>2</td><td>&nbsp;&nbsp;&gt;<a name=\".62\"> </a></td><td>Off scale high</td><td>\n                        The result is above the maximum quantifiable limit (the test procedure or equipment is the limiting factor).<br/>\r\n\n                        Synonyms: Above analytical limit, high off scale.<br/>\r\n\n                     </td></tr>\r\n <tr><td>2</td><td>&nbsp;&nbsp;AC<a name=\"AC\"> </a></td><td>Anti-complementary substances present</td><td>\n                        A valid result cannot be obtained for the specified component / analyte due to the presence of anti-complementary substances in the sample.<br/>\r\n\n                     </td></tr>\r\n <tr><td>2</td><td>&nbsp;&nbsp;IE<a name=\"IE\"> </a></td><td>Insufficient evidence</td><td>\n                        There is insufficient evidence that the species in question is a good target for therapy with the drug.  A categorical interpretation is not possible.<br/>\r\n\n                        [Note: A MIC with &quot;IE&quot; and/or a comment may be reported (without an accompanying S, I or R-categorization).]<br/>\r\n\n                     </td></tr>\r\n <tr><td>2</td><td>&nbsp;&nbsp;QCF<a name=\"QCF\"> </a></td><td>Quality control failure</td><td>\n                        A result cannot be considered valid for the specified component / analyte or organism due to failure in the quality control testing component.<br/>\r\n\n                     </td></tr>\r\n <tr><td>2</td><td>&nbsp;&nbsp;TOX<a name=\"TOX\"> </a></td><td>Cytotoxic substance present</td><td>\n                        A valid result cannot be obtained for the specified organism or cell line due to the presence of cytotoxic substances in the sample or culture.<br/>\r\n\n                     </td></tr>\r\n <tr><td>1</td><td><span style=\"color: grey\"><i>(_ObservationInterpretationNormality)</i></span></td><td><a name=\"_ObservationInterpretationNormality\">&nbsp;</a></td><td>\n                        Interpretation of normality or degree of abnormality (including critical or &quot;alert&quot; level). Concepts in this category are mutually exclusive, i.e., at most one is allowed.<br/>\r\n\n                     </td></tr>\r\n <tr><td>2</td><td>&nbsp;&nbsp;A<a name=\"A\"> </a></td><td>Abnormal</td><td>\n                        The result or observation value is outside the reference range or expected norm (as defined for the respective test procedure).<br/>\r\n\n                        [Note: Typically applies to non-numeric results.]<br/>\r\n\n                     </td></tr>\r\n <tr><td>3</td><td>&nbsp;&nbsp;&nbsp;&nbsp;AA<a name=\"AA\"> </a></td><td>Critically abnormal</td><td>\n                        The result or observation value is outside a reference range or expected norm at a level at which immediate action should be considered for patient safety (as defined for the respective test procedure).<br/>\r\n\n                        [Note: Typically applies to non-numeric results.  Analogous to critical/panic limits for numeric results.]<br/>\r\n\n                     </td></tr>\r\n <tr><td>4</td><td>&nbsp;&nbsp;&nbsp;&nbsp;&nbsp;&nbsp;HH<a name=\"HH\"> </a></td><td>Critically high</td><td>\n                        The result for a quantitative observation is above a reference level at which immediate action should be considered for patient safety (as defined for the respective test procedure).<br/>\r\n\n                        Synonym: Above upper panic limits.<br/>\r\n\n                     </td></tr>\r\n <tr><td>4</td><td>&nbsp;&nbsp;&nbsp;&nbsp;&nbsp;&nbsp;LL<a name=\"LL\"> </a></td><td>Critically low</td><td>\n                        The result for a quantitative observation is below a reference level at which immediate action should be considered for patient safety (as defined for the respective test procedure).<br/>\r\n\n                        Synonym: Below lower panic limits.<br/>\r\n\n                     </td></tr>\r\n <tr><td>3</td><td>&nbsp;&nbsp;&nbsp;&nbsp;H<a name=\"H\"> </a></td><td>High</td><td>\n                        The result for a quantitative observation is above the upper limit of the reference range (as defined for the respective test procedure).<br/>\r\n\n                        Synonym: Above high normal<br/>\r\n\n                     </td></tr>\r\n <tr style=\"background: #EFEFEF\"><td>4</td><td>&nbsp;&nbsp;&nbsp;&nbsp;&nbsp;&nbsp;H&gt;<a name=\"H.62\"> </a> <b><i>Deprecated</i></b></td><td>Significantly high</td><td>A test result that is significantly higher than the reference (normal) or therapeutic interval, but has not reached the critically high value and might need special attention, as defined by the laboratory or the clinician.[Note: This level is situated between 'H' and 'HH'.]<br/>\r\n\n                        \n                           Deprecation Comment: The code 'H&gt;' is being deprecated in order to align with the use of the code 'HU' for &quot;Very high&quot; in V2 Table 0078 &quot;Interpretation Codes&quot;.<br/>\r\n\n                        [Note: The use of code 'H&gt;' is non-preferred, as this code is deprecated and on track to be retired; use code 'HU' instead.<br/>\r\n\n                     </td></tr>\r\n <tr><td>5</td><td>&nbsp;&nbsp;&nbsp;&nbsp;&nbsp;&nbsp;&nbsp;&nbsp;<a href=\"#HH\">HH</a></td><td/><td/></tr>\r\n <tr><td>3</td><td>&nbsp;&nbsp;&nbsp;&nbsp;L<a name=\"L\"> </a></td><td>Low</td><td>\n                        The result for a quantitative observation is below the lower limit of the reference range (as defined for the respective test procedure).<br/>\r\n\n                        Synonym: Below low normal<br/>\r\n\n                     </td></tr>\r\n <tr style=\"background: #EFEFEF\"><td>4</td><td>&nbsp;&nbsp;&nbsp;&nbsp;&nbsp;&nbsp;L&lt;<a name=\"L.60\"> </a> <b><i>Deprecated</i></b></td><td>Significantly low</td><td>A test result that is significantly lower than the reference (normal) or therapeutic interval, but has not reached the critically low value and might need special attention, as defined by the laboratory or the clinician.[Note: This level is situated between 'L' and 'LL'.]<br/>\r\n\n                        \n                           Deprecation Comment: The code 'L&lt;' is being deprecated in order to align with the use of the code 'LU' for &quot;Very low&quot; in V2 Table 0078 &quot;Interpretation Codes&quot;.<br/>\r\n\n                        [Note: The use of code 'L&lt;' is non-preferred, as this code is deprecated and on track to be retired; use code 'LU' instead.<br/>\r\n\n                     </td></tr>\r\n <tr><td>5</td><td>&nbsp;&nbsp;&nbsp;&nbsp;&nbsp;&nbsp;&nbsp;&nbsp;<a href=\"#LL\">LL</a></td><td/><td/></tr>\r\n <tr><td>2</td><td>&nbsp;&nbsp;N<a name=\"N\"> </a></td><td>Normal</td><td>\n                        The result or observation value is within the reference range or expected norm (as defined for the respective test procedure).<br/>\r\n\n                        [Note: Applies to numeric or non-numeric results.]<br/>\r\n\n                     </td></tr>\r\n <tr><td>1</td><td><span style=\"color: grey\"><i>(_ObservationInterpretationSusceptibility)</i></span></td><td><a name=\"_ObservationInterpretationSusceptibility\">&nbsp;</a></td><td>\n                        Interpretations of anti-microbial susceptibility testing results (microbiology). At most one allowed.<br/>\r\n\n                     </td></tr>\r\n <tr><td>2</td><td>&nbsp;&nbsp;<a href=\"#IE\">IE</a></td><td/><td/></tr>\r\n <tr><td>2</td><td>&nbsp;&nbsp;I<a name=\"I\"> </a></td><td>Intermediate</td><td>\n                        Bacterial strain inhibited in vitro by a concentration of an antimicrobial agent that is associated with uncertain therapeutic effect. Reference: CLSI (http://www.clsi.org/Content/NavigationMenu/Resources/HarmonizedTerminologyDatabase/Harmonized_Terminolo.htm)\nProjects: ISO 20776-1, ISO 20776-2<br/>\r\n\n                        [Note 1: Bacterial strains are categorized as intermediate by applying the appropriate breakpoints in a defined phenotypic test system.]<br/>\r\n\n                        [Note 2: This class of susceptibility implies that an infection due to the isolate can be appropriately treated in body sites where the drugs are physiologically concentrated or when a high dosage of drug can be used.]<br/>\r\n\n                        [Note 3: This class also indicates a &quot;buffer zone,&quot; to prevent small, uncontrolled, technical factors from causing major discrepancies in interpretations.]<br/>\r\n\n                        [Note 4: These breakpoints can be altered due to changes in circumstances (e.g., changes in commonly used drug dosages, emergence of new resistance mechanisms).]<br/>\r\n\n                     </td></tr>\r\n <tr style=\"background: #EFEFEF\"><td>2</td><td>&nbsp;&nbsp;MS<a name=\"MS\"> </a> <b><i>Deprecated</i></b></td><td>moderately susceptible</td><td>\n                        The patient is considered as carrier based on the testing results. A carrier is an individual who carries an altered form of a gene which can lead to having a child or offspring in future generations with a genetic disorder.<br/>\r\n\n                        \n                           \n                              Deprecation Comment: \n                           This antimicrobial susceptibility test interpretation concept is recommended by OO to be deprecated as it is no longer recommended for use in susceptibility testing by CLSI (reference CLSI document M100-S22; Vol. 32 No.3; CLSI Performance Standards for Antimicrobial Susceptibility Testing; Twenty-Second Informational Supplement. Jan 2012).  <br/>\r\n\n                     </td></tr>\r\n <tr><td>2</td><td>&nbsp;&nbsp;NS<a name=\"NS\"> </a></td><td>Non-susceptible</td><td>\n                        A category used for isolates for which only a susceptible interpretive criterion has been designated because of the absence or rare occurrence of resistant strains. Isolates that have MICs above or zone diameters below the value indicated for the susceptible breakpoint should be reported as non-susceptible.<br/>\r\n\n                        NOTE 1: An isolate that is interpreted as non-susceptible does not necessarily mean that the isolate has a resistance mechanism. It is possible that isolates with MICs above the susceptible breakpoint that lack resistance mechanisms may be encountered within the wild-type distribution subsequent to the time the susceptible-only breakpoint is set. <br/>\r\n\n                        NOTE 2: For strains yielding results in the &quot;nonsusceptible&quot; category, organism identification and antimicrobial susceptibility test results should be confirmed.<br/>\r\n\n                        Synonym: decreased susceptibility.<br/>\r\n\n                     </td></tr>\r\n <tr><td>2</td><td>&nbsp;&nbsp;R<a name=\"R\"> </a></td><td>Resistant</td><td>\n                        Bacterial strain inhibited in vitro by a concentration of an antimicrobial agent that is associated with a high likelihood of therapeutic failure.\nReference: CLSI (http://www.clsi.org/Content/NavigationMenu/Resources/HarmonizedTerminologyDatabase/Harmonized_Terminolo.htm)  \nProjects: ISO 20776-1, ISO 20776-2<br/>\r\n\n                        [Note 1: Bacterial strains are categorized as resistant by applying the appropriate breakpoints in a defined phenotypic test system.]<br/>\r\n\n                        [Note 2: This breakpoint can be altered due to changes in circumstances (e.g., changes in commonly used drug dosages, emergence of new resistance mechanisms).]<br/>\r\n\n                     </td></tr>\r\n <tr><td>3</td><td>&nbsp;&nbsp;&nbsp;&nbsp;SYN-R<a name=\"SYN-R\"> </a></td><td>Synergy - resistant</td><td>\n                        A category for isolates where the bacteria (e.g. enterococci) are not susceptible in vitro to a combination therapy (e.g., high-level aminoglycoside and cell wall active agent).  This is predictive that this combination therapy will not be effective. <br/>\r\n\n                        \n                           Usage Note: Since the use of penicillin or ampicillin alone often results in treatment failure of serious enterococcal or other bacterial infections, combination therapy is usually indicated to enhance bactericidal activity. The synergy between a cell wall active agent (such as penicillin, ampicillin, or vancomycin) and an aminoglycoside (such as gentamicin, kanamycin or streptomycin) is best predicted by screening for high-level bacterial resistance to the aminoglycoside.<br/>\r\n\n                        \n                           Open Issue: The print name of the code is very general and the description is very specific to a pair of classes of agents, which may lead to confusion of these concepts in the future should other synergies be found.<br/>\r\n\n                     </td></tr>\r\n <tr><td>2</td><td>&nbsp;&nbsp;S<a name=\"S\"> </a></td><td>Susceptible</td><td>\n                        Bacterial strain inhibited by in vitro concentration of an antimicrobial agent that is associated with a high likelihood of therapeutic success.\nReference: CLSI (http://www.clsi.org/Content/NavigationMenu/Resources/HarmonizedTerminologyDatabase/Harmonized_Terminolo.htm)\nSynonym (earlier term): Sensitive Projects: ISO 20776-1, ISO 20776-2<br/>\r\n\n                        [Note 1: Bacterial strains are categorized as susceptible by applying the appropriate breakpoints in a defined phenotypic system.]<br/>\r\n\n                        [Note 2: This breakpoint can be altered due to changes in circumstances (e.g., changes in commonly used drug dosages, emergence of new resistance mechanisms).]<br/>\r\n\n                     </td></tr>\r\n <tr><td>3</td><td>&nbsp;&nbsp;&nbsp;&nbsp;SDD<a name=\"SDD\"> </a></td><td>Susceptible-dose dependent</td><td>\n                        A category that includes isolates with antimicrobial agent minimum inhibitory concentrations (MICs) that approach usually attainable blood and tissue levels and for which response rates may be lower than for susceptible isolates.<br/>\r\n\n                        Reference: CLSI document M44-A2 2009 &quot;Method for antifungal disk diffusion susceptibility testing of yeasts; approved guideline - second edition&quot; - page 2.<br/>\r\n\n                     </td></tr>\r\n <tr><td>3</td><td>&nbsp;&nbsp;&nbsp;&nbsp;SYN-S<a name=\"SYN-S\"> </a></td><td>Synergy - susceptible</td><td>\n                        A category for isolates where the bacteria (e.g. enterococci) are susceptible in vitro to a combination therapy (e.g., high-level aminoglycoside and cell wall active agent).  This is predictive that this combination therapy will be effective. <br/>\r\n\n                        \n                           Usage Note: Since the use of penicillin or ampicillin alone often results in treatment failure of serious enterococcal or other bacterial infections, combination therapy is usually indicated to enhance bactericidal activity. The synergy between a cell wall active agent (such as penicillin, ampicillin, or vancomycin) and an aminoglycoside (such as gentamicin, kanamycin or streptomycin) is best predicted by screening for high-level bacterial resistance to the aminoglycoside.<br/>\r\n\n                        \n                           Open Issue: The print name of the code is very general and the description is very specific to a pair of classes of agents, which may lead to confusion of these concepts in the future should other synergies be found.<br/>\r\n\n                     </td></tr>\r\n <tr style=\"background: #EFEFEF\"><td>2</td><td>&nbsp;&nbsp;VS<a name=\"VS\"> </a> <b><i>Deprecated</i></b></td><td>very susceptible</td><td>\n                        The patient is considered as carrier based on the testing results. A carrier is an individual who carries an altered form of a gene which can lead to having a child or offspring in future generations with a genetic disorder.<br/>\r\n\n                        \n                           \n                              Deprecation Comment: \n                           This antimicrobial susceptibility test interpretation concept is recommended by OO to be deprecated as it is no longer recommended for use in susceptibility testing by CLSI (reference CLSI document M100-S22; Vol. 32 No.3; CLSI Performance Standards for Antimicrobial Susceptibility Testing; Twenty-Second Informational Supplement. Jan 2012).  <br/>\r\n\n                     </td></tr>\r\n <tr><td>1</td><td>EX<a name=\"EX\"> </a></td><td>outside threshold</td><td>\n                        The observation/test result is interpreted as being outside the inclusion range for a particular protocol within which the result is being reported.\n<br/>\r\n\n                        Example: A positive result on a Hepatitis screening test.\n                           Open Issue: EX, HX, LX: These three concepts do not seem to meet a clear need in the vocabulary, and their use in observation interpretation appears likely to be covered by other existing concepts (e.g., A, H, L).  The only apparent significant difference is their reference to use in protocols for exclusion of study subjects.\nThese concepts/codes were proposed by RCRIM for use in the CTLaboratory message.  They were submitted and approved in the November 2005 Harmonization cycle in proposal &quot;030103C_VOCAB_RCRIM_l_quade_RCRIM Obs Interp_20051028154455&quot;.  However, this proposal was not fully implemented in the vocabulary.  The proposal recommended creation of the x_ClinicalResearchExclusion domain in ObservationInterpretation with a value set including those three concepts/codes, but there is no subdomain of that name or equivalent with a binding to either of the value sets that contain these concepts/codes.\nMembers of the OO WG have recently attempted to contact members of RCRIM regarding these concepts, both by email and at the recent WGM in Atlanta, without response.  It is felt by OO that the best course of action to take at this time is to add this comprehensive Open Issue rather than deprecate these three concepts at this time, until further discussion is held.<br/>\r\n\n                     </td></tr>\r\n <tr><td>2</td><td>&nbsp;&nbsp;HX<a name=\"HX\"> </a></td><td>above high threshold</td><td>\n                        The observation/test result is interpreted as being outside the inclusion range for a particular protocol within which the result is being reported.\n<br/>\r\n\n                        Example: A positive result on a Hepatitis screening test.\n                           Open Issue: EX, HX, LX: These three concepts do not seem to meet a clear need in the vocabulary, and their use in observation interpretation appears likely to be covered by other existing concepts (e.g., A, H, L).  The only apparent significant difference is their reference to use in protocols for exclusion of study subjects.  These concepts/codes were proposed by RCRIM for use in the CTLaboratory message.  They were submitted and approved in the November 2005 Harmonization cycle in proposal &quot;030103C_VOCAB_RCRIM_l_quade_RCRIM Obs Interp_20051028154455&quot;. However, this proposal was not fully implemented in the vocabulary.  The proposal recommended creation of the x_ClinicalResearchExclusion domain in ObservationInterpretation with a value set including those three concepts/codes, but there is no subdomain of that name or equivalent with a binding to either of the value sets that contain these concepts/codes.  Members of the OO WG have recently attempted to contact members of RCRIM regarding these concepts, both by email and at the recent WGM in Atlanta, without response.  It is felt by OO that the best course of action to take at this time is to add this comprehensive Open Issue rather than deprecate these three concepts at this time, until further discussion is held.<br/>\r\n\n                     </td></tr>\r\n <tr><td>2</td><td>&nbsp;&nbsp;LX<a name=\"LX\"> </a></td><td>below low threshold</td><td>\n                        The numeric observation/test result is interpreted as being below the low threshold value for a particular protocol within which the result is being reported.<br/>\r\n\n                        Example: A Total White Blood Cell Count falling below a protocol-defined threshold value of 3000/mm^3\n                           Open Issue: EX, HX, LX: These three concepts do not seem to meet a clear need in the vocabulary, and their use in observation interpretation appears likely to be covered by other existing concepts (e.g., A, H, L).  The only apparent significant difference is their reference to use in protocols for exclusion of study subjects.  These concepts/codes were proposed by RCRIM for use in the CTLaboratory message.  They were submitted and approved in the November 2005 Harmonization cycle in proposal &quot;030103C_VOCAB_RCRIM_l_quade_RCRIM Obs Interp_20051028154455&quot;.  However, this proposal was not fully implemented in the vocabulary.  The proposal recommended creation of the x_ClinicalResearchExclusion domain in ObservationInterpretation with a value set including those three concepts/codes, but there is no subdomain of that name or equivalent with a binding to either of the value sets that contain these concepts/codes.  Members of the OO WG have recently attempted to contact members of RCRIM regarding these concepts, both by email and at the recent WGM in Atlanta, without response.  It is felt by OO that the best course of action to take at this time is to add this comprehensive Open Issue rather than deprecate these three concepts at this time, until further discussion is held.<br/>\r\n\n                     </td></tr>\r\n <tr><td>1</td><td><span style=\"color: grey\"><i>(ObservationInterpretationDetection)</i></span></td><td><a name=\"ObservationInterpretationDetection\">&nbsp;</a></td><td>\n                        Interpretations of the presence or absence of a component / analyte or organism in a test or of a sign in a clinical observation. In keeping with laboratory data processing practice, these concepts provide a categorical interpretation of the &quot;meaning&quot; of the quantitative value for the same observation.<br/>\r\n\n                     </td></tr>\r\n <tr><td>2</td><td>&nbsp;&nbsp;IND<a name=\"IND\"> </a></td><td>Indeterminate</td><td>\n                        The specified component / analyte, organism or clinical sign could neither be declared positive / negative or detected / not detected by the performed test or procedure.<br/>\r\n\n                     </td></tr>\r\n <tr><td>2</td><td>&nbsp;&nbsp;NEG<a name=\"NEG\"> </a></td><td>Negative</td><td>\n                        An absence finding of the specified component / analyte, organism or clinical sign based on the established threshold of the performed test or procedure.<br/>\r\n\n                        [Note: Negative does not necessarily imply the complete absence of the specified item.] <br/>\r\n\n                     </td></tr>\r\n <tr><td>3</td><td>&nbsp;&nbsp;&nbsp;&nbsp;ND<a name=\"ND\"> </a></td><td>Not detected</td><td>\n                        The presence of the specified component / analyte, organism or clinical sign could not be determined within the limit of detection of the performed test or procedure.<br/>\r\n\n                     </td></tr>\r\n <tr><td>2</td><td>&nbsp;&nbsp;POS<a name=\"POS\"> </a></td><td>Positive</td><td>\n                        A presence finding of the specified component / analyte, organism or clinical sign based on the established threshold of the performed test or procedure.<br/>\r\n\n                     </td></tr>\r\n <tr><td>3</td><td>&nbsp;&nbsp;&nbsp;&nbsp;DET<a name=\"DET\"> </a></td><td>Detected</td><td>\n                        The measurement of the specified component / analyte, organism or clinical sign above the limit of detection of the performed test or procedure.<br/>\r\n\n                     </td></tr>\r\n <tr><td>1</td><td><span style=\"color: grey\"><i>(ReactivityObservationInterpretation)</i></span></td><td><a name=\"ReactivityObservationInterpretation\">&nbsp;</a></td><td>\n                        Interpretations of the presence and level of reactivity of the specified component / analyte with the reagent in the performed laboratory test.<br/>\r\n\n                     </td></tr>\r\n <tr><td>2</td><td>&nbsp;&nbsp;NR<a name=\"NR\"> </a></td><td>Non-reactive</td><td>\n                        An absence finding used to indicate that the specified component / analyte did not react measurably with the reagent.<br/>\r\n\n                     </td></tr>\r\n <tr><td>2</td><td>&nbsp;&nbsp;RR<a name=\"RR\"> </a></td><td>Reactive</td><td>\n                        A presence finding used to indicate that the specified component / analyte reacted with the reagent above the reliably measurable limit of the performed test.<br/>\r\n\n                     </td></tr>\r\n <tr><td>3</td><td>&nbsp;&nbsp;&nbsp;&nbsp;WR<a name=\"WR\"> </a></td><td>Weakly reactive</td><td>\n                        A weighted presence finding used to indicate that the specified component / analyte reacted with the reagent, but below the reliably measurable limit of the performed test.<br/>\r\n\n                     </td></tr>\r\n</table>\r\n</div>"
  },
  "extension": [
    {
      "url": "http://hl7.org/fhir/StructureDefinition/valueset-oid",
      "valueUri": "urn:oid:2.16.840.1.113883.1.11.78"
    }
  ],
  "url": "http://hl7.org/fhir/ValueSet/v3-ObservationInterpretation",
  "version": "2015-03-23",
  "name": "v3 Code System ObservationInterpretation",
  "publisher": "HL7, Inc",
  "contact": [
    {
      "telecom": [
        {
          "system": "url",
          "value": "http://hl7.org"
        }
      ]
    }
  ],
  "description": " One or more codes specifying a rough qualitative interpretation of the observation, such as \"normal\", \"abnormal\", \"below normal\", \"change up\", \"resistant\", \"susceptible\", etc.  OpenIssue:\r\nDescription copied from Concept Domain of same name.  Must be verified.  Note also that this might be identical to the V2 code system of interpretation codes (formerly Abnormal Flags in older versions).",
  "status": "active",
  "experimental": false,
  "date": "2015-03-23",
  "define": {
    "extension": [
      {
        "url": "http://hl7.org/fhir/StructureDefinition/valueset-oid",
        "valueUri": "urn:oid:2.16.840.1.113883.5.83"
      }
    ],
    "system": "http://hl7.org/fhir/v3/ObservationInterpretation",
    "caseSensitive": true,
    "concept": [
      {
        "code": "_GeneticObservationInterpretation",
        "abstract": true,
        "display": "GeneticObservationInterpretation",
        "definition": "Codes that specify interpretation of genetic analysis, such as \"positive\", \"negative\", \"carrier\", \"responsive\", etc.",
        "concept": [
          {
            "code": "CAR",
            "abstract": false,
            "display": "Carrier",
            "definition": "The patient is considered as carrier based on the testing results. A carrier is an individual who carries an altered form of a gene which can lead to having a child or offspring in future generations with a genetic disorder."
          },
          {
            "extension": [
              {
                "url": "http://hl7.org/fhir/StructureDefinition/valueset-deprecated",
                "valueBoolean": true
              }
            ],
            "code": "Carrier",
            "abstract": false,
            "display": "Carrier",
            "definition": "The patient is considered as carrier based on the testing results. A carrier is an individual who carries an altered form of a gene which can lead to having a child or offspring in future generations with a genetic disorder.\r\n\n                        \n                           \n                              Deprecation Comment: \n                           This code is currently the same string as the print name for this concept and is inconsistent with the conventions being used for the other codes in the coding system, as it is a full word with initial capitalization, rather than an all upper case mnemonic.  The recommendation from OO is to deprecate the code \"Carrier\" and to add \"CAR\" as the new active code representation for this concept."
          }
        ]
      },
      {
        "code": "_ObservationInterpretationChange",
        "abstract": true,
        "display": "ObservationInterpretationChange",
        "definition": "Interpretations of change of quantity and/or severity. At most one of B or W and one of U or D allowed.",
        "concept": [
          {
            "code": "B",
            "abstract": false,
            "display": "Better",
            "definition": "The current result or observation value has improved compared to the previous result or observation value (the change is significant as defined in the respective test procedure).\r\n\n                        [Note: This can be applied to quantitative or qualitative observations.]"
          },
          {
            "code": "D",
            "abstract": false,
            "display": "Significant change down",
            "definition": "The current result has decreased from the previous result for a quantitative observation (the change is significant as defined in the respective test procedure)."
          },
          {
            "code": "U",
            "abstract": false,
            "display": "Significant change up",
            "definition": "The current result has increased from the previous result for a quantitative observation (the change is significant as defined in the respective test procedure)."
          },
          {
            "code": "W",
            "abstract": false,
            "display": "Worse",
            "definition": "The current result or observation value has degraded compared to the previous result or observation value (the change is significant as defined in the respective test procedure).\r\n\n                        [Note: This can be applied to quantitative or qualitative observations.]"
          }
        ]
      },
      {
        "code": "_ObservationInterpretationExceptions",
        "abstract": true,
        "display": "ObservationInterpretationExceptions",
        "definition": "Technical exceptions resulting in the inability to provide an interpretation. At most one allowed. Does not imply normality or severity.",
        "concept": [
          {
            "code": "<",
            "abstract": false,
            "display": "Off scale low",
            "definition": "The result is below the minimum detection limit (the test procedure or equipment is the limiting factor).\r\n\n                        Synonyms: Below analytical limit, low off scale."
          },
          {
            "code": ">",
            "abstract": false,
            "display": "Off scale high",
            "definition": "The result is above the maximum quantifiable limit (the test procedure or equipment is the limiting factor).\r\n\n                        Synonyms: Above analytical limit, high off scale."
          },
          {
            "code": "AC",
            "abstract": false,
            "display": "Anti-complementary substances present",
            "definition": "A valid result cannot be obtained for the specified component / analyte due to the presence of anti-complementary substances in the sample."
          },
          {
            "code": "IE",
            "abstract": false,
            "display": "Insufficient evidence",
            "definition": "There is insufficient evidence that the species in question is a good target for therapy with the drug.  A categorical interpretation is not possible.\r\n\n                        [Note: A MIC with \"IE\" and/or a comment may be reported (without an accompanying S, I or R-categorization).]"
          },
          {
            "code": "QCF",
            "abstract": false,
            "display": "Quality control failure",
            "definition": "A result cannot be considered valid for the specified component / analyte or organism due to failure in the quality control testing component."
          },
          {
            "code": "TOX",
            "abstract": false,
            "display": "Cytotoxic substance present",
            "definition": "A valid result cannot be obtained for the specified organism or cell line due to the presence of cytotoxic substances in the sample or culture."
          }
        ]
      },
      {
        "code": "_ObservationInterpretationNormality",
        "abstract": true,
        "display": "ObservationInterpretationNormality",
        "definition": "Interpretation of normality or degree of abnormality (including critical or \"alert\" level). Concepts in this category are mutually exclusive, i.e., at most one is allowed.",
        "concept": [
          {
            "code": "A",
            "abstract": false,
            "display": "Abnormal",
            "definition": "The result or observation value is outside the reference range or expected norm (as defined for the respective test procedure).\r\n\n                        [Note: Typically applies to non-numeric results.]",
            "concept": [
              {
                "code": "AA",
                "abstract": false,
                "display": "Critically abnormal",
                "definition": "The result or observation value is outside a reference range or expected norm at a level at which immediate action should be considered for patient safety (as defined for the respective test procedure).\r\n\n                        [Note: Typically applies to non-numeric results.  Analogous to critical/panic limits for numeric results.]",
                "concept": [
                  {
                    "code": "HH",
                    "abstract": false,
                    "display": "Critically high",
                    "definition": "The result for a quantitative observation is above a reference level at which immediate action should be considered for patient safety (as defined for the respective test procedure).\r\n\n                        Synonym: Above upper panic limits."
                  },
                  {
                    "code": "LL",
                    "abstract": false,
                    "display": "Critically low",
                    "definition": "The result for a quantitative observation is below a reference level at which immediate action should be considered for patient safety (as defined for the respective test procedure).\r\n\n                        Synonym: Below lower panic limits."
                  }
                ]
              },
              {
                "code": "H",
                "abstract": false,
                "display": "High",
                "definition": "The result for a quantitative observation is above the upper limit of the reference range (as defined for the respective test procedure).\r\n\n                        Synonym: Above high normal",
                "concept": [
                  {
                    "extension": [
                      {
                        "url": "http://hl7.org/fhir/StructureDefinition/valueset-deprecated",
                        "valueBoolean": true
                      }
                    ],
                    "modifierExtension": [
                      {
                        "url": "http://hl7.org/fhir/StructureDefinition/valueset-subsumes",
                        "valueCode": "HH"
                      }
                    ],
                    "code": "H>",
                    "abstract": false,
                    "display": "Significantly high",
                    "definition": "A test result that is significantly higher than the reference (normal) or therapeutic interval, but has not reached the critically high value and might need special attention, as defined by the laboratory or the clinician.[Note: This level is situated between 'H' and 'HH'.]\r\n\n                        \n                           Deprecation Comment: The code 'H>' is being deprecated in order to align with the use of the code 'HU' for \"Very high\" in V2 Table 0078 \"Interpretation Codes\".\r\n\n                        [Note: The use of code 'H>' is non-preferred, as this code is deprecated and on track to be retired; use code 'HU' instead."
                  }
                ]
              },
              {
                "code": "L",
                "abstract": false,
                "display": "Low",
                "definition": "The result for a quantitative observation is below the lower limit of the reference range (as defined for the respective test procedure).\r\n\n                        Synonym: Below low normal",
                "concept": [
                  {
                    "extension": [
                      {
                        "url": "http://hl7.org/fhir/StructureDefinition/valueset-deprecated",
                        "valueBoolean": true
                      }
                    ],
                    "modifierExtension": [
                      {
                        "url": "http://hl7.org/fhir/StructureDefinition/valueset-subsumes",
                        "valueCode": "LL"
                      }
                    ],
                    "code": "L<",
                    "abstract": false,
                    "display": "Significantly low",
                    "definition": "A test result that is significantly lower than the reference (normal) or therapeutic interval, but has not reached the critically low value and might need special attention, as defined by the laboratory or the clinician.[Note: This level is situated between 'L' and 'LL'.]\r\n\n                        \n                           Deprecation Comment: The code 'L<' is being deprecated in order to align with the use of the code 'LU' for \"Very low\" in V2 Table 0078 \"Interpretation Codes\".\r\n\n                        [Note: The use of code 'L<' is non-preferred, as this code is deprecated and on track to be retired; use code 'LU' instead."
                  }
                ]
              }
            ]
          },
          {
            "code": "N",
            "abstract": false,
            "display": "Normal",
            "definition": "The result or observation value is within the reference range or expected norm (as defined for the respective test procedure).\r\n\n                        [Note: Applies to numeric or non-numeric results.]"
          }
        ]
      },
      {
        "modifierExtension": [
          {
            "url": "http://hl7.org/fhir/StructureDefinition/valueset-subsumes",
            "valueCode": "IE"
          }
        ],
        "code": "_ObservationInterpretationSusceptibility",
        "abstract": true,
        "display": "ObservationInterpretationSusceptibility",
        "definition": "Interpretations of anti-microbial susceptibility testing results (microbiology). At most one allowed.",
        "concept": [
          {
            "code": "I",
            "abstract": false,
            "display": "Intermediate",
            "definition": "Bacterial strain inhibited in vitro by a concentration of an antimicrobial agent that is associated with uncertain therapeutic effect. Reference: CLSI (http://www.clsi.org/Content/NavigationMenu/Resources/HarmonizedTerminologyDatabase/Harmonized_Terminolo.htm)\nProjects: ISO 20776-1, ISO 20776-2\r\n\n                        [Note 1: Bacterial strains are categorized as intermediate by applying the appropriate breakpoints in a defined phenotypic test system.]\r\n\n                        [Note 2: This class of susceptibility implies that an infection due to the isolate can be appropriately treated in body sites where the drugs are physiologically concentrated or when a high dosage of drug can be used.]\r\n\n                        [Note 3: This class also indicates a \"buffer zone,\" to prevent small, uncontrolled, technical factors from causing major discrepancies in interpretations.]\r\n\n                        [Note 4: These breakpoints can be altered due to changes in circumstances (e.g., changes in commonly used drug dosages, emergence of new resistance mechanisms).]"
          },
          {
            "extension": [
              {
                "url": "http://hl7.org/fhir/StructureDefinition/valueset-deprecated",
                "valueBoolean": true
              }
            ],
            "code": "MS",
            "abstract": false,
            "display": "moderately susceptible",
            "definition": "The patient is considered as carrier based on the testing results. A carrier is an individual who carries an altered form of a gene which can lead to having a child or offspring in future generations with a genetic disorder.\r\n\n                        \n                           \n                              Deprecation Comment: \n                           This antimicrobial susceptibility test interpretation concept is recommended by OO to be deprecated as it is no longer recommended for use in susceptibility testing by CLSI (reference CLSI document M100-S22; Vol. 32 No.3; CLSI Performance Standards for Antimicrobial Susceptibility Testing; Twenty-Second Informational Supplement. Jan 2012)."
          },
          {
            "code": "NS",
            "abstract": false,
            "display": "Non-susceptible",
            "definition": "A category used for isolates for which only a susceptible interpretive criterion has been designated because of the absence or rare occurrence of resistant strains. Isolates that have MICs above or zone diameters below the value indicated for the susceptible breakpoint should be reported as non-susceptible.\r\n\n                        NOTE 1: An isolate that is interpreted as non-susceptible does not necessarily mean that the isolate has a resistance mechanism. It is possible that isolates with MICs above the susceptible breakpoint that lack resistance mechanisms may be encountered within the wild-type distribution subsequent to the time the susceptible-only breakpoint is set. \r\n\n                        NOTE 2: For strains yielding results in the \"nonsusceptible\" category, organism identification and antimicrobial susceptibility test results should be confirmed.\r\n\n                        Synonym: decreased susceptibility."
          },
          {
            "code": "R",
            "abstract": false,
            "display": "Resistant",
            "definition": "Bacterial strain inhibited in vitro by a concentration of an antimicrobial agent that is associated with a high likelihood of therapeutic failure.\nReference: CLSI (http://www.clsi.org/Content/NavigationMenu/Resources/HarmonizedTerminologyDatabase/Harmonized_Terminolo.htm)  \nProjects: ISO 20776-1, ISO 20776-2\r\n\n                        [Note 1: Bacterial strains are categorized as resistant by applying the appropriate breakpoints in a defined phenotypic test system.]\r\n\n                        [Note 2: This breakpoint can be altered due to changes in circumstances (e.g., changes in commonly used drug dosages, emergence of new resistance mechanisms).]",
            "concept": [
              {
                "code": "SYN-R",
                "abstract": false,
                "display": "Synergy - resistant",
                "definition": "A category for isolates where the bacteria (e.g. enterococci) are not susceptible in vitro to a combination therapy (e.g., high-level aminoglycoside and cell wall active agent).  This is predictive that this combination therapy will not be effective. \r\n\n                        \n                           Usage Note: Since the use of penicillin or ampicillin alone often results in treatment failure of serious enterococcal or other bacterial infections, combination therapy is usually indicated to enhance bactericidal activity. The synergy between a cell wall active agent (such as penicillin, ampicillin, or vancomycin) and an aminoglycoside (such as gentamicin, kanamycin or streptomycin) is best predicted by screening for high-level bacterial resistance to the aminoglycoside.\r\n\n                        \n                           Open Issue: The print name of the code is very general and the description is very specific to a pair of classes of agents, which may lead to confusion of these concepts in the future should other synergies be found."
              }
            ]
          },
          {
            "code": "S",
            "abstract": false,
            "display": "Susceptible",
            "definition": "Bacterial strain inhibited by in vitro concentration of an antimicrobial agent that is associated with a high likelihood of therapeutic success.\nReference: CLSI (http://www.clsi.org/Content/NavigationMenu/Resources/HarmonizedTerminologyDatabase/Harmonized_Terminolo.htm)\nSynonym (earlier term): Sensitive Projects: ISO 20776-1, ISO 20776-2\r\n\n                        [Note 1: Bacterial strains are categorized as susceptible by applying the appropriate breakpoints in a defined phenotypic system.]\r\n\n                        [Note 2: This breakpoint can be altered due to changes in circumstances (e.g., changes in commonly used drug dosages, emergence of new resistance mechanisms).]",
            "concept": [
              {
                "code": "SDD",
                "abstract": false,
                "display": "Susceptible-dose dependent",
                "definition": "A category that includes isolates with antimicrobial agent minimum inhibitory concentrations (MICs) that approach usually attainable blood and tissue levels and for which response rates may be lower than for susceptible isolates.\r\n\n                        Reference: CLSI document M44-A2 2009 \"Method for antifungal disk diffusion susceptibility testing of yeasts; approved guideline - second edition\" - page 2."
              },
              {
                "code": "SYN-S",
                "abstract": false,
                "display": "Synergy - susceptible",
                "definition": "A category for isolates where the bacteria (e.g. enterococci) are susceptible in vitro to a combination therapy (e.g., high-level aminoglycoside and cell wall active agent).  This is predictive that this combination therapy will be effective. \r\n\n                        \n                           Usage Note: Since the use of penicillin or ampicillin alone often results in treatment failure of serious enterococcal or other bacterial infections, combination therapy is usually indicated to enhance bactericidal activity. The synergy between a cell wall active agent (such as penicillin, ampicillin, or vancomycin) and an aminoglycoside (such as gentamicin, kanamycin or streptomycin) is best predicted by screening for high-level bacterial resistance to the aminoglycoside.\r\n\n                        \n                           Open Issue: The print name of the code is very general and the description is very specific to a pair of classes of agents, which may lead to confusion of these concepts in the future should other synergies be found."
              }
            ]
          },
          {
            "extension": [
              {
                "url": "http://hl7.org/fhir/StructureDefinition/valueset-deprecated",
                "valueBoolean": true
              }
            ],
            "code": "VS",
            "abstract": false,
            "display": "very susceptible",
            "definition": "The patient is considered as carrier based on the testing results. A carrier is an individual who carries an altered form of a gene which can lead to having a child or offspring in future generations with a genetic disorder.\r\n\n                        \n                           \n                              Deprecation Comment: \n                           This antimicrobial susceptibility test interpretation concept is recommended by OO to be deprecated as it is no longer recommended for use in susceptibility testing by CLSI (reference CLSI document M100-S22; Vol. 32 No.3; CLSI Performance Standards for Antimicrobial Susceptibility Testing; Twenty-Second Informational Supplement. Jan 2012)."
          }
        ]
      },
      {
        "code": "EX",
        "abstract": false,
        "display": "outside threshold",
        "definition": "The observation/test result is interpreted as being outside the inclusion range for a particular protocol within which the result is being reported.\n\r\n\n                        Example: A positive result on a Hepatitis screening test.\n                           Open Issue: EX, HX, LX: These three concepts do not seem to meet a clear need in the vocabulary, and their use in observation interpretation appears likely to be covered by other existing concepts (e.g., A, H, L).  The only apparent significant difference is their reference to use in protocols for exclusion of study subjects.\nThese concepts/codes were proposed by RCRIM for use in the CTLaboratory message.  They were submitted and approved in the November 2005 Harmonization cycle in proposal \"030103C_VOCAB_RCRIM_l_quade_RCRIM Obs Interp_20051028154455\".  However, this proposal was not fully implemented in the vocabulary.  The proposal recommended creation of the x_ClinicalResearchExclusion domain in ObservationInterpretation with a value set including those three concepts/codes, but there is no subdomain of that name or equivalent with a binding to either of the value sets that contain these concepts/codes.\nMembers of the OO WG have recently attempted to contact members of RCRIM regarding these concepts, both by email and at the recent WGM in Atlanta, without response.  It is felt by OO that the best course of action to take at this time is to add this comprehensive Open Issue rather than deprecate these three concepts at this time, until further discussion is held.",
        "concept": [
          {
            "code": "HX",
            "abstract": false,
            "display": "above high threshold",
            "definition": "The observation/test result is interpreted as being outside the inclusion range for a particular protocol within which the result is being reported.\n\r\n\n                        Example: A positive result on a Hepatitis screening test.\n                           Open Issue: EX, HX, LX: These three concepts do not seem to meet a clear need in the vocabulary, and their use in observation interpretation appears likely to be covered by other existing concepts (e.g., A, H, L).  The only apparent significant difference is their reference to use in protocols for exclusion of study subjects.  These concepts/codes were proposed by RCRIM for use in the CTLaboratory message.  They were submitted and approved in the November 2005 Harmonization cycle in proposal \"030103C_VOCAB_RCRIM_l_quade_RCRIM Obs Interp_20051028154455\". However, this proposal was not fully implemented in the vocabulary.  The proposal recommended creation of the x_ClinicalResearchExclusion domain in ObservationInterpretation with a value set including those three concepts/codes, but there is no subdomain of that name or equivalent with a binding to either of the value sets that contain these concepts/codes.  Members of the OO WG have recently attempted to contact members of RCRIM regarding these concepts, both by email and at the recent WGM in Atlanta, without response.  It is felt by OO that the best course of action to take at this time is to add this comprehensive Open Issue rather than deprecate these three concepts at this time, until further discussion is held."
          },
          {
            "code": "LX",
            "abstract": false,
            "display": "below low threshold",
            "definition": "The numeric observation/test result is interpreted as being below the low threshold value for a particular protocol within which the result is being reported.\r\n\n                        Example: A Total White Blood Cell Count falling below a protocol-defined threshold value of 3000/mm^3\n                           Open Issue: EX, HX, LX: These three concepts do not seem to meet a clear need in the vocabulary, and their use in observation interpretation appears likely to be covered by other existing concepts (e.g., A, H, L).  The only apparent significant difference is their reference to use in protocols for exclusion of study subjects.  These concepts/codes were proposed by RCRIM for use in the CTLaboratory message.  They were submitted and approved in the November 2005 Harmonization cycle in proposal \"030103C_VOCAB_RCRIM_l_quade_RCRIM Obs Interp_20051028154455\".  However, this proposal was not fully implemented in the vocabulary.  The proposal recommended creation of the x_ClinicalResearchExclusion domain in ObservationInterpretation with a value set including those three concepts/codes, but there is no subdomain of that name or equivalent with a binding to either of the value sets that contain these concepts/codes.  Members of the OO WG have recently attempted to contact members of RCRIM regarding these concepts, both by email and at the recent WGM in Atlanta, without response.  It is felt by OO that the best course of action to take at this time is to add this comprehensive Open Issue rather than deprecate these three concepts at this time, until further discussion is held."
          }
        ]
      },
      {
        "code": "ObservationInterpretationDetection",
        "abstract": true,
        "display": "ObservationInterpretationDetection",
        "definition": "Interpretations of the presence or absence of a component / analyte or organism in a test or of a sign in a clinical observation. In keeping with laboratory data processing practice, these concepts provide a categorical interpretation of the \"meaning\" of the quantitative value for the same observation.",
        "concept": [
          {
            "code": "IND",
            "abstract": false,
            "display": "Indeterminate",
            "definition": "The specified component / analyte, organism or clinical sign could neither be declared positive / negative or detected / not detected by the performed test or procedure."
          },
          {
            "code": "NEG",
            "abstract": false,
            "display": "Negative",
            "definition": "An absence finding of the specified component / analyte, organism or clinical sign based on the established threshold of the performed test or procedure.\r\n\n                        [Note: Negative does not necessarily imply the complete absence of the specified item.]",
            "concept": [
              {
                "code": "ND",
                "abstract": false,
                "display": "Not detected",
                "definition": "The presence of the specified component / analyte, organism or clinical sign could not be determined within the limit of detection of the performed test or procedure."
              }
            ]
          },
          {
            "code": "POS",
            "abstract": false,
            "display": "Positive",
            "definition": "A presence finding of the specified component / analyte, organism or clinical sign based on the established threshold of the performed test or procedure.",
            "concept": [
              {
                "code": "DET",
                "abstract": false,
                "display": "Detected",
                "definition": "The measurement of the specified component / analyte, organism or clinical sign above the limit of detection of the performed test or procedure."
              }
            ]
          }
        ]
      },
      {
        "code": "ReactivityObservationInterpretation",
        "abstract": true,
        "display": "ReactivityObservationInterpretation",
        "definition": "Interpretations of the presence and level of reactivity of the specified component / analyte with the reagent in the performed laboratory test.",
        "concept": [
          {
            "code": "NR",
            "abstract": false,
            "display": "Non-reactive",
            "definition": "An absence finding used to indicate that the specified component / analyte did not react measurably with the reagent."
          },
          {
            "code": "RR",
            "abstract": false,
            "display": "Reactive",
            "definition": "A presence finding used to indicate that the specified component / analyte reacted with the reagent above the reliably measurable limit of the performed test.",
            "concept": [
              {
                "code": "WR",
                "abstract": false,
                "display": "Weakly reactive",
                "definition": "A weighted presence finding used to indicate that the specified component / analyte reacted with the reagent, but below the reliably measurable limit of the performed test."
              }
            ]
          }
        ]
      }
    ]
  }
}