{
  "resourceType": "ValueSet",
  "id": "v2-0107",
  "meta": {
    "profile": [
      "http://hl7.org/fhir/StructureDefinition/valueset-shareable-definition"
    ]
  },
  "text": {
    "status": "additional",
    "div": "<div><p>Deferred response type</p>\r\n<table class=\"grid\"><tr><td><b>Code</b></td><td><b>Description</b></td><td><b>Version</b></td></tr><tr><td>B<a name=\"B\"> </a></td><td>Before the Date/Time specified</td><td>added v2.2, removed after v2.6</td></tr><tr><td>L<a name=\"L\"> </a></td><td>Later than the Date/Time specified</td><td>from v2.1, removed after v2.6</td></tr></table>\r\n</div>"
  },
  "url": "http://hl7.org/fhir/ValueSet/v2-0107",
  "version": "2.7",
  "name": "v2 Deferred response type",
  "publisher": "HL7, Inc",
  "contact": [
    {
      "telecom": [
        {
          "system": "url",
          "value": "http://hl7.org"
        }
      ]
    }
  ],
  "description": "FHIR Value set/code system definition for HL7 v2 table 0107 ( Deferred response type)",
  "status": "active",
  "experimental": true,
  "date": "2011-01-28",
  "define": {
    "system": "http://hl7.org/fhir/v2/0107",
    "caseSensitive": true,
    "concept": [
      {
        "extension": [
          {
            "url": "http://hl7.org/fhir/StructureDefinition/valueset-deprecated",
            "valueBoolean": true
          }
        ],
        "code": "B",
        "display": "Before the Date/Time specified"
      },
      {
        "extension": [
          {
            "url": "http://hl7.org/fhir/StructureDefinition/valueset-deprecated",
            "valueBoolean": true
          }
        ],
        "code": "L",
        "display": "Later than the Date/Time specified"
      }
    ]
  }
}