{
  "resourceType": "ValueSet",
  "id": "v2-0126",
  "meta": {
    "profile": [
      "http://hl7.org/fhir/StructureDefinition/valueset-shareable-definition"
    ]
  },
  "text": {
    "status": "additional",
    "div": "<div><p>Quantity Limited Request</p>\r\n<table class=\"grid\"><tr><td><b>Code</b></td><td><b>Description</b></td><td><b>Version</b></td></tr><tr><td>CH<a name=\"CH\"> </a></td><td>Characters</td><td>from v2.1</td></tr><tr><td>LI<a name=\"LI\"> </a></td><td>Lines</td><td>from v2.1</td></tr><tr><td>PG<a name=\"PG\"> </a></td><td>Pages</td><td>from v2.1</td></tr><tr><td>RD<a name=\"RD\"> </a></td><td>Records</td><td>added v2.2</td></tr><tr><td>ZO<a name=\"ZO\"> </a></td><td>Locally defined</td><td>from v2.1</td></tr></table>\r\n</div>"
  },
  "url": "http://hl7.org/fhir/ValueSet/v2-0126",
  "version": "2.7",
  "name": "v2 Quantity Limited Request",
  "publisher": "HL7, Inc",
  "contact": [
    {
      "telecom": [
        {
          "system": "url",
          "value": "http://hl7.org"
        }
      ]
    }
  ],
  "description": "FHIR Value set/code system definition for HL7 v2 table 0126 ( Quantity Limited Request)",
  "status": "active",
  "experimental": true,
  "date": "2011-01-28",
  "define": {
    "system": "http://hl7.org/fhir/v2/0126",
    "caseSensitive": true,
    "concept": [
      {
        "code": "CH",
        "display": "Characters"
      },
      {
        "code": "LI",
        "display": "Lines"
      },
      {
        "code": "PG",
        "display": "Pages"
      },
      {
        "code": "RD",
        "display": "Records"
      },
      {
        "code": "ZO",
        "display": "Locally defined"
      }
    ]
  }
}