{
  "resourceType": "ValueSet",
  "id": "v2-0162",
  "meta": {
    "profile": [
      "http://hl7.org/fhir/StructureDefinition/valueset-shareable-definition"
    ]
  },
  "text": {
    "status": "additional",
    "div": "<div><p>Route of Administration</p>\r\n<table class=\"grid\"><tr><td><b>Code</b></td><td><b>Description</b></td><td><b>Version</b></td></tr><tr><td>AP<a name=\"AP\"> </a></td><td>Apply Externally</td><td>added v2.2</td></tr><tr><td>B<a name=\"B\"> </a></td><td>Buccal</td><td>added v2.2</td></tr><tr><td>DT<a name=\"DT\"> </a></td><td>Dental</td><td>added v2.2</td></tr><tr><td>EP<a name=\"EP\"> </a></td><td>Epidural</td><td>added v2.3</td></tr><tr><td>ET<a name=\"ET\"> </a></td><td>Endotrachial Tube*</td><td>added v2.3</td></tr><tr><td>GTT<a name=\"GTT\"> </a></td><td>Gastrostomy Tube</td><td>added v2.2</td></tr><tr><td>GU<a name=\"GU\"> </a></td><td>GU Irrigant</td><td>added v2.2</td></tr><tr><td>IA<a name=\"IA\"> </a></td><td>Intra-arterial</td><td>added v2.2</td></tr><tr><td>IB<a name=\"IB\"> </a></td><td>Intrabursal</td><td>added v2.3</td></tr><tr><td>IC<a name=\"IC\"> </a></td><td>Intracardiac</td><td>added v2.2</td></tr><tr><td>ICV<a name=\"ICV\"> </a></td><td>Intracervical (uterus)</td><td>added v2.3</td></tr><tr><td>ID<a name=\"ID\"> </a></td><td>Intradermal</td><td>added v2.2</td></tr><tr><td>IH<a name=\"IH\"> </a></td><td>Inhalation</td><td>added v2.2</td></tr><tr><td>IHA<a name=\"IHA\"> </a></td><td>Intrahepatic Artery</td><td>added v2.3.1</td></tr><tr><td>IM<a name=\"IM\"> </a></td><td>Intramuscular</td><td>added v2.2</td></tr><tr><td>IMR<a name=\"IMR\"> </a></td><td>Immerse (Soak) Body Part</td><td>added v2.3</td></tr><tr><td>IN<a name=\"IN\"> </a></td><td>Intranasal</td><td>added v2.2</td></tr><tr><td>IO<a name=\"IO\"> </a></td><td>Intraocular</td><td>added v2.2</td></tr><tr><td>IP<a name=\"IP\"> </a></td><td>Intraperitoneal</td><td>added v2.2</td></tr><tr><td>IS<a name=\"IS\"> </a></td><td>Intrasynovial</td><td>added v2.2</td></tr><tr><td>IT<a name=\"IT\"> </a></td><td>Intrathecal</td><td>added v2.2</td></tr><tr><td>IU<a name=\"IU\"> </a></td><td>Intrauterine</td><td>added v2.3.1</td></tr><tr><td>IV<a name=\"IV\"> </a></td><td>Intravenous</td><td>added v2.2</td></tr><tr><td>MM<a name=\"MM\"> </a></td><td>Mucous Membrane</td><td>added v2.3</td></tr><tr><td>MTH<a name=\"MTH\"> </a></td><td>Mouth/Throat</td><td>added v2.3.1</td></tr><tr><td>NG<a name=\"NG\"> </a></td><td>Nasogastric</td><td>added v2.2</td></tr><tr><td>NP<a name=\"NP\"> </a></td><td>Nasal Prongs*</td><td>added v2.3</td></tr><tr><td>NS<a name=\"NS\"> </a></td><td>Nasal</td><td>added v2.2</td></tr><tr><td>NT<a name=\"NT\"> </a></td><td>Nasotrachial Tube</td><td>added v2.3</td></tr><tr><td>OP<a name=\"OP\"> </a></td><td>Ophthalmic</td><td>added v2.2</td></tr><tr><td>OT<a name=\"OT\"> </a></td><td>Otic</td><td>added v2.2</td></tr><tr><td>OTH<a name=\"OTH\"> </a></td><td>Other/Miscellaneous</td><td>added v2.3</td></tr><tr><td>PF<a name=\"PF\"> </a></td><td>Perfusion</td><td>added v2.3</td></tr><tr><td>PO<a name=\"PO\"> </a></td><td>Oral</td><td>added v2.2</td></tr><tr><td>PR<a name=\"PR\"> </a></td><td>Rectal</td><td>added v2.2</td></tr><tr><td>RM<a name=\"RM\"> </a></td><td>Rebreather Mask*</td><td>added v2.3</td></tr><tr><td>SC<a name=\"SC\"> </a></td><td>Subcutaneous</td><td>added v2.2</td></tr><tr><td>SD<a name=\"SD\"> </a></td><td>Soaked Dressing</td><td>added v2.3</td></tr><tr><td>SL<a name=\"SL\"> </a></td><td>Sublingual</td><td>added v2.2</td></tr><tr><td>TD<a name=\"TD\"> </a></td><td>Transdermal</td><td>added v2.2</td></tr><tr><td>TL<a name=\"TL\"> </a></td><td>Translingual</td><td>added v2.2</td></tr><tr><td>TP<a name=\"TP\"> </a></td><td>Topical</td><td>added v2.2</td></tr><tr><td>TRA<a name=\"TRA\"> </a></td><td>Tracheostomy*</td><td>added v2.3</td></tr><tr><td>UR<a name=\"UR\"> </a></td><td>Urethral</td><td>added v2.2</td></tr><tr><td>VG<a name=\"VG\"> </a></td><td>Vaginal</td><td>added v2.2</td></tr><tr><td>VM<a name=\"VM\"> </a></td><td>Ventimask</td><td>added v2.3</td></tr><tr><td>WND<a name=\"WND\"> </a></td><td>Wound</td><td>added v2.3</td></tr></table>\r\n</div>"
  },
  "url": "http://hl7.org/fhir/ValueSet/v2-0162",
  "version": "2.7",
  "name": "v2 Route of Administration",
  "publisher": "HL7, Inc",
  "contact": [
    {
      "telecom": [
        {
          "system": "url",
          "value": "http://hl7.org"
        }
      ]
    }
  ],
  "description": "FHIR Value set/code system definition for HL7 v2 table 0162 ( Route of Administration)",
  "status": "active",
  "experimental": true,
  "date": "2011-01-28",
  "define": {
    "system": "http://hl7.org/fhir/v2/0162",
    "caseSensitive": true,
    "concept": [
      {
        "code": "AP",
        "display": "Apply Externally"
      },
      {
        "code": "B",
        "display": "Buccal"
      },
      {
        "code": "DT",
        "display": "Dental"
      },
      {
        "code": "EP",
        "display": "Epidural"
      },
      {
        "code": "ET",
        "display": "Endotrachial Tube*"
      },
      {
        "code": "GTT",
        "display": "Gastrostomy Tube"
      },
      {
        "code": "GU",
        "display": "GU Irrigant"
      },
      {
        "code": "IA",
        "display": "Intra-arterial"
      },
      {
        "code": "IB",
        "display": "Intrabursal"
      },
      {
        "code": "IC",
        "display": "Intracardiac"
      },
      {
        "code": "ICV",
        "display": "Intracervical (uterus)"
      },
      {
        "code": "ID",
        "display": "Intradermal"
      },
      {
        "code": "IH",
        "display": "Inhalation"
      },
      {
        "code": "IHA",
        "display": "Intrahepatic Artery"
      },
      {
        "code": "IM",
        "display": "Intramuscular"
      },
      {
        "code": "IMR",
        "display": "Immerse (Soak) Body Part"
      },
      {
        "code": "IN",
        "display": "Intranasal"
      },
      {
        "code": "IO",
        "display": "Intraocular"
      },
      {
        "code": "IP",
        "display": "Intraperitoneal"
      },
      {
        "code": "IS",
        "display": "Intrasynovial"
      },
      {
        "code": "IT",
        "display": "Intrathecal"
      },
      {
        "code": "IU",
        "display": "Intrauterine"
      },
      {
        "code": "IV",
        "display": "Intravenous"
      },
      {
        "code": "MM",
        "display": "Mucous Membrane"
      },
      {
        "code": "MTH",
        "display": "Mouth/Throat"
      },
      {
        "code": "NG",
        "display": "Nasogastric"
      },
      {
        "code": "NP",
        "display": "Nasal Prongs*"
      },
      {
        "code": "NS",
        "display": "Nasal"
      },
      {
        "code": "NT",
        "display": "Nasotrachial Tube"
      },
      {
        "code": "OP",
        "display": "Ophthalmic"
      },
      {
        "code": "OT",
        "display": "Otic"
      },
      {
        "code": "OTH",
        "display": "Other/Miscellaneous"
      },
      {
        "code": "PF",
        "display": "Perfusion"
      },
      {
        "code": "PO",
        "display": "Oral"
      },
      {
        "code": "PR",
        "display": "Rectal"
      },
      {
        "code": "RM",
        "display": "Rebreather Mask*"
      },
      {
        "code": "SC",
        "display": "Subcutaneous"
      },
      {
        "code": "SD",
        "display": "Soaked Dressing"
      },
      {
        "code": "SL",
        "display": "Sublingual"
      },
      {
        "code": "TD",
        "display": "Transdermal"
      },
      {
        "code": "TL",
        "display": "Translingual"
      },
      {
        "code": "TP",
        "display": "Topical"
      },
      {
        "code": "TRA",
        "display": "Tracheostomy*"
      },
      {
        "code": "UR",
        "display": "Urethral"
      },
      {
        "code": "VG",
        "display": "Vaginal"
      },
      {
        "code": "VM",
        "display": "Ventimask"
      },
      {
        "code": "WND",
        "display": "Wound"
      }
    ]
  }
}