{
  "resourceType": "ValueSet",
  "id": "v2-0248",
  "meta": {
    "profile": [
      "http://hl7.org/fhir/StructureDefinition/valueset-shareable-definition"
    ]
  },
  "text": {
    "status": "additional",
    "div": "<div><p>Product Source</p>\r\n<table class=\"grid\"><tr><td><b>Code</b></td><td><b>Description</b></td><td><b>Version</b></td></tr><tr><td>A<a name=\"A\"> </a></td><td>Actual product involved in incident was evaluated</td><td>added v2.3</td></tr><tr><td>L<a name=\"L\"> </a></td><td>A product from the same lot as the actual product involved was evaluated</td><td>added v2.3</td></tr><tr><td>N<a name=\"N\"> </a></td><td>A product from a controlled/non-related inventory was evaluated</td><td>added v2.3</td></tr><tr><td>R<a name=\"R\"> </a></td><td>A product from a reserve sample was evaluated</td><td>added v2.3</td></tr></table>\r\n</div>"
  },
  "url": "http://hl7.org/fhir/ValueSet/v2-0248",
  "version": "2.7",
  "name": "v2 Product Source",
  "publisher": "HL7, Inc",
  "contact": [
    {
      "telecom": [
        {
          "system": "url",
          "value": "http://hl7.org"
        }
      ]
    }
  ],
  "description": "FHIR Value set/code system definition for HL7 v2 table 0248 ( Product Source)",
  "status": "active",
  "experimental": true,
  "date": "2011-01-28",
  "define": {
    "system": "http://hl7.org/fhir/v2/0248",
    "caseSensitive": true,
    "concept": [
      {
        "code": "A",
        "display": "Actual product involved in incident was evaluated"
      },
      {
        "code": "L",
        "display": "A product from the same lot as the actual product involved was evaluated"
      },
      {
        "code": "N",
        "display": "A product from a controlled/non-related inventory was evaluated"
      },
      {
        "code": "R",
        "display": "A product from a reserve sample was evaluated"
      }
    ]
  }
}