{
  "resourceType": "ValueSet",
  "id": "v2-0001",
  "meta": {
    "profile": [
      "http://hl7.org/fhir/StructureDefinition/valueset-shareable-definition"
    ]
  },
  "text": {
    "status": "additional",
    "div": "<div><p>Administrative Sex</p>\r\n<table class=\"grid\"><tr><td><b>Code</b></td><td><b>Description</b></td><td><b>Nederlands (Dutch)</b></td><td><b>Version</b></td></tr><tr><td>A<a name=\"A\"> </a></td><td>Ambiguous</td><td>Ambigu</td><td>added v2.4</td></tr><tr><td>F<a name=\"F\"> </a></td><td>Female</td><td>Vrouw</td><td>from v2.1</td></tr><tr><td>M<a name=\"M\"> </a></td><td>Male</td><td>Man</td><td>from v2.1</td></tr><tr><td>N<a name=\"N\"> </a></td><td>Not applicable</td><td>Niet van toepassing</td><td>added v2.4</td></tr><tr><td>O<a name=\"O\"> </a></td><td>Other</td><td>Anders</td><td>from v2.1</td></tr><tr><td>U<a name=\"U\"> </a></td><td>Unknown</td><td>Onbekend</td><td>from v2.1</td></tr></table>\r\n</div>"
  },
  "url": "http://hl7.org/fhir/ValueSet/v2-0001",
  "version": "2.7",
  "name": "v2 Administrative Sex",
  "publisher": "HL7, Inc",
  "contact": [
    {
      "telecom": [
        {
          "system": "url",
          "value": "http://hl7.org"
        }
      ]
    }
  ],
  "description": "FHIR Value set/code system definition for HL7 v2 table 0001 ( Administrative Sex)",
  "status": "active",
  "experimental": true,
  "date": "2011-01-28",
  "define": {
    "system": "http://hl7.org/fhir/v2/0001",
    "caseSensitive": true,
    "concept": [
      {
        "code": "A",
        "display": "Ambiguous",
        "designation": [
          {
            "language": "nl",
            "value": "Ambigu"
          }
        ]
      },
      {
        "code": "F",
        "display": "Female",
        "designation": [
          {
            "language": "nl",
            "value": "Vrouw"
          }
        ]
      },
      {
        "code": "M",
        "display": "Male",
        "designation": [
          {
            "language": "nl",
            "value": "Man"
          }
        ]
      },
      {
        "code": "N",
        "display": "Not applicable",
        "designation": [
          {
            "language": "nl",
            "value": "Niet van toepassing"
          }
        ]
      },
      {
        "code": "O",
        "display": "Other",
        "designation": [
          {
            "language": "nl",
            "value": "Anders"
          }
        ]
      },
      {
        "code": "U",
        "display": "Unknown",
        "designation": [
          {
            "language": "nl",
            "value": "Onbekend"
          }
        ]
      }
    ]
  }
}