{
  "resourceType": "ValueSet",
  "id": "v3-MessageWaitingPriority",
  "meta": {
    "lastUpdated": "2015-03-23T00:00:00.000+00:00",
    "profile": [
      "http://hl7.org/fhir/StructureDefinition/valueset-shareable-definition"
    ]
  },
  "text": {
    "status": "generated",
    "div": "<div><p>Release Date: 2015-03-23</p>\r\n<p>OID for code system: 2.16.840.1.113883.5.1083</p>\r\n<h2>Description</h2>\r\n<p>\n                  Indicates that the receiver has messages for the sender<br/>\r\n\n                  \n                     OpenIssue: Description does not make sense relative to name of coding system.  Must be reviewed and improved.<br/>\r\n\n               </p>\r\n<hr/>\r\n<table class=\"grid\">\r\n <tr><td><b>Level</b></td><td><b>Code</b></td><td><b>Display</b></td><td><b>Definition</b></td></tr>\r\n <tr><td>1</td><td>H<a name=\"H\"> </a></td><td>High</td><td>\n                        High priority messages are available<br/>\r\n\n                     </td></tr>\r\n <tr><td>1</td><td>L<a name=\"L\"> </a></td><td>Low</td><td>\n                        Low priority messages are available<br/>\r\n\n                     </td></tr>\r\n <tr><td>1</td><td>M<a name=\"M\"> </a></td><td>Medium</td><td>\n                        Medium priority messages are available<br/>\r\n\n                     </td></tr>\r\n</table>\r\n</div>"
  },
  "url": "http://hl7.org/fhir/ValueSet/v3-MessageWaitingPriority",
  "version": "2015-03-23",
  "name": "v3 Code System MessageWaitingPriority",
  "publisher": "HL7, Inc",
  "contact": [
    {
      "telecom": [
        {
          "system": "url",
          "value": "http://hl7.org"
        }
      ]
    }
  ],
  "description": " Indicates that the receiver has messages for the sender  OpenIssue:\r\nDescription does not make sense relative to name of coding system.  Must be reviewed and improved.",
  "status": "active",
  "experimental": false,
  "date": "2015-03-23",
  "define": {
    "extension": [
      {
        "url": "http://hl7.org/fhir/StructureDefinition/valueset-oid",
        "valueUri": "urn:oid:2.16.840.1.113883.5.1083"
      }
    ],
    "system": "http://hl7.org/fhir/v3/MessageWaitingPriority",
    "caseSensitive": true,
    "concept": [
      {
        "code": "H",
        "abstract": false,
        "display": "High",
        "definition": "High priority messages are available"
      },
      {
        "code": "L",
        "abstract": false,
        "display": "Low",
        "definition": "Low priority messages are available"
      },
      {
        "code": "M",
        "abstract": false,
        "display": "Medium",
        "definition": "Medium priority messages are available"
      }
    ]
  }
}