{
  "resourceType": "ValueSet",
  "id": "v2-0411",
  "meta": {
    "profile": [
      "http://hl7.org/fhir/StructureDefinition/valueset-shareable-definition"
    ]
  },
  "text": {
    "status": "additional",
    "div": "<div><p>Supplemental Service Information Values</p>\r\n<table class=\"grid\"><tr><td><b>Code</b></td><td><b>Description</b></td><td><b>Version</b></td></tr><tr><td>...<a name=\".46.46.46\"> </a></td><td>No suggested values&lt;p&gt;Individual implementations may use vocabularies such as the SNOMED DICOM Micro-glossary (SDM) or private (local) entries.</td><td>added v2.5.1, removed after v2.6</td></tr><tr><td>1ST<a name=\"1ST\"> </a></td><td>First</td><td>added v2.4, removed after v2.4</td></tr><tr><td>2ND<a name=\"2ND\"> </a></td><td>Second</td><td>added v2.4, removed after v2.4</td></tr><tr><td>3RD<a name=\"3RD\"> </a></td><td>Third</td><td>added v2.4, removed after v2.4</td></tr><tr><td>4TH<a name=\"4TH\"> </a></td><td>Fourth</td><td>added v2.4, removed after v2.4</td></tr><tr><td>5TH<a name=\"5TH\"> </a></td><td>Fifth</td><td>added v2.4, removed after v2.4</td></tr><tr><td>A/P<a name=\"A.47P\"> </a></td><td>Anterior/Posterior</td><td>added v2.4, removed after v2.4</td></tr><tr><td>ANT<a name=\"ANT\"> </a></td><td>Anterior</td><td>added v2.4, removed after v2.4</td></tr><tr><td>BLT<a name=\"BLT\"> </a></td><td>Bilateral</td><td>added v2.4, removed after v2.4</td></tr><tr><td>DEC<a name=\"DEC\"> </a></td><td>Decubitus</td><td>added v2.4, removed after v2.4</td></tr><tr><td>DST<a name=\"DST\"> </a></td><td>Distal</td><td>added v2.4, removed after v2.4</td></tr><tr><td>LAT<a name=\"LAT\"> </a></td><td>Lateral</td><td>added v2.4, removed after v2.4</td></tr><tr><td>LFT<a name=\"LFT\"> </a></td><td>Left</td><td>added v2.4, removed after v2.4</td></tr><tr><td>LLQ<a name=\"LLQ\"> </a></td><td>Left Lower Quadrant</td><td>added v2.4, removed after v2.4</td></tr><tr><td>LOW<a name=\"LOW\"> </a></td><td>Lower</td><td>added v2.4, removed after v2.4</td></tr><tr><td>LUQ<a name=\"LUQ\"> </a></td><td>Left Upper Quadrant</td><td>added v2.4, removed after v2.4</td></tr><tr><td>MED<a name=\"MED\"> </a></td><td>Medial</td><td>added v2.4, removed after v2.4</td></tr><tr><td>OR<a name=\"OR\"> </a></td><td>Operating Room</td><td>added v2.4, removed after v2.4</td></tr><tr><td>PED<a name=\"PED\"> </a></td><td>Pediatric</td><td>added v2.4, removed after v2.4</td></tr><tr><td>POS<a name=\"POS\"> </a></td><td>Posterior</td><td>added v2.4, removed after v2.4</td></tr><tr><td>PRT<a name=\"PRT\"> </a></td><td>Portable</td><td>added v2.4, removed after v2.4</td></tr><tr><td>PRX<a name=\"PRX\"> </a></td><td>Proximal</td><td>added v2.4, removed after v2.4</td></tr><tr><td>REC<a name=\"REC\"> </a></td><td>Recumbent</td><td>added v2.4, removed after v2.4</td></tr><tr><td>RGH<a name=\"RGH\"> </a></td><td>Right</td><td>added v2.4, removed after v2.4</td></tr><tr><td>RLQ<a name=\"RLQ\"> </a></td><td>Right Lower Quadrant</td><td>added v2.4, removed after v2.4</td></tr><tr><td>RUQ<a name=\"RUQ\"> </a></td><td>Right Upper Quadrant</td><td>added v2.4, removed after v2.4</td></tr><tr><td>UPP<a name=\"UPP\"> </a></td><td>Upper</td><td>added v2.4, removed after v2.4</td></tr><tr><td>UPR<a name=\"UPR\"> </a></td><td>Upright</td><td>added v2.4, removed after v2.4</td></tr><tr><td>WCT<a name=\"WCT\"> </a></td><td>With Contrast</td><td>added v2.4, removed after v2.4</td></tr><tr><td>WOC<a name=\"WOC\"> </a></td><td>Without Contrast</td><td>added v2.4, removed after v2.4</td></tr><tr><td>WSD<a name=\"WSD\"> </a></td><td>With Sedation</td><td>added v2.4, removed after v2.4</td></tr><tr><td>…<a name=\".8230\"> </a></td><td>No suggested values&lt;p&gt;Individual implementations may use vocabularies such as the SNOMED DICOM Micro-glossary (SDM) or private (local) entries.</td><td>added v2.7</td></tr></table>\r\n</div>"
  },
  "url": "http://hl7.org/fhir/ValueSet/v2-0411",
  "version": "2.7",
  "name": "v2 Supplemental Service Information Values",
  "publisher": "HL7, Inc",
  "contact": [
    {
      "telecom": [
        {
          "system": "url",
          "value": "http://hl7.org"
        }
      ]
    }
  ],
  "description": "FHIR Value set/code system definition for HL7 v2 table 0411 ( Supplemental Service Information Values)",
  "status": "active",
  "experimental": true,
  "date": "2011-01-28",
  "define": {
    "system": "http://hl7.org/fhir/v2/0411",
    "caseSensitive": true,
    "concept": [
      {
        "extension": [
          {
            "url": "http://hl7.org/fhir/StructureDefinition/valueset-deprecated",
            "valueBoolean": true
          }
        ],
        "code": "...",
        "display": "No suggested values<p>Individual implementations may use vocabularies such as the SNOMED DICOM Micro-glossary (SDM) or private (local) entries."
      },
      {
        "extension": [
          {
            "url": "http://hl7.org/fhir/StructureDefinition/valueset-deprecated",
            "valueBoolean": true
          }
        ],
        "code": "1ST",
        "display": "First"
      },
      {
        "extension": [
          {
            "url": "http://hl7.org/fhir/StructureDefinition/valueset-deprecated",
            "valueBoolean": true
          }
        ],
        "code": "2ND",
        "display": "Second"
      },
      {
        "extension": [
          {
            "url": "http://hl7.org/fhir/StructureDefinition/valueset-deprecated",
            "valueBoolean": true
          }
        ],
        "code": "3RD",
        "display": "Third"
      },
      {
        "extension": [
          {
            "url": "http://hl7.org/fhir/StructureDefinition/valueset-deprecated",
            "valueBoolean": true
          }
        ],
        "code": "4TH",
        "display": "Fourth"
      },
      {
        "extension": [
          {
            "url": "http://hl7.org/fhir/StructureDefinition/valueset-deprecated",
            "valueBoolean": true
          }
        ],
        "code": "5TH",
        "display": "Fifth"
      },
      {
        "extension": [
          {
            "url": "http://hl7.org/fhir/StructureDefinition/valueset-deprecated",
            "valueBoolean": true
          }
        ],
        "code": "A/P",
        "display": "Anterior/Posterior"
      },
      {
        "extension": [
          {
            "url": "http://hl7.org/fhir/StructureDefinition/valueset-deprecated",
            "valueBoolean": true
          }
        ],
        "code": "ANT",
        "display": "Anterior"
      },
      {
        "extension": [
          {
            "url": "http://hl7.org/fhir/StructureDefinition/valueset-deprecated",
            "valueBoolean": true
          }
        ],
        "code": "BLT",
        "display": "Bilateral"
      },
      {
        "extension": [
          {
            "url": "http://hl7.org/fhir/StructureDefinition/valueset-deprecated",
            "valueBoolean": true
          }
        ],
        "code": "DEC",
        "display": "Decubitus"
      },
      {
        "extension": [
          {
            "url": "http://hl7.org/fhir/StructureDefinition/valueset-deprecated",
            "valueBoolean": true
          }
        ],
        "code": "DST",
        "display": "Distal"
      },
      {
        "extension": [
          {
            "url": "http://hl7.org/fhir/StructureDefinition/valueset-deprecated",
            "valueBoolean": true
          }
        ],
        "code": "LAT",
        "display": "Lateral"
      },
      {
        "extension": [
          {
            "url": "http://hl7.org/fhir/StructureDefinition/valueset-deprecated",
            "valueBoolean": true
          }
        ],
        "code": "LFT",
        "display": "Left"
      },
      {
        "extension": [
          {
            "url": "http://hl7.org/fhir/StructureDefinition/valueset-deprecated",
            "valueBoolean": true
          }
        ],
        "code": "LLQ",
        "display": "Left Lower Quadrant"
      },
      {
        "extension": [
          {
            "url": "http://hl7.org/fhir/StructureDefinition/valueset-deprecated",
            "valueBoolean": true
          }
        ],
        "code": "LOW",
        "display": "Lower"
      },
      {
        "extension": [
          {
            "url": "http://hl7.org/fhir/StructureDefinition/valueset-deprecated",
            "valueBoolean": true
          }
        ],
        "code": "LUQ",
        "display": "Left Upper Quadrant"
      },
      {
        "extension": [
          {
            "url": "http://hl7.org/fhir/StructureDefinition/valueset-deprecated",
            "valueBoolean": true
          }
        ],
        "code": "MED",
        "display": "Medial"
      },
      {
        "extension": [
          {
            "url": "http://hl7.org/fhir/StructureDefinition/valueset-deprecated",
            "valueBoolean": true
          }
        ],
        "code": "OR",
        "display": "Operating Room"
      },
      {
        "extension": [
          {
            "url": "http://hl7.org/fhir/StructureDefinition/valueset-deprecated",
            "valueBoolean": true
          }
        ],
        "code": "PED",
        "display": "Pediatric"
      },
      {
        "extension": [
          {
            "url": "http://hl7.org/fhir/StructureDefinition/valueset-deprecated",
            "valueBoolean": true
          }
        ],
        "code": "POS",
        "display": "Posterior"
      },
      {
        "extension": [
          {
            "url": "http://hl7.org/fhir/StructureDefinition/valueset-deprecated",
            "valueBoolean": true
          }
        ],
        "code": "PRT",
        "display": "Portable"
      },
      {
        "extension": [
          {
            "url": "http://hl7.org/fhir/StructureDefinition/valueset-deprecated",
            "valueBoolean": true
          }
        ],
        "code": "PRX",
        "display": "Proximal"
      },
      {
        "extension": [
          {
            "url": "http://hl7.org/fhir/StructureDefinition/valueset-deprecated",
            "valueBoolean": true
          }
        ],
        "code": "REC",
        "display": "Recumbent"
      },
      {
        "extension": [
          {
            "url": "http://hl7.org/fhir/StructureDefinition/valueset-deprecated",
            "valueBoolean": true
          }
        ],
        "code": "RGH",
        "display": "Right"
      },
      {
        "extension": [
          {
            "url": "http://hl7.org/fhir/StructureDefinition/valueset-deprecated",
            "valueBoolean": true
          }
        ],
        "code": "RLQ",
        "display": "Right Lower Quadrant"
      },
      {
        "extension": [
          {
            "url": "http://hl7.org/fhir/StructureDefinition/valueset-deprecated",
            "valueBoolean": true
          }
        ],
        "code": "RUQ",
        "display": "Right Upper Quadrant"
      },
      {
        "extension": [
          {
            "url": "http://hl7.org/fhir/StructureDefinition/valueset-deprecated",
            "valueBoolean": true
          }
        ],
        "code": "UPP",
        "display": "Upper"
      },
      {
        "extension": [
          {
            "url": "http://hl7.org/fhir/StructureDefinition/valueset-deprecated",
            "valueBoolean": true
          }
        ],
        "code": "UPR",
        "display": "Upright"
      },
      {
        "extension": [
          {
            "url": "http://hl7.org/fhir/StructureDefinition/valueset-deprecated",
            "valueBoolean": true
          }
        ],
        "code": "WCT",
        "display": "With Contrast"
      },
      {
        "extension": [
          {
            "url": "http://hl7.org/fhir/StructureDefinition/valueset-deprecated",
            "valueBoolean": true
          }
        ],
        "code": "WOC",
        "display": "Without Contrast"
      },
      {
        "extension": [
          {
            "url": "http://hl7.org/fhir/StructureDefinition/valueset-deprecated",
            "valueBoolean": true
          }
        ],
        "code": "WSD",
        "display": "With Sedation"
      },
      {
        "code": "…",
        "display": "No suggested values<p>Individual implementations may use vocabularies such as the SNOMED DICOM Micro-glossary (SDM) or private (local) entries."
      }
    ]
  }
}