{
  "resourceType": "ValueSet",
  "id": "v2-0239",
  "meta": {
    "profile": [
      "http://hl7.org/fhir/StructureDefinition/valueset-shareable-definition"
    ]
  },
  "text": {
    "status": "additional",
    "div": "<div><p>Event Expected</p>\r\n<table class=\"grid\"><tr><td><b>Code</b></td><td><b>Description</b></td><td><b>Version</b></td></tr><tr><td>N<a name=\"N\"> </a></td><td>No</td><td>added v2.3</td></tr><tr><td>U<a name=\"U\"> </a></td><td>Unknown</td><td>added v2.3</td></tr><tr><td>Y<a name=\"Y\"> </a></td><td>Yes</td><td>added v2.3</td></tr></table>\r\n</div>"
  },
  "url": "http://hl7.org/fhir/ValueSet/v2-0239",
  "version": "2.7",
  "name": "v2 Event Expected",
  "publisher": "HL7, Inc",
  "contact": [
    {
      "telecom": [
        {
          "system": "url",
          "value": "http://hl7.org"
        }
      ]
    }
  ],
  "description": "FHIR Value set/code system definition for HL7 v2 table 0239 ( Event Expected)",
  "status": "active",
  "experimental": true,
  "date": "2011-01-28",
  "define": {
    "system": "http://hl7.org/fhir/v2/0239",
    "caseSensitive": true,
    "concept": [
      {
        "code": "N",
        "display": "No"
      },
      {
        "code": "U",
        "display": "Unknown"
      },
      {
        "code": "Y",
        "display": "Yes"
      }
    ]
  }
}