{
  "resourceType": "ValueSet",
  "id": "v2-0167",
  "meta": {
    "profile": [
      "http://hl7.org/fhir/StructureDefinition/valueset-shareable-definition"
    ]
  },
  "text": {
    "status": "additional",
    "div": "<div><p>Substitution Status</p>\r\n<table class=\"grid\"><tr><td><b>Code</b></td><td><b>Description</b></td><td><b>Version</b></td></tr><tr><td>0<a name=\"0\"> </a></td><td>No product selection indicated</td><td>added v2.3.1</td></tr><tr><td>1<a name=\"1\"> </a></td><td>Substitution not allowed by prescriber</td><td>added v2.3.1</td></tr><tr><td>2<a name=\"2\"> </a></td><td>Substitution allowed - patient requested product dispensed</td><td>added v2.3.1</td></tr><tr><td>3<a name=\"3\"> </a></td><td>Substitution allowed - pharmacist selected product dispensed</td><td>added v2.3.1</td></tr><tr><td>4<a name=\"4\"> </a></td><td>Substitution allowed - generic drug not in stock</td><td>added v2.3.1</td></tr><tr><td>5<a name=\"5\"> </a></td><td>Substitution allowed - brand drug dispensed as a generic</td><td>added v2.3.1</td></tr><tr><td>7<a name=\"7\"> </a></td><td>Substitution not allowed - brand drug mandated by law</td><td>added v2.3.1</td></tr><tr><td>8<a name=\"8\"> </a></td><td>Substitution allowed - generic drug not available in marketplace</td><td>added v2.3.1</td></tr><tr><td>G<a name=\"G\"> </a></td><td>A generic substitution was dispensed.</td><td>added v2.2</td></tr><tr><td>N<a name=\"N\"> </a></td><td>No substitute was dispensed.  This is equivalent to the default (null) value.</td><td>added v2.2</td></tr><tr><td>T<a name=\"T\"> </a></td><td>A therapeutic substitution was dispensed.</td><td>added v2.2</td></tr></table>\r\n</div>"
  },
  "url": "http://hl7.org/fhir/ValueSet/v2-0167",
  "version": "2.7",
  "name": "v2 Substitution Status",
  "publisher": "HL7, Inc",
  "contact": [
    {
      "telecom": [
        {
          "system": "url",
          "value": "http://hl7.org"
        }
      ]
    }
  ],
  "description": "FHIR Value set/code system definition for HL7 v2 table 0167 ( Substitution Status)",
  "status": "active",
  "experimental": true,
  "date": "2011-01-28",
  "define": {
    "system": "http://hl7.org/fhir/v2/0167",
    "caseSensitive": true,
    "concept": [
      {
        "code": "0",
        "display": "No product selection indicated"
      },
      {
        "code": "1",
        "display": "Substitution not allowed by prescriber"
      },
      {
        "code": "2",
        "display": "Substitution allowed - patient requested product dispensed"
      },
      {
        "code": "3",
        "display": "Substitution allowed - pharmacist selected product dispensed"
      },
      {
        "code": "4",
        "display": "Substitution allowed - generic drug not in stock"
      },
      {
        "code": "5",
        "display": "Substitution allowed - brand drug dispensed as a generic"
      },
      {
        "code": "7",
        "display": "Substitution not allowed - brand drug mandated by law"
      },
      {
        "code": "8",
        "display": "Substitution allowed - generic drug not available in marketplace"
      },
      {
        "code": "G",
        "display": "A generic substitution was dispensed."
      },
      {
        "code": "N",
        "display": "No substitute was dispensed.  This is equivalent to the default (null) value."
      },
      {
        "code": "T",
        "display": "A therapeutic substitution was dispensed."
      }
    ]
  }
}