{
  "resourceType": "ValueSet",
  "id": "v3-TableCellVerticalAlign",
  "meta": {
    "lastUpdated": "2015-03-23T00:00:00.000+00:00",
    "profile": [
      "http://hl7.org/fhir/StructureDefinition/valueset-shareable-definition"
    ]
  },
  "text": {
    "status": "generated",
    "div": "<div><p>Release Date: 2015-03-23</p>\r\n<p>OID for code system: 2.16.840.1.113883.5.133</p>\r\n<p>OID for value set: 2.16.840.1.113883.1.11.10987 (this is the value set that includes the entire code system)</p>\r\n<h2>Description</h2>\r\n<p>\n                  These values are defined within the XHTML 4.0 Table Model<br/>\r\n\n               </p>\r\n<hr/>\r\n<table class=\"grid\">\r\n <tr><td><b>Level</b></td><td><b>Code</b></td><td><b>Display</b></td><td><b>Definition</b></td></tr>\r\n <tr><td>1</td><td>baseline<a name=\"baseline\"> </a></td><td>baseline</td><td/></tr>\r\n <tr><td>1</td><td>bottom<a name=\"bottom\"> </a></td><td>bottom</td><td/></tr>\r\n <tr><td>1</td><td>middle<a name=\"middle\"> </a></td><td>middle</td><td/></tr>\r\n <tr><td>1</td><td>top<a name=\"top\"> </a></td><td>top</td><td/></tr>\r\n</table>\r\n</div>"
  },
  "extension": [
    {
      "url": "http://hl7.org/fhir/StructureDefinition/valueset-oid",
      "valueUri": "urn:oid:2.16.840.1.113883.1.11.10987"
    }
  ],
  "url": "http://hl7.org/fhir/ValueSet/v3-TableCellVerticalAlign",
  "version": "2015-03-23",
  "name": "v3 Code System TableCellVerticalAlign",
  "publisher": "HL7, Inc",
  "contact": [
    {
      "telecom": [
        {
          "system": "url",
          "value": "http://hl7.org"
        }
      ]
    }
  ],
  "description": " These values are defined within the XHTML 4.0 Table Model",
  "status": "active",
  "experimental": false,
  "date": "2015-03-23",
  "define": {
    "extension": [
      {
        "url": "http://hl7.org/fhir/StructureDefinition/valueset-oid",
        "valueUri": "urn:oid:2.16.840.1.113883.5.133"
      }
    ],
    "system": "http://hl7.org/fhir/v3/TableCellVerticalAlign",
    "caseSensitive": true,
    "concept": [
      {
        "code": "baseline",
        "abstract": false,
        "display": "baseline",
        "definition": "baseline"
      },
      {
        "code": "bottom",
        "abstract": false,
        "display": "bottom",
        "definition": "bottom"
      },
      {
        "code": "middle",
        "abstract": false,
        "display": "middle",
        "definition": "middle"
      },
      {
        "code": "top",
        "abstract": false,
        "display": "top",
        "definition": "top"
      }
    ]
  }
}