{
  "resourceType": "ValueSet",
  "id": "v3-SecurityControlObservationValue",
  "meta": {
    "lastUpdated": "2015-07-14T16:14:24.220+00:00",
    "profile": [
      "http://hl7.org/fhir/StructureDefinition/valueset-shareable-definition"
    ]
  },
  "text": {
    "status": "generated",
    "div": "<div><h2>SecurityControlObservationValue</h2><p> Security observation values used to indicate security control metadata.  V:SecurityControl is the union of V:SecurityPolicy,V:ObligationPolicy, V:RefrainPolicy, V:PurposeOfUse, and V:GeneralPurpose of Use used to populate the SecurityControlObservationValue attribute in order to convey one or more nonhierarchical security control metadata dictating handling caveats, purpose of use, dissemination controls and other refrain policies, and obligations to which a custodian or receiver is required to comply. (OID = 2.16.840.1.113883.1.11.20471)</p><p>This value set includes codes defined in other code systems, using the following rules:</p><ul><li>Import all the codes that are part of <a href=\"../../../v3/vs/SecurityPolicy/index.html\">http://hl7.org/fhir/ValueSet/v3-SecurityPolicy</a></li><li>Import all the codes that are part of <a href=\"../../../v3/vs/ObligationPolicy/index.html\">http://hl7.org/fhir/ValueSet/v3-ObligationPolicy</a></li><li>Import all the codes that are part of <a href=\"../../../v3/vs/RefrainPolicy/index.html\">http://hl7.org/fhir/ValueSet/v3-RefrainPolicy</a></li><li>Import all the codes that are part of <a href=\"../../../v3/vs/PurposeOfUse/index.html\">http://hl7.org/fhir/ValueSet/v3-PurposeOfUse</a></li><li>Import all the codes that are part of <a href=\"../../../v3/vs/GeneralPurposeOfUse/index.html\">http://hl7.org/fhir/ValueSet/v3-GeneralPurposeOfUse</a></li></ul></div>"
  },
  "extension": [
    {
      "url": "http://hl7.org/fhir/StructureDefinition/valueset-oid",
      "valueUri": "urn:oid:2.16.840.1.113883.1.11.20471"
    }
  ],
  "url": "http://hl7.org/fhir/ValueSet/v3-SecurityControlObservationValue",
  "version": "2014-03-26",
  "name": "SecurityControlObservationValue",
  "publisher": "HL7 v3",
  "contact": [
    {
      "telecom": [
        {
          "system": "url",
          "value": "http://www.hl7.org"
        }
      ]
    }
  ],
  "description": " Security observation values used to indicate security control metadata.  V:SecurityControl is the union of V:SecurityPolicy,V:ObligationPolicy, V:RefrainPolicy, V:PurposeOfUse, and V:GeneralPurpose of Use used to populate the SecurityControlObservationValue attribute in order to convey one or more nonhierarchical security control metadata dictating handling caveats, purpose of use, dissemination controls and other refrain policies, and obligations to which a custodian or receiver is required to comply. (OID = 2.16.840.1.113883.1.11.20471)",
  "status": "active",
  "experimental": false,
  "compose": {
    "import": [
      "http://hl7.org/fhir/ValueSet/v3-SecurityPolicy",
      "http://hl7.org/fhir/ValueSet/v3-ObligationPolicy",
      "http://hl7.org/fhir/ValueSet/v3-RefrainPolicy",
      "http://hl7.org/fhir/ValueSet/v3-PurposeOfUse",
      "http://hl7.org/fhir/ValueSet/v3-GeneralPurposeOfUse"
    ]
  }
}