{
  "resourceType": "ValueSet",
  "id": "v2-0185",
  "meta": {
    "profile": [
      "http://hl7.org/fhir/StructureDefinition/valueset-shareable-definition"
    ]
  },
  "text": {
    "status": "additional",
    "div": "<div><p>Preferred Method of Contact</p>\r\n<table class=\"grid\"><tr><td><b>Code</b></td><td><b>Description</b></td><td><b>Version</b></td></tr><tr><td>B<a name=\"B\"> </a></td><td>Beeper Number</td><td>added v2.2</td></tr><tr><td>C<a name=\"C\"> </a></td><td>Cellular Phone Number</td><td>added v2.2</td></tr><tr><td>E<a name=\"E\"> </a></td><td>E-Mail Address (for backward compatibility)</td><td>added v2.2</td></tr><tr><td>F<a name=\"F\"> </a></td><td>FAX Number</td><td>added v2.2</td></tr><tr><td>H<a name=\"H\"> </a></td><td>Home Phone Number</td><td>added v2.2</td></tr><tr><td>M<a name=\"M\"> </a></td><td>Mail</td><td>added v2.3, removed after v2.3</td></tr><tr><td>O<a name=\"O\"> </a></td><td>Office Phone Number</td><td>added v2.2</td></tr></table>\r\n</div>"
  },
  "url": "http://hl7.org/fhir/ValueSet/v2-0185",
  "version": "2.7",
  "name": "v2 Preferred Method of Contact",
  "publisher": "HL7, Inc",
  "contact": [
    {
      "telecom": [
        {
          "system": "url",
          "value": "http://hl7.org"
        }
      ]
    }
  ],
  "description": "FHIR Value set/code system definition for HL7 v2 table 0185 ( Preferred Method of Contact)",
  "status": "active",
  "experimental": true,
  "date": "2011-01-28",
  "define": {
    "system": "http://hl7.org/fhir/v2/0185",
    "caseSensitive": true,
    "concept": [
      {
        "code": "B",
        "display": "Beeper Number"
      },
      {
        "code": "C",
        "display": "Cellular Phone Number"
      },
      {
        "code": "E",
        "display": "E-Mail Address (for backward compatibility)"
      },
      {
        "code": "F",
        "display": "FAX Number"
      },
      {
        "code": "H",
        "display": "Home Phone Number"
      },
      {
        "extension": [
          {
            "url": "http://hl7.org/fhir/StructureDefinition/valueset-deprecated",
            "valueBoolean": true
          }
        ],
        "code": "M",
        "display": "Mail"
      },
      {
        "code": "O",
        "display": "Office Phone Number"
      }
    ]
  }
}