{
  "resourceType": "ValueSet",
  "id": "v2-0048",
  "meta": {
    "profile": [
      "http://hl7.org/fhir/StructureDefinition/valueset-shareable-definition"
    ]
  },
  "text": {
    "status": "additional",
    "div": "<div><p>What subject filter</p>\r\n<table class=\"grid\"><tr><td><b>Code</b></td><td><b>Description</b></td><td><b>Version</b></td></tr><tr><td>ADV<a name=\"ADV\"> </a></td><td>Advice/diagnosis</td><td>from v2.1, removed after v2.6</td></tr><tr><td>ANU<a name=\"ANU\"> </a></td><td>Nursing unit lookup (returns patients in beds, excluding empty beds)</td><td>from v2.1, removed after v2.6</td></tr><tr><td>APA<a name=\"APA\"> </a></td><td>Account number query, return matching visit</td><td>added v2.2, removed after v2.6</td></tr><tr><td>APM<a name=\"APM\"> </a></td><td>Medical record number query, returns visits for a medical record number</td><td>added v2.2, removed after v2.6</td></tr><tr><td>APN<a name=\"APN\"> </a></td><td>Patient name lookup</td><td>from v2.1, removed after v2.6</td></tr><tr><td>APP<a name=\"APP\"> </a></td><td>Physician lookup</td><td>added v2.2, removed after v2.6</td></tr><tr><td>ARN<a name=\"ARN\"> </a></td><td>Nursing unit lookup (returns patients in beds, including empty beds)</td><td>added v2.2, removed after v2.6</td></tr><tr><td>CAN<a name=\"CAN\"> </a></td><td>Cancel.  Used to cancel a query</td><td>from v2.1, removed after v2.6</td></tr><tr><td>DEM<a name=\"DEM\"> </a></td><td>Demographics</td><td>from v2.1, removed after v2.6</td></tr><tr><td>FIN<a name=\"FIN\"> </a></td><td>Financial</td><td>added v2.2, removed after v2.6</td></tr><tr><td>GID<a name=\"GID\"> </a></td><td>Generate new identifier</td><td>added v2.4, removed after v2.6</td></tr><tr><td>GOL<a name=\"GOL\"> </a></td><td>Goals</td><td>added v2.3, removed after v2.6</td></tr><tr><td>MFQ<a name=\"MFQ\"> </a></td><td>Master file query</td><td>added v2.2, removed after v2.2</td></tr><tr><td>MRI<a name=\"MRI\"> </a></td><td>Most recent inpatient</td><td>from v2.1, removed after v2.6</td></tr><tr><td>MRO<a name=\"MRO\"> </a></td><td>Most recent outpatient</td><td>from v2.1, removed after v2.6</td></tr><tr><td>NCK<a name=\"NCK\"> </a></td><td>Network clock</td><td>added v2.2, removed after v2.6</td></tr><tr><td>NSC<a name=\"NSC\"> </a></td><td>Network status change</td><td>added v2.2, removed after v2.6</td></tr><tr><td>NST<a name=\"NST\"> </a></td><td>Network statistic</td><td>added v2.2, removed after v2.6</td></tr><tr><td>ORD<a name=\"ORD\"> </a></td><td>Order</td><td>added v2.2, removed after v2.6</td></tr><tr><td>OTH<a name=\"OTH\"> </a></td><td>Other</td><td>from v2.1, removed after v2.6</td></tr><tr><td>PRB<a name=\"PRB\"> </a></td><td>Problems</td><td>added v2.3, removed after v2.6</td></tr><tr><td>PRO<a name=\"PRO\"> </a></td><td>Procedure</td><td>from v2.1, removed after v2.6</td></tr><tr><td>RAR<a name=\"RAR\"> </a></td><td>Pharmacy administration information</td><td>added v2.2, removed after v2.6</td></tr><tr><td>RDR<a name=\"RDR\"> </a></td><td>Pharmacy dispense information</td><td>added v2.2, removed after v2.6</td></tr><tr><td>RER<a name=\"RER\"> </a></td><td>Pharmacy encoded order information</td><td>added v2.2, removed after v2.6</td></tr><tr><td>RES<a name=\"RES\"> </a></td><td>Result</td><td>from v2.1, removed after v2.6</td></tr><tr><td>RGR<a name=\"RGR\"> </a></td><td>Pharmacy give information</td><td>added v2.2, removed after v2.6</td></tr><tr><td>ROR<a name=\"ROR\"> </a></td><td>Pharmacy prescription information</td><td>added v2.2, removed after v2.6</td></tr><tr><td>SAL<a name=\"SAL\"> </a></td><td>All schedule related information, including open slots, booked slots, blocked slots</td><td>added v2.3.1, removed after v2.6</td></tr><tr><td>SBK<a name=\"SBK\"> </a></td><td>Booked slots on the identified schedule</td><td>added v2.3.1, removed after v2.6</td></tr><tr><td>SBL<a name=\"SBL\"> </a></td><td>Blocked slots on the identified schedule</td><td>added v2.3.1, removed after v2.6</td></tr><tr><td>SOF<a name=\"SOF\"> </a></td><td>First open slot on the identified schedule after the start date/tiem</td><td>added v2.4, removed after v2.6</td></tr><tr><td>SOP<a name=\"SOP\"> </a></td><td>Open slots on the identified schedule between the begin and end of the start date/time range</td><td>added v2.3.1, removed after v2.6</td></tr><tr><td>SSA<a name=\"SSA\"> </a></td><td>Time slots available for a single appointment</td><td>added v2.3.1, removed after v2.6</td></tr><tr><td>SSR<a name=\"SSR\"> </a></td><td>Time slots available for a recurring appointment</td><td>added v2.3.1, removed after v2.6</td></tr><tr><td>STA<a name=\"STA\"> </a></td><td>Status</td><td>from v2.1, removed after v2.6</td></tr><tr><td>VXI<a name=\"VXI\"> </a></td><td>Vaccine Information</td><td>added v2.3, removed after v2.6</td></tr><tr><td>XID<a name=\"XID\"> </a></td><td>Get cross-referenced identifiers</td><td>added v2.4, removed after v2.6</td></tr></table>\r\n</div>"
  },
  "url": "http://hl7.org/fhir/ValueSet/v2-0048",
  "version": "2.7",
  "name": "v2 What subject filter",
  "publisher": "HL7, Inc",
  "contact": [
    {
      "telecom": [
        {
          "system": "url",
          "value": "http://hl7.org"
        }
      ]
    }
  ],
  "description": "FHIR Value set/code system definition for HL7 v2 table 0048 ( What subject filter)",
  "status": "active",
  "experimental": true,
  "date": "2011-01-28",
  "define": {
    "system": "http://hl7.org/fhir/v2/0048",
    "caseSensitive": true,
    "concept": [
      {
        "extension": [
          {
            "url": "http://hl7.org/fhir/StructureDefinition/valueset-deprecated",
            "valueBoolean": true
          }
        ],
        "code": "ADV",
        "display": "Advice/diagnosis"
      },
      {
        "extension": [
          {
            "url": "http://hl7.org/fhir/StructureDefinition/valueset-deprecated",
            "valueBoolean": true
          }
        ],
        "code": "ANU",
        "display": "Nursing unit lookup (returns patients in beds, excluding empty beds)"
      },
      {
        "extension": [
          {
            "url": "http://hl7.org/fhir/StructureDefinition/valueset-deprecated",
            "valueBoolean": true
          }
        ],
        "code": "APA",
        "display": "Account number query, return matching visit"
      },
      {
        "extension": [
          {
            "url": "http://hl7.org/fhir/StructureDefinition/valueset-deprecated",
            "valueBoolean": true
          }
        ],
        "code": "APM",
        "display": "Medical record number query, returns visits for a medical record number"
      },
      {
        "extension": [
          {
            "url": "http://hl7.org/fhir/StructureDefinition/valueset-deprecated",
            "valueBoolean": true
          }
        ],
        "code": "APN",
        "display": "Patient name lookup"
      },
      {
        "extension": [
          {
            "url": "http://hl7.org/fhir/StructureDefinition/valueset-deprecated",
            "valueBoolean": true
          }
        ],
        "code": "APP",
        "display": "Physician lookup"
      },
      {
        "extension": [
          {
            "url": "http://hl7.org/fhir/StructureDefinition/valueset-deprecated",
            "valueBoolean": true
          }
        ],
        "code": "ARN",
        "display": "Nursing unit lookup (returns patients in beds, including empty beds)"
      },
      {
        "extension": [
          {
            "url": "http://hl7.org/fhir/StructureDefinition/valueset-deprecated",
            "valueBoolean": true
          }
        ],
        "code": "CAN",
        "display": "Cancel.  Used to cancel a query"
      },
      {
        "extension": [
          {
            "url": "http://hl7.org/fhir/StructureDefinition/valueset-deprecated",
            "valueBoolean": true
          }
        ],
        "code": "DEM",
        "display": "Demographics"
      },
      {
        "extension": [
          {
            "url": "http://hl7.org/fhir/StructureDefinition/valueset-deprecated",
            "valueBoolean": true
          }
        ],
        "code": "FIN",
        "display": "Financial"
      },
      {
        "extension": [
          {
            "url": "http://hl7.org/fhir/StructureDefinition/valueset-deprecated",
            "valueBoolean": true
          }
        ],
        "code": "GID",
        "display": "Generate new identifier"
      },
      {
        "extension": [
          {
            "url": "http://hl7.org/fhir/StructureDefinition/valueset-deprecated",
            "valueBoolean": true
          }
        ],
        "code": "GOL",
        "display": "Goals"
      },
      {
        "extension": [
          {
            "url": "http://hl7.org/fhir/StructureDefinition/valueset-deprecated",
            "valueBoolean": true
          }
        ],
        "code": "MFQ",
        "display": "Master file query"
      },
      {
        "extension": [
          {
            "url": "http://hl7.org/fhir/StructureDefinition/valueset-deprecated",
            "valueBoolean": true
          }
        ],
        "code": "MRI",
        "display": "Most recent inpatient"
      },
      {
        "extension": [
          {
            "url": "http://hl7.org/fhir/StructureDefinition/valueset-deprecated",
            "valueBoolean": true
          }
        ],
        "code": "MRO",
        "display": "Most recent outpatient"
      },
      {
        "extension": [
          {
            "url": "http://hl7.org/fhir/StructureDefinition/valueset-deprecated",
            "valueBoolean": true
          }
        ],
        "code": "NCK",
        "display": "Network clock"
      },
      {
        "extension": [
          {
            "url": "http://hl7.org/fhir/StructureDefinition/valueset-deprecated",
            "valueBoolean": true
          }
        ],
        "code": "NSC",
        "display": "Network status change"
      },
      {
        "extension": [
          {
            "url": "http://hl7.org/fhir/StructureDefinition/valueset-deprecated",
            "valueBoolean": true
          }
        ],
        "code": "NST",
        "display": "Network statistic"
      },
      {
        "extension": [
          {
            "url": "http://hl7.org/fhir/StructureDefinition/valueset-deprecated",
            "valueBoolean": true
          }
        ],
        "code": "ORD",
        "display": "Order"
      },
      {
        "extension": [
          {
            "url": "http://hl7.org/fhir/StructureDefinition/valueset-deprecated",
            "valueBoolean": true
          }
        ],
        "code": "OTH",
        "display": "Other"
      },
      {
        "extension": [
          {
            "url": "http://hl7.org/fhir/StructureDefinition/valueset-deprecated",
            "valueBoolean": true
          }
        ],
        "code": "PRB",
        "display": "Problems"
      },
      {
        "extension": [
          {
            "url": "http://hl7.org/fhir/StructureDefinition/valueset-deprecated",
            "valueBoolean": true
          }
        ],
        "code": "PRO",
        "display": "Procedure"
      },
      {
        "extension": [
          {
            "url": "http://hl7.org/fhir/StructureDefinition/valueset-deprecated",
            "valueBoolean": true
          }
        ],
        "code": "RAR",
        "display": "Pharmacy administration information"
      },
      {
        "extension": [
          {
            "url": "http://hl7.org/fhir/StructureDefinition/valueset-deprecated",
            "valueBoolean": true
          }
        ],
        "code": "RDR",
        "display": "Pharmacy dispense information"
      },
      {
        "extension": [
          {
            "url": "http://hl7.org/fhir/StructureDefinition/valueset-deprecated",
            "valueBoolean": true
          }
        ],
        "code": "RER",
        "display": "Pharmacy encoded order information"
      },
      {
        "extension": [
          {
            "url": "http://hl7.org/fhir/StructureDefinition/valueset-deprecated",
            "valueBoolean": true
          }
        ],
        "code": "RES",
        "display": "Result"
      },
      {
        "extension": [
          {
            "url": "http://hl7.org/fhir/StructureDefinition/valueset-deprecated",
            "valueBoolean": true
          }
        ],
        "code": "RGR",
        "display": "Pharmacy give information"
      },
      {
        "extension": [
          {
            "url": "http://hl7.org/fhir/StructureDefinition/valueset-deprecated",
            "valueBoolean": true
          }
        ],
        "code": "ROR",
        "display": "Pharmacy prescription information"
      },
      {
        "extension": [
          {
            "url": "http://hl7.org/fhir/StructureDefinition/valueset-deprecated",
            "valueBoolean": true
          }
        ],
        "code": "SAL",
        "display": "All schedule related information, including open slots, booked slots, blocked slots"
      },
      {
        "extension": [
          {
            "url": "http://hl7.org/fhir/StructureDefinition/valueset-deprecated",
            "valueBoolean": true
          }
        ],
        "code": "SBK",
        "display": "Booked slots on the identified schedule"
      },
      {
        "extension": [
          {
            "url": "http://hl7.org/fhir/StructureDefinition/valueset-deprecated",
            "valueBoolean": true
          }
        ],
        "code": "SBL",
        "display": "Blocked slots on the identified schedule"
      },
      {
        "extension": [
          {
            "url": "http://hl7.org/fhir/StructureDefinition/valueset-deprecated",
            "valueBoolean": true
          }
        ],
        "code": "SOF",
        "display": "First open slot on the identified schedule after the start date/tiem"
      },
      {
        "extension": [
          {
            "url": "http://hl7.org/fhir/StructureDefinition/valueset-deprecated",
            "valueBoolean": true
          }
        ],
        "code": "SOP",
        "display": "Open slots on the identified schedule between the begin and end of the start date/time range"
      },
      {
        "extension": [
          {
            "url": "http://hl7.org/fhir/StructureDefinition/valueset-deprecated",
            "valueBoolean": true
          }
        ],
        "code": "SSA",
        "display": "Time slots available for a single appointment"
      },
      {
        "extension": [
          {
            "url": "http://hl7.org/fhir/StructureDefinition/valueset-deprecated",
            "valueBoolean": true
          }
        ],
        "code": "SSR",
        "display": "Time slots available for a recurring appointment"
      },
      {
        "extension": [
          {
            "url": "http://hl7.org/fhir/StructureDefinition/valueset-deprecated",
            "valueBoolean": true
          }
        ],
        "code": "STA",
        "display": "Status"
      },
      {
        "extension": [
          {
            "url": "http://hl7.org/fhir/StructureDefinition/valueset-deprecated",
            "valueBoolean": true
          }
        ],
        "code": "VXI",
        "display": "Vaccine Information"
      },
      {
        "extension": [
          {
            "url": "http://hl7.org/fhir/StructureDefinition/valueset-deprecated",
            "valueBoolean": true
          }
        ],
        "code": "XID",
        "display": "Get cross-referenced identifiers"
      }
    ]
  }
}