{
  "resourceType": "ValueSet",
  "id": "v2-0491",
  "meta": {
    "profile": [
      "http://hl7.org/fhir/StructureDefinition/valueset-shareable-definition"
    ]
  },
  "text": {
    "status": "additional",
    "div": "<div><p>Specimen Quality</p>\r\n<table class=\"grid\"><tr><td><b>Code</b></td><td><b>Description</b></td><td><b>Version</b></td></tr><tr><td>E<a name=\"E\"> </a></td><td>Excellent</td><td>added v2.5</td></tr><tr><td>F<a name=\"F\"> </a></td><td>Fair</td><td>added v2.5</td></tr><tr><td>G<a name=\"G\"> </a></td><td>Good</td><td>added v2.5</td></tr><tr><td>P<a name=\"P\"> </a></td><td>Poor</td><td>added v2.5</td></tr></table>\r\n</div>"
  },
  "url": "http://hl7.org/fhir/ValueSet/v2-0491",
  "version": "2.7",
  "name": "v2 Specimen Quality",
  "publisher": "HL7, Inc",
  "contact": [
    {
      "telecom": [
        {
          "system": "url",
          "value": "http://hl7.org"
        }
      ]
    }
  ],
  "description": "FHIR Value set/code system definition for HL7 v2 table 0491 ( Specimen Quality)",
  "status": "active",
  "experimental": true,
  "date": "2011-01-28",
  "define": {
    "system": "http://hl7.org/fhir/v2/0491",
    "caseSensitive": true,
    "concept": [
      {
        "code": "E",
        "display": "Excellent"
      },
      {
        "code": "F",
        "display": "Fair"
      },
      {
        "code": "G",
        "display": "Good"
      },
      {
        "code": "P",
        "display": "Poor"
      }
    ]
  }
}