{
  "resourceType": "ValueSet",
  "id": "v3-Calendar",
  "meta": {
    "lastUpdated": "2015-03-23T00:00:00.000+00:00",
    "profile": [
      "http://hl7.org/fhir/StructureDefinition/valueset-shareable-definition"
    ]
  },
  "text": {
    "status": "generated",
    "div": "<div><p>Release Date: 2015-03-23</p>\r\n<p>OID for code system: 2.16.840.1.113883.5.1055</p>\r\n<p>OID for value set: 2.16.840.1.113883.1.11.17422 (this is the value set that includes the entire code system)</p>\r\n<table class=\"grid\">\r\n <tr><td><b>Level</b></td><td><b>Code</b></td><td><b>Display</b></td><td><b>Definition</b></td></tr>\r\n <tr><td>1</td><td>GREG<a name=\"GREG\"> </a></td><td>Gregorian</td><td>\n                        The Gregorian calendar is the calendar in effect in most countries of Christian influence since approximately 1582. This calendar superceded the Julian calendar.<br/>\r\n\n                     </td></tr>\r\n</table>\r\n</div>"
  },
  "extension": [
    {
      "url": "http://hl7.org/fhir/StructureDefinition/valueset-oid",
      "valueUri": "urn:oid:2.16.840.1.113883.1.11.17422"
    }
  ],
  "url": "http://hl7.org/fhir/ValueSet/v3-Calendar",
  "version": "2015-03-23",
  "name": "v3 Code System Calendar",
  "publisher": "HL7, Inc",
  "contact": [
    {
      "telecom": [
        {
          "system": "url",
          "value": "http://hl7.org"
        }
      ]
    }
  ],
  "description": "**** MISSING DEFINITIONS ****",
  "status": "active",
  "experimental": false,
  "date": "2015-03-23",
  "define": {
    "extension": [
      {
        "url": "http://hl7.org/fhir/StructureDefinition/valueset-oid",
        "valueUri": "urn:oid:2.16.840.1.113883.5.1055"
      }
    ],
    "system": "http://hl7.org/fhir/v3/Calendar",
    "caseSensitive": true,
    "concept": [
      {
        "code": "GREG",
        "abstract": false,
        "display": "Gregorian",
        "definition": "The Gregorian calendar is the calendar in effect in most countries of Christian influence since approximately 1582. This calendar superceded the Julian calendar."
      }
    ]
  }
}