{
  "resourceType": "ValueSet",
  "id": "v3-ActSite",
  "meta": {
    "lastUpdated": "2015-03-23T00:00:00.000+00:00",
    "profile": [
      "http://hl7.org/fhir/StructureDefinition/valueset-shareable-definition"
    ]
  },
  "text": {
    "status": "generated",
    "div": "<div><p>Release Date: 2015-03-23</p>\r\n<p>OID for code system: 2.16.840.1.113883.5.1052</p>\r\n<h2>Description</h2>\r\n<p>\n                  An anatomical location on an organism which can be the focus of an act.<br/>\r\n\n               </p>\r\n<hr/>\r\n<table class=\"grid\">\r\n <tr><td><b>Level</b></td><td><b>Code</b></td><td><b>Display</b></td><td><b>Definition</b></td></tr>\r\n <tr><td>1</td><td><span style=\"color: grey\"><i>(_HumanActSite)</i></span></td><td><a name=\"_HumanActSite\">&nbsp;</a></td><td>\n                        An anatomical location on a human which can be the focus of an act.<br/>\r\n\n                     </td></tr>\r\n <tr><td>2</td><td>&nbsp;&nbsp;<span style=\"color: grey\"><i>(_HumanSubstanceAdministrationSite)</i></span></td><td><a name=\"_HumanSubstanceAdministrationSite\">&nbsp;</a></td><td>\n                        The set of body locations to or through which a drug product may be administered.<br/>\r\n\n                     </td></tr>\r\n <tr><td>3</td><td>&nbsp;&nbsp;&nbsp;&nbsp;BE<a name=\"BE\"> </a></td><td>bilateral ears</td><td/></tr>\r\n <tr><td>3</td><td>&nbsp;&nbsp;&nbsp;&nbsp;BN<a name=\"BN\"> </a></td><td>bilateral nares</td><td/></tr>\r\n <tr><td>3</td><td>&nbsp;&nbsp;&nbsp;&nbsp;BU<a name=\"BU\"> </a></td><td>buttock</td><td/></tr>\r\n <tr><td>3</td><td>&nbsp;&nbsp;&nbsp;&nbsp;LA<a name=\"LA\"> </a></td><td>left arm</td><td/></tr>\r\n <tr><td>3</td><td>&nbsp;&nbsp;&nbsp;&nbsp;LAC<a name=\"LAC\"> </a></td><td>left anterior chest</td><td/></tr>\r\n <tr><td>3</td><td>&nbsp;&nbsp;&nbsp;&nbsp;LACF<a name=\"LACF\"> </a></td><td>left antecubital fossa</td><td/></tr>\r\n <tr><td>3</td><td>&nbsp;&nbsp;&nbsp;&nbsp;LD<a name=\"LD\"> </a></td><td>left deltoid</td><td/></tr>\r\n <tr><td>3</td><td>&nbsp;&nbsp;&nbsp;&nbsp;LE<a name=\"LE\"> </a></td><td>left ear</td><td/></tr>\r\n <tr><td>3</td><td>&nbsp;&nbsp;&nbsp;&nbsp;LEJ<a name=\"LEJ\"> </a></td><td>left external jugular</td><td/></tr>\r\n <tr><td>3</td><td>&nbsp;&nbsp;&nbsp;&nbsp;LF<a name=\"LF\"> </a></td><td>left foot</td><td/></tr>\r\n <tr><td>3</td><td>&nbsp;&nbsp;&nbsp;&nbsp;LG<a name=\"LG\"> </a></td><td>left gluteus medius</td><td/></tr>\r\n <tr><td>3</td><td>&nbsp;&nbsp;&nbsp;&nbsp;LH<a name=\"LH\"> </a></td><td>left hand</td><td/></tr>\r\n <tr><td>3</td><td>&nbsp;&nbsp;&nbsp;&nbsp;LIJ<a name=\"LIJ\"> </a></td><td>left internal jugular</td><td/></tr>\r\n <tr><td>3</td><td>&nbsp;&nbsp;&nbsp;&nbsp;LLAQ<a name=\"LLAQ\"> </a></td><td>left lower abd quadrant</td><td/></tr>\r\n <tr><td>3</td><td>&nbsp;&nbsp;&nbsp;&nbsp;LLFA<a name=\"LLFA\"> </a></td><td>left lower forearm</td><td/></tr>\r\n <tr><td>3</td><td>&nbsp;&nbsp;&nbsp;&nbsp;LMFA<a name=\"LMFA\"> </a></td><td>left mid forearm</td><td/></tr>\r\n <tr><td>3</td><td>&nbsp;&nbsp;&nbsp;&nbsp;LN<a name=\"LN\"> </a></td><td>left naris</td><td/></tr>\r\n <tr><td>3</td><td>&nbsp;&nbsp;&nbsp;&nbsp;LPC<a name=\"LPC\"> </a></td><td>left posterior chest</td><td/></tr>\r\n <tr><td>3</td><td>&nbsp;&nbsp;&nbsp;&nbsp;LSC<a name=\"LSC\"> </a></td><td>left subclavian</td><td/></tr>\r\n <tr><td>3</td><td>&nbsp;&nbsp;&nbsp;&nbsp;LT<a name=\"LT\"> </a></td><td>left thigh</td><td/></tr>\r\n <tr><td>3</td><td>&nbsp;&nbsp;&nbsp;&nbsp;LUA<a name=\"LUA\"> </a></td><td>left upper arm</td><td/></tr>\r\n <tr><td>3</td><td>&nbsp;&nbsp;&nbsp;&nbsp;LUAQ<a name=\"LUAQ\"> </a></td><td>left upper abd quadrant</td><td/></tr>\r\n <tr><td>3</td><td>&nbsp;&nbsp;&nbsp;&nbsp;LUFA<a name=\"LUFA\"> </a></td><td>left upper forearm</td><td/></tr>\r\n <tr><td>3</td><td>&nbsp;&nbsp;&nbsp;&nbsp;LVG<a name=\"LVG\"> </a></td><td>left ventragluteal</td><td/></tr>\r\n <tr><td>3</td><td>&nbsp;&nbsp;&nbsp;&nbsp;LVL<a name=\"LVL\"> </a></td><td>left vastus lateralis</td><td/></tr>\r\n <tr><td>3</td><td>&nbsp;&nbsp;&nbsp;&nbsp;OD<a name=\"OD\"> </a></td><td>right eye</td><td/></tr>\r\n <tr><td>3</td><td>&nbsp;&nbsp;&nbsp;&nbsp;OS<a name=\"OS\"> </a></td><td>left eye</td><td/></tr>\r\n <tr><td>3</td><td>&nbsp;&nbsp;&nbsp;&nbsp;OU<a name=\"OU\"> </a></td><td>bilateral eyes</td><td/></tr>\r\n <tr><td>3</td><td>&nbsp;&nbsp;&nbsp;&nbsp;PA<a name=\"PA\"> </a></td><td>perianal</td><td/></tr>\r\n <tr><td>3</td><td>&nbsp;&nbsp;&nbsp;&nbsp;PERIN<a name=\"PERIN\"> </a></td><td>perineal</td><td/></tr>\r\n <tr><td>3</td><td>&nbsp;&nbsp;&nbsp;&nbsp;RA<a name=\"RA\"> </a></td><td>right arm</td><td/></tr>\r\n <tr><td>3</td><td>&nbsp;&nbsp;&nbsp;&nbsp;RAC<a name=\"RAC\"> </a></td><td>right anterior chest</td><td/></tr>\r\n <tr><td>3</td><td>&nbsp;&nbsp;&nbsp;&nbsp;RACF<a name=\"RACF\"> </a></td><td>right antecubital fossa</td><td/></tr>\r\n <tr><td>3</td><td>&nbsp;&nbsp;&nbsp;&nbsp;RD<a name=\"RD\"> </a></td><td>right deltoid</td><td/></tr>\r\n <tr><td>3</td><td>&nbsp;&nbsp;&nbsp;&nbsp;RE<a name=\"RE\"> </a></td><td>right ear</td><td/></tr>\r\n <tr><td>3</td><td>&nbsp;&nbsp;&nbsp;&nbsp;REJ<a name=\"REJ\"> </a></td><td>right external jugular</td><td/></tr>\r\n <tr><td>3</td><td>&nbsp;&nbsp;&nbsp;&nbsp;RF<a name=\"RF\"> </a></td><td>right foot</td><td/></tr>\r\n <tr><td>3</td><td>&nbsp;&nbsp;&nbsp;&nbsp;RG<a name=\"RG\"> </a></td><td>right gluteus medius</td><td/></tr>\r\n <tr><td>3</td><td>&nbsp;&nbsp;&nbsp;&nbsp;RH<a name=\"RH\"> </a></td><td>right hand</td><td/></tr>\r\n <tr><td>3</td><td>&nbsp;&nbsp;&nbsp;&nbsp;RIJ<a name=\"RIJ\"> </a></td><td>right internal jugular</td><td/></tr>\r\n <tr><td>3</td><td>&nbsp;&nbsp;&nbsp;&nbsp;RLAQ<a name=\"RLAQ\"> </a></td><td>right lower abd quadrant</td><td/></tr>\r\n <tr><td>3</td><td>&nbsp;&nbsp;&nbsp;&nbsp;RLFA<a name=\"RLFA\"> </a></td><td>right lower forearm</td><td/></tr>\r\n <tr><td>3</td><td>&nbsp;&nbsp;&nbsp;&nbsp;RMFA<a name=\"RMFA\"> </a></td><td>right mid forearm</td><td/></tr>\r\n <tr><td>3</td><td>&nbsp;&nbsp;&nbsp;&nbsp;RN<a name=\"RN\"> </a></td><td>right naris</td><td/></tr>\r\n <tr><td>3</td><td>&nbsp;&nbsp;&nbsp;&nbsp;RPC<a name=\"RPC\"> </a></td><td>right posterior chest</td><td/></tr>\r\n <tr><td>3</td><td>&nbsp;&nbsp;&nbsp;&nbsp;RSC<a name=\"RSC\"> </a></td><td>right subclavian</td><td/></tr>\r\n <tr><td>3</td><td>&nbsp;&nbsp;&nbsp;&nbsp;RT<a name=\"RT\"> </a></td><td>right thigh</td><td/></tr>\r\n <tr><td>3</td><td>&nbsp;&nbsp;&nbsp;&nbsp;RUA<a name=\"RUA\"> </a></td><td>right upper arm</td><td/></tr>\r\n <tr><td>3</td><td>&nbsp;&nbsp;&nbsp;&nbsp;RUAQ<a name=\"RUAQ\"> </a></td><td>right upper abd quadrant</td><td/></tr>\r\n <tr><td>3</td><td>&nbsp;&nbsp;&nbsp;&nbsp;RUFA<a name=\"RUFA\"> </a></td><td>right upper forearm</td><td/></tr>\r\n <tr><td>3</td><td>&nbsp;&nbsp;&nbsp;&nbsp;RVG<a name=\"RVG\"> </a></td><td>right ventragluteal</td><td/></tr>\r\n <tr><td>3</td><td>&nbsp;&nbsp;&nbsp;&nbsp;RVL<a name=\"RVL\"> </a></td><td>right vastus lateralis</td><td/></tr>\r\n</table>\r\n</div>"
  },
  "url": "http://hl7.org/fhir/ValueSet/v3-ActSite",
  "version": "2015-03-23",
  "name": "v3 Code System ActSite",
  "publisher": "HL7, Inc",
  "contact": [
    {
      "telecom": [
        {
          "system": "url",
          "value": "http://hl7.org"
        }
      ]
    }
  ],
  "description": " An anatomical location on an organism which can be the focus of an act.",
  "status": "active",
  "experimental": false,
  "date": "2015-03-23",
  "define": {
    "extension": [
      {
        "url": "http://hl7.org/fhir/StructureDefinition/valueset-oid",
        "valueUri": "urn:oid:2.16.840.1.113883.5.1052"
      }
    ],
    "system": "http://hl7.org/fhir/v3/ActSite",
    "caseSensitive": true,
    "concept": [
      {
        "code": "_HumanActSite",
        "abstract": true,
        "display": "HumanActSite",
        "definition": "An anatomical location on a human which can be the focus of an act.",
        "concept": [
          {
            "code": "_HumanSubstanceAdministrationSite",
            "abstract": true,
            "display": "HumanSubstanceAdministrationSite",
            "definition": "The set of body locations to or through which a drug product may be administered.",
            "concept": [
              {
                "code": "BE",
                "abstract": false,
                "display": "bilateral ears",
                "definition": "bilateral ears"
              },
              {
                "code": "BN",
                "abstract": false,
                "display": "bilateral nares",
                "definition": "bilateral nares"
              },
              {
                "code": "BU",
                "abstract": false,
                "display": "buttock",
                "definition": "buttock"
              },
              {
                "code": "LA",
                "abstract": false,
                "display": "left arm",
                "definition": "left arm"
              },
              {
                "code": "LAC",
                "abstract": false,
                "display": "left anterior chest",
                "definition": "left anterior chest"
              },
              {
                "code": "LACF",
                "abstract": false,
                "display": "left antecubital fossa",
                "definition": "left antecubital fossa"
              },
              {
                "code": "LD",
                "abstract": false,
                "display": "left deltoid",
                "definition": "left deltoid"
              },
              {
                "code": "LE",
                "abstract": false,
                "display": "left ear",
                "definition": "left ear"
              },
              {
                "code": "LEJ",
                "abstract": false,
                "display": "left external jugular",
                "definition": "left external jugular"
              },
              {
                "code": "LF",
                "abstract": false,
                "display": "left foot",
                "definition": "left foot"
              },
              {
                "code": "LG",
                "abstract": false,
                "display": "left gluteus medius",
                "definition": "left gluteus medius"
              },
              {
                "code": "LH",
                "abstract": false,
                "display": "left hand",
                "definition": "left hand"
              },
              {
                "code": "LIJ",
                "abstract": false,
                "display": "left internal jugular",
                "definition": "left internal jugular"
              },
              {
                "code": "LLAQ",
                "abstract": false,
                "display": "left lower abd quadrant",
                "definition": "left lower abd quadrant"
              },
              {
                "code": "LLFA",
                "abstract": false,
                "display": "left lower forearm",
                "definition": "left lower forearm"
              },
              {
                "code": "LMFA",
                "abstract": false,
                "display": "left mid forearm",
                "definition": "left mid forearm"
              },
              {
                "code": "LN",
                "abstract": false,
                "display": "left naris",
                "definition": "left naris"
              },
              {
                "code": "LPC",
                "abstract": false,
                "display": "left posterior chest",
                "definition": "left posterior chest"
              },
              {
                "code": "LSC",
                "abstract": false,
                "display": "left subclavian",
                "definition": "left subclavian"
              },
              {
                "code": "LT",
                "abstract": false,
                "display": "left thigh",
                "definition": "left thigh"
              },
              {
                "code": "LUA",
                "abstract": false,
                "display": "left upper arm",
                "definition": "left upper arm"
              },
              {
                "code": "LUAQ",
                "abstract": false,
                "display": "left upper abd quadrant",
                "definition": "left upper abd quadrant"
              },
              {
                "code": "LUFA",
                "abstract": false,
                "display": "left upper forearm",
                "definition": "left upper forearm"
              },
              {
                "code": "LVG",
                "abstract": false,
                "display": "left ventragluteal",
                "definition": "left ventragluteal"
              },
              {
                "code": "LVL",
                "abstract": false,
                "display": "left vastus lateralis",
                "definition": "left vastus lateralis"
              },
              {
                "code": "OD",
                "abstract": false,
                "display": "right eye",
                "definition": "right eye"
              },
              {
                "code": "OS",
                "abstract": false,
                "display": "left eye",
                "definition": "left eye"
              },
              {
                "code": "OU",
                "abstract": false,
                "display": "bilateral eyes",
                "definition": "bilateral eyes"
              },
              {
                "code": "PA",
                "abstract": false,
                "display": "perianal",
                "definition": "perianal"
              },
              {
                "code": "PERIN",
                "abstract": false,
                "display": "perineal",
                "definition": "perineal"
              },
              {
                "code": "RA",
                "abstract": false,
                "display": "right arm",
                "definition": "right arm"
              },
              {
                "code": "RAC",
                "abstract": false,
                "display": "right anterior chest",
                "definition": "right anterior chest"
              },
              {
                "code": "RACF",
                "abstract": false,
                "display": "right antecubital fossa",
                "definition": "right antecubital fossa"
              },
              {
                "code": "RD",
                "abstract": false,
                "display": "right deltoid",
                "definition": "right deltoid"
              },
              {
                "code": "RE",
                "abstract": false,
                "display": "right ear",
                "definition": "right ear"
              },
              {
                "code": "REJ",
                "abstract": false,
                "display": "right external jugular",
                "definition": "right external jugular"
              },
              {
                "code": "RF",
                "abstract": false,
                "display": "right foot",
                "definition": "right foot"
              },
              {
                "code": "RG",
                "abstract": false,
                "display": "right gluteus medius",
                "definition": "right gluteus medius"
              },
              {
                "code": "RH",
                "abstract": false,
                "display": "right hand",
                "definition": "right hand"
              },
              {
                "code": "RIJ",
                "abstract": false,
                "display": "right internal jugular",
                "definition": "right internal jugular"
              },
              {
                "code": "RLAQ",
                "abstract": false,
                "display": "right lower abd quadrant",
                "definition": "right lower abd quadrant"
              },
              {
                "code": "RLFA",
                "abstract": false,
                "display": "right lower forearm",
                "definition": "right lower forearm"
              },
              {
                "code": "RMFA",
                "abstract": false,
                "display": "right mid forearm",
                "definition": "right mid forearm"
              },
              {
                "code": "RN",
                "abstract": false,
                "display": "right naris",
                "definition": "right naris"
              },
              {
                "code": "RPC",
                "abstract": false,
                "display": "right posterior chest",
                "definition": "right posterior chest"
              },
              {
                "code": "RSC",
                "abstract": false,
                "display": "right subclavian",
                "definition": "right subclavian"
              },
              {
                "code": "RT",
                "abstract": false,
                "display": "right thigh",
                "definition": "right thigh"
              },
              {
                "code": "RUA",
                "abstract": false,
                "display": "right upper arm",
                "definition": "right upper arm"
              },
              {
                "code": "RUAQ",
                "abstract": false,
                "display": "right upper abd quadrant",
                "definition": "right upper abd quadrant"
              },
              {
                "code": "RUFA",
                "abstract": false,
                "display": "right upper forearm",
                "definition": "right upper forearm"
              },
              {
                "code": "RVG",
                "abstract": false,
                "display": "right ventragluteal",
                "definition": "right ventragluteal"
              },
              {
                "code": "RVL",
                "abstract": false,
                "display": "right vastus lateralis",
                "definition": "right vastus lateralis"
              }
            ]
          }
        ]
      }
    ]
  }
}