{
  "resourceType": "ValueSet",
  "id": "v2-0103",
  "meta": {
    "profile": [
      "http://hl7.org/fhir/StructureDefinition/valueset-shareable-definition"
    ]
  },
  "text": {
    "status": "additional",
    "div": "<div><p>Processing ID</p>\r\n<table class=\"grid\"><tr><td><b>Code</b></td><td><b>Description</b></td><td><b>Version</b></td></tr><tr><td>D<a name=\"D\"> </a></td><td>Debugging</td><td>from v2.1</td></tr><tr><td>P<a name=\"P\"> </a></td><td>Production</td><td>from v2.1</td></tr><tr><td>T<a name=\"T\"> </a></td><td>Training</td><td>from v2.1</td></tr></table>\r\n</div>"
  },
  "url": "http://hl7.org/fhir/ValueSet/v2-0103",
  "version": "2.7",
  "name": "v2 Processing ID",
  "publisher": "HL7, Inc",
  "contact": [
    {
      "telecom": [
        {
          "system": "url",
          "value": "http://hl7.org"
        }
      ]
    }
  ],
  "description": "FHIR Value set/code system definition for HL7 v2 table 0103 ( Processing ID)",
  "status": "active",
  "experimental": true,
  "date": "2011-01-28",
  "define": {
    "system": "http://hl7.org/fhir/v2/0103",
    "caseSensitive": true,
    "concept": [
      {
        "code": "D",
        "display": "Debugging"
      },
      {
        "code": "P",
        "display": "Production"
      },
      {
        "code": "T",
        "display": "Training"
      }
    ]
  }
}