{
  "resourceType": "ValueSet",
  "id": "v3-EntityNameUseR2",
  "meta": {
    "lastUpdated": "2015-03-23T00:00:00.000+00:00",
    "profile": [
      "http://hl7.org/fhir/StructureDefinition/valueset-shareable-definition"
    ]
  },
  "text": {
    "status": "generated",
    "div": "<div><p>Release Date: 2015-03-23</p>\r\n<p>OID for code system: 2.16.840.1.113883.5.1120</p>\r\n<p>OID for value set: 2.16.840.1.113883.1.11.20321 (this is the value set that includes the entire code system)</p>\r\n<h2>Description</h2>\r\n<p>\n                  \n                     Description:A set of codes advising a system or user which name in a set of names to select for a given purpose.<br/>\r\n\n               </p>\r\n<hr/>\r\n<table class=\"grid\">\r\n <tr><td><b>Level</b></td><td><b>Code</b></td><td><b>Display</b></td><td><b>Definition</b></td></tr>\r\n <tr><td>1</td><td><span style=\"color: grey\"><i>(Assumed)</i></span></td><td><a name=\"Assumed\">&nbsp;</a></td><td>\n                        \n                           Description:A name that a person has assumed or has been assumed to them. <br/>\r\n\n                     </td></tr>\r\n <tr><td>2</td><td>&nbsp;&nbsp;A<a name=\"A\"> </a></td><td>business name</td><td>\n                        \n                           Description:A name used in a Professional or Business context .  Examples: Continuing to use a maiden name in a professional context, or using a stage performing name (some of these names are also pseudonyms)<br/>\r\n\n                     </td></tr>\r\n <tr><td>2</td><td>&nbsp;&nbsp;ANON<a name=\"ANON\"> </a></td><td>Anonymous</td><td>\n                        \n                           Description:Anonymous assigned name (used to protect a persons identity for privacy reasons)<br/>\r\n\n                     </td></tr>\r\n <tr><td>2</td><td>&nbsp;&nbsp;I<a name=\"I\"> </a></td><td>Indigenous/Tribal</td><td>\n                        \n                           Description:e.g .  Chief Red Cloud<br/>\r\n\n                     </td></tr>\r\n <tr><td>2</td><td>&nbsp;&nbsp;P<a name=\"P\"> </a></td><td>Other/Pseudonym/Alias</td><td>\n                        \n                           Description:A non-official name by which the person is sometimes known.  (This may also be used to record informal names such as a nickname)<br/>\r\n\n                     </td></tr>\r\n <tr><td>2</td><td>&nbsp;&nbsp;R<a name=\"R\"> </a></td><td>religious</td><td>\n                        \n                           Description:A name assumed as part of a religious vocation .  e.g .  Sister Mary Francis, Brother John<br/>\r\n\n                     </td></tr>\r\n <tr><td>1</td><td>C<a name=\"C\"> </a></td><td>customary</td><td>\n                        \n                           Description:Known as/conventional/the one you normally use<br/>\r\n\n                     </td></tr>\r\n <tr><td>1</td><td>M<a name=\"M\"> </a></td><td>maiden name</td><td>\n                        \n                           Description:A name used prior to marriage.Note that marriage naming customs vary greatly around the world.  This name use is for use by applications that collect and store maiden names.  Though the concept of maiden name is often gender specific, the use of this term is not gender specific.  The use of this term does not imply any particular history for a person's name, nor should the maiden name be determined algorithmically<br/>\r\n\n                     </td></tr>\r\n <tr><td>1</td><td><span style=\"color: grey\"><i>(NameRepresentationUse)</i></span></td><td><a name=\"NameRepresentationUse\">&nbsp;</a></td><td>\n                        \n                           Description:Identifies the different representations of a name .  The representation may affect how the name is used .  (E.g .  use of Ideographic for formal communications.) <br/>\r\n\n                     </td></tr>\r\n <tr><td>2</td><td>&nbsp;&nbsp;ABC<a name=\"ABC\"> </a></td><td>alphabetic</td><td>\n                        \n                           Description:Alphabetic transcription of name in latin alphabet (Japanese: romaji)<br/>\r\n\n                     </td></tr>\r\n <tr><td>2</td><td>&nbsp;&nbsp;IDE<a name=\"IDE\"> </a></td><td>ideographic</td><td>\n                        \n                           Description:Ideographic representation of name (e.g., Japanese kanji, Chinese characters)<br/>\r\n\n                     </td></tr>\r\n <tr><td>2</td><td>&nbsp;&nbsp;SYL<a name=\"SYL\"> </a></td><td>syllabic</td><td>\n                        \n                           Description:Syllabic transcription of name (e.g., Japanese kana, Korean hangul)<br/>\r\n\n                     </td></tr>\r\n <tr><td>1</td><td>OLD<a name=\"OLD\"> </a></td><td>no longer in use</td><td>\n                        \n                           Description:This name is no longer in use (note: Names may also carry valid time ranges .  This code is used to cover the situations where it is known that the name is no longer valid, but no particular time range for its use is known)<br/>\r\n\n                     </td></tr>\r\n <tr><td>2</td><td>&nbsp;&nbsp;DN<a name=\"DN\"> </a></td><td>do not use</td><td>\n                        \n                           Description:This name should no longer be used when interacting with the person (i.e .  in addition to no longer being used, the name should not be even mentioned when interacting with the person)Note: applications are not required to compare names labeled &quot;Do Not Use&quot; and other names in order to eliminate name parts that are common between the other name and a name labeled &quot;Do Not Use&quot;.<br/>\r\n\n                     </td></tr>\r\n <tr><td>1</td><td>OR<a name=\"OR\"> </a></td><td>official registry name</td><td>\n                        \n                           Description:The formal name as registered in an official (government) registry, but which name might not be commonly used .  May correspond to the concept of legal name<br/>\r\n\n                     </td></tr>\r\n <tr><td>1</td><td>PHON<a name=\"PHON\"> </a></td><td>phonetic</td><td>\n                        \n                           Description:The name as understood by the data enterer, i.e. a close approximation of a phonetic spelling of the name, not based on a phonetic algorithm.<br/>\r\n\n                     </td></tr>\r\n <tr><td>1</td><td>SRCH<a name=\"SRCH\"> </a></td><td>search</td><td>\n                        \n                           Description:A name intended for use in searching or matching.  This is used when the name is incomplete and contains enough details for search matching, but not enough for other uses.<br/>\r\n\n                     </td></tr>\r\n <tr><td>1</td><td>T<a name=\"T\"> </a></td><td>temporary</td><td>\n                        \n                           Description:A temporary name.  Note that a name valid time can provide more detailed information.  This may also be used for temporary names assigned at birth or in emergency situations.<br/>\r\n\n                     </td></tr>\r\n</table>\r\n</div>"
  },
  "extension": [
    {
      "url": "http://hl7.org/fhir/StructureDefinition/valueset-oid",
      "valueUri": "urn:oid:2.16.840.1.113883.1.11.20321"
    }
  ],
  "url": "http://hl7.org/fhir/ValueSet/v3-EntityNameUseR2",
  "version": "2015-03-23",
  "name": "v3 Code System EntityNameUseR2",
  "publisher": "HL7, Inc",
  "contact": [
    {
      "telecom": [
        {
          "system": "url",
          "value": "http://hl7.org"
        }
      ]
    }
  ],
  "description": "  Description:\r\nA set of codes advising a system or user which name in a set of names to select for a given purpose.",
  "status": "active",
  "experimental": false,
  "date": "2015-03-23",
  "define": {
    "extension": [
      {
        "url": "http://hl7.org/fhir/StructureDefinition/valueset-oid",
        "valueUri": "urn:oid:2.16.840.1.113883.5.1120"
      }
    ],
    "system": "http://hl7.org/fhir/v3/EntityNameUseR2",
    "caseSensitive": true,
    "concept": [
      {
        "code": "Assumed",
        "abstract": true,
        "display": "Assumed",
        "definition": "Description:A name that a person has assumed or has been assumed to them.",
        "concept": [
          {
            "code": "A",
            "abstract": false,
            "display": "business name",
            "definition": "Description:A name used in a Professional or Business context .  Examples: Continuing to use a maiden name in a professional context, or using a stage performing name (some of these names are also pseudonyms)"
          },
          {
            "code": "ANON",
            "abstract": false,
            "display": "Anonymous",
            "definition": "Description:Anonymous assigned name (used to protect a persons identity for privacy reasons)"
          },
          {
            "code": "I",
            "abstract": false,
            "display": "Indigenous/Tribal",
            "definition": "Description:e.g .  Chief Red Cloud"
          },
          {
            "code": "P",
            "abstract": false,
            "display": "Other/Pseudonym/Alias",
            "definition": "Description:A non-official name by which the person is sometimes known.  (This may also be used to record informal names such as a nickname)"
          },
          {
            "code": "R",
            "abstract": false,
            "display": "religious",
            "definition": "Description:A name assumed as part of a religious vocation .  e.g .  Sister Mary Francis, Brother John"
          }
        ]
      },
      {
        "code": "C",
        "abstract": false,
        "display": "customary",
        "definition": "Description:Known as/conventional/the one you normally use"
      },
      {
        "code": "M",
        "abstract": false,
        "display": "maiden name",
        "definition": "Description:A name used prior to marriage.Note that marriage naming customs vary greatly around the world.  This name use is for use by applications that collect and store maiden names.  Though the concept of maiden name is often gender specific, the use of this term is not gender specific.  The use of this term does not imply any particular history for a person's name, nor should the maiden name be determined algorithmically"
      },
      {
        "code": "NameRepresentationUse",
        "abstract": true,
        "display": "NameRepresentationUse",
        "definition": "Description:Identifies the different representations of a name .  The representation may affect how the name is used .  (E.g .  use of Ideographic for formal communications.)",
        "concept": [
          {
            "code": "ABC",
            "abstract": false,
            "display": "alphabetic",
            "definition": "Description:Alphabetic transcription of name in latin alphabet (Japanese: romaji)"
          },
          {
            "code": "IDE",
            "abstract": false,
            "display": "ideographic",
            "definition": "Description:Ideographic representation of name (e.g., Japanese kanji, Chinese characters)"
          },
          {
            "code": "SYL",
            "abstract": false,
            "display": "syllabic",
            "definition": "Description:Syllabic transcription of name (e.g., Japanese kana, Korean hangul)"
          }
        ]
      },
      {
        "code": "OLD",
        "abstract": false,
        "display": "no longer in use",
        "definition": "Description:This name is no longer in use (note: Names may also carry valid time ranges .  This code is used to cover the situations where it is known that the name is no longer valid, but no particular time range for its use is known)",
        "concept": [
          {
            "code": "DN",
            "abstract": false,
            "display": "do not use",
            "definition": "Description:This name should no longer be used when interacting with the person (i.e .  in addition to no longer being used, the name should not be even mentioned when interacting with the person)Note: applications are not required to compare names labeled \"Do Not Use\" and other names in order to eliminate name parts that are common between the other name and a name labeled \"Do Not Use\"."
          }
        ]
      },
      {
        "code": "OR",
        "abstract": false,
        "display": "official registry name",
        "definition": "Description:The formal name as registered in an official (government) registry, but which name might not be commonly used .  May correspond to the concept of legal name"
      },
      {
        "code": "PHON",
        "abstract": false,
        "display": "phonetic",
        "definition": "Description:The name as understood by the data enterer, i.e. a close approximation of a phonetic spelling of the name, not based on a phonetic algorithm."
      },
      {
        "code": "SRCH",
        "abstract": false,
        "display": "search",
        "definition": "Description:A name intended for use in searching or matching.  This is used when the name is incomplete and contains enough details for search matching, but not enough for other uses."
      },
      {
        "code": "T",
        "abstract": false,
        "display": "temporary",
        "definition": "Description:A temporary name.  Note that a name valid time can provide more detailed information.  This may also be used for temporary names assigned at birth or in emergency situations."
      }
    ]
  }
}