{
  "resourceType": "ValueSet",
  "id": "v2-0174",
  "meta": {
    "profile": [
      "http://hl7.org/fhir/StructureDefinition/valueset-shareable-definition"
    ]
  },
  "text": {
    "status": "additional",
    "div": "<div><p>Nature of Service/Test/Observation</p>\r\n<table class=\"grid\"><tr><td><b>Code</b></td><td><b>Description</b></td><td><b>Version</b></td></tr><tr><td>A<a name=\"A\"> </a></td><td>Atomic service/test/observation (test code or treatment code)</td><td>added v2.2</td></tr><tr><td>C<a name=\"C\"> </a></td><td>Single observation calculated via a rule or formula from other independent observations (e.g., Alveolar-arterial ratio, cardiac output)</td><td>added v2.2</td></tr><tr><td>F<a name=\"F\"> </a></td><td>Functional procedure that may consist of one or more interrelated measures (e.g., glucose tolerance test, creatinine clearance), usually done at different times and/or on different specimens</td><td>added v2.2</td></tr><tr><td>P<a name=\"P\"> </a></td><td>Profile or battery consisting of many independent atomic observations (e.g., SMA12, electrolytes), usually done at one instrument on one specimen</td><td>added v2.2</td></tr><tr><td>S<a name=\"S\"> </a></td><td>Superset-a set of batteries or procedures ordered under a single code unit but processed as separate batteries (e.g., routines = CBC, UA, electrolytes)&lt;p&gt;This set indicates that the code being described is used to order multiple service/test/observation b</td><td>added v2.2</td></tr></table>\r\n</div>"
  },
  "url": "http://hl7.org/fhir/ValueSet/v2-0174",
  "version": "2.7",
  "name": "v2 Nature of Service/Test/Observation",
  "publisher": "HL7, Inc",
  "contact": [
    {
      "telecom": [
        {
          "system": "url",
          "value": "http://hl7.org"
        }
      ]
    }
  ],
  "description": "FHIR Value set/code system definition for HL7 v2 table 0174 ( Nature of Service/Test/Observation)",
  "status": "active",
  "experimental": true,
  "date": "2011-01-28",
  "define": {
    "system": "http://hl7.org/fhir/v2/0174",
    "caseSensitive": true,
    "concept": [
      {
        "code": "A",
        "display": "Atomic service/test/observation (test code or treatment code)"
      },
      {
        "code": "C",
        "display": "Single observation calculated via a rule or formula from other independent observations (e.g., Alveolar-arterial ratio, cardiac output)"
      },
      {
        "code": "F",
        "display": "Functional procedure that may consist of one or more interrelated measures (e.g., glucose tolerance test, creatinine clearance), usually done at different times and/or on different specimens"
      },
      {
        "code": "P",
        "display": "Profile or battery consisting of many independent atomic observations (e.g., SMA12, electrolytes), usually done at one instrument on one specimen"
      },
      {
        "code": "S",
        "display": "Superset-a set of batteries or procedures ordered under a single code unit but processed as separate batteries (e.g., routines = CBC, UA, electrolytes)<p>This set indicates that the code being described is used to order multiple service/test/observation b"
      }
    ]
  }
}