{
  "resourceType": "ValueSet",
  "id": "v3-DocumentCompletion",
  "meta": {
    "lastUpdated": "2015-03-23T00:00:00.000+00:00",
    "profile": [
      "http://hl7.org/fhir/StructureDefinition/valueset-shareable-definition"
    ]
  },
  "text": {
    "status": "generated",
    "div": "<div><p>Release Date: 2015-03-23</p>\r\n<p>OID for code system: 2.16.840.1.113883.5.33</p>\r\n<p>OID for value set: 2.16.840.1.113883.1.11.271 (this is the value set that includes the entire code system)</p>\r\n<h2>Description</h2>\r\n<p>\n                  Identifies the current completion state of a clinical document.<br/>\r\n\n               </p>\r\n<hr/>\r\n<table class=\"grid\">\r\n <tr><td><b>Level</b></td><td><b>Code</b></td><td><b>Display</b></td><td><b>Definition</b></td></tr>\r\n <tr><td>1</td><td>AU<a name=\"AU\"> </a></td><td>authenticated</td><td>\n                        A completion status in which a document has been signed manually or electronically by one or more individuals who attest to its accuracy.  No explicit determination is made that the assigned individual has performed the authentication.  While the standard allows multiple instances of authentication, it would be typical to have a single instance of authentication, usually by the assigned individual.<br/>\r\n\n                     </td></tr>\r\n <tr><td>1</td><td>DI<a name=\"DI\"> </a></td><td>dictated</td><td>\n                        A completion status in which information has been orally recorded but not yet transcribed.<br/>\r\n\n                     </td></tr>\r\n <tr><td>1</td><td>DO<a name=\"DO\"> </a></td><td>documented</td><td>\n                        A completion status in which document content, other than dictation, has been received but has not been translated into the final electronic format.  Examples include paper documents, whether hand-written or typewritten, and intermediate electronic forms, such as voice to text.<br/>\r\n\n                     </td></tr>\r\n <tr><td>1</td><td>IN<a name=\"IN\"> </a></td><td>incomplete</td><td>\n                        A completion status in which information is known to be missing from a transcribed document.<br/>\r\n\n                     </td></tr>\r\n <tr><td>1</td><td>IP<a name=\"IP\"> </a></td><td>in progress</td><td>\n                        A workflow status where the material has been assigned to personnel to perform the task of transcription. The document remains in this state until the document is transcribed.<br/>\r\n\n                     </td></tr>\r\n <tr><td>1</td><td>LA<a name=\"LA\"> </a></td><td>legally authenticated</td><td>\n                        A completion status in which a document has been signed manually or electronically by the individual who is legally responsible for that document. This is the most mature state in the workflow progression.<br/>\r\n\n                     </td></tr>\r\n <tr><td>1</td><td>NU<a name=\"NU\"> </a></td><td>nullified document</td><td>\n                        A completion status in which a document was created in error or was placed in the wrong chart. The document is no longer available.<br/>\r\n\n                     </td></tr>\r\n <tr><td>1</td><td>PA<a name=\"PA\"> </a></td><td>pre-authenticated</td><td>\n                        A completion status in which a document is transcribed but not authenticated.<br/>\r\n\n                     </td></tr>\r\n <tr><td>1</td><td>UC<a name=\"UC\"> </a></td><td>unsigned completed document</td><td>\n                        A completion status where the document is complete and there is no expectation that the document will be signed.<br/>\r\n\n                     </td></tr>\r\n</table>\r\n</div>"
  },
  "extension": [
    {
      "url": "http://hl7.org/fhir/StructureDefinition/valueset-oid",
      "valueUri": "urn:oid:2.16.840.1.113883.1.11.271"
    }
  ],
  "url": "http://hl7.org/fhir/ValueSet/v3-DocumentCompletion",
  "version": "2015-03-23",
  "name": "v3 Code System DocumentCompletion",
  "publisher": "HL7, Inc",
  "contact": [
    {
      "telecom": [
        {
          "system": "url",
          "value": "http://hl7.org"
        }
      ]
    }
  ],
  "description": " Identifies the current completion state of a clinical document.",
  "status": "active",
  "experimental": false,
  "date": "2015-03-23",
  "define": {
    "extension": [
      {
        "url": "http://hl7.org/fhir/StructureDefinition/valueset-oid",
        "valueUri": "urn:oid:2.16.840.1.113883.5.33"
      }
    ],
    "system": "http://hl7.org/fhir/v3/DocumentCompletion",
    "caseSensitive": true,
    "concept": [
      {
        "code": "AU",
        "abstract": false,
        "display": "authenticated",
        "definition": "A completion status in which a document has been signed manually or electronically by one or more individuals who attest to its accuracy.  No explicit determination is made that the assigned individual has performed the authentication.  While the standard allows multiple instances of authentication, it would be typical to have a single instance of authentication, usually by the assigned individual."
      },
      {
        "code": "DI",
        "abstract": false,
        "display": "dictated",
        "definition": "A completion status in which information has been orally recorded but not yet transcribed."
      },
      {
        "code": "DO",
        "abstract": false,
        "display": "documented",
        "definition": "A completion status in which document content, other than dictation, has been received but has not been translated into the final electronic format.  Examples include paper documents, whether hand-written or typewritten, and intermediate electronic forms, such as voice to text."
      },
      {
        "code": "IN",
        "abstract": false,
        "display": "incomplete",
        "definition": "A completion status in which information is known to be missing from a transcribed document."
      },
      {
        "code": "IP",
        "abstract": false,
        "display": "in progress",
        "definition": "A workflow status where the material has been assigned to personnel to perform the task of transcription. The document remains in this state until the document is transcribed."
      },
      {
        "code": "LA",
        "abstract": false,
        "display": "legally authenticated",
        "definition": "A completion status in which a document has been signed manually or electronically by the individual who is legally responsible for that document. This is the most mature state in the workflow progression."
      },
      {
        "code": "NU",
        "abstract": false,
        "display": "nullified document",
        "definition": "A completion status in which a document was created in error or was placed in the wrong chart. The document is no longer available."
      },
      {
        "code": "PA",
        "abstract": false,
        "display": "pre-authenticated",
        "definition": "A completion status in which a document is transcribed but not authenticated."
      },
      {
        "code": "UC",
        "abstract": false,
        "display": "unsigned completed document",
        "definition": "A completion status where the document is complete and there is no expectation that the document will be signed."
      }
    ]
  }
}