{
  "resourceType": "ValueSet",
  "id": "v2-0243",
  "meta": {
    "profile": [
      "http://hl7.org/fhir/StructureDefinition/valueset-shareable-definition"
    ]
  },
  "text": {
    "status": "additional",
    "div": "<div><p>Identity May Be Divulged</p>\r\n<table class=\"grid\"><tr><td><b>Code</b></td><td><b>Description</b></td><td><b>Version</b></td></tr><tr><td>N<a name=\"N\"> </a></td><td>No</td><td>added v2.3</td></tr><tr><td>NA<a name=\"NA\"> </a></td><td>Not applicable</td><td>added v2.3</td></tr><tr><td>Y<a name=\"Y\"> </a></td><td>Yes</td><td>added v2.3</td></tr></table>\r\n</div>"
  },
  "url": "http://hl7.org/fhir/ValueSet/v2-0243",
  "version": "2.7",
  "name": "v2 Identity May Be Divulged",
  "publisher": "HL7, Inc",
  "contact": [
    {
      "telecom": [
        {
          "system": "url",
          "value": "http://hl7.org"
        }
      ]
    }
  ],
  "description": "FHIR Value set/code system definition for HL7 v2 table 0243 ( Identity May Be Divulged)",
  "status": "active",
  "experimental": true,
  "date": "2011-01-28",
  "define": {
    "system": "http://hl7.org/fhir/v2/0243",
    "caseSensitive": true,
    "concept": [
      {
        "code": "N",
        "display": "No"
      },
      {
        "code": "NA",
        "display": "Not applicable"
      },
      {
        "code": "Y",
        "display": "Yes"
      }
    ]
  }
}