{
  "resourceType": "ValueSet",
  "id": "v3-ActRelationshipSubset",
  "meta": {
    "lastUpdated": "2015-03-23T00:00:00.000+00:00",
    "profile": [
      "http://hl7.org/fhir/StructureDefinition/valueset-shareable-definition"
    ]
  },
  "text": {
    "status": "generated",
    "div": "<div><p>Release Date: 2015-03-23</p>\r\n<p>OID for code system: 2.16.840.1.113883.5.1099</p>\r\n<p>OID for value set: 2.16.840.1.113883.1.11.19613 (this is the value set that includes the entire code system)</p>\r\n<h2>Description</h2>\r\n<p>\n                  &lt;ns1:p&gt;Used to indicate that the target of the relationship will be a filtered subset of the total related set of targets.&lt;/ns1:p&gt;&lt;ns1:p&gt;Used when there is a need to limit the number of components to the first, the last, the next, the total, the average or some other filtered or calculated subset.&lt;/ns1:p&gt;<br/>\r\n\n               </p>\r\n<hr/>\r\n<table class=\"grid\">\r\n <tr><td><b>Level</b></td><td><b>Code</b></td><td><b>Display</b></td><td><b>Definition</b></td></tr>\r\n <tr><td>1</td><td><span style=\"color: grey\"><i>(_ParticipationSubset)</i></span></td><td><a name=\"_ParticipationSubset\">&nbsp;</a></td><td>\n                        Used to indicate that the participation is a filtered subset of the total participations of the same type owned by the Act. <br/>\r\n\n                        Used when there is a need to limit the participations to the first, the last, the next or some other filtered subset.<br/>\r\n\n                     </td></tr>\r\n <tr><td>2</td><td>&nbsp;&nbsp;FUTURE<a name=\"FUTURE\"> </a></td><td>expected future</td><td>\n                        An occurrence that is scheduled to occur in the future. An Act whose effective time is greater than 'now', where 'now' is the time the instance is authored.<br/>\r\n\n                     </td></tr>\r\n <tr><td>3</td><td>&nbsp;&nbsp;&nbsp;&nbsp;FUTSUM<a name=\"FUTSUM\"> </a></td><td>future summary</td><td>\n                        Represents a 'summary' of all acts that are scheduled to occur in the future (whose effective time is greater than 'now' where is the time the instance is authored.). The effectiveTime represents the outer boundary of all occurrences, repeatNumber represents the total number of repetitions, etc.<br/>\r\n\n                     </td></tr>\r\n <tr><td>3</td><td>&nbsp;&nbsp;&nbsp;&nbsp;LAST<a name=\"LAST\"> </a></td><td>expected last</td><td>\n                        Restricted to the latest known occurrence that is scheduled to occur. The Act with the highest known effective time.<br/>\r\n\n                     </td></tr>\r\n <tr><td>3</td><td>&nbsp;&nbsp;&nbsp;&nbsp;NEXT<a name=\"NEXT\"> </a></td><td>expected next</td><td>\n                        Restricted to the nearest recent known occurrence scheduled to occur in the future. The Act with the lowest effective time, still greater than 'now'. ('now' is the time the instance is authored.)<br/>\r\n\n                     </td></tr>\r\n <tr><td>2</td><td>&nbsp;&nbsp;PAST<a name=\"PAST\"> </a></td><td>previous</td><td>\n                        An occurrence that occurred or was scheduled to occur in the past. An Act whose effective time is less than 'now'. ('now' is the time the instance is authored.)<br/>\r\n\n                     </td></tr>\r\n <tr><td>3</td><td>&nbsp;&nbsp;&nbsp;&nbsp;FIRST<a name=\"FIRST\"> </a></td><td>first known</td><td>\n                        Restricted to the earliest known occurrence that occurred or was scheduled to occur in the past. The Act with the lowest effective time. ('now' is the time the instance is authored.)<br/>\r\n\n                     </td></tr>\r\n <tr><td>3</td><td>&nbsp;&nbsp;&nbsp;&nbsp;PREVSUM<a name=\"PREVSUM\"> </a></td><td>previous summary</td><td>\n                        Represents a 'summary' of all acts that previously occurred or were scheduled to occur. The effectiveTime represents the outer boundary of all occurrences, repeatNumber represents the total number of repetitions, etc. ('now' is the time the instance is authored.)<br/>\r\n\n                     </td></tr>\r\n <tr><td>3</td><td>&nbsp;&nbsp;&nbsp;&nbsp;RECENT<a name=\"RECENT\"> </a></td><td>most recent</td><td>\n                        Restricted to the most recent known occurrence that occurred or was scheduled to occur in the past. The Act with the most recent effective time, still less than 'now'. ('now' is the time the instance is authored.)<br/>\r\n\n                     </td></tr>\r\n <tr><td>2</td><td>&nbsp;&nbsp;SUM<a name=\"SUM\"> </a></td><td>summary</td><td>\n                        Represents a 'summary' of all acts that have occurred or were scheduled to occur and which are scheduled to occur in the future. The effectiveTime represents the outer boundary of all occurrences, repeatNumber represents the total number of repetitions, etc.<br/>\r\n\n                     </td></tr>\r\n <tr><td>1</td><td>ActRelationshipExpectedSubset<a name=\"ActRelationshipExpectedSubset\"> </a></td><td>ActRelationshipExpectedSubset</td><td/></tr>\r\n <tr><td>1</td><td>ActRelationshipPastSubset<a name=\"ActRelationshipPastSubset\"> </a></td><td>ActRelationshipPastSubset</td><td/></tr>\r\n <tr><td>1</td><td>MAX<a name=\"MAX\"> </a></td><td>maximum</td><td>\n                        The occurrence whose value attribute is greater than all other occurrences at the time the instance is created.<br/>\r\n\n                     </td></tr>\r\n <tr><td>1</td><td>MIN<a name=\"MIN\"> </a></td><td>minimum</td><td>\n                        The occurrence whose value attribute is less than all other occurrences at the time the instance is created.<br/>\r\n\n                     </td></tr>\r\n</table>\r\n</div>"
  },
  "extension": [
    {
      "url": "http://hl7.org/fhir/StructureDefinition/valueset-oid",
      "valueUri": "urn:oid:2.16.840.1.113883.1.11.19613"
    }
  ],
  "url": "http://hl7.org/fhir/ValueSet/v3-ActRelationshipSubset",
  "version": "2015-03-23",
  "name": "v3 Code System ActRelationshipSubset",
  "publisher": "HL7, Inc",
  "contact": [
    {
      "telecom": [
        {
          "system": "url",
          "value": "http://hl7.org"
        }
      ]
    }
  ],
  "description": " <ns1:p>Used to indicate that the target of the relationship will be a filtered subset of the total related set of targets.</ns1:p><ns1:p>Used when there is a need to limit the number of components to the first, the last, the next, the total, the average or some other filtered or calculated subset.</ns1:p>",
  "status": "active",
  "experimental": false,
  "date": "2015-03-23",
  "define": {
    "extension": [
      {
        "url": "http://hl7.org/fhir/StructureDefinition/valueset-oid",
        "valueUri": "urn:oid:2.16.840.1.113883.5.1099"
      }
    ],
    "system": "http://hl7.org/fhir/v3/ActRelationshipSubset",
    "caseSensitive": true,
    "concept": [
      {
        "code": "_ParticipationSubset",
        "abstract": true,
        "display": "ParticipationSubset",
        "definition": "Used to indicate that the participation is a filtered subset of the total participations of the same type owned by the Act. \r\n\n                        Used when there is a need to limit the participations to the first, the last, the next or some other filtered subset.",
        "concept": [
          {
            "code": "FUTURE",
            "abstract": false,
            "display": "expected future",
            "definition": "An occurrence that is scheduled to occur in the future. An Act whose effective time is greater than 'now', where 'now' is the time the instance is authored.",
            "concept": [
              {
                "code": "FUTSUM",
                "abstract": false,
                "display": "future summary",
                "definition": "Represents a 'summary' of all acts that are scheduled to occur in the future (whose effective time is greater than 'now' where is the time the instance is authored.). The effectiveTime represents the outer boundary of all occurrences, repeatNumber represents the total number of repetitions, etc."
              },
              {
                "code": "LAST",
                "abstract": false,
                "display": "expected last",
                "definition": "Restricted to the latest known occurrence that is scheduled to occur. The Act with the highest known effective time."
              },
              {
                "code": "NEXT",
                "abstract": false,
                "display": "expected next",
                "definition": "Restricted to the nearest recent known occurrence scheduled to occur in the future. The Act with the lowest effective time, still greater than 'now'. ('now' is the time the instance is authored.)"
              }
            ]
          },
          {
            "code": "PAST",
            "abstract": false,
            "display": "previous",
            "definition": "An occurrence that occurred or was scheduled to occur in the past. An Act whose effective time is less than 'now'. ('now' is the time the instance is authored.)",
            "concept": [
              {
                "code": "FIRST",
                "abstract": false,
                "display": "first known",
                "definition": "Restricted to the earliest known occurrence that occurred or was scheduled to occur in the past. The Act with the lowest effective time. ('now' is the time the instance is authored.)"
              },
              {
                "code": "PREVSUM",
                "abstract": false,
                "display": "previous summary",
                "definition": "Represents a 'summary' of all acts that previously occurred or were scheduled to occur. The effectiveTime represents the outer boundary of all occurrences, repeatNumber represents the total number of repetitions, etc. ('now' is the time the instance is authored.)"
              },
              {
                "code": "RECENT",
                "abstract": false,
                "display": "most recent",
                "definition": "Restricted to the most recent known occurrence that occurred or was scheduled to occur in the past. The Act with the most recent effective time, still less than 'now'. ('now' is the time the instance is authored.)"
              }
            ]
          },
          {
            "code": "SUM",
            "abstract": false,
            "display": "summary",
            "definition": "Represents a 'summary' of all acts that have occurred or were scheduled to occur and which are scheduled to occur in the future. The effectiveTime represents the outer boundary of all occurrences, repeatNumber represents the total number of repetitions, etc."
          }
        ]
      },
      {
        "code": "ActRelationshipExpectedSubset",
        "abstract": false,
        "display": "ActRelationshipExpectedSubset",
        "definition": "ActRelationshipExpectedSubset"
      },
      {
        "code": "ActRelationshipPastSubset",
        "abstract": false,
        "display": "ActRelationshipPastSubset",
        "definition": "ActRelationshipPastSubset"
      },
      {
        "code": "MAX",
        "abstract": false,
        "display": "maximum",
        "definition": "The occurrence whose value attribute is greater than all other occurrences at the time the instance is created."
      },
      {
        "code": "MIN",
        "abstract": false,
        "display": "minimum",
        "definition": "The occurrence whose value attribute is less than all other occurrences at the time the instance is created."
      }
    ]
  }
}