{
  "resourceType": "ValueSet",
  "id": "v2-0489",
  "meta": {
    "profile": [
      "http://hl7.org/fhir/StructureDefinition/valueset-shareable-definition"
    ]
  },
  "text": {
    "status": "additional",
    "div": "<div><p>Risk Codes</p>\r\n<table class=\"grid\"><tr><td><b>Code</b></td><td><b>Description</b></td><td><b>Version</b></td></tr><tr><td>AGG<a name=\"AGG\"> </a></td><td>Aggressive</td><td>added v2.5</td></tr><tr><td>BHZ<a name=\"BHZ\"> </a></td><td>Biohazard</td><td>added v2.5</td></tr><tr><td>BIO<a name=\"BIO\"> </a></td><td>Biological</td><td>added v2.5</td></tr><tr><td>COR<a name=\"COR\"> </a></td><td>Corrosive</td><td>added v2.5</td></tr><tr><td>ESC<a name=\"ESC\"> </a></td><td>Escape Risk</td><td>added v2.5</td></tr><tr><td>EXP<a name=\"EXP\"> </a></td><td>Explosive</td><td>added v2.5</td></tr><tr><td>IFL<a name=\"IFL\"> </a></td><td>MaterialDangerInflammable</td><td>added v2.5</td></tr><tr><td>INF<a name=\"INF\"> </a></td><td>MaterialDangerInfectious</td><td>added v2.5</td></tr><tr><td>INJ<a name=\"INJ\"> </a></td><td>Injury Hazard</td><td>added v2.5</td></tr><tr><td>POI<a name=\"POI\"> </a></td><td>Poison</td><td>added v2.5</td></tr><tr><td>RAD<a name=\"RAD\"> </a></td><td>Radioactive</td><td>added v2.5</td></tr></table>\r\n</div>"
  },
  "url": "http://hl7.org/fhir/ValueSet/v2-0489",
  "version": "2.7",
  "name": "v2 Risk Codes",
  "publisher": "HL7, Inc",
  "contact": [
    {
      "telecom": [
        {
          "system": "url",
          "value": "http://hl7.org"
        }
      ]
    }
  ],
  "description": "FHIR Value set/code system definition for HL7 v2 table 0489 ( Risk Codes)",
  "status": "active",
  "experimental": true,
  "date": "2011-01-28",
  "define": {
    "system": "http://hl7.org/fhir/v2/0489",
    "caseSensitive": true,
    "concept": [
      {
        "code": "AGG",
        "display": "Aggressive"
      },
      {
        "code": "BHZ",
        "display": "Biohazard"
      },
      {
        "code": "BIO",
        "display": "Biological"
      },
      {
        "code": "COR",
        "display": "Corrosive"
      },
      {
        "code": "ESC",
        "display": "Escape Risk"
      },
      {
        "code": "EXP",
        "display": "Explosive"
      },
      {
        "code": "IFL",
        "display": "MaterialDangerInflammable"
      },
      {
        "code": "INF",
        "display": "MaterialDangerInfectious"
      },
      {
        "code": "INJ",
        "display": "Injury Hazard"
      },
      {
        "code": "POI",
        "display": "Poison"
      },
      {
        "code": "RAD",
        "display": "Radioactive"
      }
    ]
  }
}