{
  "resourceType": "ValueSet",
  "id": "v3-RoleLinkType",
  "meta": {
    "lastUpdated": "2015-03-23T00:00:00.000+00:00",
    "profile": [
      "http://hl7.org/fhir/StructureDefinition/valueset-shareable-definition"
    ]
  },
  "text": {
    "status": "generated",
    "div": "<div><p>Release Date: 2015-03-23</p>\r\n<p>OID for code system: 2.16.840.1.113883.5.107</p>\r\n<p>OID for value set: 2.16.840.1.113883.1.11.11603 (this is the value set that includes the entire code system)</p>\r\n<table class=\"grid\">\r\n <tr><td><b>Level</b></td><td><b>Code</b></td><td><b>Display</b></td><td><b>Definition</b></td></tr>\r\n <tr><td>1</td><td>REL<a name=\"REL\"> </a></td><td>related</td><td>\n                        An action taken with respect to a subject Entity by a regulatory or authoritative body with supervisory capacity over that entity. The action is taken in response to behavior by the subject Entity that body finds to be undesirable.<br/>\r\n\n                        Suspension, license restrictions, monetary fine, letter of reprimand, mandated training, mandated supervision, etc.Examples:\n                        <br/>\r\n\n                     </td></tr>\r\n <tr><td>2</td><td>&nbsp;&nbsp;BACKUP<a name=\"BACKUP\"> </a></td><td>is backup for</td><td>\n                        This relationship indicates the source Role is available to the target Role as a backup. An entity in a backup role will be available as a substitute or replacement in the event that the entity assigned the role is unavailable. In medical roles where it is critical that the function be performed and there is a possibility that the individual assigned may be ill or otherwise indisposed, another individual is assigned to cover for the individual originally assigned the role. A backup may be required to be identified, but unless the backup is actually used, he/she would not assume the assigned entity role.<br/>\r\n\n                     </td></tr>\r\n <tr><td>2</td><td>&nbsp;&nbsp;CONT<a name=\"CONT\"> </a></td><td>has contact</td><td>This relationship indicates the target Role provides or receives information regarding the target role.  For example, AssignedEntity is a contact for a ServiceDeliveryLocation.</td></tr>\r\n <tr><td>2</td><td>&nbsp;&nbsp;DIRAUTH<a name=\"DIRAUTH\"> </a></td><td>has direct authority over</td><td>\n                        The source Role has direct authority over the target role in a chain of authority.<br/>\r\n\n                     </td></tr>\r\n <tr><td>2</td><td>&nbsp;&nbsp;IDENT<a name=\"IDENT\"> </a></td><td>Identification</td><td>\n                        \n                           Description: The source role provides identification for the target role. The source role must be IDENT. The player entity of the source role is constrained to be the same as (i.e. the equivalent of, or equal to) the player of the target role if present. If the player is absent from the source role, then it is assumed to be the same as the player of the target role.<br/>\r\n\n                     </td></tr>\r\n <tr><td>2</td><td>&nbsp;&nbsp;INDAUTH<a name=\"INDAUTH\"> </a></td><td>has indirect authority over</td><td>\n                        The source Role has indirect authority over the target role in a chain of authority.<br/>\r\n\n                     </td></tr>\r\n <tr><td>2</td><td>&nbsp;&nbsp;PART<a name=\"PART\"> </a></td><td>has part</td><td>\n                        The target Role is part of the Source Role.<br/>\r\n\n                     </td></tr>\r\n <tr><td>2</td><td>&nbsp;&nbsp;REPL<a name=\"REPL\"> </a></td><td>replaces</td><td>\n                        This relationship indicates that the source Role replaces (or subsumes) the target Role.  Allows for new identifiers and/or new effective time for a registry entry or a certification, etc.<br/>\r\n\n                     </td></tr>\r\n</table>\r\n</div>"
  },
  "extension": [
    {
      "url": "http://hl7.org/fhir/StructureDefinition/valueset-oid",
      "valueUri": "urn:oid:2.16.840.1.113883.1.11.11603"
    }
  ],
  "url": "http://hl7.org/fhir/ValueSet/v3-RoleLinkType",
  "version": "2015-03-23",
  "name": "v3 Code System RoleLinkType",
  "publisher": "HL7, Inc",
  "contact": [
    {
      "telecom": [
        {
          "system": "url",
          "value": "http://hl7.org"
        }
      ]
    }
  ],
  "description": "**** MISSING DEFINITIONS ****",
  "status": "active",
  "experimental": false,
  "date": "2015-03-23",
  "define": {
    "extension": [
      {
        "url": "http://hl7.org/fhir/StructureDefinition/valueset-oid",
        "valueUri": "urn:oid:2.16.840.1.113883.5.107"
      }
    ],
    "system": "http://hl7.org/fhir/v3/RoleLinkType",
    "caseSensitive": true,
    "concept": [
      {
        "code": "REL",
        "abstract": false,
        "display": "related",
        "definition": "An action taken with respect to a subject Entity by a regulatory or authoritative body with supervisory capacity over that entity. The action is taken in response to behavior by the subject Entity that body finds to be undesirable.\r\n\n                        Suspension, license restrictions, monetary fine, letter of reprimand, mandated training, mandated supervision, etc.Examples:",
        "concept": [
          {
            "code": "BACKUP",
            "abstract": false,
            "display": "is backup for",
            "definition": "This relationship indicates the source Role is available to the target Role as a backup. An entity in a backup role will be available as a substitute or replacement in the event that the entity assigned the role is unavailable. In medical roles where it is critical that the function be performed and there is a possibility that the individual assigned may be ill or otherwise indisposed, another individual is assigned to cover for the individual originally assigned the role. A backup may be required to be identified, but unless the backup is actually used, he/she would not assume the assigned entity role."
          },
          {
            "code": "CONT",
            "abstract": false,
            "display": "has contact",
            "definition": "This relationship indicates the target Role provides or receives information regarding the target role.  For example, AssignedEntity is a contact for a ServiceDeliveryLocation."
          },
          {
            "code": "DIRAUTH",
            "abstract": false,
            "display": "has direct authority over",
            "definition": "The source Role has direct authority over the target role in a chain of authority."
          },
          {
            "code": "IDENT",
            "abstract": false,
            "display": "Identification",
            "definition": "Description: The source role provides identification for the target role. The source role must be IDENT. The player entity of the source role is constrained to be the same as (i.e. the equivalent of, or equal to) the player of the target role if present. If the player is absent from the source role, then it is assumed to be the same as the player of the target role."
          },
          {
            "code": "INDAUTH",
            "abstract": false,
            "display": "has indirect authority over",
            "definition": "The source Role has indirect authority over the target role in a chain of authority."
          },
          {
            "code": "PART",
            "abstract": false,
            "display": "has part",
            "definition": "The target Role is part of the Source Role."
          },
          {
            "code": "REPL",
            "abstract": false,
            "display": "replaces",
            "definition": "This relationship indicates that the source Role replaces (or subsumes) the target Role.  Allows for new identifiers and/or new effective time for a registry entry or a certification, etc."
          }
        ]
      }
    ]
  }
}