{
  "resourceType": "ValueSet",
  "id": "v3-LanguageAbilityProficiency",
  "meta": {
    "lastUpdated": "2015-03-23T00:00:00.000+00:00",
    "profile": [
      "http://hl7.org/fhir/StructureDefinition/valueset-shareable-definition"
    ]
  },
  "text": {
    "status": "generated",
    "div": "<div><p>Release Date: 2015-03-23</p>\r\n<p>OID for code system: 2.16.840.1.113883.5.61</p>\r\n<p>OID for value set: 2.16.840.1.113883.1.11.12199 (this is the value set that includes the entire code system)</p>\r\n<h2>Description</h2>\r\n<p>\n                  A value representing the level of proficiency in a language.<br/>\r\n\n                  \n                     Example:Excellent, good, fair, poor.<br/>\r\n\n                  \n                     OpenIssue: Description copied from Concept Domain of same name.  Must be verified.<br/>\r\n\n               </p>\r\n<hr/>\r\n<table class=\"grid\">\r\n <tr><td><b>Level</b></td><td><b>Code</b></td><td><b>Display</b></td><td><b>Definition</b></td></tr>\r\n <tr><td>1</td><td>E<a name=\"E\"> </a></td><td>Excellent</td><td/></tr>\r\n <tr><td>1</td><td>F<a name=\"F\"> </a></td><td>Fair</td><td/></tr>\r\n <tr><td>1</td><td>G<a name=\"G\"> </a></td><td>Good</td><td/></tr>\r\n <tr><td>1</td><td>P<a name=\"P\"> </a></td><td>Poor</td><td/></tr>\r\n</table>\r\n</div>"
  },
  "extension": [
    {
      "url": "http://hl7.org/fhir/StructureDefinition/valueset-oid",
      "valueUri": "urn:oid:2.16.840.1.113883.1.11.12199"
    }
  ],
  "url": "http://hl7.org/fhir/ValueSet/v3-LanguageAbilityProficiency",
  "version": "2015-03-23",
  "name": "v3 Code System LanguageAbilityProficiency",
  "publisher": "HL7, Inc",
  "contact": [
    {
      "telecom": [
        {
          "system": "url",
          "value": "http://hl7.org"
        }
      ]
    }
  ],
  "description": " A value representing the level of proficiency in a language.  Example:\r\nExcellent, good, fair, poor.  OpenIssue:\r\nDescription copied from Concept Domain of same name.  Must be verified.",
  "status": "active",
  "experimental": false,
  "date": "2015-03-23",
  "define": {
    "extension": [
      {
        "url": "http://hl7.org/fhir/StructureDefinition/valueset-oid",
        "valueUri": "urn:oid:2.16.840.1.113883.5.61"
      }
    ],
    "system": "http://hl7.org/fhir/v3/LanguageAbilityProficiency",
    "caseSensitive": true,
    "concept": [
      {
        "code": "E",
        "abstract": false,
        "display": "Excellent",
        "definition": "Excellent"
      },
      {
        "code": "F",
        "abstract": false,
        "display": "Fair",
        "definition": "Fair"
      },
      {
        "code": "G",
        "abstract": false,
        "display": "Good",
        "definition": "Good"
      },
      {
        "code": "P",
        "abstract": false,
        "display": "Poor",
        "definition": "Poor"
      }
    ]
  }
}