{
  "resourceType": "ValueSet",
  "id": "v2-0200",
  "meta": {
    "profile": [
      "http://hl7.org/fhir/StructureDefinition/valueset-shareable-definition"
    ]
  },
  "text": {
    "status": "additional",
    "div": "<div><p>Name Type</p>\r\n<table class=\"grid\"><tr><td><b>Code</b></td><td><b>Description</b></td><td><b>Version</b></td></tr><tr><td>A<a name=\"A\"> </a></td><td>Assigned</td><td>added v2.3</td></tr><tr><td>B<a name=\"B\"> </a></td><td>Birth name</td><td>added v2.3.1</td></tr><tr><td>BAD<a name=\"BAD\"> </a></td><td>Bad Name</td><td>added v2.7</td></tr><tr><td>C<a name=\"C\"> </a></td><td>Adopted Name</td><td>added v2.3</td></tr><tr><td>D<a name=\"D\"> </a></td><td>Customary Name</td><td>added v2.3</td></tr><tr><td>I<a name=\"I\"> </a></td><td>Licensing Name</td><td>added v2.4</td></tr><tr><td>K<a name=\"K\"> </a></td><td>Business name</td><td>added v2.6</td></tr><tr><td>L<a name=\"L\"> </a></td><td>Official Registry Name</td><td>added v2.3</td></tr><tr><td>M<a name=\"M\"> </a></td><td>Maiden Name</td><td>added v2.3</td></tr><tr><td>MSK<a name=\"MSK\"> </a></td><td>Masked</td><td>added v2.7</td></tr><tr><td>N<a name=\"N\"> </a></td><td>Nickname</td><td>added v2.4</td></tr><tr><td>NAV<a name=\"NAV\"> </a></td><td>Temporarily Unavailable</td><td>added v2.7</td></tr><tr><td>NB<a name=\"NB\"> </a></td><td>Newborn Name</td><td>added v2.7</td></tr><tr><td>NOUSE<a name=\"NOUSE\"> </a></td><td>No Longer To Be Used</td><td>added v2.7</td></tr><tr><td>O<a name=\"O\"> </a></td><td>Other</td><td>added v2.3, removed after v2.3</td></tr><tr><td>P<a name=\"P\"> </a></td><td>Name of Partner/Spouse</td><td>added v2.3.1</td></tr><tr><td>R<a name=\"R\"> </a></td><td>Registered Name</td><td>added v2.4</td></tr><tr><td>REL<a name=\"REL\"> </a></td><td>Religious</td><td>added v2.7</td></tr><tr><td>S<a name=\"S\"> </a></td><td>Pseudonym</td><td>added v2.3.1</td></tr><tr><td>T<a name=\"T\"> </a></td><td>Indigenous/Tribal</td><td>added v2.3.1</td></tr><tr><td>TEMP<a name=\"TEMP\"> </a></td><td>Temporary Name</td><td>added v2.7</td></tr><tr><td>U<a name=\"U\"> </a></td><td>Unknown</td><td>added v2.3.1</td></tr></table>\r\n</div>"
  },
  "url": "http://hl7.org/fhir/ValueSet/v2-0200",
  "version": "2.7",
  "name": "v2 Name Type",
  "publisher": "HL7, Inc",
  "contact": [
    {
      "telecom": [
        {
          "system": "url",
          "value": "http://hl7.org"
        }
      ]
    }
  ],
  "description": "FHIR Value set/code system definition for HL7 v2 table 0200 ( Name Type)",
  "status": "active",
  "experimental": true,
  "date": "2011-01-28",
  "define": {
    "system": "http://hl7.org/fhir/v2/0200",
    "caseSensitive": true,
    "concept": [
      {
        "code": "A",
        "display": "Assigned"
      },
      {
        "code": "B",
        "display": "Birth name"
      },
      {
        "code": "BAD",
        "display": "Bad Name"
      },
      {
        "code": "C",
        "display": "Adopted Name"
      },
      {
        "code": "D",
        "display": "Customary Name"
      },
      {
        "code": "I",
        "display": "Licensing Name"
      },
      {
        "code": "K",
        "display": "Business name"
      },
      {
        "code": "L",
        "display": "Official Registry Name"
      },
      {
        "code": "M",
        "display": "Maiden Name"
      },
      {
        "code": "MSK",
        "display": "Masked"
      },
      {
        "code": "N",
        "display": "Nickname"
      },
      {
        "code": "NAV",
        "display": "Temporarily Unavailable"
      },
      {
        "code": "NB",
        "display": "Newborn Name"
      },
      {
        "code": "NOUSE",
        "display": "No Longer To Be Used"
      },
      {
        "extension": [
          {
            "url": "http://hl7.org/fhir/StructureDefinition/valueset-deprecated",
            "valueBoolean": true
          }
        ],
        "code": "O",
        "display": "Other"
      },
      {
        "code": "P",
        "display": "Name of Partner/Spouse"
      },
      {
        "code": "R",
        "display": "Registered Name"
      },
      {
        "code": "REL",
        "display": "Religious"
      },
      {
        "code": "S",
        "display": "Pseudonym"
      },
      {
        "code": "T",
        "display": "Indigenous/Tribal"
      },
      {
        "code": "TEMP",
        "display": "Temporary Name"
      },
      {
        "code": "U",
        "display": "Unknown"
      }
    ]
  }
}