{
  "resourceType": "ValueSet",
  "id": "v2-0882",
  "meta": {
    "profile": [
      "http://hl7.org/fhir/StructureDefinition/valueset-shareable-definition"
    ]
  },
  "text": {
    "status": "additional",
    "div": "<div><p>Medical Role Executing Physician</p>\r\n<table class=\"grid\"><tr><td><b>Code</b></td><td><b>Description</b></td><td><b>Version</b></td></tr><tr><td>E<a name=\"E\"> </a></td><td>Employed</td><td>added v2.6</td></tr><tr><td>SE<a name=\"SE\"> </a></td><td>Self-employed</td><td>added v2.6</td></tr></table>\r\n</div>"
  },
  "url": "http://hl7.org/fhir/ValueSet/v2-0882",
  "version": "2.7",
  "name": "v2 Medical Role Executing Physician",
  "publisher": "HL7, Inc",
  "contact": [
    {
      "telecom": [
        {
          "system": "url",
          "value": "http://hl7.org"
        }
      ]
    }
  ],
  "description": "FHIR Value set/code system definition for HL7 v2 table 0882 ( Medical Role Executing Physician)",
  "status": "active",
  "experimental": true,
  "date": "2011-01-28",
  "define": {
    "system": "http://hl7.org/fhir/v2/0882",
    "caseSensitive": true,
    "concept": [
      {
        "code": "E",
        "display": "Employed"
      },
      {
        "code": "SE",
        "display": "Self-employed"
      }
    ]
  }
}